Time,Comm,Pid,Orig,Dest,Trigger
1222.118980248,perf,7979,30,45,ELB
1222.120051704,time,7980,45,16,FLB
1222.120222741,time,7980,16,63,ELB
1222.121863771,word_count,7980,63,24,ELB
1222.121863771,word_count,7980,63,24,ELB
1222.123654518,word_count,7980,24,0,CA
1222.123654518,word_count,7980,24,0,CA
1222.124345790,word_count,7981,0,38,FLB
1222.124345790,word_count,7981,0,38,FLB
1222.124361108,word_count,7981,38,1,CA
1222.124361108,word_count,7981,38,1,CA
1222.124424671,word_count,7982,0,56,FLB
1222.124424671,word_count,7982,0,56,FLB
1222.124437601,word_count,7982,56,2,CA
1222.124437601,word_count,7982,56,2,CA
1222.124499930,word_count,7983,0,39,FLB
1222.124499930,word_count,7983,0,39,FLB
1222.124507179,word_count,7983,39,3,CA
1222.124507179,word_count,7983,39,3,CA
1222.124561222,word_count,7984,0,57,FLB
1222.124561222,word_count,7984,0,57,FLB
1222.124568801,word_count,7984,57,4,CA
1222.124568801,word_count,7984,57,4,CA
1222.124623636,word_count,7985,0,32,FLB
1222.124623636,word_count,7985,0,32,FLB
1222.124635220,word_count,7985,32,5,CA
1222.124635220,word_count,7985,32,5,CA
1222.124686500,word_count,7986,0,58,FLB
1222.124686500,word_count,7986,0,58,FLB
1222.124699192,word_count,7986,58,6,CA
1222.124699192,word_count,7986,58,6,CA
1222.124750288,word_count,7987,0,33,FLB
1222.124750288,word_count,7987,0,33,FLB
1222.124757293,word_count,7987,33,7,CA
1222.124757293,word_count,7987,33,7,CA
1222.124814153,word_count,7988,0,59,FLB
1222.124814153,word_count,7988,0,59,FLB
1222.124821845,word_count,7988,59,8,CA
1222.124821845,word_count,7988,59,8,CA
1222.124874043,word_count,7989,0,46,FLB
1222.124874043,word_count,7989,0,46,FLB
1222.124886945,word_count,7989,46,9,CA
1222.124886945,word_count,7989,46,9,CA
1222.124932522,word_count,7990,0,47,FLB
1222.124932522,word_count,7990,0,47,FLB
1222.124940001,word_count,7990,47,10,CA
1222.124940001,word_count,7990,47,10,CA
1222.124997654,word_count,7991,0,40,FLB
1222.124997654,word_count,7991,0,40,FLB
1222.125009668,word_count,7991,40,11,CA
1222.125009668,word_count,7991,40,11,CA
1222.125055931,word_count,7992,0,41,FLB
1222.125055931,word_count,7992,0,41,FLB
1222.125063294,word_count,7992,41,12,CA
1222.125063294,word_count,7992,41,12,CA
1222.125115645,word_count,7993,0,42,FLB
1222.125115645,word_count,7993,0,42,FLB
1222.125128368,word_count,7993,42,13,CA
1222.125128368,word_count,7993,42,13,CA
1222.125174801,word_count,7994,0,43,FLB
1222.125174801,word_count,7994,0,43,FLB
1222.125182646,word_count,7994,43,14,CA
1222.125182646,word_count,7994,43,14,CA
1222.125235377,word_count,7995,0,44,FLB
1222.125235377,word_count,7995,0,44,FLB
1222.125248324,word_count,7995,44,15,CA
1222.125248324,word_count,7995,44,15,CA
1222.125295841,word_count,7996,0,45,FLB
1222.125295841,word_count,7996,0,45,FLB
1222.125304235,word_count,7996,45,16,CA
1222.125304235,word_count,7996,45,16,CA
1222.125356689,word_count,7997,0,34,FLB
1222.125356689,word_count,7997,0,34,FLB
1222.125369230,word_count,7997,34,17,CA
1222.125369230,word_count,7997,34,17,CA
1222.125413314,word_count,7998,0,35,FLB
1222.125413314,word_count,7998,0,35,FLB
1222.125420517,word_count,7998,35,18,CA
1222.125420517,word_count,7998,35,18,CA
1222.125469658,word_count,7999,0,36,FLB
1222.125469658,word_count,7999,0,36,FLB
1222.125482108,word_count,7999,36,19,CA
1222.125482108,word_count,7999,36,19,CA
1222.125531695,word_count,8000,0,37,FLB
1222.125531695,word_count,8000,0,37,FLB
1222.125538975,word_count,8000,37,20,CA
1222.125538975,word_count,8000,37,20,CA
1222.125590329,word_count,8001,0,38,FLB
1222.125590329,word_count,8001,0,38,FLB
1222.125598217,word_count,8001,38,21,CA
1222.125598217,word_count,8001,38,21,CA
1222.125644666,word_count,8002,0,39,FLB
1222.125644666,word_count,8002,0,39,FLB
1222.125651384,word_count,8002,39,22,CA
1222.125651384,word_count,8002,39,22,CA
1222.125702272,word_count,8003,0,32,FLB
1222.125702272,word_count,8003,0,32,FLB
1222.125710168,word_count,8003,32,23,CA
1222.125710168,word_count,8003,32,23,CA
1222.125757405,word_count,8004,0,33,FLB
1222.125757405,word_count,8004,0,33,FLB
1222.125764352,word_count,8004,33,24,CA
1222.125764352,word_count,8004,33,24,CA
1222.125810918,word_count,8005,0,34,FLB
1222.125810918,word_count,8005,0,34,FLB
1222.125817844,word_count,8005,34,25,CA
1222.125817844,word_count,8005,34,25,CA
1222.125865292,word_count,8006,0,35,FLB
1222.125865292,word_count,8006,0,35,FLB
1222.125872105,word_count,8006,35,26,CA
1222.125872105,word_count,8006,35,26,CA
1222.125922154,word_count,8007,0,36,FLB
1222.125922154,word_count,8007,0,36,FLB
1222.125929113,word_count,8007,36,27,CA
1222.125929113,word_count,8007,36,27,CA
1222.125976668,word_count,8008,0,37,FLB
1222.125976668,word_count,8008,0,37,FLB
1222.125983097,word_count,8008,37,28,CA
1222.125983097,word_count,8008,37,28,CA
1222.126033623,word_count,8009,0,38,FLB
1222.126033623,word_count,8009,0,38,FLB
1222.126040441,word_count,8009,38,29,CA
1222.126040441,word_count,8009,38,29,CA
1222.126088857,word_count,8010,0,39,FLB
1222.126088857,word_count,8010,0,39,FLB
1222.126096060,word_count,8010,39,30,CA
1222.126096060,word_count,8010,39,30,CA
1222.126147388,word_count,8011,0,32,FLB
1222.126147388,word_count,8011,0,32,FLB
1222.126153971,word_count,8011,32,31,CA
1222.126153971,word_count,8011,32,31,CA
1222.126202256,word_count,8012,0,33,FLB
1222.126202256,word_count,8012,0,33,FLB
1222.126213544,word_count,8012,33,32,CA
1222.126213544,word_count,8012,33,32,CA
1222.126287255,word_count,8013,0,60,FLB
1222.126287255,word_count,8013,0,60,FLB
1222.126300618,word_count,8013,60,33,CA
1222.126300618,word_count,8013,60,33,CA
1222.126353852,word_count,8014,0,61,FLB
1222.126353852,word_count,8014,0,61,FLB
1222.126362184,word_count,8014,61,34,CA
1222.126362184,word_count,8014,61,34,CA
1222.126421819,word_count,8015,0,62,FLB
1222.126421819,word_count,8015,0,62,FLB
1222.126429647,word_count,8015,62,35,CA
1222.126429647,word_count,8015,62,35,CA
1222.126482789,word_count,8016,0,63,FLB
1222.126482789,word_count,8016,0,63,FLB
1222.126490726,word_count,8016,63,36,CA
1222.126490726,word_count,8016,63,36,CA
1222.126546964,word_count,8017,0,56,FLB
1222.126546964,word_count,8017,0,56,FLB
1222.126555504,word_count,8017,56,37,CA
1222.126555504,word_count,8017,56,37,CA
1222.126608030,word_count,8018,0,57,FLB
1222.126608030,word_count,8018,0,57,FLB
1222.126615223,word_count,8018,57,38,CA
1222.126615223,word_count,8018,57,38,CA
1222.126668295,word_count,8019,0,58,FLB
1222.126668295,word_count,8019,0,58,FLB
1222.126676347,word_count,8019,58,39,CA
1222.126676347,word_count,8019,58,39,CA
1222.126723766,word_count,8020,0,59,FLB
1222.126723766,word_count,8020,0,59,FLB
1222.126731055,word_count,8020,59,40,CA
1222.126731055,word_count,8020,59,40,CA
1222.126777280,word_count,8021,0,32,FLB
1222.126777280,word_count,8021,0,32,FLB
1222.126784999,word_count,8021,32,41,CA
1222.126784999,word_count,8021,32,41,CA
1222.126839112,word_count,8022,0,60,FLB
1222.126839112,word_count,8022,0,60,FLB
1222.126847050,word_count,8022,60,42,CA
1222.126847050,word_count,8022,60,42,CA
1222.126895595,word_count,8023,0,33,FLB
1222.126895595,word_count,8023,0,33,FLB
1222.126902988,word_count,8023,33,43,CA
1222.126902988,word_count,8023,33,43,CA
1222.126952820,word_count,8024,0,61,FLB
1222.126952820,word_count,8024,0,61,FLB
1222.126959729,word_count,8024,61,44,CA
1222.126959729,word_count,8024,61,44,CA
1222.127002722,word_count,8025,0,34,FLB
1222.127002722,word_count,8025,0,34,FLB
1222.127010407,word_count,8025,34,45,CA
1222.127010407,word_count,8025,34,45,CA
1222.127059080,word_count,8026,0,62,FLB
1222.127059080,word_count,8026,0,62,FLB
1222.127066939,word_count,8026,62,46,CA
1222.127066939,word_count,8026,62,46,CA
1222.127109039,word_count,8027,0,35,FLB
1222.127109039,word_count,8027,0,35,FLB
1222.127116585,word_count,8027,35,47,CA
1222.127116585,word_count,8027,35,47,CA
1222.127168132,word_count,8028,0,63,FLB
1222.127168132,word_count,8028,0,63,FLB
1222.127175843,word_count,8028,63,48,CA
1222.127175843,word_count,8028,63,48,CA
1222.127226271,word_count,8029,0,36,FLB
1222.127226271,word_count,8029,0,36,FLB
1222.127233933,word_count,8029,36,49,CA
1222.127233933,word_count,8029,36,49,CA
1222.127283693,word_count,8030,0,50,FLB
1222.127283693,word_count,8030,0,50,FLB
1222.127344002,word_count,8031,0,51,FLB
1222.127344002,word_count,8031,0,51,FLB
1222.127399000,word_count,8032,0,52,FLB
1222.127399000,word_count,8032,0,52,FLB
1222.127459192,word_count,8033,0,53,FLB
1222.127459192,word_count,8033,0,53,FLB
1222.127516125,word_count,8034,0,54,FLB
1222.127516125,word_count,8034,0,54,FLB
1222.127575280,word_count,8035,0,55,FLB
1222.127575280,word_count,8035,0,55,FLB
1222.127631791,word_count,8036,0,48,FLB
1222.127631791,word_count,8036,0,48,FLB
1222.127638862,word_count,8036,48,56,CA
1222.127638862,word_count,8036,48,56,CA
1222.127680462,word_count,8037,0,37,FLB
1222.127680462,word_count,8037,0,37,FLB
1222.127686546,word_count,8037,37,57,CA
1222.127686546,word_count,8037,37,57,CA
1222.127731100,word_count,8038,0,38,FLB
1222.127731100,word_count,8038,0,38,FLB
1222.127738780,word_count,8038,38,58,CA
1222.127738780,word_count,8038,38,58,CA
1222.127781362,word_count,8039,0,39,FLB
1222.127781362,word_count,8039,0,39,FLB
1222.127788495,word_count,8039,39,59,CA
1222.127788495,word_count,8039,39,59,CA
1222.127833744,word_count,8040,0,32,FLB
1222.127833744,word_count,8040,0,32,FLB
1222.127841585,word_count,8040,32,60,CA
1222.127841585,word_count,8040,32,60,CA
1222.127885626,word_count,8041,0,33,FLB
1222.127885626,word_count,8041,0,33,FLB
1222.127892942,word_count,8041,33,61,CA
1222.127892942,word_count,8041,33,61,CA
1222.127935981,word_count,8042,0,34,FLB
1222.127935981,word_count,8042,0,34,FLB
1222.127943844,word_count,8042,34,62,CA
1222.127943844,word_count,8042,34,62,CA
1222.127992240,word_count,8043,0,35,FLB
1222.127992240,word_count,8043,0,35,FLB
1222.127999510,word_count,8043,35,63,CA
1222.127999510,word_count,8043,35,63,CA
1222.128045957,word_count,8044,0,36,FLB
1222.128045957,word_count,8044,0,36,FLB
1222.128054207,word_count,8044,36,0,CA
1222.128054207,word_count,8044,36,0,CA
1222.134261761,word_count,8044,0,5,ILB
1222.134261761,word_count,8044,0,5,ILB
1222.306276320,word_count,7987,7,0,WAFF
1222.306276320,word_count,7987,7,0,WAFF
1222.306370954,word_count,7993,13,15,ILB
1222.306370954,word_count,7993,13,15,ILB
1222.307446006,word_count,7993,15,10,ILB
1222.307446006,word_count,7993,15,10,ILB
1222.307704862,word_count,7987,0,31,WAFF
1222.307704862,word_count,7987,0,31,WAFF
1222.314255588,rcu_sched,8,5,7,WAFF
1222.318958453,word_count,7993,10,9,ILB
1222.318958453,word_count,7993,10,9,ILB
1222.318971237,word_count,8011,31,59,ILB
1222.318971237,word_count,8011,31,59,ILB
1222.329125374,word_count,8011,59,58,ILB
1222.329125374,word_count,8011,59,58,ILB
1222.381063949,word_count,7989,9,10,WAFF
1222.381063949,word_count,7989,9,10,WAFF
1222.404419746,word_count,7990,10,11,WAFF
1222.404419746,word_count,7990,10,11,WAFF
1222.414601719,word_count,7991,11,12,WAFF
1222.414601719,word_count,7991,11,12,WAFF
1222.414637605,word_count,7992,12,13,WAFF
1222.414637605,word_count,7992,12,13,WAFF
1222.419642992,word_count,8038,58,59,WAFF
1222.419642992,word_count,8038,58,59,WAFF
1222.441514412,word_count,8038,59,63,ILB
1222.441514412,word_count,8038,59,63,ILB
1222.442529362,word_count,8038,63,57,WLB
1222.442529362,word_count,8038,63,57,WLB
1222.442547997,word_count,8037,57,62,WAFF
1222.442547997,word_count,8037,57,62,WAFF
1222.452327460,word_count,8042,62,56,WAFF
1222.452327460,word_count,8042,62,56,WAFF
1222.452349502,word_count,8036,56,57,WAFF
1222.452349502,word_count,8036,56,57,WAFF
1222.468092871,word_count,8011,58,60,WAFF
1222.468092871,word_count,8011,58,60,WAFF
1222.468109887,rs:main Q:Reg,2472,60,59,WAFF
1222.468166358,word_count,8039,59,60,WAFF
1222.468166358,word_count,8039,59,60,WAFF
1222.468353746,word_count,8029,49,50,WAFF
1222.468353746,word_count,8029,49,50,WAFF
1222.468383369,word_count,8012,32,33,WAFF
1222.468383369,word_count,8012,32,33,WAFF
1222.468394979,word_count,8013,33,34,WAFF
1222.468394979,word_count,8013,33,34,WAFF
1222.471135878,word_count,8040,60,23,WAFF
1222.471135878,word_count,8040,60,23,WAFF
1222.471143024,word_count,8039,60,6,ILB
1222.471143024,word_count,8039,60,6,ILB
1222.471174666,word_count,8040,23,29,ILB
1222.471174666,word_count,8040,23,29,ILB
1222.472187945,word_count,8009,29,25,ILB
1222.472187945,word_count,8009,29,25,ILB
1222.473020158,word_count,8005,25,31,ILB
1222.473020158,word_count,8005,25,31,ILB
1222.473998108,word_count,8029,50,51,WAFF
1222.473998108,word_count,8029,50,51,WAFF
1222.474006178,word_count,8013,34,35,WAFF
1222.474006178,word_count,8013,34,35,WAFF
1222.474036229,word_count,8031,51,52,WAFF
1222.474036229,word_count,8031,51,52,WAFF
1222.474042238,word_count,7986,6,7,WAFF
1222.474042238,word_count,7986,6,7,WAFF
1222.474049152,word_count,8032,52,53,WAFF
1222.474049152,word_count,8032,52,53,WAFF
1222.475114421,word_count,8038,57,41,ILB
1222.475114421,word_count,8038,57,41,ILB
1222.484249467,word_count,8013,35,44,ILB
1222.484249467,word_count,8013,35,44,ILB
1222.488216013,word_count,8024,44,45,WAFF
1222.488216013,word_count,8024,44,45,WAFF
1222.491907397,word_count,8021,41,43,WAFF
1222.491907397,word_count,8021,41,43,WAFF
1222.491916562,word_count,8033,53,54,WAFF
1222.491916562,word_count,8033,53,54,WAFF
1222.496028933,word_count,8034,54,51,ILB
1222.496028933,word_count,8034,54,51,ILB
1222.527535931,word_count,8024,45,46,WAFF
1222.527535931,word_count,8024,45,46,WAFF
1222.546719804,word_count,8024,46,47,WAFF
1222.546719804,word_count,8024,46,47,WAFF
1222.549927102,word_count,8034,51,52,WAFF
1222.549927102,word_count,8034,51,52,WAFF
1222.553673309,word_count,8021,43,45,WAFF
1222.553673309,word_count,8021,43,45,WAFF
1222.553678619,word_count,8024,47,42,WAFF
1222.553678619,word_count,8024,47,42,WAFF
1222.559767070,word_count,8034,52,0,ILB
1222.559767070,word_count,8034,52,0,ILB
1222.564145580,word_count,8022,42,44,WAFF
1222.564145580,word_count,8022,42,44,WAFF
1222.565839237,word_count,8025,45,40,WAFF
1222.565839237,word_count,8025,45,40,WAFF
1222.578179100,word_count,8020,40,42,WAFF
1222.578179100,word_count,8020,40,42,WAFF
1222.578189402,word_count,8024,42,43,WAFF
1222.578189402,word_count,8024,42,43,WAFF
1222.579151177,word_count,7980,0,35,ILB
1222.579151177,word_count,7980,0,35,ILB
1222.580106284,word_count,8015,35,30,ILB
1222.580106284,word_count,8015,35,30,ILB
1222.581218339,word_count,7987,31,24,WAFF
1222.581218339,word_count,7987,31,24,WAFF
1222.591653949,word_count,8010,30,31,WAFF
1222.591653949,word_count,8010,30,31,WAFF
1222.591670022,word_count,8005,31,24,WAFF
1222.591670022,word_count,8005,31,24,WAFF
1222.592655438,word_count,7987,24,33,WAFF
1222.592655438,word_count,7987,24,33,WAFF
1222.592696104,word_count,7987,33,1,ILB
1222.592696104,word_count,7987,33,1,ILB
1222.593745594,word_count,7981,1,2,WAFF
1222.593745594,word_count,7981,1,2,WAFF
1222.608396670,word_count,8022,44,0,ILB
1222.608396670,word_count,8022,44,0,ILB
1222.610312794,word_count,7981,2,6,ILB
1222.610312794,word_count,7981,2,6,ILB
1222.616909806,word_count,8024,43,44,WAFF
1222.616909806,word_count,8024,43,44,WAFF
1222.620278327,word_count,7981,6,7,WAFF
1222.620278327,word_count,7981,6,7,WAFF
1222.620298658,word_count,7986,7,1,WAFF
1222.620298658,word_count,7986,7,1,WAFF
1222.620302209,word_count,7987,1,2,WAFF
1222.620302209,word_count,7987,1,2,WAFF
1222.620315146,word_count,7982,2,4,WAFF
1222.620315146,word_count,7982,2,4,WAFF
1222.621108646,word_count,7982,4,51,ILB
1222.621108646,word_count,7982,4,51,ILB
1222.621130779,word_count,8005,24,62,ILB
1222.621130779,word_count,8005,24,62,ILB
1222.623140979,word_count,8029,51,55,ILB
1222.623140979,word_count,8029,51,55,ILB
1222.623167159,word_count,8013,44,47,ILB
1222.623167159,word_count,8013,44,47,ILB
1222.625281959,word_count,8029,55,60,ILB
1222.625281959,word_count,8029,55,60,ILB
1222.637214496,word_count,8013,47,34,ILB
1222.637214496,word_count,8013,47,34,ILB
1222.638122081,word_count,8005,62,63,ILB
1222.638122081,word_count,8005,62,63,ILB
1222.643352784,word_count,8043,63,57,ILB
1222.643352784,word_count,8043,63,57,ILB
1222.644401098,word_count,8014,34,23,ILB
1222.644401098,word_count,8014,34,23,ILB
1222.648307645,word_count,8029,60,46,ILB
1222.648307645,word_count,8029,60,46,ILB
1222.651168684,word_count,8022,0,51,ILB
1222.651168684,word_count,8022,0,51,ILB
1222.659379123,word_count,8026,46,50,ILB
1222.659379123,word_count,8026,46,50,ILB
1222.662879346,word_count,8030,50,53,ILB
1222.662879346,word_count,8030,50,53,ILB
1222.667899296,word_count,8022,51,52,WAFF
1222.667899296,word_count,8022,51,52,WAFF
1222.667939193,word_count,8032,53,54,WAFF
1222.667939193,word_count,8032,53,54,WAFF
1222.668957811,word_count,8036,57,1,ILB
1222.668957811,word_count,8036,57,1,ILB
1222.669724917,word_count,7986,1,10,ILB
1222.669724917,word_count,7986,1,10,ILB
1222.669726003,word_count,8031,52,14,ILB
1222.669726003,word_count,8031,52,14,ILB
1222.675541955,word_count,8031,14,15,WAFF
1222.675541955,word_count,8031,14,15,WAFF
1222.677358821,word_count,7989,10,9,ILB
1222.677358821,word_count,7989,10,9,ILB
1222.686002151,word_count,7989,9,11,WAFF
1222.686002151,word_count,7989,9,11,WAFF
1222.695369445,word_count,7995,15,2,ILB
1222.695369445,word_count,7995,15,2,ILB
1222.701159334,word_count,7990,11,12,WAFF
1222.701159334,word_count,7990,11,12,WAFF
1222.701168127,word_count,7987,2,3,WAFF
1222.701168127,word_count,7987,2,3,WAFF
1222.711149355,word_count,7987,3,4,WAFF
1222.711149355,word_count,7987,3,4,WAFF
1222.715206423,word_count,8014,23,38,ILB
1222.715206423,word_count,8014,23,38,ILB
1222.717385544,word_count,8018,38,39,WAFF
1222.717385544,word_count,8018,38,39,WAFF
1222.717393346,word_count,7991,12,13,WAFF
1222.717393346,word_count,7991,12,13,WAFF
1222.718426829,word_count,8019,39,32,WAFF
1222.718426829,word_count,8019,39,32,WAFF
1222.727674118,word_count,8032,54,35,ILB
1222.727674118,word_count,8032,54,35,ILB
1222.732031821,word_count,7992,13,10,ILB
1222.732031821,word_count,7992,13,10,ILB
1222.744609959,word_count,7992,10,11,WAFF
1222.744609959,word_count,7992,10,11,WAFF
1222.752500614,word_count,7980,35,32,ILB
1222.752500614,word_count,7980,35,32,ILB
1222.764181519,word_count,8019,32,33,ILB
1222.764181519,word_count,8019,32,33,ILB
1222.777181761,word_count,7989,11,14,WAFF
1222.777181761,word_count,7989,11,14,WAFF
1222.777379853,word_count,7987,4,5,ILB
1222.777379853,word_count,7987,4,5,ILB
1222.778881231,word_count,7994,14,9,WAFF
1222.778881231,word_count,7994,14,9,WAFF
1222.778889094,word_count,7987,5,6,WAFF
1222.778889094,word_count,7987,5,6,WAFF
1222.778892273,word_count,8012,33,35,WAFF
1222.778892273,word_count,8012,33,35,WAFF
1222.778899078,word_count,7993,9,10,WAFF
1222.778899078,word_count,7993,9,10,WAFF
1222.778904700,word_count,8032,35,37,WAFF
1222.778904700,word_count,8032,35,37,WAFF
1222.780875978,word_count,8039,6,0,ILB
1222.780875978,word_count,8039,6,0,ILB
1222.791621269,word_count,8034,0,5,ILB
1222.791621269,word_count,8034,0,5,ILB
1222.795754341,word_count,8032,37,38,WAFF
1222.795754341,word_count,8032,37,38,WAFF
1222.803998981,word_count,8034,5,6,ILB
1222.803998981,word_count,8034,5,6,ILB
1222.806093426,word_count,7986,10,11,WAFF
1222.806093426,word_count,7986,10,11,WAFF
1222.808052249,word_count,7986,11,12,WAFF
1222.808052249,word_count,7986,11,12,WAFF
1222.820363245,word_count,8034,6,7,WAFF
1222.820363245,word_count,8034,6,7,WAFF
1222.823886731,word_count,7990,12,13,WAFF
1222.823886731,word_count,7990,12,13,WAFF
1222.826614198,word_count,7991,13,15,WAFF
1222.826614198,word_count,7991,13,15,WAFF
1222.829861823,word_count,7981,7,0,ILB
1222.829861823,word_count,7981,7,0,ILB
1222.830081950,word_count,8031,15,5,ILB
1222.830081950,word_count,8031,15,5,ILB
1222.832561985,word_count,8031,5,32,ILB
1222.832561985,word_count,8031,5,32,ILB
1222.832590949,word_count,8014,38,39,ILB
1222.832590949,word_count,8014,38,39,ILB
1222.837292516,word_count,8018,39,33,ILB
1222.837292516,word_count,8018,39,33,ILB
1222.842218359,word_count,7981,0,16,ILB
1222.842218359,word_count,7981,0,16,ILB
1222.845977948,word_count,8031,32,33,WAFF
1222.845977948,word_count,8031,32,33,WAFF
1222.845992447,word_count,8019,33,28,WAFF
1222.845992447,word_count,8019,33,28,WAFF
1222.853880433,word_count,8018,33,36,ILB
1222.853880433,word_count,8018,33,36,ILB
1222.854677151,word_count,7996,16,21,ILB
1222.854677151,word_count,7996,16,21,ILB
1222.857685110,word_count,8019,28,32,ILB
1222.857685110,word_count,8019,28,32,ILB
1222.865883587,word_count,7996,21,53,ILB
1222.865883587,word_count,7996,21,53,ILB
1222.866965102,word_count,8019,32,39,ILB
1222.866965102,word_count,8019,32,39,ILB
1222.875171606,word_count,8016,36,45,ILB
1222.875171606,word_count,8016,36,45,ILB
1222.878423013,word_count,8019,39,56,ILB
1222.878423013,word_count,8019,39,56,ILB
1222.884848493,word_count,8021,45,46,WAFF
1222.884848493,word_count,8021,45,46,WAFF
1222.885369901,word_count,8019,56,26,ILB
1222.885369901,word_count,8019,56,26,ILB
1222.886004340,word_count,8019,26,27,WAFF
1222.886004340,word_count,8019,26,27,WAFF
1222.887515091,word_count,8007,27,28,ILB
1222.887515091,word_count,8007,27,28,ILB
1222.890660474,word_count,8008,28,63,ILB
1222.890660474,word_count,8008,28,63,ILB
1222.892089808,word_count,8021,46,47,WAFF
1222.892089808,word_count,8021,46,47,WAFF
1222.895331346,word_count,8008,63,56,WAFF
1222.895331346,word_count,8008,63,56,WAFF
1222.898402976,word_count,8027,47,7,ILB
1222.898402976,word_count,8027,47,7,ILB
1222.905569555,word_count,8034,7,0,WAFF
1222.905569555,word_count,8034,7,0,WAFF
1222.905597980,word_count,8039,0,1,WAFF
1222.905597980,word_count,8039,0,1,WAFF
1222.905606381,word_count,8036,1,2,WAFF
1222.905606381,word_count,8036,1,2,WAFF
1222.912997057,word_count,8042,56,30,ILB
1222.912997057,word_count,8042,56,30,ILB
1222.925827937,word_count,8015,30,31,WAFF
1222.925827937,word_count,8015,30,31,WAFF
1222.925842782,word_count,8010,31,26,WAFF
1222.925842782,word_count,8010,31,26,WAFF
1222.929455659,word_count,8006,26,32,ILB
1222.929455659,word_count,8006,26,32,ILB
1222.944204738,word_count,7995,2,3,WAFF
1222.944204738,word_count,7995,2,3,WAFF
1222.953990394,word_count,8006,32,37,ILB
1222.953990394,word_count,8006,32,37,ILB
1222.958285719,word_count,8017,37,4,ILB
1222.958285719,word_count,8017,37,4,ILB
1222.965972975,word_count,7996,53,54,WAFF
1222.965972975,word_count,7996,53,54,WAFF
1222.986470296,word_count,8017,4,13,ILB
1222.986470296,word_count,8017,4,13,ILB
1222.987611808,word_count,7995,3,6,ILB
1222.987611808,word_count,7995,3,6,ILB
1222.988626378,word_count,7996,54,50,ILB
1222.988626378,word_count,7996,54,50,ILB
1222.991109587,word_count,7995,6,20,ILB
1222.991109587,word_count,7995,6,20,ILB
1222.992198794,word_count,8000,20,21,WAFF
1222.992198794,word_count,8000,20,21,WAFF
1222.993562374,word_count,8000,21,20,ILB
1222.993562374,word_count,8000,21,20,ILB
1222.999332240,word_count,7990,13,14,WAFF
1222.999332240,word_count,7990,13,14,WAFF
1222.999339645,word_count,8000,20,21,WAFF
1222.999339645,word_count,8000,20,21,WAFF
1222.999432201,word_count,8026,50,51,WAFF
1222.999432201,word_count,8026,50,51,WAFF
1223.15851899,word_count,8001,21,54,ILB
1223.15851899,word_count,8001,21,54,ILB
1223.23107696,word_count,8026,51,63,ILB
1223.23107696,word_count,8026,51,63,ILB
1223.23280215,word_count,8001,54,33,ILB
1223.23280215,word_count,8001,54,33,ILB
1223.24990272,word_count,8005,63,56,WAFF
1223.24990272,word_count,8005,63,56,WAFF
1223.25016537,word_count,8008,56,57,WAFF
1223.25016537,word_count,8008,56,57,WAFF
1223.25878102,word_count,8043,57,44,ILB
1223.25878102,word_count,8043,57,44,ILB
1223.30803939,word_count,8001,33,38,ILB
1223.30803939,word_count,8001,33,38,ILB
1223.31430134,word_count,8024,44,46,WAFF
1223.31430134,word_count,8024,44,46,WAFF
1223.32166636,word_count,8029,46,47,WAFF
1223.32166636,word_count,8029,46,47,WAFF
1223.32200606,word_count,8001,38,32,WAFF
1223.32200606,word_count,8001,38,32,WAFF
1223.32204595,word_count,7989,14,15,WAFF
1223.32204595,word_count,7989,14,15,WAFF
1223.32214667,word_count,7980,32,33,WAFF
1223.32214667,word_count,7980,32,33,WAFF
1223.61149227,word_count,7989,15,42,ILB
1223.61149227,word_count,7989,15,42,ILB
1223.61789552,word_count,8029,47,40,WAFF
1223.61789552,word_count,8029,47,40,WAFF
1223.62607197,word_count,8031,33,39,ILB
1223.62607197,word_count,8031,33,39,ILB
1223.82071495,word_count,8014,39,34,WAFF
1223.82071495,word_count,8014,39,34,WAFF
1223.82078047,word_count,8025,40,41,WAFF
1223.82078047,word_count,8025,40,41,WAFF
1223.82081283,word_count,8020,42,43,WAFF
1223.82081283,word_count,8020,42,43,WAFF
1223.85840527,word_count,8020,43,44,WAFF
1223.85840527,word_count,8020,43,44,WAFF
1223.88354784,word_count,8043,44,60,ILB
1223.88354784,word_count,8043,44,60,ILB
1223.88831444,word_count,8043,60,62,WAFF
1223.88831444,word_count,8043,60,62,WAFF
1223.91130784,word_count,8043,62,46,ILB
1223.91130784,word_count,8043,62,46,ILB
1223.96707115,word_count,8038,41,42,ILB
1223.96707115,word_count,8038,41,42,ILB
1223.97271951,word_count,8038,42,43,WAFF
1223.97271951,word_count,8038,42,43,WAFF
1223.98966421,word_count,8013,34,32,ILB
1223.98966421,word_count,8013,34,32,ILB
1223.99096237,word_count,8043,46,47,WAFF
1223.99096237,word_count,8043,46,47,WAFF
1223.99889057,word_count,8023,43,44,WAFF
1223.99889057,word_count,8023,43,44,WAFF
1223.99926690,word_count,8020,44,45,WAFF
1223.99926690,word_count,8020,44,45,WAFF
1223.99945128,word_count,8013,32,35,WAFF
1223.99945128,word_count,8013,32,35,WAFF
1223.100007820,word_count,8016,45,47,WAFF
1223.100007820,word_count,8016,45,47,WAFF
1223.100994709,word_count,8016,47,61,ILB
1223.100994709,word_count,8016,47,61,ILB
1223.106592531,word_count,8021,47,40,WAFF
1223.106592531,word_count,8021,47,40,WAFF
1223.114777539,word_count,8021,40,43,ILB
1223.114777539,word_count,8021,40,43,ILB
1223.115586260,word_count,8013,35,37,WAFF
1223.115586260,word_count,8013,35,37,WAFF
1223.115639266,word_count,8006,37,38,WAFF
1223.115639266,word_count,8006,37,38,WAFF
1223.117960844,word_count,8041,61,63,ILB
1223.117960844,word_count,8041,61,63,ILB
1223.120808811,word_count,8041,63,56,WAFF
1223.120808811,word_count,8041,63,56,WAFF
1223.123634328,word_count,8005,56,57,WAFF
1223.123634328,word_count,8005,56,57,WAFF
1223.134019578,word_count,8008,57,60,ILB
1223.134019578,word_count,8008,57,60,ILB
1223.140718868,word_count,8006,38,39,WAFF
1223.140718868,word_count,8006,38,39,WAFF
1223.140727050,word_count,8008,60,61,WAFF
1223.140727050,word_count,8008,60,61,WAFF
1223.145238883,word_count,8006,39,36,ILB
1223.145238883,word_count,8006,39,36,ILB
1223.150241463,word_count,8021,43,44,WAFF
1223.150241463,word_count,8021,43,44,WAFF
1223.150311633,word_count,8023,44,45,WAFF
1223.150311633,word_count,8023,44,45,WAFF
1223.155322243,word_count,8020,45,40,ILB
1223.155322243,word_count,8020,45,40,ILB
1223.157927174,word_count,8020,40,60,ILB
1223.157927174,word_count,8020,40,60,ILB
1223.159596264,word_count,8006,36,37,WAFF
1223.159596264,word_count,8006,36,37,WAFF
1223.159956216,word_count,8016,61,62,WAFF
1223.159956216,word_count,8016,61,62,WAFF
1223.163284965,word_count,8006,37,38,WAFF
1223.163284965,word_count,8006,37,38,WAFF
1223.163318157,word_count,8037,62,58,WAFF
1223.163318157,word_count,8037,62,58,WAFF
1223.163337855,word_count,8032,38,32,WAFF
1223.163337855,word_count,8032,38,32,WAFF
1223.164032338,word_count,8001,32,33,WAFF
1223.164032338,word_count,8001,32,33,WAFF
1223.164040360,word_count,8011,60,62,WAFF
1223.164040360,word_count,8011,60,62,WAFF
1223.164060550,word_count,7980,33,35,WAFF
1223.164060550,word_count,7980,33,35,WAFF
1223.165889466,word_count,8016,62,31,ILB
1223.165889466,word_count,8016,62,31,ILB
1223.170066822,word_count,8016,31,24,WAFF
1223.170066822,word_count,8016,31,24,WAFF
1223.170114430,word_count,8004,24,12,ILB
1223.170114430,word_count,8004,24,12,ILB
1223.174834029,word_count,8012,35,36,ILB
1223.174834029,word_count,8012,35,36,ILB
1223.184716603,word_count,7986,12,14,WAFF
1223.184716603,word_count,7986,12,14,WAFF
1223.186287172,rcu_sched,8,7,0,WAFF
1223.191022508,word_count,8018,36,50,ILB
1223.191022508,word_count,8018,36,50,ILB
1223.191036255,word_count,7986,14,8,ILB
1223.191036255,word_count,7986,14,8,ILB
1223.192049877,word_count,7986,8,11,WAFF
1223.192049877,word_count,7986,8,11,WAFF
1223.193785464,word_count,7996,50,61,ILB
1223.193785464,word_count,7996,50,61,ILB
1223.194611070,word_count,7996,61,62,ILB
1223.194611070,word_count,7996,61,62,ILB
1223.197190203,word_count,7996,62,63,WAFF
1223.197190203,word_count,7996,62,63,WAFF
1223.200629962,word_count,7992,11,41,ILB
1223.200629962,word_count,7992,11,41,ILB
1223.201627074,word_count,8026,63,56,WAFF
1223.201627074,word_count,8026,63,56,WAFF
1223.202657789,word_count,8041,56,58,WAFF
1223.202657789,word_count,8041,56,58,WAFF
1223.203396241,word_count,8037,58,29,ILB
1223.203396241,word_count,8037,58,29,ILB
1223.208247473,word_count,8025,41,42,WAFF
1223.208247473,word_count,8025,41,42,WAFF
1223.215530615,word_count,7989,42,43,ILB
1223.215530615,word_count,7989,42,43,ILB
1223.218914469,word_count,7989,43,44,WAFF
1223.218914469,word_count,7989,43,44,WAFF
1223.219642565,word_count,8021,44,47,WAFF
1223.219642565,word_count,8021,44,47,WAFF
1223.226188025,word_count,8037,29,31,ILB
1223.226188025,word_count,8037,29,31,ILB
1223.236769434,word_count,8043,47,40,WAFF
1223.236769434,word_count,8043,47,40,WAFF
1223.236781684,word_count,8015,31,24,WAFF
1223.236781684,word_count,8015,31,24,WAFF
1223.242574870,word_count,8015,24,25,WAFF
1223.242574870,word_count,8015,24,25,WAFF
1223.248421725,word_count,8009,25,57,ILB
1223.248421725,word_count,8009,25,57,ILB
1223.251177835,word_count,8029,40,41,ILB
1223.251177835,word_count,8029,40,41,ILB
1223.256188808,word_count,8009,57,62,ILB
1223.256188808,word_count,8009,57,62,ILB
1223.264195072,word_count,8011,62,56,WAFF
1223.264195072,word_count,8011,62,56,WAFF
1223.267438731,word_count,8029,41,42,WAFF
1223.267438731,word_count,8029,41,42,WAFF
1223.277465846,word_count,8029,42,43,WAFF
1223.277465846,word_count,8029,42,43,WAFF
1223.312571509,word_count,8038,43,44,WAFF
1223.312571509,word_count,8038,43,44,WAFF
1223.314405151,word_count,8026,56,57,WAFF
1223.314405151,word_count,8026,56,57,WAFF
1223.318214394,word_count,8005,57,58,WAFF
1223.318214394,word_count,8005,57,58,WAFF
1223.318583106,word_count,7989,44,37,ILB
1223.318583106,word_count,7989,44,37,ILB
1223.321296960,word_count,8005,58,59,WAFF
1223.321296960,word_count,8005,58,59,WAFF
1223.326221382,word_count,7989,37,46,ILB
1223.326221382,word_count,7989,37,46,ILB
1223.333771483,word_count,8024,46,47,WAFF
1223.333771483,word_count,8024,46,47,WAFF
1223.363430234,word_count,8021,47,40,WAFF
1223.363430234,word_count,8021,47,40,WAFF
1223.366836724,word_count,8043,40,43,WAFF
1223.366836724,word_count,8043,40,43,WAFF
1223.378255991,word_count,8043,43,44,WAFF
1223.378255991,word_count,8043,43,44,WAFF
1223.385625117,word_count,8038,44,45,WAFF
1223.385625117,word_count,8038,44,45,WAFF
1223.386931040,word_count,8023,45,35,ILB
1223.386931040,word_count,8023,45,35,ILB
1223.394793031,word_count,8023,35,40,ILB
1223.394793031,word_count,8023,35,40,ILB
1223.405303112,word_count,8021,40,22,ILB
1223.405303112,word_count,8021,40,22,ILB
1223.411468382,word_count,8021,22,6,ILB
1223.411468382,word_count,8021,22,6,ILB
1223.426960879,word_count,7987,6,7,WAFF
1223.426960879,word_count,7987,6,7,WAFF
1223.427015030,word_count,7987,7,0,ILB
1223.427015030,word_count,7987,7,0,ILB
1223.441158967,word_count,8034,0,1,WAFF
1223.441158967,word_count,8034,0,1,WAFF
1223.443714966,word_count,8034,1,6,ILB
1223.443714966,word_count,8034,1,6,ILB
1223.450519644,word_count,8034,6,16,ILB
1223.450519644,word_count,8034,6,16,ILB
1223.461595668,word_count,8034,16,19,ILB
1223.461595668,word_count,8034,16,19,ILB
1223.473402060,word_count,7999,19,0,ILB
1223.473402060,word_count,7999,19,0,ILB
1223.475962709,word_count,7999,0,4,ILB
1223.475962709,word_count,7999,0,4,ILB
1223.479457807,word_count,7984,4,23,ILB
1223.479457807,word_count,7984,4,23,ILB
1223.489068472,word_count,8003,23,53,ILB
1223.489068472,word_count,8003,23,53,ILB
1223.492805574,word_count,8030,53,54,WAFF
1223.492805574,word_count,8030,53,54,WAFF
1223.521439566,word_count,8030,54,52,ILB
1223.521439566,word_count,8030,54,52,ILB
1223.532542049,word_count,8022,52,53,WAFF
1223.532542049,word_count,8022,52,53,WAFF
1223.554766114,word_count,8022,53,19,ILB
1223.554766114,word_count,8022,53,19,ILB
1223.565820502,word_count,8034,19,21,WAFF
1223.565820502,word_count,8034,19,21,WAFF
1223.570131499,word_count,8000,21,22,WAFF
1223.570131499,word_count,8000,21,22,WAFF
1223.582308645,rcu_sched,8,0,48,WAFF
1223.616298029,word_count,8002,22,28,ILB
1223.616298029,word_count,8002,22,28,ILB
1223.617546307,word_count,8002,28,29,WAFF
1223.617546307,word_count,8002,28,29,WAFF
1223.622482864,word_count,8040,29,30,WAFF
1223.622482864,word_count,8040,29,30,WAFF
1223.640852948,word_count,8042,30,27,ILB
1223.640852948,word_count,8042,30,27,ILB
1223.673844623,word_count,8019,27,28,WAFF
1223.673844623,word_count,8019,27,28,WAFF
1223.742527276,word_count,8019,28,29,WAFF
1223.742527276,word_count,8019,28,29,WAFF
1223.746521768,word_count,8019,29,31,ILB
1223.746521768,word_count,8019,29,31,ILB
1223.750573859,word_count,8019,31,24,WAFF
1223.750573859,word_count,8019,31,24,WAFF
1223.754503755,word_count,8019,24,14,ILB
1223.754503755,word_count,8019,24,14,ILB
1223.756386882,word_count,8019,14,11,ILB
1223.756386882,word_count,8019,14,11,ILB
1223.757640641,word_count,8019,11,47,ILB
1223.757640641,word_count,8019,11,47,ILB
1223.765472625,word_count,8024,47,40,WAFF
1223.765472625,word_count,8024,47,40,WAFF
1223.766243820,word_count,8024,40,37,ILB
1223.766243820,word_count,8024,40,37,ILB
1223.776529858,word_count,8013,37,39,ILB
1223.776529858,word_count,8013,37,39,ILB
1223.791242086,word_count,8013,39,32,WAFF
1223.791242086,word_count,8013,39,32,WAFF
1223.806104346,word_count,8032,32,33,WAFF
1223.806104346,word_count,8032,32,33,WAFF
1223.809613706,word_count,8001,33,2,ILB
1223.809613706,word_count,8001,33,2,ILB
1223.841240143,word_count,8036,2,4,WAFF
1223.841240143,word_count,8036,2,4,WAFF
1223.842124948,word_count,7999,4,13,ILB
1223.842124948,word_count,7999,4,13,ILB
1223.875642548,word_count,7999,13,14,WAFF
1223.875642548,word_count,7999,13,14,WAFF
1223.880927451,word_count,7990,14,28,ILB
1223.880927451,word_count,7990,14,28,ILB
1223.884917343,word_count,7990,28,31,ILB
1223.884917343,word_count,7990,28,31,ILB
1223.886033655,word_count,7990,31,25,WAFF
1223.886033655,word_count,7990,31,25,WAFF
1223.922626271,word_count,8015,25,63,ILB
1223.922626271,word_count,8015,25,63,ILB
1223.925723365,word_count,7996,63,56,WAFF
1223.925723365,word_count,7996,63,56,WAFF
1223.927352209,word_count,8011,56,57,WAFF
1223.927352209,word_count,8011,56,57,WAFF
1223.930504568,word_count,8026,57,58,WAFF
1223.930504568,word_count,8026,57,58,WAFF
1223.932364204,word_count,8026,58,59,WAFF
1223.932364204,word_count,8026,58,59,WAFF
1223.933119392,word_count,8005,59,27,ILB
1223.933119392,word_count,8005,59,27,ILB
1223.935581493,word_count,8005,27,28,WAFF
1223.935581493,word_count,8005,27,28,WAFF
1223.935595058,word_count,8007,28,29,WAFF
1223.935595058,word_count,8007,28,29,WAFF
1223.955337952,word_count,8002,29,30,WAFF
1223.955337952,word_count,8002,29,30,WAFF
1223.965161115,word_count,8002,30,24,WAFF
1223.965161115,word_count,8002,30,24,WAFF
1223.970327741,word_count,8002,24,61,ILB
1223.970327741,word_count,8002,24,61,ILB
1223.979814410,word_count,8008,61,53,ILB
1223.979814410,word_count,8008,61,53,ILB
1223.986332079,rcu_sched,8,48,0,WAFF
1224.16859845,word_count,8008,53,54,WAFF
1224.16859845,word_count,8008,53,54,WAFF
1224.37812130,word_count,8008,54,44,ILB
1224.37812130,word_count,8008,54,44,ILB
1224.58156649,word_count,8008,44,19,ILB
1224.58156649,word_count,8008,44,19,ILB
1224.71583217,word_count,8008,19,20,WAFF
1224.71583217,word_count,8008,19,20,WAFF
1224.77739844,word_count,8008,20,21,WAFF
1224.77739844,word_count,8008,20,21,WAFF
1224.79689480,word_count,8034,21,23,ILB
1224.79689480,word_count,8034,21,23,ILB
1224.90765417,word_count,8034,23,16,WAFF
1224.90765417,word_count,8034,23,16,WAFF
1224.111181687,word_count,8034,16,17,WAFF
1224.111181687,word_count,8034,16,17,WAFF
1224.118019088,word_count,8034,17,34,ILB
1224.118019088,word_count,8034,17,34,ILB
1224.118758177,word_count,8014,34,38,ILB
1224.118758177,word_count,8014,34,38,ILB
1224.135502117,word_count,8014,38,33,WAFF
1224.135502117,word_count,8014,38,33,WAFF
1224.139238124,word_count,8014,33,34,WAFF
1224.139238124,word_count,8014,33,34,WAFF
1224.147332838,word_count,8034,34,33,ILB
1224.147332838,word_count,8034,34,33,ILB
1224.153539387,word_count,8034,33,39,ILB
1224.153539387,word_count,8034,33,39,ILB
1224.166676824,word_count,8034,39,32,WAFF
1224.166676824,word_count,8034,39,32,WAFF
1224.172543231,word_count,8034,32,35,WAFF
1224.172543231,word_count,8034,32,35,WAFF
1224.173840791,word_count,8034,35,36,WAFF
1224.173840791,word_count,8034,35,36,WAFF
1224.177253004,word_count,8034,36,53,ILB
1224.177253004,word_count,8034,36,53,ILB
1224.182024245,word_count,8003,53,54,ILB
1224.182024245,word_count,8003,53,54,ILB
1224.185125875,word_count,8003,54,48,WAFF
1224.185125875,word_count,8003,54,48,WAFF
1224.192619493,word_count,8003,48,49,WAFF
1224.192619493,word_count,8003,48,49,WAFF
1224.222399544,word_count,7997,17,1,ILB
1224.222399544,word_count,7997,17,1,ILB
1224.223090346,word_count,7997,1,13,ILB
1224.223090346,word_count,7997,1,13,ILB
1224.223880630,word_count,8017,13,45,ILB
1224.223880630,word_count,8017,13,45,ILB
1224.240741825,word_count,8038,45,46,WAFF
1224.240741825,word_count,8038,45,46,WAFF
1224.243410299,word_count,7989,46,47,WAFF
1224.243410299,word_count,7989,46,47,WAFF
1224.247524310,word_count,7989,47,42,ILB
1224.247524310,word_count,7989,47,42,ILB
1224.251199250,word_count,7989,42,43,WAFF
1224.251199250,word_count,7989,42,43,WAFF
1224.258618301,word_count,7989,43,40,ILB
1224.258618301,word_count,7989,43,40,ILB
1224.269858862,word_count,7989,40,44,WAFF
1224.269858862,word_count,7989,40,44,WAFF
1224.270678737,word_count,7989,44,42,ILB
1224.270678737,word_count,7989,44,42,ILB
1224.272005738,word_count,7989,42,43,WAFF
1224.272005738,word_count,7989,42,43,WAFF
1224.276466105,word_count,7989,43,46,WAFF
1224.276466105,word_count,7989,43,46,WAFF
1224.296002754,word_count,7989,46,47,WAFF
1224.296002754,word_count,7989,46,47,WAFF
1224.297200311,word_count,7989,47,40,WAFF
1224.297200311,word_count,7989,47,40,WAFF
1224.297205969,word_count,8023,40,41,WAFF
1224.297205969,word_count,8023,40,41,WAFF
1224.364368030,word_count,7992,41,47,ILB
1224.364368030,word_count,7992,41,47,ILB
1224.374083370,word_count,7992,47,10,ILB
1224.374083370,word_count,7992,47,10,ILB
1224.377134617,word_count,7993,10,11,WAFF
1224.377134617,word_count,7993,10,11,WAFF
1224.387229934,word_count,7986,11,25,ILB
1224.387229934,word_count,7986,11,25,ILB
1224.390020662,word_count,7990,25,9,ILB
1224.390020662,word_count,7990,25,9,ILB
1224.391954896,word_count,7990,9,24,ILB
1224.391954896,word_count,7990,9,24,ILB
1224.393280967,word_count,8016,24,30,ILB
1224.393280967,word_count,8016,24,30,ILB
1224.399157223,word_count,8016,30,31,WAFF
1224.399157223,word_count,8016,30,31,WAFF
1224.427244874,word_count,8016,31,26,WAFF
1224.427244874,word_count,8016,31,26,WAFF
1224.427329683,word_count,8010,26,27,WAFF
1224.427329683,word_count,8010,26,27,WAFF
1224.436615525,word_count,8042,27,35,ILB
1224.436615525,word_count,8042,27,35,ILB
1224.440801544,word_count,7980,35,39,ILB
1224.440801544,word_count,7980,35,39,ILB
1224.442161049,word_count,7980,39,32,WAFF
1224.442161049,word_count,7980,39,32,WAFF
1224.444540941,word_count,7980,32,33,WAFF
1224.444540941,word_count,7980,32,33,WAFF
1224.446160618,word_count,8032,33,34,WAFF
1224.446160618,word_count,8032,33,34,WAFF
1224.449928418,word_count,8014,34,35,ILB
1224.449928418,word_count,8014,34,35,ILB
1224.451576335,word_count,8042,35,19,ILB
1224.451576335,word_count,8042,35,19,ILB
1224.453803601,word_count,8042,19,16,ILB
1224.453803601,word_count,8042,19,16,ILB
1224.481393819,word_count,8042,16,17,WAFF
1224.481393819,word_count,8042,16,17,WAFF
1229.458655728,rcu_sched,8,0,41,WAFF
1229.862708889,rcu_sched,8,41,48,ILB
1230.162691161,rcu_sched,8,48,41,WAFF
1230.442742914,word_count,8023,41,42,WAFF
1230.442742914,word_count,8023,41,42,WAFF
1230.443402177,word_count,8025,42,43,WAFF
1230.443402177,word_count,8025,42,43,WAFF
1230.445165178,word_count,8025,43,44,WAFF
1230.445165178,word_count,8025,43,44,WAFF
1230.450007536,word_count,8043,44,46,ILB
1230.450007536,word_count,8043,44,46,ILB
1230.453811501,word_count,8038,46,47,WAFF
1230.453811501,word_count,8038,46,47,WAFF
1230.461090128,word_count,8019,47,40,WAFF
1230.461090128,word_count,8019,47,40,WAFF
1230.461409081,word_count,7989,40,35,ILB
1230.461409081,word_count,7989,40,35,ILB
1230.465536277,word_count,8014,35,36,WAFF
1230.465536277,word_count,8014,35,36,WAFF
1230.470464254,word_count,8012,36,37,WAFF
1230.470464254,word_count,8012,36,37,WAFF
1230.472000098,word_count,8024,37,59,ILB
1230.472000098,word_count,8024,37,59,ILB
1230.473243100,word_count,8024,59,54,ILB
1230.473243100,word_count,8024,59,54,ILB
1230.477001397,word_count,8024,54,19,ILB
1230.477001397,word_count,8024,54,19,ILB
1230.480431548,word_count,8022,19,20,WAFF
1230.480431548,word_count,8022,19,20,WAFF
1230.481421500,word_count,7995,20,1,ILB
1230.481421500,word_count,7995,20,1,ILB
1230.482156998,word_count,7995,1,38,ILB
1230.482156998,word_count,7995,1,38,ILB
1230.484560387,word_count,8006,38,39,WAFF
1230.484560387,word_count,8006,38,39,WAFF
1230.486756007,word_count,8031,39,34,ILB
1230.486756007,word_count,8031,39,34,ILB
1230.501034495,word_count,8032,34,38,ILB
1230.501034495,word_count,8032,34,38,ILB
1230.504866145,word_count,8032,38,33,ILB
1230.504866145,word_count,8032,38,33,ILB
1230.506950518,word_count,8032,33,5,ILB
1230.506950518,word_count,8032,33,5,ILB
1230.508679199,word_count,7985,5,19,ILB
1230.508679199,word_count,7985,5,19,ILB
1230.509166080,word_count,8024,19,21,WAFF
1230.509166080,word_count,8024,19,21,WAFF
1230.511094610,word_count,8008,21,22,WAFF
1230.511094610,word_count,8008,21,22,WAFF
1230.511140482,word_count,8008,22,16,ILB
1230.511140482,word_count,8008,22,16,ILB
1230.519818942,word_count,7981,16,17,WAFF
1230.519818942,word_count,7981,16,17,WAFF
1230.524846713,word_count,8042,17,18,WAFF
1230.524846713,word_count,8042,17,18,WAFF
1230.533723172,word_count,7998,18,19,WAFF
1230.533723172,word_count,7998,18,19,WAFF
1230.536997935,word_count,7985,19,63,ILB
1230.536997935,word_count,7985,19,63,ILB
1230.537751702,word_count,8015,63,25,ILB
1230.537751702,word_count,8015,63,25,ILB
1230.538734351,word_count,7986,25,26,WAFF
1230.538734351,word_count,7986,25,26,WAFF
1230.539388026,word_count,7986,26,33,ILB
1230.539388026,word_count,7986,26,33,ILB
1230.542245924,word_count,7980,33,35,WAFF
1230.542245924,word_count,7980,33,35,WAFF
1230.544373636,word_count,7980,35,54,ILB
1230.544373636,word_count,7980,35,54,ILB
1230.548593880,word_count,8033,54,13,ILB
1230.548593880,word_count,8033,54,13,ILB
1230.552087822,word_count,8033,13,15,WAFF
1230.552087822,word_count,8033,13,15,WAFF
1230.560040102,word_count,7991,15,30,ILB
1230.560040102,word_count,7991,15,30,ILB
1230.562707742,word_count,8040,30,14,ILB
1230.562707742,word_count,8040,30,14,ILB
1230.578791695,word_count,8040,14,15,WAFF
1230.578791695,word_count,8040,14,15,WAFF
1230.579017807,word_count,8033,15,10,WAFF
1230.579017807,word_count,8033,15,10,WAFF
1230.584219397,word_count,7992,10,4,ILB
1230.584219397,word_count,7992,10,4,ILB
1230.587412555,word_count,7992,4,18,ILB
1230.587412555,word_count,7992,4,18,ILB
1230.591215433,word_count,8042,18,19,WAFF
1230.591215433,word_count,8042,18,19,WAFF
1230.596269068,word_count,7998,19,50,ILB
1230.596269068,word_count,7998,19,50,ILB
1230.596869713,word_count,7998,50,51,WAFF
1230.596869713,word_count,7998,50,51,WAFF
1230.599656531,word_count,7982,51,49,ILB
1230.599656531,word_count,7982,51,49,ILB
1230.607684421,word_count,7982,49,50,WAFF
1230.607684421,word_count,7982,49,50,WAFF
1230.614275896,word_count,8018,50,54,ILB
1230.614275896,word_count,8018,50,54,ILB
1230.615507234,word_count,7980,54,48,WAFF
1230.615507234,word_count,7980,54,48,WAFF
1230.616433293,word_count,8028,48,44,ILB
1230.616433293,word_count,8028,48,44,ILB
1230.623844437,word_count,8025,44,45,WAFF
1230.623844437,word_count,8025,44,45,WAFF
1230.631747115,word_count,8017,45,47,ILB
1230.631747115,word_count,8017,45,47,ILB
1230.633855709,word_count,8038,47,40,WAFF
1230.633855709,word_count,8038,47,40,WAFF
1230.634593666,word_count,8019,40,59,ILB
1230.634593666,word_count,8019,40,59,ILB
1230.636764328,word_count,8026,59,60,WAFF
1230.636764328,word_count,8026,59,60,WAFF
1230.636780396,word_count,8020,60,61,WAFF
1230.636780396,word_count,8020,60,61,WAFF
1230.638538991,word_count,8020,61,62,WAFF
1230.638538991,word_count,8020,61,62,WAFF
1230.645547292,word_count,8009,62,53,ILB
1230.645547292,word_count,8009,62,53,ILB
1230.647058816,word_count,8034,53,54,WAFF
1230.647058816,word_count,8034,53,54,WAFF
1230.648052036,word_count,8034,54,55,WAFF
1230.648052036,word_count,8034,54,55,WAFF
1230.648653369,word_count,8035,55,48,WAFF
1230.648653369,word_count,8035,55,48,WAFF
1230.649967730,word_count,8035,48,50,WAFF
1230.649967730,word_count,8035,48,50,WAFF
1230.660496396,word_count,7982,50,61,ILB
1230.660496396,word_count,7982,50,61,ILB
1230.663643576,word_count,8002,61,60,ILB
1230.663643576,word_count,8002,61,60,ILB
1230.666170395,word_count,8002,60,31,ILB
1230.666170395,word_count,8002,60,31,ILB
1230.669304662,word_count,8037,31,24,ILB
1230.669304662,word_count,8037,31,24,ILB
1230.671532837,word_count,8037,24,39,ILB
1230.671532837,word_count,8037,24,39,ILB
1230.673017682,word_count,8037,39,33,WAFF
1230.673017682,word_count,8037,39,33,WAFF
1230.676399907,word_count,8037,33,34,WAFF
1230.676399907,word_count,8037,33,34,WAFF
1230.679060032,word_count,8031,34,35,WAFF
1230.679060032,word_count,8031,34,35,WAFF
1230.687298771,word_count,7989,35,36,WAFF
1230.687298771,word_count,7989,35,36,WAFF
1230.688624417,word_count,7989,36,37,WAFF
1230.688624417,word_count,7989,36,37,WAFF
1230.699371521,word_count,7989,37,38,WAFF
1230.699371521,word_count,7989,37,38,WAFF
1230.700891473,word_count,7995,38,35,ILB
1230.700891473,word_count,7995,38,35,ILB
1230.704257340,word_count,7995,35,50,ILB
1230.704257340,word_count,7995,35,50,ILB
1230.707133557,word_count,8035,50,52,WAFF
1230.707133557,word_count,8035,50,52,WAFF
1230.712249374,word_count,8035,52,53,WAFF
1230.712249374,word_count,8035,52,53,WAFF
1230.715346702,word_count,8009,53,54,WAFF
1230.715346702,word_count,8009,53,54,WAFF
1230.718561252,word_count,8009,54,43,ILB
1230.718561252,word_count,8009,54,43,ILB
1230.722473500,word_count,8029,43,45,WAFF
1230.722473500,word_count,8029,43,45,WAFF
1230.723200504,word_count,8025,45,47,WAFF
1230.723200504,word_count,8025,45,47,WAFF
1230.724787375,word_count,8017,47,41,WAFF
1230.724787375,word_count,8017,47,41,WAFF
1230.746754122,word_count,8017,41,42,WAFF
1230.746754122,word_count,8017,41,42,WAFF
1230.747622364,word_count,8023,42,44,WAFF
1230.747622364,word_count,8023,42,44,WAFF
1230.750912534,word_count,8023,44,45,WAFF
1230.750912534,word_count,8023,44,45,WAFF
1230.786446968,word_count,8023,45,46,WAFF
1230.786446968,word_count,8023,45,46,WAFF
1230.786491726,word_count,8043,46,47,WAFF
1230.786491726,word_count,8043,46,47,WAFF
1230.788675592,word_count,8025,47,40,WAFF
1230.788675592,word_count,8025,47,40,WAFF
1230.795245893,word_count,8038,40,22,ILB
1230.795245893,word_count,8038,40,22,ILB
1230.796199646,word_count,8000,22,17,WAFF
1230.796199646,word_count,8000,22,17,WAFF
1230.797156945,word_count,7981,17,18,ILB
1230.797156945,word_count,7981,17,18,ILB
1230.801447743,word_count,7992,18,49,ILB
1230.801447743,word_count,7992,18,49,ILB
1230.802131299,word_count,7992,49,54,ILB
1230.802131299,word_count,7992,49,54,ILB
1230.804049273,word_count,8018,54,42,ILB
1230.804049273,word_count,8018,54,42,ILB
1230.818975819,word_count,8017,42,43,WAFF
1230.818975819,word_count,8017,42,43,WAFF
1230.824802442,word_count,8017,43,23,ILB
1230.824802442,word_count,8017,43,23,ILB
1230.826788888,word_count,7984,23,16,WAFF
1230.826788888,word_count,7984,23,16,WAFF
1230.828765883,word_count,7984,16,6,ILB
1230.828765883,word_count,7984,16,6,ILB
1230.829829434,word_count,8021,6,7,WAFF
1230.829829434,word_count,8021,6,7,WAFF
1230.832280256,word_count,8021,7,0,WAFF
1230.832280256,word_count,8021,7,0,WAFF
1230.833089544,word_count,7987,0,1,WAFF
1230.833089544,word_count,7987,0,1,WAFF
1230.834613685,word_count,8039,1,32,ILB
1230.834613685,word_count,8039,1,32,ILB
1230.846233884,word_count,8013,32,33,WAFF
1230.846233884,word_count,8013,32,33,WAFF
1230.858075636,word_count,7986,33,34,WAFF
1230.858075636,word_count,7986,33,34,WAFF
1230.865601735,word_count,8037,34,38,ILB
1230.865601735,word_count,8037,34,38,ILB
1230.883941897,word_count,7989,38,56,ILB
1230.883941897,word_count,7989,38,56,ILB
1230.887249733,word_count,7996,56,45,ILB
1230.887249733,word_count,7996,56,45,ILB
1230.887806359,word_count,7996,45,46,WAFF
1230.887806359,word_count,7996,45,46,WAFF
1230.890441605,word_count,8023,46,40,WAFF
1230.890441605,word_count,8023,46,40,WAFF
1230.891948994,word_count,8025,40,41,WAFF
1230.891948994,word_count,8025,40,41,WAFF
1231.602812836,word_count,8035,53,54,WAFF
1231.602812836,word_count,8035,53,54,WAFF
1231.614658373,word_count,8035,54,4,ILB
1231.614658373,word_count,8035,54,4,ILB
1231.615599468,word_count,8035,4,1,ILB
1231.615599468,word_count,8035,4,1,ILB
1231.616262730,word_count,8035,1,20,ILB
1231.616262730,word_count,8035,1,20,ILB
1231.623385058,word_count,8035,20,17,ILB
1231.623385058,word_count,8035,20,17,ILB
1231.627163609,word_count,8000,17,20,WAFF
1231.627163609,word_count,8000,17,20,WAFF
1231.629068614,word_count,8022,20,21,WAFF
1231.629068614,word_count,8022,20,21,WAFF
1231.630372433,word_count,8022,21,26,ILB
1231.630372433,word_count,8022,21,26,ILB
1231.635668813,word_count,8016,26,56,ILB
1231.635668813,word_count,8016,26,56,ILB
1231.637089270,word_count,8016,56,57,WAFF
1231.637089270,word_count,8016,56,57,WAFF
1231.639747052,word_count,8011,57,58,ILB
1231.639747052,word_count,8011,57,58,ILB
1231.640451368,word_count,8041,58,35,ILB
1231.640451368,word_count,8041,58,35,ILB
1231.648578399,word_count,8041,35,21,ILB
1231.648578399,word_count,8041,35,21,ILB
1231.650404192,word_count,8024,21,22,WAFF
1231.650404192,word_count,8024,21,22,WAFF
1231.655489004,word_count,8024,22,51,ILB
1231.655489004,word_count,8024,22,51,ILB
1231.661435168,word_count,8024,51,23,ILB
1231.661435168,word_count,8024,51,23,ILB
1231.662657224,word_count,8024,23,16,WAFF
1231.662657224,word_count,8024,23,16,WAFF
1231.662792682,word_count,8008,16,17,WAFF
1231.662792682,word_count,8008,16,17,WAFF
1231.668424054,word_count,8008,17,19,WAFF
1231.668424054,word_count,8008,17,19,WAFF
1231.668576271,word_count,8042,19,21,WAFF
1231.668576271,word_count,8042,19,21,WAFF
1231.671965362,word_count,8042,21,35,ILB
1231.671965362,word_count,8042,21,35,ILB
1231.674948333,word_count,8042,35,36,WAFF
1231.674948333,word_count,8042,35,36,WAFF
1231.674954249,word_count,8014,36,38,WAFF
1231.674954249,word_count,8014,36,38,WAFF
1231.676423108,word_count,8014,38,2,ILB
1231.676423108,word_count,8014,38,2,ILB
1231.676999862,word_count,8014,2,3,WAFF
1231.676999862,word_count,8014,2,3,WAFF
1231.677794636,word_count,7983,3,4,WAFF
1231.677794636,word_count,7983,3,4,WAFF
1231.678148743,word_count,8036,4,5,WAFF
1231.678148743,word_count,8036,4,5,WAFF
1231.678333880,word_count,8032,5,21,ILB
1231.678333880,word_count,8032,5,21,ILB
1231.678994742,word_count,8032,21,16,ILB
1231.678994742,word_count,8032,21,16,ILB
1231.682562507,word_count,8024,16,18,WAFF
1231.682562507,word_count,8024,16,18,WAFF
1231.682567271,word_count,7981,18,20,WAFF
1231.682567271,word_count,7981,18,20,WAFF
1231.686997270,word_count,7981,20,17,ILB
1231.686997270,word_count,7981,20,17,ILB
1231.688690069,word_count,7981,17,18,WAFF
1231.688690069,word_count,7981,17,18,WAFF
1231.693802098,word_count,7981,18,23,ILB
1231.693802098,word_count,7981,18,23,ILB
1231.701076096,word_count,8017,23,16,WAFF
1231.701076096,word_count,8017,23,16,WAFF
1231.701278652,word_count,8032,16,17,WAFF
1231.701278652,word_count,8032,16,17,WAFF
1231.711385291,word_count,8032,17,18,WAFF
1231.711385291,word_count,8032,17,18,WAFF
1231.716891958,word_count,8032,18,54,ILB
1231.716891958,word_count,8032,18,54,ILB
1231.718290193,word_count,8032,54,43,ILB
1231.718290193,word_count,8032,54,43,ILB
1231.719129048,word_count,8032,43,45,ILB
1231.719129048,word_count,8032,43,45,ILB
1231.723395818,word_count,8029,45,46,WAFF
1231.723395818,word_count,8029,45,46,WAFF
1231.724177069,word_count,7996,46,47,WAFF
1231.724177069,word_count,7996,46,47,WAFF
1231.728050724,word_count,8043,47,60,ILB
1231.728050724,word_count,8043,47,60,ILB
1231.732459870,word_count,8043,60,57,ILB
1231.732459870,word_count,8043,60,57,ILB
1231.743208919,word_count,8043,57,58,WAFF
1231.743208919,word_count,8043,57,58,WAFF
1231.749646663,word_count,8043,58,24,ILB
1231.749646663,word_count,8043,58,24,ILB
1231.758565904,word_count,7990,24,27,WAFF
1231.758565904,word_count,7990,24,27,WAFF
1231.763262956,word_count,7990,27,29,WAFF
1231.763262956,word_count,7990,27,29,WAFF
1231.763327814,word_count,8007,29,30,WAFF
1231.763327814,word_count,8007,29,30,WAFF
1231.766833428,word_count,8025,41,42,WAFF
1231.766833428,word_count,8025,41,42,WAFF
1231.769785213,word_count,8025,42,43,ILB
1231.769785213,word_count,8025,42,43,ILB
1231.770397375,word_count,8025,43,44,WAFF
1231.770397375,word_count,8025,43,44,WAFF
1231.771027383,word_count,7991,30,31,WAFF
1231.771027383,word_count,7991,30,31,WAFF
1231.775078704,word_count,7991,31,25,WAFF
1231.775078704,word_count,7991,31,25,WAFF
1231.780592202,word_count,8025,44,46,WAFF
1231.780592202,word_count,8025,44,46,WAFF
1231.781339715,word_count,7991,25,26,WAFF
1231.781339715,word_count,7991,25,26,WAFF
1231.781653473,word_count,8022,26,18,ILB
1231.781653473,word_count,8022,26,18,ILB
1231.782991180,word_count,8022,18,7,ILB
1231.782991180,word_count,8022,18,7,ILB
1231.784503134,word_count,8025,46,47,WAFF
1231.784503134,word_count,8025,46,47,WAFF
1231.784507218,word_count,7996,47,40,WAFF
1231.784507218,word_count,7996,47,40,WAFF
1231.786279936,word_count,7996,40,56,ILB
1231.786279936,word_count,7996,40,56,ILB
1231.789716310,word_count,8022,7,0,WAFF
1231.789716310,word_count,8022,7,0,WAFF
1231.790411759,word_count,8022,0,23,ILB
1231.790411759,word_count,8022,0,23,ILB
1231.794612371,word_count,7989,56,58,ILB
1231.794612371,word_count,7989,56,58,ILB
1231.797275477,word_count,8011,58,43,ILB
1231.797275477,word_count,8011,58,43,ILB
1231.799891513,word_count,8009,43,42,ILB
1231.799891513,word_count,8009,43,42,ILB
1231.800613799,word_count,8018,42,29,ILB
1231.800613799,word_count,8018,42,29,ILB
1231.802893864,word_count,8022,23,57,ILB
1231.802893864,word_count,8022,23,57,ILB
1231.803655090,word_count,8022,57,58,WAFF
1231.803655090,word_count,8022,57,58,WAFF
1231.809737566,word_count,7989,58,59,WAFF
1231.809737566,word_count,7989,58,59,WAFF
1231.809743924,word_count,8018,29,30,WAFF
1231.809743924,word_count,8018,29,30,WAFF
1231.809883409,word_count,8007,30,50,ILB
1231.809883409,word_count,8007,30,50,ILB
1231.810491802,word_count,8007,50,54,ILB
1231.810491802,word_count,8007,50,54,ILB
1231.811087490,word_count,8007,54,55,WAFF
1231.811087490,word_count,8007,54,55,WAFF
1231.815417710,word_count,8034,55,39,ILB
1231.815417710,word_count,8034,55,39,ILB
1231.816481692,word_count,7989,59,56,ILB
1231.816481692,word_count,7989,59,56,ILB
1231.816558508,word_count,8006,39,35,ILB
1231.816558508,word_count,8006,39,35,ILB
1231.817058973,word_count,7996,56,54,ILB
1231.817058973,word_count,7996,56,54,ILB
1231.818959390,word_count,7992,54,48,ILB
1231.818959390,word_count,7992,54,48,ILB
1231.820248974,word_count,7992,48,49,WAFF
1231.820248974,word_count,7992,48,49,WAFF
1231.823157781,word_count,8003,49,50,ILB
1231.823157781,word_count,8003,49,50,ILB
1231.824112957,word_count,7995,50,51,WAFF
1231.824112957,word_count,7995,50,51,WAFF
1231.825604225,word_count,7998,51,13,ILB
1231.825604225,word_count,7998,51,13,ILB
1231.826345206,word_count,7998,13,14,WAFF
1231.826345206,word_count,7998,13,14,WAFF
1231.826415347,word_count,8006,35,36,WAFF
1231.826415347,word_count,8006,35,36,WAFF
1231.827967464,word_count,7999,14,26,ILB
1231.827967464,word_count,7999,14,26,ILB
1231.830311775,word_count,8042,36,25,ILB
1231.830311775,word_count,8042,36,25,ILB
1231.830442414,word_count,7991,26,27,WAFF
1231.830442414,word_count,7991,26,27,WAFF
1231.831536746,word_count,8010,27,40,ILB
1231.831536746,word_count,8010,27,40,ILB
1231.832425834,word_count,8015,25,26,WAFF
1231.832425834,word_count,8015,25,26,WAFF
1231.833080623,word_count,8010,40,41,WAFF
1231.833080623,word_count,8010,40,41,WAFF
1231.833584517,word_count,7999,26,37,ILB
1231.833584517,word_count,7999,26,37,ILB
1231.836088095,word_count,8012,37,32,WAFF
1231.836088095,word_count,8012,37,32,WAFF
1231.836097276,word_count,8039,32,34,WAFF
1231.836097276,word_count,8039,32,34,WAFF
1231.837222907,word_count,7986,34,59,ILB
1231.837222907,word_count,7986,34,59,ILB
1231.840865385,word_count,8019,59,61,WAFF
1231.840865385,word_count,8019,59,61,WAFF
1231.841623722,word_count,7982,61,56,ILB
1231.841623722,word_count,7982,61,56,ILB
1231.842488891,word_count,7982,56,57,WAFF
1231.842488891,word_count,7982,56,57,WAFF
1231.842510588,word_count,8016,57,58,WAFF
1231.842510588,word_count,8016,57,58,WAFF
1231.842694609,word_count,8022,58,60,WAFF
1231.842694609,word_count,8022,58,60,WAFF
1231.844664510,word_count,8026,60,61,ILB
1231.844664510,word_count,8026,60,61,ILB
1231.848228366,word_count,8026,61,62,WAFF
1231.848228366,word_count,8026,61,62,WAFF
1231.850897361,word_count,8026,62,48,ILB
1231.850897361,word_count,8026,62,48,ILB
1231.854842212,word_count,7980,48,42,ILB
1231.854842212,word_count,7980,48,42,ILB
1231.865323159,word_count,8009,42,30,ILB
1231.865323159,word_count,8009,42,30,ILB
1231.870809859,word_count,8018,30,24,ILB
1231.870809859,word_count,8018,30,24,ILB
1231.877283203,word_count,8018,24,25,WAFF
1231.877283203,word_count,8018,24,25,WAFF
1231.879457388,word_count,8042,25,2,ILB
1231.879457388,word_count,8042,25,2,ILB
1231.882890127,word_count,8042,2,3,WAFF
1231.882890127,word_count,8042,2,3,WAFF
1231.883055132,word_count,8014,3,4,WAFF
1231.883055132,word_count,8014,3,4,WAFF
1231.887446133,word_count,8014,4,5,WAFF
1231.887446133,word_count,8014,4,5,WAFF
1231.887575845,word_count,8036,5,21,ILB
1231.887575845,word_count,8036,5,21,ILB
1231.891615551,word_count,8041,21,22,WAFF
1231.891615551,word_count,8041,21,22,WAFF
1231.894440655,word_count,8041,22,16,ILB
1231.894440655,word_count,8041,22,16,ILB
1231.901461751,word_count,8041,16,17,WAFF
1231.901461751,word_count,8041,16,17,WAFF
1231.906450517,word_count,8035,17,23,ILB
1231.906450517,word_count,8035,17,23,ILB
1231.907605539,word_count,8035,23,16,WAFF
1231.907605539,word_count,8035,23,16,WAFF
1231.909630864,word_count,8017,16,17,WAFF
1231.909630864,word_count,8017,16,17,WAFF
1231.915228744,word_count,8041,17,0,ILB
1231.915228744,word_count,8041,17,0,ILB
1231.916589102,word_count,8021,0,18,ILB
1231.916589102,word_count,8021,0,18,ILB
1231.918793975,word_count,8024,18,32,ILB
1231.918793975,word_count,8024,18,32,ILB
1231.922907772,word_count,8012,32,33,WAFF
1231.922907772,word_count,8012,32,33,WAFF
1231.924145942,word_count,8012,33,34,WAFF
1231.924145942,word_count,8012,33,34,WAFF
1231.931138096,word_count,8039,34,35,WAFF
1231.931138096,word_count,8039,34,35,WAFF
1231.935252089,word_count,8039,35,37,WAFF
1231.935252089,word_count,8039,35,37,WAFF
1231.935310328,word_count,7999,37,38,WAFF
1231.935310328,word_count,7999,37,38,WAFF
1231.935331092,word_count,8037,38,32,WAFF
1231.935331092,word_count,8037,38,32,WAFF
1231.935339455,word_count,8024,32,35,WAFF
1231.935339455,word_count,8024,32,35,WAFF
1231.936429315,word_count,8024,35,37,WAFF
1231.936429315,word_count,8024,35,37,WAFF
1231.939133890,word_count,8039,37,38,WAFF
1231.939133890,word_count,8039,37,38,WAFF
1231.948244863,word_count,8039,38,37,ILB
1231.948244863,word_count,8039,38,37,ILB
1231.956908688,word_count,8039,37,38,WAFF
1231.956908688,word_count,8039,37,38,WAFF
1231.957883961,word_count,8039,38,32,WAFF
1231.957883961,word_count,8039,38,32,WAFF
1231.964536600,word_count,8039,32,33,WAFF
1231.964536600,word_count,8039,32,33,WAFF
1231.969746408,word_count,8039,33,47,ILB
1231.969746408,word_count,8039,33,47,ILB
1231.970378042,word_count,8039,47,9,ILB
1231.970378042,word_count,8039,47,9,ILB
1231.973872798,word_count,8039,9,10,WAFF
1231.973872798,word_count,8039,9,10,WAFF
1231.979601325,word_count,8033,10,48,ILB
1231.979601325,word_count,8033,10,48,ILB
1231.983743795,word_count,8026,48,6,ILB
1231.983743795,word_count,8026,48,6,ILB
1231.984305002,word_count,8026,6,7,WAFF
1231.984305002,word_count,8026,6,7,WAFF
1231.985876910,word_count,8027,7,36,ILB
1231.985876910,word_count,8027,7,36,ILB
1231.987527925,word_count,8027,36,37,WAFF
1231.987527925,word_count,8027,36,37,WAFF
1231.987533569,word_count,8024,37,38,WAFF
1231.987533569,word_count,8024,37,38,WAFF
1231.991418496,word_count,7999,38,5,ILB
1231.991418496,word_count,7999,38,5,ILB
1231.993310646,word_count,8014,5,6,WAFF
1231.993310646,word_count,8014,5,6,WAFF
1231.995531365,word_count,8014,6,5,ILB
1231.995531365,word_count,8014,6,5,ILB
1231.998041183,word_count,7999,5,7,WAFF
1231.998041183,word_count,7999,5,7,WAFF
1231.999263509,word_count,7999,7,3,ILB
1231.999263509,word_count,7999,7,3,ILB
1231.999622477,word_count,7999,3,4,WAFF
1231.999622477,word_count,7999,3,4,WAFF
1232.7622040,word_count,7983,4,5,WAFF
1232.7622040,word_count,7983,4,5,WAFF
1232.7635910,word_count,8014,5,7,WAFF
1232.7635910,word_count,8014,5,7,WAFF
1232.8754958,word_count,8014,7,9,ILB
1232.8754958,word_count,8014,7,9,ILB
1232.10328350,word_count,8014,9,31,ILB
1232.10328350,word_count,8014,9,31,ILB
1232.11011601,word_count,8014,31,12,ILB
1232.11011601,word_count,8014,31,12,ILB
1232.11473616,word_count,8014,12,13,WAFF
1232.11473616,word_count,8014,12,13,WAFF
1232.16155675,word_count,7997,13,14,ILB
1232.16155675,word_count,7997,13,14,ILB
1232.20567032,word_count,7998,14,8,WAFF
1232.20567032,word_count,7998,14,8,WAFF
1232.20823960,word_count,7988,8,6,ILB
1232.20823960,word_count,7988,8,6,ILB
1232.21749882,word_count,7988,6,7,WAFF
1232.21749882,word_count,7988,6,7,WAFF
1232.21793356,word_count,8026,7,1,ILB
1232.21793356,word_count,8026,7,1,ILB
1232.28729157,word_count,8026,1,54,ILB
1232.28729157,word_count,8026,1,54,ILB
1232.31240718,word_count,8026,54,55,WAFF
1232.31240718,word_count,8026,54,55,WAFF
1232.32427004,word_count,8007,55,48,WAFF
1232.32427004,word_count,8007,55,48,WAFF
1232.39180207,word_count,8007,48,49,WAFF
1232.39180207,word_count,8007,48,49,WAFF
1232.50689344,word_count,8007,49,50,WAFF
1232.50689344,word_count,8007,49,50,WAFF
1232.68515805,word_count,8007,50,53,WAFF
1232.68515805,word_count,8007,50,53,WAFF
1232.718463338,word_count,8001,2,3,WAFF
1232.718463338,word_count,8001,2,3,WAFF
1232.718537958,systemd-journal,1117,58,2,WAFF
1232.718858580,in:imuxsock,2470,59,2,WAFF
1232.719257156,rs:main Q:Reg,2472,59,2,WAFF
1232.719273606,systemd-logind,2450,34,33,WAFF
1232.719298776,word_count,8037,32,21,ILB
1232.719298776,word_count,8037,32,21,ILB
1232.720160704,word_count,8037,21,5,ILB
1232.720160704,word_count,8037,21,5,ILB
1232.720727280,word_count,8037,5,7,WAFF
1232.720727280,word_count,8037,5,7,WAFF
1232.720751618,word_count,7988,7,0,WAFF
1232.720751618,word_count,7988,7,0,WAFF
1232.722155511,word_count,8041,0,1,WAFF
1232.722155511,word_count,8041,0,1,WAFF
1232.723200162,word_count,8001,3,61,ILB
1232.723200162,word_count,8001,3,61,ILB
1232.723921444,word_count,8019,61,62,ILB
1232.723921444,word_count,8019,61,62,ILB
1232.726242591,word_count,7987,1,6,ILB
1232.726242591,word_count,7987,1,6,ILB
1232.726255949,word_count,8020,62,47,ILB
1232.726255949,word_count,8020,62,47,ILB
1232.727443502,word_count,7984,6,52,ILB
1232.727443502,word_count,7984,6,52,ILB
1232.729897196,word_count,8030,52,54,ILB
1232.729897196,word_count,8030,52,54,ILB
1232.730959091,word_count,8020,47,38,ILB
1232.730959091,word_count,8020,47,38,ILB
1232.731956303,word_count,8030,54,55,WAFF
1232.731956303,word_count,8030,54,55,WAFF
1232.731967193,word_count,8026,55,48,WAFF
1232.731967193,word_count,8026,55,48,WAFF
1232.731981673,word_count,8033,48,50,WAFF
1232.731981673,word_count,8033,48,50,WAFF
1232.732063576,word_count,8003,50,51,WAFF
1232.732063576,word_count,8003,50,51,WAFF
1232.732525507,word_count,8024,38,39,WAFF
1232.732525507,word_count,8024,38,39,WAFF
1232.733017505,word_count,8003,51,53,WAFF
1232.733017505,word_count,8003,51,53,WAFF
1232.736591072,word_count,8007,53,49,ILB
1232.736591072,word_count,8007,53,49,ILB
1232.737257686,word_count,8007,49,50,WAFF
1232.737257686,word_count,8007,49,50,WAFF
1232.737262039,word_count,8033,50,51,WAFF
1232.737262039,word_count,8033,50,51,WAFF
1232.737838607,word_count,8033,51,52,WAFF
1232.737838607,word_count,8033,51,52,WAFF
1232.737892552,word_count,7984,52,49,ILB
1232.737892552,word_count,7984,52,49,ILB
1232.739368337,word_count,7984,49,4,ILB
1232.739368337,word_count,7984,49,4,ILB
1232.741785576,word_count,7984,4,7,WAFF
1232.741785576,word_count,7984,4,7,WAFF
1232.742647713,word_count,8034,39,32,WAFF
1232.742647713,word_count,8034,39,32,WAFF
1232.743953283,word_count,8037,7,26,ILB
1232.743953283,word_count,8037,7,26,ILB
1232.744518357,word_count,8015,26,59,ILB
1232.744518357,word_count,8015,26,59,ILB
1232.747647914,word_count,8015,59,60,ILB
1232.747647914,word_count,8015,59,60,ILB
1232.758164949,word_count,8022,60,61,WAFF
1232.758164949,word_count,8022,60,61,WAFF
1232.762547056,word_count,8022,61,52,ILB
1232.762547056,word_count,8022,61,52,ILB
1232.768076413,word_count,8022,52,43,ILB
1232.768076413,word_count,8022,52,43,ILB
1232.776707788,word_count,8011,43,44,WAFF
1232.776707788,word_count,8011,43,44,WAFF
1232.778442154,word_count,8028,44,7,ILB
1232.778442154,word_count,8028,44,7,ILB
1232.781330314,word_count,7984,7,1,WAFF
1232.781330314,word_count,7984,7,1,WAFF
1232.781335974,word_count,8041,1,2,WAFF
1232.781335974,word_count,8041,1,2,WAFF
1233.298917862,word_count,8010,41,42,WAFF
1233.298917862,word_count,8010,41,42,WAFF
1233.301585148,word_count,7980,42,59,ILB
1233.301585148,word_count,7980,42,59,ILB
1233.302796633,word_count,7980,59,49,ILB
1233.302796633,word_count,7980,59,49,ILB
1233.303447722,word_count,7992,49,48,ILB
1233.303447722,word_count,7992,49,48,ILB
1233.305604087,word_count,7992,48,51,WAFF
1233.305604087,word_count,7992,48,51,WAFF
1233.310291189,word_count,7992,51,52,WAFF
1233.310291189,word_count,7992,51,52,WAFF
1233.311521295,word_count,8033,52,55,ILB
1233.311521295,word_count,8033,52,55,ILB
1233.312249503,word_count,8033,55,48,WAFF
1233.312249503,word_count,8033,55,48,WAFF
1233.316348887,word_count,8026,48,50,WAFF
1233.316348887,word_count,8026,48,50,WAFF
1233.317340183,word_count,8026,50,32,ILB
1233.317340183,word_count,8026,50,32,ILB
1233.319819944,word_count,8026,32,34,WAFF
1233.319819944,word_count,8026,32,34,WAFF
1233.325371186,word_count,8012,34,36,WAFF
1233.325371186,word_count,8012,34,36,WAFF
1233.325382388,word_count,8006,36,37,WAFF
1233.325382388,word_count,8006,36,37,WAFF
1233.329795184,word_count,8006,37,31,ILB
1233.329795184,word_count,8006,37,31,ILB
1233.333279545,word_count,8002,31,24,WAFF
1233.333279545,word_count,8002,31,24,WAFF
1233.333286086,word_count,8043,24,25,WAFF
1233.333286086,word_count,8043,24,25,WAFF
1233.333363934,word_count,8018,25,26,WAFF
1233.333363934,word_count,8018,25,26,WAFF
1233.333655585,word_count,8037,26,27,WAFF
1233.333655585,word_count,8037,26,27,WAFF
1233.338933759,word_count,8037,27,28,WAFF
1233.338933759,word_count,8037,27,28,WAFF
1233.341582449,word_count,8005,28,29,WAFF
1233.341582449,word_count,8005,28,29,WAFF
1233.354713665,word_count,7990,29,36,ILB
1233.354713665,word_count,7990,29,36,ILB
1233.357491077,word_count,7990,36,37,WAFF
1233.357491077,word_count,7990,36,37,WAFF
1233.358572572,word_count,7990,37,5,ILB
1233.358572572,word_count,7990,37,5,ILB
1233.359273449,word_count,7990,5,6,WAFF
1233.359273449,word_count,7990,5,6,WAFF
1233.360479733,word_count,7987,6,7,WAFF
1233.360479733,word_count,7987,6,7,WAFF
1233.360565584,word_count,8028,7,33,ILB
1233.360565584,word_count,8028,7,33,ILB
1233.365118701,word_count,8028,33,32,ILB
1233.365118701,word_count,8028,33,32,ILB
1233.367439538,word_count,8034,32,4,ILB
1233.367439538,word_count,8034,32,4,ILB
1233.372673283,word_count,7999,4,7,WAFF
1233.372673283,word_count,7999,4,7,WAFF
1233.377010897,word_count,7987,7,2,ILB
1233.377010897,word_count,7987,7,2,ILB
1233.382531237,word_count,8041,2,8,ILB
1233.382531237,word_count,8041,2,8,ILB
1233.388375152,word_count,7998,8,9,WAFF
1233.388375152,word_count,7998,8,9,WAFF
1233.392513466,word_count,7998,9,10,WAFF
1233.392513466,word_count,7998,9,10,WAFF
1233.393706895,word_count,8039,10,11,ILB
1233.393706895,word_count,8039,10,11,ILB
1233.402803584,word_count,7993,11,63,ILB
1233.402803584,word_count,7993,11,63,ILB
1233.404820961,word_count,7985,63,2,ILB
1233.404820961,word_count,7985,63,2,ILB
1233.407713022,word_count,7987,2,38,ILB
1233.407713022,word_count,7987,2,38,ILB
1233.415557008,word_count,7987,38,5,ILB
1233.415557008,word_count,7987,38,5,ILB
1233.418268118,word_count,7983,5,33,ILB
1233.418268118,word_count,7983,5,33,ILB
1233.424449397,word_count,7983,33,35,WAFF
1233.424449397,word_count,7983,33,35,WAFF
1233.431925175,word_count,8031,35,20,ILB
1233.431925175,word_count,8031,35,20,ILB
1233.440927304,word_count,8000,20,24,ILB
1233.440927304,word_count,8000,20,24,ILB
1233.443130034,word_count,8000,24,26,WAFF
1233.443130034,word_count,8000,24,26,WAFF
1233.450376864,word_count,8018,26,27,WAFF
1233.450376864,word_count,8018,26,27,WAFF
1233.452054875,word_count,8018,27,28,WAFF
1233.452054875,word_count,8018,27,28,WAFF
1233.453507351,word_count,8018,28,31,ILB
1233.453507351,word_count,8018,28,31,ILB
1233.454499539,word_count,8006,31,24,WAFF
1233.454499539,word_count,8006,31,24,WAFF
1233.457451074,word_count,8002,24,30,ILB
1233.457451074,word_count,8002,24,30,ILB
1233.466509659,word_count,8002,30,15,ILB
1233.466509659,word_count,8002,30,15,ILB
1233.466823044,word_count,8040,15,8,WAFF
1233.466823044,word_count,8040,15,8,WAFF
1233.471533577,word_count,8040,8,11,ILB
1233.471533577,word_count,8040,8,11,ILB
1233.480147982,word_count,8039,11,12,WAFF
1233.480147982,word_count,8039,11,12,WAFF
1233.484144567,word_count,8004,12,26,ILB
1233.484144567,word_count,8004,12,26,ILB
1233.498599996,word_count,8000,26,29,WAFF
1233.498599996,word_count,8000,26,29,WAFF
1233.498796085,word_count,8005,29,7,ILB
1233.498796085,word_count,8005,29,7,ILB
1233.503376329,word_count,7999,7,0,WAFF
1233.503376329,word_count,7999,7,0,WAFF
1233.503388774,word_count,7988,0,1,WAFF
1233.503388774,word_count,7988,0,1,WAFF
1233.507063386,word_count,7988,1,2,WAFF
1233.507063386,word_count,7988,1,2,WAFF
1233.509256524,word_count,7988,2,61,ILB
1233.509256524,word_count,7988,2,61,ILB
1233.509792390,word_count,8001,61,57,ILB
1233.509792390,word_count,8001,61,57,ILB
1233.512198653,word_count,8001,57,59,WAFF
1233.512198653,word_count,8001,57,59,WAFF
1233.520289834,word_count,7986,59,56,ILB
1233.520289834,word_count,7986,59,56,ILB
1233.523855974,word_count,7986,56,57,WAFF
1233.523855974,word_count,7986,56,57,WAFF
1233.528362937,word_count,7986,57,58,WAFF
1233.528362937,word_count,7986,57,58,WAFF
1233.531261808,word_count,8016,58,60,WAFF
1233.531261808,word_count,8016,58,60,WAFF
1233.546844006,word_count,8015,60,56,ILB
1233.546844006,word_count,8015,60,56,ILB
1233.547532450,word_count,8015,56,25,ILB
1233.547532450,word_count,8015,56,25,ILB
1233.549414663,word_count,8015,25,26,WAFF
1233.549414663,word_count,8015,25,26,WAFF
1233.549561329,word_count,8004,26,61,ILB
1233.549561329,word_count,8004,26,61,ILB
1233.550896640,word_count,7988,61,56,ILB
1233.550896640,word_count,7988,61,56,ILB
1233.552146728,word_count,7989,56,57,WAFF
1233.552146728,word_count,7989,56,57,WAFF
1233.554093125,word_count,7982,57,47,ILB
1233.554093125,word_count,7982,57,47,ILB
1233.560569817,word_count,8025,47,40,WAFF
1233.560569817,word_count,8025,47,40,WAFF
1233.562418091,word_count,8023,40,0,ILB
1233.562418091,word_count,8023,40,0,ILB
1233.566698259,word_count,7999,0,1,WAFF
1233.566698259,word_count,7999,0,1,WAFF
1233.573880463,word_count,7984,1,40,ILB
1233.573880463,word_count,7984,1,40,ILB
1233.576145455,word_count,7984,40,44,ILB
1233.576145455,word_count,7984,40,44,ILB
1233.582422726,word_count,7984,44,47,WAFF
1233.582422726,word_count,7984,44,47,WAFF
1233.585751649,word_count,7982,47,40,WAFF
1233.585751649,word_count,7982,47,40,WAFF
1233.588836879,word_count,7982,40,24,ILB
1233.588836879,word_count,7982,40,24,ILB
1233.593874647,word_count,8006,24,20,ILB
1233.593874647,word_count,8006,24,20,ILB
1233.598366968,word_count,8006,20,22,WAFF
1233.598366968,word_count,8006,20,22,WAFF
1233.599871165,word_count,8038,22,48,ILB
1233.599871165,word_count,8038,22,48,ILB
1233.600319232,word_count,8033,48,50,WAFF
1233.600319232,word_count,8033,48,50,WAFF
1233.602572828,word_count,8007,50,51,WAFF
1233.602572828,word_count,8007,50,51,WAFF
1233.604164747,word_count,7995,51,52,WAFF
1233.604164747,word_count,7995,51,52,WAFF
1233.609909002,word_count,7992,52,53,WAFF
1233.609909002,word_count,7992,52,53,WAFF
1233.615893766,word_count,8003,53,54,WAFF
1233.615893766,word_count,8003,53,54,WAFF
1233.622035197,word_count,7996,54,48,WAFF
1233.622035197,word_count,7996,54,48,WAFF
1233.623593245,word_count,8038,48,49,WAFF
1233.623593245,word_count,8038,48,49,WAFF
1233.632222861,word_count,8038,49,50,WAFF
1233.632222861,word_count,8038,49,50,WAFF
1233.632271419,word_count,8033,50,54,WAFF
1233.632271419,word_count,8033,50,54,WAFF
1233.632275353,word_count,8003,54,55,WAFF
1233.632275353,word_count,8003,54,55,WAFF
1233.632459350,word_count,8030,55,48,WAFF
1233.632459350,word_count,8030,55,48,WAFF
1233.632543604,word_count,7996,48,49,WAFF
1233.632543604,word_count,7996,48,49,WAFF
1233.648162832,word_count,7980,49,50,WAFF
1233.648162832,word_count,7980,49,50,WAFF
1233.650385147,word_count,7980,50,6,ILB
1233.650385147,word_count,7980,50,6,ILB
1233.653119105,word_count,7990,6,7,ILB
1233.653119105,word_count,7990,6,7,ILB
1233.653811213,word_count,8005,7,11,ILB
1233.653811213,word_count,8005,7,11,ILB
1233.654083637,word_count,8040,11,13,WAFF
1233.654083637,word_count,8040,11,13,WAFF
1233.659637252,word_count,8040,13,9,ILB
1233.659637252,word_count,8040,13,9,ILB
1233.660355329,word_count,8040,9,10,WAFF
1233.660355329,word_count,8040,9,10,WAFF
1233.664293703,word_count,8040,10,11,WAFF
1233.664293703,word_count,8040,10,11,WAFF
1233.666853134,word_count,8040,11,12,WAFF
1233.666853134,word_count,8040,11,12,WAFF
1233.668470891,word_count,8039,12,51,ILB
1233.668470891,word_count,8039,12,51,ILB
1233.671355183,word_count,8007,51,56,ILB
1233.671355183,word_count,8007,51,56,ILB
1233.674242946,word_count,8007,56,57,WAFF
1233.674242946,word_count,8007,56,57,WAFF
1233.675324584,word_count,7989,57,37,ILB
1233.675324584,word_count,7989,57,37,ILB
1233.677056377,word_count,8027,37,38,WAFF
1233.677056377,word_count,8027,37,38,WAFF
1233.679706275,word_count,8027,38,22,ILB
1233.679706275,word_count,8027,38,22,ILB
1233.680339796,word_count,8006,22,25,ILB
1233.680339796,word_count,8006,22,25,ILB
1233.681547741,word_count,8043,25,26,WAFF
1233.681547741,word_count,8043,25,26,WAFF
1233.682556450,word_count,8015,26,29,ILB
1233.682556450,word_count,8015,26,29,ILB
1233.688539864,word_count,8015,29,30,WAFF
1233.688539864,word_count,8015,29,30,WAFF
1233.692111557,word_count,8009,30,38,ILB
1233.692111557,word_count,8009,30,38,ILB
1233.692708827,word_count,8020,38,34,ILB
1233.692708827,word_count,8020,38,34,ILB
1233.695837320,word_count,8026,34,32,ILB
1233.695837320,word_count,8026,34,32,ILB
1233.698941969,word_count,8028,32,33,ILB
1233.698941969,word_count,8028,32,33,ILB
1233.700500438,word_count,8028,33,17,ILB
1233.700500438,word_count,8028,33,17,ILB
1233.704871890,word_count,8028,17,18,WAFF
1233.704871890,word_count,8028,17,18,WAFF
1233.704930278,word_count,8021,18,19,WAFF
1233.704930278,word_count,8021,18,19,WAFF
1233.713255947,word_count,8008,19,20,WAFF
1233.713255947,word_count,8008,19,20,WAFF
1233.719153387,word_count,8008,20,21,WAFF
1233.719153387,word_count,8008,20,21,WAFF
1233.732106582,word_count,8008,21,23,WAFF
1233.732106582,word_count,8008,21,23,WAFF
1233.733954192,word_count,8008,23,16,WAFF
1233.733954192,word_count,8008,23,16,WAFF
1233.735820989,word_count,8008,16,17,WAFF
1233.735820989,word_count,8008,16,17,WAFF
1233.739079891,word_count,8008,17,18,WAFF
1233.739079891,word_count,8008,17,18,WAFF
1233.743128960,word_count,8008,18,19,WAFF
1233.743128960,word_count,8008,18,19,WAFF
1233.744011607,word_count,8021,19,3,ILB
1233.744011607,word_count,8021,19,3,ILB
1233.750710116,word_count,8042,3,4,WAFF
1233.750710116,word_count,8042,3,4,WAFF
1233.752972461,word_count,8034,4,6,WAFF
1233.752972461,word_count,8034,4,6,WAFF
1233.754344475,word_count,8034,6,0,ILB
1233.754344475,word_count,8034,6,0,ILB
1233.758871107,word_count,8034,0,1,WAFF
1233.758871107,word_count,8034,0,1,WAFF
1233.760364417,word_count,7999,1,2,WAFF
1233.760364417,word_count,7999,1,2,WAFF
1233.761009620,word_count,7999,2,3,WAFF
1233.761009620,word_count,7999,2,3,WAFF
1233.761943272,word_count,8021,3,6,ILB
1233.761943272,word_count,8021,3,6,ILB
1233.762680163,word_count,8021,6,49,ILB
1233.762680163,word_count,8021,6,49,ILB
1233.763152076,word_count,7996,49,50,WAFF
1233.763152076,word_count,7996,49,50,WAFF
1233.763240638,word_count,8038,50,51,WAFF
1233.763240638,word_count,8038,50,51,WAFF
1233.767449225,word_count,8038,51,52,WAFF
1233.767449225,word_count,8038,51,52,WAFF
1233.767681841,word_count,7995,52,54,ILB
1233.767681841,word_count,7995,52,54,ILB
1233.774587894,word_count,8033,54,55,WAFF
1233.774587894,word_count,8033,54,55,WAFF
1233.777498489,word_count,8033,55,48,ILB
1233.777498489,word_count,8033,55,48,ILB
1233.778731022,word_count,8033,48,43,ILB
1233.778731022,word_count,8033,48,43,ILB
1233.792659526,word_count,8033,43,40,WAFF
1233.792659526,word_count,8033,43,40,WAFF
1233.793839160,word_count,8025,40,41,WAFF
1233.793839160,word_count,8025,40,41,WAFF
1235.339035346,word_count,8025,41,42,WAFF
1235.339035346,word_count,8025,41,42,WAFF
1235.339410151,word_count,8010,42,32,ILB
1235.339410151,word_count,8010,42,32,ILB
1235.339862402,word_count,8010,32,33,WAFF
1235.339862402,word_count,8010,32,33,WAFF
1235.340863190,word_count,8013,33,35,ILB
1235.340863190,word_count,8013,33,35,ILB
1235.343356426,word_count,7983,35,36,ILB
1235.343356426,word_count,7983,35,36,ILB
1235.343917345,word_count,7983,36,39,WAFF
1235.343917345,word_count,7983,36,39,WAFF
1235.345948629,word_count,8024,39,38,ILB
1235.345948629,word_count,8024,39,38,ILB
1235.349170350,word_count,8024,38,39,WAFF
1235.349170350,word_count,8024,38,39,WAFF
1235.350368814,word_count,8024,39,32,WAFF
1235.350368814,word_count,8024,39,32,WAFF
1235.350564454,word_count,8026,32,33,WAFF
1235.350564454,word_count,8026,32,33,WAFF
1235.353358489,word_count,8010,33,34,WAFF
1235.353358489,word_count,8010,33,34,WAFF
1235.355982207,word_count,8010,34,59,ILB
1235.355982207,word_count,8010,34,59,ILB
1235.357999571,word_count,8010,59,63,ILB
1235.357999571,word_count,8010,59,63,ILB
1235.360530648,word_count,8010,63,56,WAFF
1235.360530648,word_count,8010,63,56,WAFF
1235.360735953,word_count,7988,56,57,WAFF
1235.360735953,word_count,7988,56,57,WAFF
1235.360908958,word_count,8007,57,58,WAFF
1235.360908958,word_count,8007,57,58,WAFF
1235.362526529,word_count,7986,58,43,ILB
1235.362526529,word_count,7986,58,43,ILB
1235.363066200,word_count,8022,43,22,ILB
1235.363066200,word_count,8022,43,22,ILB
1235.367140306,word_count,8022,22,54,ILB
1235.367140306,word_count,8022,22,54,ILB
1235.369414598,word_count,7995,54,55,WAFF
1235.369414598,word_count,7995,54,55,WAFF
1235.370315462,word_count,8003,55,51,ILB
1235.370315462,word_count,8003,55,51,ILB
1235.376176126,word_count,8003,51,52,WAFF
1235.376176126,word_count,8003,51,52,WAFF
1235.379039796,word_count,8038,52,20,ILB
1235.379039796,word_count,8038,52,20,ILB
1235.382543197,word_count,8031,20,24,ILB
1235.382543197,word_count,8031,20,24,ILB
1235.382888632,word_count,7982,24,25,WAFF
1235.382888632,word_count,7982,24,25,WAFF
1235.385843206,word_count,8006,25,24,ILB
1235.385843206,word_count,8006,25,24,ILB
1235.391246390,word_count,8031,24,25,WAFF
1235.391246390,word_count,8031,24,25,WAFF
1235.392756611,word_count,7982,25,26,WAFF
1235.392756611,word_count,7982,25,26,WAFF
1235.398553123,word_count,8043,26,29,WAFF
1235.398553123,word_count,8043,26,29,WAFF
1235.399898633,word_count,8043,29,56,ILB
1235.399898633,word_count,8043,29,56,ILB
1235.400584807,word_count,8043,56,57,WAFF
1235.400584807,word_count,8043,56,57,WAFF
1235.401979047,word_count,7988,57,51,ILB
1235.401979047,word_count,7988,57,51,ILB
1235.405546112,word_count,8039,51,42,ILB
1235.405546112,word_count,8039,51,42,ILB
1235.408652059,word_count,8025,42,44,WAFF
1235.408652059,word_count,8025,42,44,WAFF
1235.411049520,word_count,8025,44,24,ILB
1235.411049520,word_count,8025,44,24,ILB
1235.414659983,word_count,8025,24,25,WAFF
1235.414659983,word_count,8025,24,25,WAFF
1235.416335663,word_count,8031,25,26,WAFF
1235.416335663,word_count,8031,25,26,WAFF
1235.416473202,word_count,7982,26,27,ILB
1235.416473202,word_count,7982,26,27,ILB
1235.419088981,word_count,7991,27,28,WAFF
1235.419088981,word_count,7991,27,28,WAFF
1235.421833807,word_count,8037,28,30,WAFF
1235.421833807,word_count,8037,28,30,WAFF
1235.425348902,word_count,8037,30,25,WAFF
1235.425348902,word_count,8037,30,25,WAFF
1235.428338821,word_count,8037,25,58,ILB
1235.428338821,word_count,8037,25,58,ILB
1235.434854948,word_count,8007,58,60,WAFF
1235.434854948,word_count,8007,58,60,WAFF
1235.435788201,word_count,8016,60,61,WAFF
1235.435788201,word_count,8016,60,61,WAFF
1235.436024367,word_count,8004,61,63,WAFF
1235.436024367,word_count,8004,61,63,WAFF
1235.436273119,word_count,7993,63,56,WAFF
1235.436273119,word_count,7993,63,56,WAFF
1235.438197419,word_count,8010,56,57,WAFF
1235.438197419,word_count,8010,56,57,WAFF
1235.438206105,word_count,8043,57,58,WAFF
1235.438206105,word_count,8043,57,58,WAFF
1235.445741279,word_count,8037,58,32,ILB
1235.445741279,word_count,8037,58,32,ILB
1235.447941364,word_count,8024,32,33,WAFF
1235.447941364,word_count,8024,32,33,WAFF
1235.447954148,word_count,8026,33,36,WAFF
1235.447954148,word_count,8026,33,36,WAFF
1235.448732960,word_count,8012,36,39,WAFF
1235.448732960,word_count,8012,36,39,WAFF
1235.450417111,word_count,7983,39,32,WAFF
1235.450417111,word_count,7983,39,32,WAFF
1235.453831581,word_count,7983,32,33,WAFF
1235.453831581,word_count,7983,32,33,WAFF
1235.461880628,word_count,7983,33,34,WAFF
1235.461880628,word_count,7983,33,34,WAFF
1235.463731766,word_count,8020,34,35,WAFF
1235.463731766,word_count,8020,34,35,WAFF
1235.464811321,word_count,8020,35,36,WAFF
1235.464811321,word_count,8020,35,36,WAFF
1235.467702900,word_count,8020,36,37,WAFF
1235.467702900,word_count,8020,36,37,WAFF
1235.468611459,word_count,7989,37,39,WAFF
1235.468611459,word_count,7989,37,39,WAFF
1235.469964757,word_count,8012,39,16,ILB
1235.469964757,word_count,8012,39,16,ILB
1235.475671821,word_count,8035,16,19,ILB
1235.475671821,word_count,8035,16,19,ILB
1235.489648642,word_count,8035,19,20,WAFF
1235.489648642,word_count,8035,19,20,WAFF
1235.493568274,word_count,8038,20,21,WAFF
1235.493568274,word_count,8038,20,21,WAFF
1235.495120375,word_count,8036,21,31,ILB
1235.495120375,word_count,8036,21,31,ILB
1235.497067412,word_count,8036,31,24,WAFF
1235.497067412,word_count,8036,31,24,WAFF
1235.498861115,word_count,8006,24,36,ILB
1235.498861115,word_count,8006,24,36,ILB
1235.503802112,word_count,8006,36,38,ILB
1235.503802112,word_count,8006,36,38,ILB
1235.507461728,word_count,8006,38,39,WAFF
1235.507461728,word_count,8006,38,39,WAFF
1235.509259288,word_count,7989,39,32,WAFF
1235.509259288,word_count,7989,39,32,WAFF
1235.512876234,word_count,8037,32,20,ILB
1235.512876234,word_count,8037,32,20,ILB
1235.516614424,word_count,8035,20,21,WAFF
1235.516614424,word_count,8035,20,21,WAFF
1235.518603917,word_count,8038,21,22,WAFF
1235.518603917,word_count,8038,21,22,WAFF
1235.519691877,word_count,8027,22,23,WAFF
1235.519691877,word_count,8027,22,23,WAFF
1235.522025792,word_count,7981,23,18,WAFF
1235.522025792,word_count,7981,23,18,WAFF
1235.534378623,word_count,7981,18,31,ILB
1235.534378623,word_count,7981,18,31,ILB
1235.535238184,word_count,7981,31,9,ILB
1235.535238184,word_count,7981,31,9,ILB
1235.539007015,word_count,7994,9,1,ILB
1235.539007015,word_count,7994,9,1,ILB
1235.543021561,word_count,7994,1,44,ILB
1235.543021561,word_count,7994,1,44,ILB
1235.543691786,word_count,8011,44,45,WAFF
1235.543691786,word_count,8011,44,45,WAFF
1235.543698783,word_count,8032,45,46,WAFF
1235.543698783,word_count,8032,45,46,WAFF
1235.544368555,word_count,8032,46,36,ILB
1235.544368555,word_count,8032,46,36,ILB
1235.546676127,word_count,8026,36,39,WAFF
1235.546676127,word_count,8026,36,39,WAFF
1235.548509308,word_count,8006,39,32,WAFF
1235.548509308,word_count,8006,39,32,WAFF
1235.548549884,word_count,7989,32,33,WAFF
1235.548549884,word_count,7989,32,33,WAFF
1235.550810265,word_count,8024,33,7,ILB
1235.550810265,word_count,8024,33,7,ILB
1235.551140562,word_count,7990,7,0,WAFF
1235.551140562,word_count,7990,7,0,WAFF
1235.553794043,word_count,7990,0,1,WAFF
1235.553794043,word_count,7990,0,1,WAFF
1235.557880003,word_count,8034,1,23,ILB
1235.557880003,word_count,8034,1,23,ILB
1235.562226942,word_count,8027,23,16,WAFF
1235.562226942,word_count,8027,23,16,WAFF
1235.562421851,word_count,8012,16,21,ILB
1235.562421851,word_count,8012,16,21,ILB
1235.566484449,word_count,8012,21,22,WAFF
1235.566484449,word_count,8012,21,22,WAFF
1235.566870201,word_count,8038,22,23,WAFF
1235.566870201,word_count,8038,22,23,WAFF
1235.568927273,word_count,8038,23,24,ILB
1235.568927273,word_count,8038,23,24,ILB
1235.570043699,word_count,8036,24,30,ILB
1235.570043699,word_count,8036,24,30,ILB
1235.571377134,word_count,8015,30,31,WAFF
1235.571377134,word_count,8015,30,31,WAFF
1235.571901643,word_count,8015,31,24,WAFF
1235.571901643,word_count,8015,31,24,WAFF
1235.575150389,word_count,8038,24,26,WAFF
1235.575150389,word_count,8038,24,26,WAFF
1235.576247681,word_count,8038,26,27,ILB
1235.576247681,word_count,8038,26,27,ILB
1235.577079881,word_count,8038,27,14,ILB
1235.577079881,word_count,8038,27,14,ILB
1235.577428119,word_count,7997,14,9,WAFF
1235.577428119,word_count,7997,14,9,WAFF
1235.579460251,word_count,7981,9,49,ILB
1235.579460251,word_count,7981,9,49,ILB
1235.586108797,word_count,8021,49,52,WAFF
1235.586108797,word_count,8021,49,52,WAFF
1235.589170726,word_count,8021,52,54,WAFF
1235.589170726,word_count,8021,52,54,WAFF
1235.595617706,word_count,8021,54,53,ILB
1235.595617706,word_count,8021,54,53,ILB
1235.601437890,word_count,7992,53,48,WAFF
1235.601437890,word_count,7992,53,48,WAFF
1235.602963324,word_count,8030,48,49,WAFF
1235.602963324,word_count,8030,48,49,WAFF
1235.607240784,word_count,7981,49,3,ILB
1235.607240784,word_count,7981,49,3,ILB
1235.609396575,word_count,7999,3,4,WAFF
1235.609396575,word_count,7999,3,4,WAFF
1235.610097926,word_count,8042,4,7,ILB
1235.610097926,word_count,8042,4,7,ILB
1235.611373216,word_count,8042,7,6,ILB
1235.611373216,word_count,8042,7,6,ILB
1235.614188416,word_count,7980,6,0,WAFF
1235.614188416,word_count,7980,6,0,WAFF
1235.617361236,word_count,8023,0,2,WAFF
1235.617361236,word_count,8023,0,2,WAFF
1235.627246293,word_count,8023,2,10,ILB
1235.627246293,word_count,8023,2,10,ILB
1235.636582862,word_count,7998,10,11,WAFF
1235.636582862,word_count,7998,10,11,WAFF
1235.637644019,word_count,8005,11,13,WAFF
1235.637644019,word_count,8005,11,13,WAFF
1235.638468519,word_count,8014,13,8,ILB
1235.638468519,word_count,8014,13,8,ILB
1235.643527873,word_count,8041,8,9,WAFF
1235.643527873,word_count,8041,8,9,WAFF
1235.646233012,word_count,8041,9,10,WAFF
1235.646233012,word_count,8041,9,10,WAFF
1235.652073020,word_count,8023,10,11,WAFF
1235.652073020,word_count,8023,10,11,WAFF
1235.652094602,word_count,7998,11,12,WAFF
1235.652094602,word_count,7998,11,12,WAFF
1235.652363698,word_count,8040,12,13,WAFF
1235.652363698,word_count,8040,12,13,WAFF
1235.672319954,word_count,8040,13,14,ILB
1235.672319954,word_count,8040,13,14,ILB
1235.675575117,word_count,8038,14,15,WAFF
1235.675575117,word_count,8038,14,15,WAFF
1235.677032740,word_count,8002,15,9,WAFF
1235.677032740,word_count,8002,15,9,WAFF
1235.677539539,word_count,7997,9,47,ILB
1235.677539539,word_count,7997,9,47,ILB
1235.680463134,word_count,7984,47,40,WAFF
1235.680463134,word_count,7984,47,40,WAFF
1235.681004242,word_count,7984,40,41,WAFF
1235.681004242,word_count,7984,40,41,WAFF
1238.183181843,rcu_sched,8,41,24,WAFF
1238.227190092,kworker/u136:1,1036,56,58,WAFF
1238.475183345,rcu_sched,8,24,43,WAFF
1238.483240622,jbd2/sdb1-8,1060,0,43,ILB
1238.739451394,word_count,7987,5,10,ILB
1238.739451394,word_count,7987,5,10,ILB
1238.739607845,word_count,7992,48,34,WAFF
1238.739607845,word_count,7992,48,34,WAFF
1238.743218149,rcu_sched,8,43,24,WAFF
1238.754044936,perf,7978,31,46,WAFF
