Time,Comm,Pid,Orig,Dest,Trigger
1125.57956574,perf,7542,40,30,ELB
1125.59026841,time,7543,30,51,FLB
1125.59183316,time,7543,51,32,ELB
1125.60733208,volrend,7543,32,52,ELB
1125.60733208,volrend,7543,32,52,ELB
1125.62461342,volrend,7543,52,0,CA
1125.62461342,volrend,7543,52,0,CA
1125.850536326,volrend,7544,0,31,FLB
1125.850536326,volrend,7544,0,31,FLB
1125.850585576,volrend,7544,31,1,CA
1125.850585576,volrend,7544,31,1,CA
1125.850627980,volrend,7543,0,24,WAFF
1125.850627980,volrend,7543,0,24,WAFF
1125.850752953,volrend,7545,24,42,FLB
1125.850752953,volrend,7545,24,42,FLB
1125.850773557,volrend,7545,42,2,CA
1125.850773557,volrend,7545,42,2,CA
1125.850832207,volrend,7546,24,48,FLB
1125.850832207,volrend,7546,24,48,FLB
1125.850840668,volrend,7546,48,3,CA
1125.850840668,volrend,7546,48,3,CA
1125.850902677,volrend,7547,24,13,FLB
1125.850902677,volrend,7547,24,13,FLB
1125.850914585,volrend,7547,13,4,CA
1125.850914585,volrend,7547,13,4,CA
1125.850970310,volrend,7548,24,43,FLB
1125.850970310,volrend,7548,24,43,FLB
1125.850978600,volrend,7548,43,5,CA
1125.850978600,volrend,7548,43,5,CA
1125.851025864,volrend,7549,24,49,FLB
1125.851025864,volrend,7549,24,49,FLB
1125.851033922,volrend,7549,49,6,CA
1125.851033922,volrend,7549,49,6,CA
1125.851091561,volrend,7550,24,44,FLB
1125.851091561,volrend,7550,24,44,FLB
1125.851104846,volrend,7550,44,7,CA
1125.851104846,volrend,7550,44,7,CA
1125.851154846,volrend,7551,24,50,FLB
1125.851154846,volrend,7551,24,50,FLB
1125.851167707,volrend,7551,50,8,CA
1125.851167707,volrend,7551,50,8,CA
1125.851219631,volrend,7552,24,45,FLB
1125.851219631,volrend,7552,24,45,FLB
1125.851227140,volrend,7552,45,9,CA
1125.851227140,volrend,7552,45,9,CA
1125.851273740,volrend,7553,24,46,FLB
1125.851273740,volrend,7553,24,46,FLB
1125.851286220,volrend,7553,46,10,CA
1125.851286220,volrend,7553,46,10,CA
1125.851343062,volrend,7554,24,47,FLB
1125.851343062,volrend,7554,24,47,FLB
1125.851350681,volrend,7554,47,11,CA
1125.851350681,volrend,7554,47,11,CA
1125.851399895,volrend,7555,24,40,FLB
1125.851399895,volrend,7555,24,40,FLB
1125.851413033,volrend,7555,40,12,CA
1125.851413033,volrend,7555,40,12,CA
1125.851461072,volrend,7556,24,41,FLB
1125.851461072,volrend,7556,24,41,FLB
1125.851468106,volrend,7556,41,13,CA
1125.851468106,volrend,7556,41,13,CA
1125.851515719,volrend,7557,24,42,FLB
1125.851515719,volrend,7557,24,42,FLB
1125.851521209,volrend,7557,42,14,CA
1125.851521209,volrend,7557,42,14,CA
1125.851577636,volrend,7558,24,43,FLB
1125.851577636,volrend,7558,24,43,FLB
1125.851584683,volrend,7558,43,15,CA
1125.851584683,volrend,7558,43,15,CA
1125.851634411,volrend,7559,24,44,FLB
1125.851634411,volrend,7559,24,44,FLB
1125.851641232,volrend,7559,44,16,CA
1125.851641232,volrend,7559,44,16,CA
1125.851697996,volrend,7560,24,51,FLB
1125.851697996,volrend,7560,24,51,FLB
1125.851711848,volrend,7560,51,17,CA
1125.851711848,volrend,7560,51,17,CA
1125.851761901,volrend,7561,24,45,FLB
1125.851761901,volrend,7561,24,45,FLB
1125.851768845,volrend,7561,45,18,CA
1125.851768845,volrend,7561,45,18,CA
1125.851820521,volrend,7562,24,52,FLB
1125.851820521,volrend,7562,24,52,FLB
1125.851834189,volrend,7562,52,19,CA
1125.851834189,volrend,7562,52,19,CA
1125.851884723,volrend,7563,24,46,FLB
1125.851884723,volrend,7563,24,46,FLB
1125.851892840,volrend,7563,46,20,CA
1125.851892840,volrend,7563,46,20,CA
1125.851944545,volrend,7564,24,53,FLB
1125.851944545,volrend,7564,24,53,FLB
1125.851952434,volrend,7564,53,21,CA
1125.851952434,volrend,7564,53,21,CA
1125.852002596,volrend,7565,24,47,FLB
1125.852002596,volrend,7565,24,47,FLB
1125.852010259,volrend,7565,47,22,CA
1125.852010259,volrend,7565,47,22,CA
1125.852064686,volrend,7566,24,54,FLB
1125.852064686,volrend,7566,24,54,FLB
1125.852073008,volrend,7566,54,23,CA
1125.852073008,volrend,7566,54,23,CA
1125.852124766,volrend,7567,24,40,FLB
1125.852124766,volrend,7567,24,40,FLB
1125.852132758,volrend,7567,40,24,CA
1125.852132758,volrend,7567,40,24,CA
1125.852183265,volrend,7568,24,55,FLB
1125.852183265,volrend,7568,24,55,FLB
1125.852186555,volrend,7567,24,40,ILB
1125.852186555,volrend,7567,24,40,ILB
1125.852191454,volrend,7568,55,25,CA
1125.852191454,volrend,7568,55,25,CA
1125.852265868,volrend,7569,24,41,FLB
1125.852265868,volrend,7569,24,41,FLB
1125.852320874,volrend,7543,24,41,WAFF
1125.852320874,volrend,7543,24,41,WAFF
1125.852452047,volrend,7570,41,25,FLB
1125.852452047,volrend,7570,41,25,FLB
1125.852463446,volrend,7570,25,27,CA
1125.852463446,volrend,7570,25,27,CA
1125.852521905,volrend,7571,41,28,FLB
1125.852521905,volrend,7571,41,28,FLB
1125.852589831,volrend,7572,41,30,FLB
1125.852589831,volrend,7572,41,30,FLB
1125.852602688,volrend,7572,30,29,CA
1125.852602688,volrend,7572,30,29,CA
1125.852693578,volrend,7573,41,30,FLB
1125.852693578,volrend,7573,41,30,FLB
1125.852745963,volrend,7574,41,31,FLB
1125.852745963,volrend,7574,41,31,FLB
1125.852797251,volrend,7575,41,24,FLB
1125.852797251,volrend,7575,41,24,FLB
1125.852805077,volrend,7575,24,32,CA
1125.852805077,volrend,7575,24,32,CA
1125.852856793,volrend,7576,41,48,FLB
1125.852856793,volrend,7576,41,48,FLB
1125.852869485,volrend,7576,48,33,CA
1125.852869485,volrend,7576,48,33,CA
1125.852921092,volrend,7577,41,49,FLB
1125.852921092,volrend,7577,41,49,FLB
1125.852928368,volrend,7577,49,34,CA
1125.852928368,volrend,7577,49,34,CA
1125.852982170,volrend,7578,41,50,FLB
1125.852982170,volrend,7578,41,50,FLB
1125.852994264,volrend,7578,50,35,CA
1125.852994264,volrend,7578,50,35,CA
1125.853042931,volrend,7579,41,51,FLB
1125.853042931,volrend,7579,41,51,FLB
1125.853050221,volrend,7579,51,36,CA
1125.853050221,volrend,7579,51,36,CA
1125.853104199,volrend,7580,41,52,FLB
1125.853104199,volrend,7580,41,52,FLB
1125.853117001,volrend,7580,52,37,CA
1125.853117001,volrend,7580,52,37,CA
1125.853165257,volrend,7581,41,53,FLB
1125.853165257,volrend,7581,41,53,FLB
1125.853172510,volrend,7581,53,38,CA
1125.853172510,volrend,7581,53,38,CA
1125.853224972,volrend,7582,41,54,FLB
1125.853224972,volrend,7582,41,54,FLB
1125.853237762,volrend,7582,54,39,CA
1125.853237762,volrend,7582,54,39,CA
1125.853283346,volrend,7583,41,55,FLB
1125.853283346,volrend,7583,41,55,FLB
1125.853290832,volrend,7583,55,40,CA
1125.853290832,volrend,7583,55,40,CA
1125.853346305,volrend,7584,41,25,FLB
1125.853346305,volrend,7584,41,25,FLB
1125.853354422,volrend,7584,25,41,CA
1125.853354422,volrend,7584,25,41,CA
1125.853398980,volrend,7584,41,25,ILB
1125.853398980,volrend,7584,41,25,ILB
1125.853404527,volrend,7585,41,26,FLB
1125.853404527,volrend,7585,41,26,FLB
1125.853418371,volrend,7585,26,42,CA
1125.853418371,volrend,7585,26,42,CA
1125.853474801,volrend,7586,41,27,FLB
1125.853474801,volrend,7586,41,27,FLB
1125.853482805,volrend,7586,27,43,CA
1125.853482805,volrend,7586,27,43,CA
1125.853535027,volrend,7587,41,28,FLB
1125.853535027,volrend,7587,41,28,FLB
1125.853548155,volrend,7587,28,44,CA
1125.853548155,volrend,7587,28,44,CA
1125.853599202,volrend,7588,41,29,FLB
1125.853599202,volrend,7588,41,29,FLB
1125.853607054,volrend,7588,29,45,CA
1125.853607054,volrend,7588,29,45,CA
1125.853653360,volrend,7589,41,30,FLB
1125.853653360,volrend,7589,41,30,FLB
1125.853666684,volrend,7589,30,46,CA
1125.853666684,volrend,7589,30,46,CA
1125.853720439,volrend,7590,41,31,FLB
1125.853720439,volrend,7590,41,31,FLB
1125.853727946,volrend,7590,31,47,CA
1125.853727946,volrend,7590,31,47,CA
1125.853775374,volrend,7591,41,24,FLB
1125.853775374,volrend,7591,41,24,FLB
1125.853782634,volrend,7591,24,48,CA
1125.853782634,volrend,7591,24,48,CA
1125.853837533,volrend,7592,41,25,FLB
1125.853837533,volrend,7592,41,25,FLB
1125.853844747,volrend,7592,25,49,CA
1125.853844747,volrend,7592,25,49,CA
1125.853893691,volrend,7593,41,26,FLB
1125.853893691,volrend,7593,41,26,FLB
1125.853901733,volrend,7593,26,50,CA
1125.853901733,volrend,7593,26,50,CA
1125.853955786,volrend,7594,41,27,FLB
1125.853955786,volrend,7594,41,27,FLB
1125.853963359,volrend,7594,27,51,CA
1125.853963359,volrend,7594,27,51,CA
1125.854011810,volrend,7595,41,28,FLB
1125.854011810,volrend,7595,41,28,FLB
1125.854019014,volrend,7595,28,52,CA
1125.854019014,volrend,7595,28,52,CA
1125.854064792,volrend,7596,41,29,FLB
1125.854064792,volrend,7596,41,29,FLB
1125.854072220,volrend,7596,29,53,CA
1125.854072220,volrend,7596,29,53,CA
1125.854122521,volrend,7597,41,30,FLB
1125.854122521,volrend,7597,41,30,FLB
1125.854130387,volrend,7597,30,54,CA
1125.854130387,volrend,7597,30,54,CA
1125.854177226,volrend,7598,41,31,FLB
1125.854177226,volrend,7598,41,31,FLB
1125.854185077,volrend,7598,31,55,CA
1125.854185077,volrend,7598,31,55,CA
1125.854236376,volrend,7599,41,24,FLB
1125.854236376,volrend,7599,41,24,FLB
1125.854243679,volrend,7599,24,56,CA
1125.854243679,volrend,7599,24,56,CA
1125.854303305,volrend,7600,41,25,FLB
1125.854303305,volrend,7600,41,25,FLB
1125.854310779,volrend,7600,25,57,CA
1125.854310779,volrend,7600,25,57,CA
1125.854359028,volrend,7601,41,26,FLB
1125.854359028,volrend,7601,41,26,FLB
1125.854366423,volrend,7601,26,58,CA
1125.854366423,volrend,7601,26,58,CA
1125.854417552,volrend,7602,41,27,FLB
1125.854417552,volrend,7602,41,27,FLB
1125.854425387,volrend,7602,27,59,CA
1125.854425387,volrend,7602,27,59,CA
1125.854472767,volrend,7603,41,28,FLB
1125.854472767,volrend,7603,41,28,FLB
1125.854480199,volrend,7603,28,60,CA
1125.854480199,volrend,7603,28,60,CA
1125.854532806,volrend,7604,41,29,FLB
1125.854532806,volrend,7604,41,29,FLB
1125.854540173,volrend,7604,29,61,CA
1125.854540173,volrend,7604,29,61,CA
1125.854588857,volrend,7605,41,30,FLB
1125.854588857,volrend,7605,41,30,FLB
1125.854596661,volrend,7605,30,62,CA
1125.854596661,volrend,7605,30,62,CA
1125.854647427,volrend,7606,41,31,FLB
1125.854647427,volrend,7606,41,31,FLB
1125.854655000,volrend,7606,31,63,CA
1125.854655000,volrend,7606,31,63,CA
1125.854843784,volrend,7551,8,0,WAFF
1125.854843784,volrend,7551,8,0,WAFF
1125.854865274,volrend,7552,9,1,WAFF
1125.854865274,volrend,7552,9,1,WAFF
1125.854883319,volrend,7553,10,2,WAFF
1125.854883319,volrend,7553,10,2,WAFF
1125.854901847,volrend,7554,11,3,WAFF
1125.854901847,volrend,7554,11,3,WAFF
1125.854918805,volrend,7555,12,4,WAFF
1125.854918805,volrend,7555,12,4,WAFF
1125.855117750,volrend,7567,40,16,WAFF
1125.855117750,volrend,7567,40,16,WAFF
1125.855155380,volrend,7569,41,26,WAFF
1125.855155380,volrend,7569,41,26,WAFF
1125.856827389,volrend,7553,2,0,WAFF
1125.856827389,volrend,7553,2,0,WAFF
1125.868675817,volrend,7553,0,39,ILB
1125.868675817,volrend,7553,0,39,ILB
1125.868688629,volrend,7552,1,39,WAFF
1125.868688629,volrend,7552,1,39,WAFF
1125.868698162,volrend,7554,3,39,WAFF
1125.868698162,volrend,7554,3,39,WAFF
1125.880628032,volrend,7555,4,39,WAFF
1125.880628032,volrend,7555,4,39,WAFF
1125.888785551,volrend,7567,16,23,WAFF
1125.888785551,volrend,7567,16,23,WAFF
1125.888976917,volrend,7552,39,33,ILB
1125.888976917,volrend,7552,39,33,ILB
1125.888980695,volrend,7553,39,33,ILB
1125.888980695,volrend,7553,39,33,ILB
1125.892664750,volrend,7576,33,60,ILB
1125.892664750,volrend,7576,33,60,ILB
1125.908649443,volrend,7584,25,24,WAFF
1125.908649443,volrend,7584,25,24,WAFF
1125.908919118,volrend,7603,60,61,WAFF
1125.908919118,volrend,7603,60,61,WAFF
1125.924872982,volrend,7582,39,62,ILB
1125.924872982,volrend,7582,39,62,ILB
1125.924907381,volrend,7552,33,41,ILB
1125.924907381,volrend,7552,33,41,ILB
1125.924933214,volrend,7554,39,41,ILB
1125.924933214,volrend,7554,39,41,ILB
1125.924961456,volrend,7566,23,53,ILB
1125.924961456,volrend,7566,23,53,ILB
1125.925129340,volrend,7554,41,61,WAFF
1125.925129340,volrend,7554,41,61,WAFF
1125.925241542,volrend,7554,61,59,ILB
1125.925241542,volrend,7554,61,59,ILB
1125.927382135,volrend,7605,62,63,WAFF
1125.927382135,volrend,7605,62,63,WAFF
1125.927756657,volrend,7602,59,60,WAFF
1125.927756657,volrend,7602,59,60,WAFF
1125.932635408,rcu_sched,8,13,1,WAFF
1125.934368095,volrend,7576,60,61,WAFF
1125.934368095,volrend,7576,60,61,WAFF
1125.940821996,volrend,7603,61,56,NLB
1125.940821996,volrend,7603,61,56,NLB
1125.941052945,volrend,7599,56,57,WAFF
1125.941052945,volrend,7599,56,57,WAFF
1125.941206250,volrend,7600,57,59,WAFF
1125.941206250,volrend,7600,57,59,WAFF
1125.972636388,rcu_sched,8,1,62,WAFF
1125.988690039,volrend,7605,63,51,ILB
1125.988690039,volrend,7605,63,51,ILB
1125.988702519,volrend,7604,61,63,ILB
1125.988702519,volrend,7604,61,63,ILB
1125.994791707,volrend,7606,63,57,WAFF
1125.994791707,volrend,7606,63,57,WAFF
1125.994856116,volrend,7599,57,60,WAFF
1125.994856116,volrend,7599,57,60,WAFF
1126.648022,rcu_sched,8,62,1,WAFF
1126.12905256,volrend,7594,51,1,ILB
1126.12905256,volrend,7594,51,1,ILB
1126.37228783,volrend,7544,1,2,WAFF
1126.37228783,volrend,7544,1,2,WAFF
1126.39181440,volrend,7599,60,56,WAFF
1126.39181440,volrend,7599,60,56,WAFF
1126.40635940,volrend,7545,2,3,NLB
1126.40635940,volrend,7545,2,3,NLB
1126.48669588,volrend,7545,3,1,ILB
1126.48669588,volrend,7545,3,1,ILB
1126.49187429,volrend,7594,1,6,WAFF
1126.49187429,volrend,7594,1,6,WAFF
1126.49406191,volrend,7599,56,58,WAFF
1126.49406191,volrend,7599,56,58,WAFF
1126.60639875,rcu_sched,8,1,48,WAFF
1126.65053751,volrend,7601,58,57,WAFF
1126.65053751,volrend,7601,58,57,WAFF
1126.65095684,volrend,7600,59,60,WAFF
1126.65095684,volrend,7600,59,60,WAFF
1126.65303120,volrend,7602,60,63,WAFF
1126.65303120,volrend,7602,60,63,WAFF
1126.65600151,volrend,7596,53,52,WAFF
1126.65600151,volrend,7596,53,52,WAFF
1126.65638191,volrend,7596,52,48,ILB
1126.65638191,volrend,7596,52,48,ILB
1126.80696234,volrend,7591,48,50,ILB
1126.80696234,volrend,7591,48,50,ILB
1126.80737919,volrend,7543,41,44,WAFF
1126.80737919,volrend,7543,41,44,WAFF
1126.86801106,volrend,7543,44,46,WAFF
1126.86801106,volrend,7543,44,46,WAFF
1126.87499734,volrend,7589,46,47,WAFF
1126.87499734,volrend,7589,46,47,WAFF
1126.87514625,volrend,7590,47,41,WAFF
1126.87514625,volrend,7590,47,41,WAFF
1126.104933160,volrend,7593,50,52,ILB
1126.104933160,volrend,7593,50,52,ILB
1126.104960091,volrend,7590,41,46,ILB
1126.104960091,volrend,7590,41,46,ILB
1126.105405161,volrend,7602,63,59,WAFF
1126.105405161,volrend,7602,63,59,WAFF
1126.112949442,volrend,7549,6,7,WAFF
1126.112949442,volrend,7549,6,7,WAFF
1126.113061694,volrend,7550,7,0,WAFF
1126.113061694,volrend,7550,7,0,WAFF
1126.128829163,volrend,7595,52,50,WAFF
1126.128829163,volrend,7595,52,50,WAFF
1126.144670733,volrend,7551,0,8,NLB
1126.144670733,volrend,7551,0,8,NLB
1126.145671420,volrend,7595,50,53,WAFF
1126.145671420,volrend,7595,50,53,WAFF
1126.147105456,volrend,7554,59,60,WAFF
1126.147105456,volrend,7554,59,60,WAFF
1126.153116188,volrend,7595,53,48,WAFF
1126.153116188,volrend,7595,53,48,WAFF
1126.153263948,volrend,7596,48,49,WAFF
1126.153263948,volrend,7596,48,49,WAFF
1126.169123966,volrend,7554,60,63,WAFF
1126.169123966,volrend,7554,60,63,WAFF
1126.170388940,volrend,7601,57,58,WAFF
1126.170388940,volrend,7601,57,58,WAFF
1126.176136027,volrend,7604,63,61,WAFF
1126.176136027,volrend,7604,63,61,WAFF
1126.188680760,volrend,7592,49,54,WAFF
1126.188680760,volrend,7592,49,54,WAFF
1126.206770720,volrend,7590,46,42,WAFF
1126.206770720,volrend,7590,46,42,WAFF
1126.216778254,volrend,7585,42,40,NLB
1126.216778254,volrend,7585,42,40,NLB
1126.216871786,volrend,7604,61,63,WAFF
1126.216871786,volrend,7604,61,63,WAFF
1126.217013867,volrend,7554,63,59,WAFF
1126.217013867,volrend,7554,63,59,WAFF
1126.217100782,volrend,7599,58,60,WAFF
1126.217100782,volrend,7599,58,60,WAFF
1126.220708694,volrend,7600,60,48,ILB
1126.220708694,volrend,7600,60,48,ILB
1126.232920688,volrend,7583,40,43,WAFF
1126.232920688,volrend,7583,40,43,WAFF
1126.260646243,rcu_sched,8,48,41,WAFF
1126.268690149,volrend,7552,41,42,WAFF
1126.268690149,volrend,7552,41,42,WAFF
1126.272749887,volrend,7590,42,40,NLB
1126.272749887,volrend,7590,42,40,NLB
1126.273093596,volrend,7554,59,56,WAFF
1126.273093596,volrend,7554,59,56,WAFF
1126.273123524,volrend,7586,43,46,WAFF
1126.273123524,volrend,7586,43,46,WAFF
1126.276670834,volrend,7585,40,41,ILB
1126.276670834,volrend,7585,40,41,ILB
1126.288751157,volrend,7595,48,49,WAFF
1126.288751157,volrend,7595,48,49,WAFF
1126.305238812,volrend,7554,56,58,WAFF
1126.305238812,volrend,7554,56,58,WAFF
1126.305257113,volrend,7554,58,57,ILB
1126.305257113,volrend,7554,58,57,ILB
1126.312880123,volrend,7554,57,63,WAFF
1126.312880123,volrend,7554,57,63,WAFF
1126.316706436,volrend,7604,63,41,ILB
1126.316706436,volrend,7604,63,41,ILB
1126.320680181,volrend,7597,54,8,NLB
1126.320680181,volrend,7597,54,8,NLB
1126.320783812,volrend,7551,8,9,WAFF
1126.320783812,volrend,7551,8,9,WAFF
1126.321499939,volrend,7595,49,51,WAFF
1126.321499939,volrend,7595,49,51,WAFF
1126.329580429,volrend,7586,46,42,WAFF
1126.329580429,volrend,7586,46,42,WAFF
1126.340711704,volrend,7595,51,54,WAFF
1126.340711704,volrend,7595,51,54,WAFF
1126.344669077,volrend,7604,41,9,NLB
1126.344669077,volrend,7604,41,9,NLB
1126.356680404,volrend,7551,9,23,WAFF
1126.356680404,volrend,7551,9,23,WAFF
1126.373212349,volrend,7595,54,50,WAFF
1126.373212349,volrend,7595,54,50,WAFF
1126.373226533,volrend,7595,50,52,ILB
1126.373226533,volrend,7595,50,52,ILB
1126.374075356,volrend,7552,42,40,WAFF
1126.374075356,volrend,7552,42,40,WAFF
1126.380750420,volrend,7595,52,53,WAFF
1126.380750420,volrend,7595,52,53,WAFF
1126.384687585,volrend,7590,40,8,NLB
1126.384687585,volrend,7590,40,8,NLB
1126.384712003,volrend,7597,8,9,WAFF
1126.384712003,volrend,7597,8,9,WAFF
1126.396792054,volrend,7604,9,10,WAFF
1126.396792054,volrend,7604,9,10,WAFF
1126.420688520,volrend,7567,23,21,WAFF
1126.420688520,volrend,7567,23,21,WAFF
1126.428672183,volrend,7566,53,11,NLB
1126.428672183,volrend,7566,53,11,NLB
1126.454620443,volrend,7564,21,22,WAFF
1126.454620443,volrend,7564,21,22,WAFF
1126.456720839,volrend,7565,22,16,NLB
1126.456720839,volrend,7565,22,16,NLB
1126.457007981,volrend,7559,16,18,WAFF
1126.457007981,volrend,7559,16,18,WAFF
1126.479875194,volrend,7559,18,19,WAFF
1126.479875194,volrend,7559,18,19,WAFF
1126.481060031,volrend,7562,19,20,WAFF
1126.481060031,volrend,7562,19,20,WAFF
1126.481331895,volrend,7563,20,21,WAFF
1126.481331895,volrend,7563,20,21,WAFF
1126.484699035,volrend,7567,21,16,NLB
1126.484699035,volrend,7567,21,16,NLB
1126.502406301,volrend,7567,16,18,WAFF
1126.502406301,volrend,7567,16,18,WAFF
1126.502461655,volrend,7567,18,6,ILB
1126.502461655,volrend,7567,18,6,ILB
1126.591095157,volrend,7594,6,7,WAFF
1126.591095157,volrend,7594,6,7,WAFF
1126.592678806,volrend,7549,7,1,NLB
1126.592678806,volrend,7549,7,1,NLB
1126.593188526,volrend,7545,1,3,WAFF
1126.593188526,volrend,7545,1,3,WAFF
1126.593347243,volrend,7546,3,4,WAFF
1126.593347243,volrend,7546,3,4,WAFF
1126.593461422,volrend,7547,4,5,WAFF
1126.593461422,volrend,7547,4,5,WAFF
1126.593481192,volrend,7548,5,0,WAFF
1126.593481192,volrend,7548,5,0,WAFF
1126.633160639,volrend,7550,0,1,WAFF
1126.633160639,volrend,7550,0,1,WAFF
1126.633192156,volrend,7550,1,3,ILB
1126.633192156,volrend,7550,1,3,ILB
1126.640718853,volrend,7556,13,14,WAFF
1126.640718853,volrend,7556,13,14,WAFF
1126.642251195,volrend,7557,14,11,WAFF
1126.642251195,volrend,7557,14,11,WAFF
1126.648685082,volrend,7566,11,12,NLB
1126.648685082,volrend,7566,11,12,NLB
1126.658230763,volrend,7545,3,4,WAFF
1126.658230763,volrend,7545,3,4,WAFF
1126.675187967,volrend,7546,4,7,WAFF
1126.675187967,volrend,7546,4,7,WAFF
1126.682167728,volrend,7546,7,0,WAFF
1126.682167728,volrend,7546,7,0,WAFF
1126.682190426,volrend,7548,0,1,WAFF
1126.682190426,volrend,7548,0,1,WAFF
1126.724764901,volrend,7549,1,10,NLB
1126.724764901,volrend,7549,1,10,NLB
1126.724795090,volrend,7604,10,13,WAFF
1126.724795090,volrend,7604,10,13,WAFF
1127.344741103,rcu_sched,8,41,38,WAFF
1127.352729047,rcu_sched,8,38,34,WAFF
1127.384709787,rcu_sched,8,34,35,WAFF
1127.428722732,rcu_sched,8,35,32,WAFF
1127.580741136,rcu_sched,8,32,33,WAFF
1127.616733888,rcu_sched,8,33,34,WAFF
1127.732732609,rcu_sched,8,34,35,WAFF
1127.784743342,rcu_sched,8,35,36,WAFF
1127.816749629,volrend,7579,36,32,WAFF
1127.816749629,volrend,7579,36,32,WAFF
1127.824751709,volrend,7575,32,36,ILB
1127.824751709,volrend,7575,32,36,ILB
1127.868748671,rcu_sched,8,36,37,WAFF
1128.325765697,dsm_sa_datamgrd,3083,48,55,ILB
1128.340786411,rcu_sched,8,37,34,WAFF
1128.356806048,rcu_sched,8,34,13,WAFF
1128.876903102,dsm_sa_datamgrd,2862,48,13,WAFF
1128.876948572,dsm_sa_datamgrd,2862,13,40,ILB
1128.876993513,dsm_sa_eventmgr,2882,48,41,WAFF
1128.877042250,dsm_sa_eventmgr,2883,48,41,WAFF
1128.888864829,rcu_sched,8,13,14,ILB
1128.896814706,rcu_sched,8,14,9,WAFF
1129.76820439,volrend,7597,9,10,WAFF
1129.76820439,volrend,7597,9,10,WAFF
1129.78404670,volrend,7549,10,8,WAFF
1129.78404670,volrend,7549,10,8,WAFF
1129.78447316,volrend,7590,8,9,WAFF
1129.78447316,volrend,7590,8,9,WAFF
1129.108835142,rcu_sched,8,9,11,WAFF
1129.213091065,dsm_sa_datamgrd,2862,40,13,WAFF
1129.213160538,dsm_sa_eventmgr,2882,41,13,WAFF
1129.213232095,dsm_sa_eventmgr,2883,41,13,WAFF
1129.296849378,volrend,7557,11,12,WAFF
1129.296849378,volrend,7557,11,12,WAFF
1129.301932548,volrend,7566,12,13,WAFF
1129.301932548,volrend,7566,12,13,WAFF
1129.302029079,volrend,7604,13,14,WAFF
1129.302029079,volrend,7604,13,14,WAFF
1129.302318397,volrend,7556,14,15,WAFF
1129.302318397,volrend,7556,14,15,WAFF
1129.302362423,volrend,7558,15,11,WAFF
1129.302362423,volrend,7558,15,11,WAFF
1129.816872007,rcu_sched,8,11,14,WAFF
1130.326029327,dsm_sa_datamgrd,3083,55,48,WAFF
1130.600948592,rcu_sched,8,14,33,WAFF
1130.644930921,rcu_sched,8,33,38,WAFF
1130.672933597,rcu_sched,8,38,13,WAFF
1130.673040623,rcu_sched,8,13,44,ILB
1130.688914639,rcu_sched,8,44,45,WAFF
1130.700965112,rcu_sched,8,45,13,WAFF
1130.776973549,volrend,7566,13,14,WAFF
1130.776973549,volrend,7566,13,14,WAFF
1130.788948498,volrend,7604,14,13,ILB
1130.788948498,volrend,7604,14,13,ILB
1131.188989293,volrend,7604,13,15,WAFF
1131.188989293,volrend,7604,13,15,WAFF
1131.189156881,volrend,7556,15,8,WAFF
1131.189156881,volrend,7556,15,8,WAFF
1131.189353680,volrend,7549,8,12,WAFF
1131.189353680,volrend,7549,8,12,WAFF
1131.189400684,volrend,7557,12,13,WAFF
1131.189400684,volrend,7557,12,13,WAFF
1131.328953299,rcu_sched,8,13,2,WAFF
1131.620980698,rcu_sched,8,2,33,WAFF
1131.692962289,rcu_sched,8,33,34,WAFF
1131.700972548,rcu_sched,8,34,35,WAFF
1131.740984754,volrend,7578,35,37,WAFF
1131.740984754,volrend,7578,35,37,WAFF
1131.741046002,volrend,7580,37,39,WAFF
1131.741046002,volrend,7580,37,39,WAFF
1131.741710811,volrend,7555,39,35,WAFF
1131.741710811,volrend,7555,39,35,WAFF
1132.88998368,rcu_sched,8,35,36,WAFF
1132.140999478,rcu_sched,8,36,37,WAFF
1132.401006364,rcu_sched,8,37,32,WAFF
1132.549050164,rcu_sched,8,32,2,WAFF
1133.5047194,jbd2/sdb1-8,1060,0,39,WAFF
1133.161104161,rcu_sched,8,2,19,WAFF
1133.185061151,volrend,7559,19,20,WAFF
1133.185061151,volrend,7559,19,20,WAFF
1133.187483917,volrend,7562,20,19,WAFF
1133.187483917,volrend,7562,20,19,WAFF
1133.245085210,volrend,7562,19,20,WAFF
1133.245085210,volrend,7562,19,20,WAFF
1133.250658181,volrend,7559,20,17,WAFF
1133.250658181,volrend,7559,20,17,WAFF
1133.253125648,volrend,7560,17,19,ILB
1133.253125648,volrend,7560,17,19,ILB
1133.261053549,rcu_sched,8,19,20,WAFF
1133.361083950,rcu_sched,8,20,23,WAFF
1133.605123224,rcu_sched,8,23,13,WAFF
1134.29102550,kworker/u136:1,1036,58,59,WAFF
1134.433137149,rcu_sched,8,13,2,WAFF
1134.601187438,rcu_sched,8,2,7,ILB
1134.601204757,volrend,7594,7,2,WAFF
1134.601204757,volrend,7594,7,2,WAFF
1134.601537488,volrend,7594,2,22,WAFF
1134.601537488,volrend,7594,2,22,WAFF
1134.601561022,volrend,7594,22,4,ILB
1134.601561022,volrend,7594,22,4,ILB
1134.601580459,volrend,7545,4,7,WAFF
1134.601580459,volrend,7545,4,7,WAFF
1134.805191034,rcu_sched,8,7,38,WAFF
1134.869149143,rcu_sched,8,38,39,WAFF
1135.57186221,rcu_sched,8,39,4,WAFF
1135.105189251,rcu_sched,8,4,3,WAFF
1135.133167668,rcu_sched,8,3,4,WAFF
1135.133198812,volrend,7594,4,5,WAFF
1135.133198812,volrend,7594,4,5,WAFF
1135.141202317,volrend,7547,5,4,ILB
1135.141202317,volrend,7547,5,4,ILB
1135.425202757,volrend,7547,4,7,WAFF
1135.425202757,volrend,7547,4,7,WAFF
1135.425377130,volrend,7545,7,4,WAFF
1135.425377130,volrend,7545,7,4,WAFF
1135.453185747,rcu_sched,8,4,2,WAFF
1135.525198858,volrend,7544,2,3,WAFF
1135.525198858,volrend,7544,2,3,WAFF
1135.526877518,volrend,7550,3,7,WAFF
1135.526877518,volrend,7550,3,7,WAFF
1135.526915604,volrend,7550,7,0,WAFF
1135.526915604,volrend,7550,7,0,WAFF
1135.526932866,volrend,7546,0,2,WAFF
1135.526932866,volrend,7546,0,2,WAFF
1136.225319128,rcu_sched,8,2,14,ILB
1136.429249772,volrend,7566,14,15,WAFF
1136.429249772,volrend,7566,14,15,WAFF
1136.430565319,volrend,7604,15,8,WAFF
1136.430565319,volrend,7604,15,8,WAFF
1136.430645105,volrend,7556,8,14,WAFF
1136.430645105,volrend,7556,8,14,WAFF
1136.481300150,rcu_sched,8,14,11,ILB
1136.725278019,volrend,7558,11,12,WAFF
1136.725278019,volrend,7558,11,12,WAFF
1136.725299901,volrend,7549,12,13,WAFF
1136.725299901,volrend,7549,12,13,WAFF
1136.726278678,volrend,7549,13,14,WAFF
1136.726278678,volrend,7549,13,14,WAFF
1136.726699488,volrend,7556,14,11,WAFF
1136.726699488,volrend,7556,14,11,WAFF
1136.921305700,volrend,7556,11,15,WAFF
1136.921305700,volrend,7556,11,15,WAFF
1136.921352027,volrend,7566,15,8,WAFF
1136.921352027,volrend,7566,15,8,WAFF
1136.921388232,volrend,7604,8,11,WAFF
1136.921388232,volrend,7604,8,11,WAFF
1137.117316802,rcu_sched,8,11,3,WAFF
1137.717380744,rcu_sched,8,3,1,ILB
1137.724522676,dsm_sa_datamgrd,2865,56,57,WAFF
1137.725308914,rcu_sched,8,1,2,WAFF
1137.869359640,volrend,7546,2,39,ILB
1137.869359640,volrend,7546,2,39,ILB
1137.896128030,volrend,7546,39,35,WAFF
1137.896128030,volrend,7546,39,35,WAFF
1137.949371423,volrend,7555,35,2,ILB
1137.949371423,volrend,7555,35,2,ILB
1138.301360385,rcu_sched,8,2,4,WAFF
1138.341372614,rcu_sched,8,4,3,WAFF
1139.77449419,rcu_sched,8,3,20,ILB
1139.101396095,rcu_sched,8,20,21,WAFF
1139.150132567,volrend,7584,24,62,ILB
1139.150132567,volrend,7584,24,62,ILB
1139.153406116,rcu_sched,8,21,22,WAFF
1139.155410364,volrend,7582,62,24,ILB
1139.155410364,volrend,7582,62,24,ILB
1139.241413439,volrend,7564,22,23,WAFF
1139.241413439,volrend,7564,22,23,WAFF
1139.249429325,volrend,7564,23,22,ILB
1139.249429325,volrend,7564,23,22,ILB
1139.281442884,rcu_sched,8,22,2,WAFF
1139.289434505,rcu_sched,8,2,5,WAFF
1139.481419839,rcu_sched,8,5,6,WAFF
1139.561425222,rcu_sched,8,6,7,WAFF
1139.825481292,rcu_sched,8,7,51,ILB
1139.873468036,volrend,7605,51,11,ILB
1139.873468036,volrend,7605,51,11,ILB
1139.874416975,volrend,7605,11,10,WAFF
1139.874416975,volrend,7605,11,10,WAFF
1139.881528227,volrend,7597,10,51,ILB
1139.881528227,volrend,7597,10,51,ILB
1139.901468407,rcu_sched,8,51,49,WAFF
1140.261467463,rcu_sched,8,49,3,WAFF
1140.549555129,volrend,7544,3,7,WAFF
1140.549555129,volrend,7544,3,7,WAFF
1140.549635291,volrend,7544,7,51,ILB
1140.549635291,volrend,7544,7,51,ILB
1140.549680007,volrend,7597,51,53,WAFF
1140.549680007,volrend,7597,51,53,WAFF
1140.549719360,volrend,7597,53,41,ILB
1140.549719360,volrend,7597,53,41,ILB
1140.592537460,volrend,7585,41,42,WAFF
1140.592537460,volrend,7585,41,42,WAFF
1140.597514097,volrend,7586,42,9,NLB
1140.597514097,volrend,7586,42,9,NLB
1140.597536580,volrend,7590,9,10,WAFF
1140.597536580,volrend,7590,9,10,WAFF
1140.605537566,volrend,7605,10,3,ILB
1140.605537566,volrend,7605,10,3,ILB
1140.928409477,time,7542,30,47,WAFF
