Time,Comm,Pid,Orig,Dest,Trigger
1709.289544647,perf,11642,36,53,ELB
1709.290526771,time,11643,53,62,FLB
1709.290685506,time,11643,62,12,ELB
1709.292361813,lu_ncb,11643,12,30,ELB
1709.292361813,lu_ncb,11643,12,30,ELB
1709.294061123,lu_ncb,11643,30,0,CA
1709.294061123,lu_ncb,11643,30,0,CA
1709.482559913,rcu_sched,8,29,18,WAFF
1709.586758842,dsm_sa_eventmgr,2883,62,18,WAFF
1711.704618546,lu_ncb,11644,0,24,FLB
1711.704618546,lu_ncb,11644,0,24,FLB
1711.704666485,lu_ncb,11644,24,1,CA
1711.704666485,lu_ncb,11644,24,1,CA
1711.704713962,lu_ncb,11643,0,24,WAFF
1711.704713962,lu_ncb,11643,0,24,WAFF
1711.704865120,lu_ncb,11645,24,49,FLB
1711.704865120,lu_ncb,11645,24,49,FLB
1711.704873620,lu_ncb,11645,49,2,CA
1711.704873620,lu_ncb,11645,49,2,CA
1711.704930260,lu_ncb,11646,24,34,FLB
1711.704930260,lu_ncb,11646,24,34,FLB
1711.704942882,lu_ncb,11646,34,3,CA
1711.704942882,lu_ncb,11646,34,3,CA
1711.705099266,lu_ncb,11647,24,50,FLB
1711.705099266,lu_ncb,11647,24,50,FLB
1711.705112598,lu_ncb,11647,50,4,CA
1711.705112598,lu_ncb,11647,50,4,CA
1711.705171805,lu_ncb,11648,24,35,FLB
1711.705171805,lu_ncb,11648,24,35,FLB
1711.705179369,lu_ncb,11648,35,5,CA
1711.705179369,lu_ncb,11648,35,5,CA
1711.705730125,lu_ncb,11649,24,51,FLB
1711.705730125,lu_ncb,11649,24,51,FLB
1711.705744849,lu_ncb,11649,51,6,CA
1711.705744849,lu_ncb,11649,51,6,CA
1711.705827643,lu_ncb,11650,24,36,FLB
1711.705827643,lu_ncb,11650,24,36,FLB
1711.705840195,lu_ncb,11650,36,7,CA
1711.705840195,lu_ncb,11650,36,7,CA
1711.705910240,lu_ncb,11651,24,52,FLB
1711.705910240,lu_ncb,11651,24,52,FLB
1711.705923158,lu_ncb,11651,52,8,CA
1711.705923158,lu_ncb,11651,52,8,CA
1711.705977521,lu_ncb,11652,24,37,FLB
1711.705977521,lu_ncb,11652,24,37,FLB
1711.705985064,lu_ncb,11652,37,9,CA
1711.705985064,lu_ncb,11652,37,9,CA
1711.706038215,lu_ncb,11653,24,53,FLB
1711.706038215,lu_ncb,11653,24,53,FLB
1711.706045861,lu_ncb,11653,53,10,CA
1711.706045861,lu_ncb,11653,53,10,CA
1711.706098926,lu_ncb,11654,24,40,FLB
1711.706098926,lu_ncb,11654,24,40,FLB
1711.706112156,lu_ncb,11654,40,11,CA
1711.706112156,lu_ncb,11654,40,11,CA
1711.706174086,lu_ncb,11655,24,41,FLB
1711.706174086,lu_ncb,11655,24,41,FLB
1711.706183406,lu_ncb,11655,41,12,CA
1711.706183406,lu_ncb,11655,41,12,CA
1711.706663305,lu_ncb,11656,24,54,FLB
1711.706663305,lu_ncb,11656,24,54,FLB
1711.706697240,rcu_sched,8,18,9,WAFF
1711.706716720,lu_ncb,11656,54,13,CA
1711.706716720,lu_ncb,11656,54,13,CA
1711.706724932,lu_ncb,11643,24,54,WAFF
1711.706724932,lu_ncb,11643,24,54,WAFF
1711.706828722,lu_ncb,11657,54,42,FLB
1711.706828722,lu_ncb,11657,54,42,FLB
1711.706843380,lu_ncb,11657,42,14,CA
1711.706843380,lu_ncb,11657,42,14,CA
1711.706911125,lu_ncb,11658,54,43,FLB
1711.706911125,lu_ncb,11658,54,43,FLB
1711.706918745,lu_ncb,11658,43,15,CA
1711.706918745,lu_ncb,11658,43,15,CA
1711.706996856,lu_ncb,11659,54,44,FLB
1711.706996856,lu_ncb,11659,54,44,FLB
1711.707009406,lu_ncb,11659,44,16,CA
1711.707009406,lu_ncb,11659,44,16,CA
1711.707066573,lu_ncb,11660,54,45,FLB
1711.707066573,lu_ncb,11660,54,45,FLB
1711.707073760,lu_ncb,11660,45,17,CA
1711.707073760,lu_ncb,11660,45,17,CA
1711.707145564,lu_ncb,11661,54,38,FLB
1711.707145564,lu_ncb,11661,54,38,FLB
1711.707159752,lu_ncb,11661,38,18,CA
1711.707159752,lu_ncb,11661,38,18,CA
1711.707216019,lu_ncb,11662,54,57,FLB
1711.707216019,lu_ncb,11662,54,57,FLB
1711.707224363,lu_ncb,11662,57,19,CA
1711.707224363,lu_ncb,11662,57,19,CA
1711.707704264,lu_ncb,11663,54,39,FLB
1711.707704264,lu_ncb,11663,54,39,FLB
1711.707718382,lu_ncb,11663,39,20,CA
1711.707718382,lu_ncb,11663,39,20,CA
1711.707805449,lu_ncb,11664,54,32,FLB
1711.707805449,lu_ncb,11664,54,32,FLB
1711.707818119,lu_ncb,11664,32,21,CA
1711.707818119,lu_ncb,11664,32,21,CA
1711.707889657,lu_ncb,11665,54,33,FLB
1711.707889657,lu_ncb,11665,54,33,FLB
1711.707896796,lu_ncb,11665,33,22,CA
1711.707896796,lu_ncb,11665,33,22,CA
1711.707959008,lu_ncb,11666,54,58,FLB
1711.707959008,lu_ncb,11666,54,58,FLB
1711.707972176,lu_ncb,11666,58,23,CA
1711.707972176,lu_ncb,11666,58,23,CA
1711.708037944,lu_ncb,11667,54,34,FLB
1711.708037944,lu_ncb,11667,54,34,FLB
1711.708046370,lu_ncb,11667,34,24,CA
1711.708046370,lu_ncb,11667,34,24,CA
1711.708104452,lu_ncb,11668,54,35,FLB
1711.708104452,lu_ncb,11668,54,35,FLB
1711.708111370,lu_ncb,11668,35,25,CA
1711.708111370,lu_ncb,11668,35,25,CA
1711.708180702,lu_ncb,11669,54,36,FLB
1711.708180702,lu_ncb,11669,54,36,FLB
1711.708189063,lu_ncb,11669,36,26,CA
1711.708189063,lu_ncb,11669,36,26,CA
1711.708669833,lu_ncb,11670,54,37,FLB
1711.708669833,lu_ncb,11670,54,37,FLB
1711.708684135,lu_ncb,11670,37,27,CA
1711.708684135,lu_ncb,11670,37,27,CA
1711.708768810,lu_ncb,11671,54,38,FLB
1711.708768810,lu_ncb,11671,54,38,FLB
1711.708776665,lu_ncb,11671,38,28,CA
1711.708776665,lu_ncb,11671,38,28,CA
1711.708851974,lu_ncb,11672,54,39,FLB
1711.708851974,lu_ncb,11672,54,39,FLB
1711.708858882,lu_ncb,11672,39,29,CA
1711.708858882,lu_ncb,11672,39,29,CA
1711.708936527,lu_ncb,11673,54,32,FLB
1711.708936527,lu_ncb,11673,54,32,FLB
1711.708942171,lu_ncb,11673,32,30,CA
1711.708942171,lu_ncb,11673,32,30,CA
1711.709025683,lu_ncb,11674,54,33,FLB
1711.709025683,lu_ncb,11674,54,33,FLB
1711.709032634,lu_ncb,11674,33,31,CA
1711.709032634,lu_ncb,11674,33,31,CA
1711.709098170,lu_ncb,11675,54,34,FLB
1711.709098170,lu_ncb,11675,54,34,FLB
1711.709106130,lu_ncb,11675,34,32,CA
1711.709106130,lu_ncb,11675,34,32,CA
1711.709162127,lu_ncb,11676,54,59,FLB
1711.709162127,lu_ncb,11676,54,59,FLB
1711.709174572,lu_ncb,11676,59,33,CA
1711.709174572,lu_ncb,11676,59,33,CA
1711.709674623,lu_ncb,11677,54,33,FLB
1711.709674623,lu_ncb,11677,54,33,FLB
1711.709682347,lu_ncb,11677,33,34,CA
1711.709682347,lu_ncb,11677,33,34,CA
1711.709741101,lu_ncb,11678,54,60,FLB
1711.709741101,lu_ncb,11678,54,60,FLB
1711.709753501,lu_ncb,11678,60,35,CA
1711.709753501,lu_ncb,11678,60,35,CA
1711.709827782,lu_ncb,11679,54,61,FLB
1711.709827782,lu_ncb,11679,54,61,FLB
1711.709835001,lu_ncb,11679,61,36,CA
1711.709835001,lu_ncb,11679,61,36,CA
1711.709881848,lu_ncb,11680,54,37,FLB
1711.709881848,lu_ncb,11680,54,37,FLB
1711.710002012,lu_ncb,11681,54,62,FLB
1711.710002012,lu_ncb,11681,54,62,FLB
1711.710010085,lu_ncb,11681,62,38,CA
1711.710010085,lu_ncb,11681,62,38,CA
1711.710056620,lu_ncb,11682,54,39,FLB
1711.710056620,lu_ncb,11682,54,39,FLB
1711.710170302,lu_ncb,11683,54,63,FLB
1711.710170302,lu_ncb,11683,54,63,FLB
1711.710177697,lu_ncb,11683,63,40,CA
1711.710177697,lu_ncb,11683,63,40,CA
1711.710722145,lu_ncb,11684,54,32,FLB
1711.710722145,lu_ncb,11684,54,32,FLB
1711.710729997,lu_ncb,11684,32,41,CA
1711.710729997,lu_ncb,11684,32,41,CA
1711.710815259,lu_ncb,11685,54,33,FLB
1711.710815259,lu_ncb,11685,54,33,FLB
1711.710822831,lu_ncb,11685,33,42,CA
1711.710822831,lu_ncb,11685,33,42,CA
1711.710879117,lu_ncb,11686,54,34,FLB
1711.710879117,lu_ncb,11686,54,34,FLB
1711.710884850,lu_ncb,11686,34,43,CA
1711.710884850,lu_ncb,11686,34,43,CA
1711.710982841,lu_ncb,11687,54,56,FLB
1711.710982841,lu_ncb,11687,54,56,FLB
1711.710995573,lu_ncb,11687,56,44,CA
1711.710995573,lu_ncb,11687,56,44,CA
1711.711050974,lu_ncb,11688,54,36,FLB
1711.711050974,lu_ncb,11688,54,36,FLB
1711.711058724,lu_ncb,11688,36,45,CA
1711.711058724,lu_ncb,11688,36,45,CA
1711.711142235,lu_ncb,11689,54,57,FLB
1711.711142235,lu_ncb,11689,54,57,FLB
1711.711149520,lu_ncb,11689,57,46,CA
1711.711149520,lu_ncb,11689,57,46,CA
1711.711201604,lu_ncb,11690,54,37,FLB
1711.711201604,lu_ncb,11690,54,37,FLB
1711.711209008,lu_ncb,11690,37,47,CA
1711.711209008,lu_ncb,11690,37,47,CA
1711.711730771,lu_ncb,11691,54,38,FLB
1711.711730771,lu_ncb,11691,54,38,FLB
1711.711739230,lu_ncb,11691,38,48,CA
1711.711739230,lu_ncb,11691,38,48,CA
1711.711801266,lu_ncb,11692,54,58,FLB
1711.711801266,lu_ncb,11692,54,58,FLB
1711.711809379,lu_ncb,11692,58,49,CA
1711.711809379,lu_ncb,11692,58,49,CA
1711.711874220,lu_ncb,11693,54,39,FLB
1711.711874220,lu_ncb,11693,54,39,FLB
1711.711881002,lu_ncb,11693,39,50,CA
1711.711881002,lu_ncb,11693,39,50,CA
1711.711936005,lu_ncb,11694,54,59,FLB
1711.711936005,lu_ncb,11694,54,59,FLB
1711.711942953,lu_ncb,11694,59,51,CA
1711.711942953,lu_ncb,11694,59,51,CA
1711.712007904,lu_ncb,11695,54,32,FLB
1711.712007904,lu_ncb,11695,54,32,FLB
1711.712015869,lu_ncb,11695,32,52,CA
1711.712015869,lu_ncb,11695,32,52,CA
1711.712068377,lu_ncb,11696,54,60,FLB
1711.712068377,lu_ncb,11696,54,60,FLB
1711.712076311,lu_ncb,11696,60,53,CA
1711.712076311,lu_ncb,11696,60,53,CA
1711.712161282,lu_ncb,11697,54,33,FLB
1711.712161282,lu_ncb,11697,54,33,FLB
1711.712168319,lu_ncb,11697,33,54,CA
1711.712168319,lu_ncb,11697,33,54,CA
1711.712699605,lu_ncb,11698,54,61,FLB
1711.712699605,lu_ncb,11698,54,61,FLB
1711.712708619,lu_ncb,11698,61,55,CA
1711.712708619,lu_ncb,11698,61,55,CA
1711.712733073,lu_ncb,11697,54,61,ILB
1711.712733073,lu_ncb,11697,54,61,ILB
1711.712871247,lu_ncb,11699,54,34,FLB
1711.712871247,lu_ncb,11699,54,34,FLB
1711.712887896,lu_ncb,11699,34,56,CA
1711.712887896,lu_ncb,11699,34,56,CA
1711.712951193,lu_ncb,11700,54,8,FLB
1711.712951193,lu_ncb,11700,54,8,FLB
1711.712964318,lu_ncb,11700,8,57,CA
1711.712964318,lu_ncb,11700,8,57,CA
1711.713062098,lu_ncb,11701,54,36,FLB
1711.713062098,lu_ncb,11701,54,36,FLB
1711.713075521,lu_ncb,11701,36,58,CA
1711.713075521,lu_ncb,11701,36,58,CA
1711.713130130,lu_ncb,11702,54,9,FLB
1711.713130130,lu_ncb,11702,54,9,FLB
1711.713138391,lu_ncb,11702,9,59,CA
1711.713138391,lu_ncb,11702,9,59,CA
1711.713205280,lu_ncb,11703,54,37,FLB
1711.713205280,lu_ncb,11703,54,37,FLB
1711.713212511,lu_ncb,11703,37,60,CA
1711.713212511,lu_ncb,11703,37,60,CA
1711.713276929,lu_ncb,11704,54,38,FLB
1711.713276929,lu_ncb,11704,54,38,FLB
1711.713284906,lu_ncb,11704,38,61,CA
1711.713284906,lu_ncb,11704,38,61,CA
1711.713807976,lu_ncb,11705,54,10,FLB
1711.713807976,lu_ncb,11705,54,10,FLB
1711.713816344,lu_ncb,11705,10,62,CA
1711.713816344,lu_ncb,11705,10,62,CA
1711.713898893,lu_ncb,11706,54,39,FLB
1711.713898893,lu_ncb,11706,54,39,FLB
1711.713906884,lu_ncb,11706,39,63,CA
1711.713906884,lu_ncb,11706,39,63,CA
1711.716802843,lu_ncb,11704,61,62,WAFF
1711.716802843,lu_ncb,11704,61,62,WAFF
1711.799590291,lu_ncb,11705,62,1,ILB
1711.799590291,lu_ncb,11705,62,1,ILB
1712.6723812,lu_ncb,11644,1,0,NLB
1712.6723812,lu_ncb,11644,1,0,NLB
1714.194847179,rcu_sched,8,9,18,WAFF
1714.254854086,rcu_sched,8,18,51,WAFF
1714.306849833,rcu_sched,8,51,18,WAFF
1714.426846921,rcu_sched,8,18,54,WAFF
1715.654971023,rcu_sched,8,54,27,WAFF
1717.407030191,rcu_sched,8,27,0,WAFF
1723.413078182,lu_ncb,11706,32,36,ILB
1723.413078182,lu_ncb,11706,32,36,ILB
1723.463405010,lu_ncb,11706,36,0,NLB
1723.463405010,lu_ncb,11706,36,0,NLB
1723.547823385,lu_ncb,11706,0,2,ILB
1723.547823385,lu_ncb,11706,0,2,ILB
1723.649236661,lu_ncb,11706,2,0,ILB
1723.649236661,lu_ncb,11706,2,0,ILB
1723.694585368,lu_ncb,11706,0,1,ILB
1723.694585368,lu_ncb,11706,0,1,ILB
1723.737043774,lu_ncb,11706,1,0,ILB
1723.737043774,lu_ncb,11706,1,0,ILB
1723.833780641,lu_ncb,11706,0,1,ILB
1723.833780641,lu_ncb,11706,0,1,ILB
1723.887707205,lu_ncb,11706,1,5,ILB
1723.887707205,lu_ncb,11706,1,5,ILB
1723.888028420,lu_ncb,11667,32,39,ILB
1723.888028420,lu_ncb,11667,32,39,ILB
1723.899410844,lu_ncb,11667,39,34,NLB
1723.899410844,lu_ncb,11667,39,34,NLB
1723.900352808,lu_ncb,11677,34,18,ILB
1723.900352808,lu_ncb,11677,34,18,ILB
1723.911403136,lu_ncb,11661,18,21,NLB
1723.911403136,lu_ncb,11661,18,21,NLB
1723.928966762,lu_ncb,11706,5,0,ILB
1723.928966762,lu_ncb,11706,5,0,ILB
1723.938536866,lu_ncb,11661,21,38,ILB
1723.938536866,lu_ncb,11661,21,38,ILB
1723.985075907,lu_ncb,11661,38,37,ILB
1723.985075907,lu_ncb,11661,38,37,ILB
1724.28839371,lu_ncb,11706,0,1,ILB
1724.28839371,lu_ncb,11706,0,1,ILB
1724.41412894,lu_ncb,11661,37,39,ILB
1724.41412894,lu_ncb,11661,37,39,ILB
1724.128553569,lu_ncb,11706,1,0,ILB
1724.128553569,lu_ncb,11706,1,0,ILB
1724.130727187,lu_ncb,11661,39,6,ILB
1724.130727187,lu_ncb,11661,39,6,ILB
1724.188253390,lu_ncb,11649,6,4,WAFF
1724.188253390,lu_ncb,11649,6,4,WAFF
1724.223431155,lu_ncb,11647,4,2,ILB
1724.223431155,lu_ncb,11647,4,2,ILB
1724.225630813,lu_ncb,11706,0,5,ILB
1724.225630813,lu_ncb,11706,0,5,ILB
1724.303455024,lu_ncb,11647,2,6,WAFF
1724.303455024,lu_ncb,11647,2,6,WAFF
1724.319223255,lu_ncb,11648,5,31,ILB
1724.319223255,lu_ncb,11648,5,31,ILB
1724.323764808,lu_ncb,11647,6,39,ILB
1724.323764808,lu_ncb,11647,6,39,ILB
1724.386267945,lu_ncb,11647,39,34,WAFF
1724.386267945,lu_ncb,11647,39,34,WAFF
1724.440124703,lu_ncb,11647,34,33,ILB
1724.440124703,lu_ncb,11647,34,33,ILB
1724.443459222,lu_ncb,11674,31,24,NLB
1724.443459222,lu_ncb,11674,31,24,NLB
1724.478847261,lu_ncb,11647,33,32,ILB
1724.478847261,lu_ncb,11647,33,32,ILB
1724.523372974,lu_ncb,11647,32,2,ILB
1724.523372974,lu_ncb,11647,32,2,ILB
1724.576680940,lu_ncb,11647,2,4,WAFF
1724.576680940,lu_ncb,11647,2,4,WAFF
1724.612558429,lu_ncb,11647,4,6,ILB
1724.612558429,lu_ncb,11647,4,6,ILB
1724.673041878,lu_ncb,11647,6,7,ILB
1724.673041878,lu_ncb,11647,6,7,ILB
1724.674573862,lu_ncb,11647,7,4,WAFF
1724.674573862,lu_ncb,11647,7,4,WAFF
1724.726802126,lu_ncb,11647,4,7,ILB
1724.726802126,lu_ncb,11647,4,7,ILB
1724.807455983,lu_ncb,11647,7,3,ILB
1724.807455983,lu_ncb,11647,7,3,ILB
1724.911642940,lu_ncb,11647,3,7,ILB
1724.911642940,lu_ncb,11647,3,7,ILB
1725.6316465,lu_ncb,11647,7,4,ILB
1725.6316465,lu_ncb,11647,7,4,ILB
1725.97076086,lu_ncb,11647,4,6,ILB
1725.97076086,lu_ncb,11647,4,6,ILB
1725.149522531,lu_ncb,11647,6,5,ILB
1725.149522531,lu_ncb,11647,6,5,ILB
1725.185086312,lu_ncb,11647,5,7,ILB
1725.185086312,lu_ncb,11647,5,7,ILB
1725.241669741,lu_ncb,11647,7,1,ILB
1725.241669741,lu_ncb,11647,7,1,ILB
1725.278172724,lu_ncb,11647,1,4,ILB
1725.278172724,lu_ncb,11647,1,4,ILB
1725.321926136,lu_ncb,11647,4,5,ILB
1725.321926136,lu_ncb,11647,4,5,ILB
1725.358842162,lu_ncb,11647,5,0,ILB
1725.358842162,lu_ncb,11647,5,0,ILB
1725.413985329,lu_ncb,11647,0,4,ILB
1725.413985329,lu_ncb,11647,0,4,ILB
1725.423522897,lu_ncb,11647,4,54,ILB
1725.423522897,lu_ncb,11647,4,54,ILB
1725.449618436,lu_ncb,11647,54,2,ILB
1725.449618436,lu_ncb,11647,54,2,ILB
1725.500499078,lu_ncb,11647,2,6,ILB
1725.500499078,lu_ncb,11647,2,6,ILB
1725.501808673,lu_ncb,11647,6,7,WAFF
1725.501808673,lu_ncb,11647,6,7,WAFF
1725.536276612,lu_ncb,11650,7,4,ILB
1725.536276612,lu_ncb,11650,7,4,ILB
1725.589977919,lu_ncb,11650,4,6,ILB
1725.589977919,lu_ncb,11650,4,6,ILB
1725.622817571,lu_ncb,11650,6,4,ILB
1725.622817571,lu_ncb,11650,6,4,ILB
1725.675559025,lu_ncb,11650,4,57,ILB
1725.675559025,lu_ncb,11650,4,57,ILB
1725.679504287,kworker/u129:2,744,2,0,WAFF
1725.683600820,lu_ncb,11700,57,63,NLB
1725.683600820,lu_ncb,11700,57,63,NLB
1726.559463697,lu_ncb,11699,0,4,ILB
1726.559463697,lu_ncb,11699,0,4,ILB
1726.584829070,lu_ncb,11649,4,6,ILB
1726.584829070,lu_ncb,11649,4,6,ILB
1726.635589381,lu_ncb,11649,6,21,ILB
1726.635589381,lu_ncb,11649,6,21,ILB
1726.637048598,lu_ncb,11664,21,22,WAFF
1726.637048598,lu_ncb,11664,21,22,WAFF
1726.639583595,lu_ncb,11665,22,16,NLB
1726.639583595,lu_ncb,11665,22,16,NLB
1726.660634571,lu_ncb,11665,16,6,ILB
1726.660634571,lu_ncb,11665,16,6,ILB
1726.708688495,lu_ncb,11665,6,2,ILB
1726.708688495,lu_ncb,11665,6,2,ILB
1726.708698462,lu_ncb,11645,2,3,WAFF
1726.708698462,lu_ncb,11645,2,3,WAFF
1726.735901325,lu_ncb,11645,3,5,ILB
1726.735901325,lu_ncb,11645,3,5,ILB
1726.800656333,lu_ncb,11706,5,2,ILB
1726.800656333,lu_ncb,11706,5,2,ILB
1726.882962164,lu_ncb,11665,2,3,ILB
1726.882962164,lu_ncb,11665,2,3,ILB
1726.933607759,lu_ncb,11665,3,0,ILB
1726.933607759,lu_ncb,11665,3,0,ILB
1726.967589976,lu_ncb,11665,0,7,ILB
1726.967589976,lu_ncb,11665,0,7,ILB
1727.3719873,lu_ncb,11665,7,5,ILB
1727.3719873,lu_ncb,11665,7,5,ILB
1727.27126944,lu_ncb,11645,5,6,ILB
1727.27126944,lu_ncb,11645,5,6,ILB
1727.80909073,lu_ncb,11645,6,4,ILB
1727.80909073,lu_ncb,11645,6,4,ILB
1727.100749933,lu_ncb,11699,4,1,ILB
1727.100749933,lu_ncb,11699,4,1,ILB
1727.145232662,lu_ncb,11699,1,3,ILB
1727.145232662,lu_ncb,11699,1,3,ILB
1727.146553989,lu_ncb,11699,3,4,WAFF
1727.146553989,lu_ncb,11699,3,4,WAFF
1727.168855538,lu_ncb,11699,4,6,ILB
1727.168855538,lu_ncb,11699,4,6,ILB
1727.208559132,lu_ncb,11699,6,28,ILB
1727.208559132,lu_ncb,11699,6,28,ILB
1727.209808240,lu_ncb,11699,28,0,WAFF
1727.209808240,lu_ncb,11699,28,0,WAFF
1727.230698150,lu_ncb,11644,0,6,ILB
1727.230698150,lu_ncb,11644,0,6,ILB
1727.283400021,lu_ncb,11644,6,63,ILB
1727.283400021,lu_ncb,11644,6,63,ILB
1727.284824313,lu_ncb,11644,63,7,WAFF
1727.284824313,lu_ncb,11644,63,7,WAFF
1727.304178239,lu_ncb,11647,7,3,ILB
1727.304178239,lu_ncb,11647,7,3,ILB
1727.352491491,lu_ncb,11647,3,1,ILB
1727.352491491,lu_ncb,11647,3,1,ILB
1727.372361262,lu_ncb,11705,1,3,ILB
1727.372361262,lu_ncb,11705,1,3,ILB
1727.418317999,lu_ncb,11705,3,6,ILB
1727.418317999,lu_ncb,11705,3,6,ILB
1727.453250635,lu_ncb,11705,6,0,ILB
1727.453250635,lu_ncb,11705,6,0,ILB
1727.502210667,lu_ncb,11699,0,5,ILB
1727.502210667,lu_ncb,11699,0,5,ILB
1727.546228152,lu_ncb,11699,5,3,ILB
1727.546228152,lu_ncb,11699,5,3,ILB
1727.566651741,lu_ncb,11646,3,7,ILB
1727.566651741,lu_ncb,11646,3,7,ILB
1727.622012975,lu_ncb,11646,7,1,ILB
1727.622012975,lu_ncb,11646,7,1,ILB
1727.808691354,lu_ncb,11647,1,4,ILB
1727.808691354,lu_ncb,11647,1,4,ILB
1727.841051815,lu_ncb,11647,4,7,ILB
1727.841051815,lu_ncb,11647,4,7,ILB
1727.863242498,lu_ncb,11644,7,2,ILB
1727.863242498,lu_ncb,11644,7,2,ILB
1727.900164194,lu_ncb,11644,2,7,WAFF
1727.900164194,lu_ncb,11644,2,7,WAFF
1727.900220515,lu_ncb,11647,7,2,ILB
1727.900220515,lu_ncb,11647,7,2,ILB
1727.903660657,lu_ncb,11647,2,36,ILB
1727.903660657,lu_ncb,11647,2,36,ILB
1727.923708283,lu_ncb,11647,36,0,ILB
1727.923708283,lu_ncb,11647,36,0,ILB
1727.955974130,lu_ncb,11647,0,3,ILB
1727.955974130,lu_ncb,11647,0,3,ILB
1727.986057303,lu_ncb,11699,3,5,ILB
1727.986057303,lu_ncb,11699,3,5,ILB
1728.25926946,lu_ncb,11699,5,6,ILB
1728.25926946,lu_ncb,11699,5,6,ILB
1728.81293076,lu_ncb,11699,6,5,ILB
1728.81293076,lu_ncb,11699,6,5,ILB
1728.141911874,lu_ncb,11665,5,6,ILB
1728.141911874,lu_ncb,11665,5,6,ILB
1728.197859104,lu_ncb,11661,6,0,ILB
1728.197859104,lu_ncb,11661,6,0,ILB
1728.240303156,lu_ncb,11705,0,5,ILB
1728.240303156,lu_ncb,11705,0,5,ILB
1728.280772681,lu_ncb,11705,5,53,ILB
1728.280772681,lu_ncb,11705,5,53,ILB
1728.281908098,lu_ncb,11696,53,27,ILB
1728.281908098,lu_ncb,11696,53,27,ILB
1728.322209476,lu_ncb,11670,27,38,WAFF
1728.322209476,lu_ncb,11670,27,38,WAFF
1728.345491060,lu_ncb,11670,38,39,ILB
1728.345491060,lu_ncb,11670,38,39,ILB
1728.385449720,lu_ncb,11670,39,53,ILB
1728.385449720,lu_ncb,11670,39,53,ILB
1728.440316366,lu_ncb,11705,53,6,ILB
1728.440316366,lu_ncb,11705,53,6,ILB
1728.492143959,lu_ncb,11665,6,5,ILB
1728.492143959,lu_ncb,11665,6,5,ILB
1728.538614904,lu_ncb,11699,5,6,ILB
1728.538614904,lu_ncb,11699,5,6,ILB
1728.570601292,lu_ncb,11699,6,24,ILB
1728.570601292,lu_ncb,11699,6,24,ILB
1728.629522802,lu_ncb,11674,24,37,ILB
1728.629522802,lu_ncb,11674,24,37,ILB
1728.670877035,lu_ncb,11680,37,35,ILB
1728.670877035,lu_ncb,11680,37,35,ILB
1728.690147290,lu_ncb,11680,35,37,WAFF
1728.690147290,lu_ncb,11680,35,37,WAFF
1728.692496134,lu_ncb,11680,37,36,WAFF
1728.692496134,lu_ncb,11680,37,36,WAFF
1728.716037530,lu_ncb,11680,36,39,ILB
1728.716037530,lu_ncb,11680,36,39,ILB
1728.739718196,lu_ncb,11680,39,33,NLB
1728.739718196,lu_ncb,11680,39,33,NLB
1728.743750517,lu_ncb,11676,33,46,ILB
1728.743750517,lu_ncb,11676,33,46,ILB
1728.751741376,lu_ncb,11689,46,40,NLB
1728.751741376,lu_ncb,11689,46,40,NLB
1728.756466234,lu_ncb,11683,40,45,ILB
1728.756466234,lu_ncb,11683,40,45,ILB
1728.794205287,lu_ncb,11688,45,0,ILB
1728.794205287,lu_ncb,11688,45,0,ILB
1728.827613812,lu_ncb,11688,0,26,ILB
1728.827613812,lu_ncb,11688,0,26,ILB
1728.863719491,lu_ncb,11688,26,24,NLB
1728.863719491,lu_ncb,11688,26,24,NLB
1728.878350796,lu_ncb,11699,24,18,ILB
1728.878350796,lu_ncb,11699,24,18,ILB
1728.919706972,lu_ncb,11677,18,16,NLB
1728.919706972,lu_ncb,11677,18,16,NLB
1728.939705693,lu_ncb,11677,16,20,NLB
1728.939705693,lu_ncb,11677,16,20,NLB
1728.946906044,lu_ncb,11663,20,5,ILB
1728.946906044,lu_ncb,11663,20,5,ILB
1728.990663545,lu_ncb,11663,5,3,ILB
1728.990663545,lu_ncb,11663,5,3,ILB
1729.26996583,lu_ncb,11663,3,5,ILB
1729.26996583,lu_ncb,11663,3,5,ILB
1729.59132886,lu_ncb,11663,5,30,ILB
1729.59132886,lu_ncb,11663,5,30,ILB
1729.104764404,lu_ncb,11673,30,20,ILB
1729.104764404,lu_ncb,11673,30,20,ILB
1729.131714997,lu_ncb,11673,20,18,NLB
1729.131714997,lu_ncb,11673,20,18,NLB
1729.135720168,lu_ncb,11699,18,17,NLB
1729.135720168,lu_ncb,11699,18,17,NLB
1729.136009287,lu_ncb,11660,17,31,ILB
1729.136009287,lu_ncb,11660,17,31,ILB
1729.163722326,lu_ncb,11660,31,24,NLB
1729.163722326,lu_ncb,11660,31,24,NLB
1729.173081531,lu_ncb,11688,24,16,ILB
1729.173081531,lu_ncb,11688,24,16,ILB
1729.199001760,lu_ncb,11688,16,7,ILB
1729.199001760,lu_ncb,11688,16,7,ILB
1729.263917104,lu_ncb,11688,7,35,ILB
1729.263917104,lu_ncb,11688,7,35,ILB
1729.284267909,lu_ncb,11688,35,38,WAFF
1729.284267909,lu_ncb,11688,35,38,WAFF
1729.297319437,lu_ncb,11681,38,5,ILB
1729.297319437,lu_ncb,11681,38,5,ILB
1729.321920574,lu_ncb,11681,5,0,ILB
1729.321920574,lu_ncb,11681,5,0,ILB
1729.378083822,lu_ncb,11681,0,2,ILB
1729.378083822,lu_ncb,11681,0,2,ILB
1729.404950960,lu_ncb,11681,2,21,ILB
1729.404950960,lu_ncb,11681,2,21,ILB
1729.423788642,lu_ncb,11681,21,54,ILB
1729.423788642,lu_ncb,11681,21,54,ILB
1729.430641333,lu_ncb,11643,54,46,ILB
1729.430641333,lu_ncb,11643,54,46,ILB
1729.447758013,lu_ncb,11643,46,40,NLB
1729.447758013,lu_ncb,11643,46,40,NLB
1729.455093406,lu_ncb,11689,40,35,ILB
1729.455093406,lu_ncb,11689,40,35,ILB
1729.475711246,lu_ncb,11689,35,63,ILB
1729.475711246,lu_ncb,11689,35,63,ILB
1729.500002787,lu_ncb,11689,63,45,ILB
1729.500002787,lu_ncb,11689,63,45,ILB
1729.531772570,lu_ncb,11683,45,32,ILB
1729.531772570,lu_ncb,11683,45,32,ILB
1729.547151647,lu_ncb,11683,32,0,ILB
1729.547151647,lu_ncb,11683,32,0,ILB
1729.567874284,lu_ncb,11683,0,4,NLB
1729.567874284,lu_ncb,11683,0,4,NLB
1729.569881821,lu_ncb,11645,4,0,ILB
1729.569881821,lu_ncb,11645,4,0,ILB
1729.590492874,lu_ncb,11645,0,52,ILB
1729.590492874,lu_ncb,11645,0,52,ILB
1729.615115234,lu_ncb,11645,52,7,ILB
1729.615115234,lu_ncb,11645,52,7,ILB
1729.633274788,lu_ncb,11645,7,63,ILB
1729.633274788,lu_ncb,11645,7,63,ILB
1729.661747624,lu_ncb,11645,63,7,ILB
1729.661747624,lu_ncb,11645,63,7,ILB
1729.675813352,lu_ncb,11645,7,57,ILB
1729.675813352,lu_ncb,11645,7,57,ILB
1729.677818952,lu_ncb,11650,57,23,ILB
1729.677818952,lu_ncb,11650,57,23,ILB
1729.698074576,lu_ncb,11650,23,18,ILB
1729.698074576,lu_ncb,11650,23,18,ILB
1729.716269534,lu_ncb,11650,18,7,ILB
1729.716269534,lu_ncb,11650,18,7,ILB
1729.733236681,lu_ncb,11650,7,4,ILB
1729.733236681,lu_ncb,11650,7,4,ILB
1729.748433778,lu_ncb,11650,4,6,ILB
1729.748433778,lu_ncb,11650,4,6,ILB
1729.766414056,lu_ncb,11650,6,0,ILB
1729.766414056,lu_ncb,11650,6,0,ILB
1729.838832029,lu_ncb,11650,0,50,ILB
1729.838832029,lu_ncb,11650,0,50,ILB
1729.852328960,lu_ncb,11650,50,0,ILB
1729.852328960,lu_ncb,11650,50,0,ILB
1729.867556904,lu_ncb,11650,0,32,ILB
1729.867556904,lu_ncb,11650,0,32,ILB
1729.892232842,lu_ncb,11650,32,0,ILB
1729.892232842,lu_ncb,11650,32,0,ILB
1729.916111069,lu_ncb,11650,0,18,ILB
1729.916111069,lu_ncb,11650,0,18,ILB
1729.971756925,lu_ncb,11650,18,0,ILB
1729.971756925,lu_ncb,11650,18,0,ILB
1730.6040195,lu_ncb,11650,0,6,WAFF
1730.6040195,lu_ncb,11650,0,6,WAFF
1730.8199066,lu_ncb,11705,6,23,ILB
1730.8199066,lu_ncb,11705,6,23,ILB
1730.17738798,lu_ncb,11705,23,18,ILB
1730.17738798,lu_ncb,11705,23,18,ILB
1730.25899177,lu_ncb,11705,18,2,ILB
1730.25899177,lu_ncb,11705,18,2,ILB
1730.34128074,lu_ncb,11705,2,4,ILB
1730.34128074,lu_ncb,11705,2,4,ILB
1730.39785464,lu_ncb,11705,4,14,ILB
1730.39785464,lu_ncb,11705,4,14,ILB
1730.41570626,lu_ncb,11657,14,48,ILB
1730.41570626,lu_ncb,11657,14,48,ILB
1730.48777925,lu_ncb,11657,48,50,ILB
1730.48777925,lu_ncb,11657,48,50,ILB
1730.63808824,lu_ncb,11657,50,6,ILB
1730.63808824,lu_ncb,11657,50,6,ILB
1730.69813438,lu_ncb,11657,6,38,ILB
1730.69813438,lu_ncb,11657,6,38,ILB
1730.81213407,lu_ncb,11657,38,32,WAFF
1730.81213407,lu_ncb,11657,38,32,WAFF
1730.81379900,lu_ncb,11675,32,34,WAFF
1730.81379900,lu_ncb,11675,32,34,WAFF
1730.83398714,lu_ncb,11667,34,38,ILB
1730.83398714,lu_ncb,11667,34,38,ILB
1730.95480731,lu_ncb,11667,38,34,ILB
1730.95480731,lu_ncb,11667,38,34,ILB
1730.95762854,lu_ncb,11704,62,63,WAFF
1730.95762854,lu_ncb,11704,62,63,WAFF
1730.95916536,lu_ncb,11700,63,39,ILB
1730.95916536,lu_ncb,11700,63,39,ILB
1730.101372820,lu_ncb,11700,39,38,ILB
1730.101372820,lu_ncb,11700,39,38,ILB
1730.101382688,lu_ncb,11667,34,36,WAFF
1730.101382688,lu_ncb,11667,34,36,WAFF
1730.101451751,lu_ncb,11679,36,32,WAFF
1730.101451751,lu_ncb,11679,36,32,WAFF
1730.102333089,lu_ncb,11657,32,0,ILB
1730.102333089,lu_ncb,11657,32,0,ILB
1730.106527543,lu_ncb,11700,38,20,ILB
1730.106527543,lu_ncb,11700,38,20,ILB
1730.112892589,lu_ncb,11657,0,4,ILB
1730.112892589,lu_ncb,11657,0,4,ILB
1730.117289032,lu_ncb,11683,4,32,ILB
1730.117289032,lu_ncb,11683,4,32,ILB
1730.121511262,lu_ncb,11683,32,33,ILB
1730.121511262,lu_ncb,11683,32,33,ILB
1730.130259425,lu_ncb,11683,33,18,ILB
1730.130259425,lu_ncb,11683,33,18,ILB
1730.139439316,lu_ncb,11700,20,0,ILB
1730.139439316,lu_ncb,11700,20,0,ILB
1730.143641613,lu_ncb,11683,18,5,ILB
1730.143641613,lu_ncb,11683,18,5,ILB
1730.153394362,lu_ncb,11700,0,63,ILB
1730.153394362,lu_ncb,11700,0,63,ILB
1730.156526123,lu_ncb,11700,63,56,WAFF
1730.156526123,lu_ncb,11700,63,56,WAFF
1730.157111001,lu_ncb,11683,5,0,ILB
1730.157111001,lu_ncb,11683,5,0,ILB
1730.159775222,lu_ncb,11683,0,27,ILB
1730.159775222,lu_ncb,11683,0,27,ILB
1730.168265201,lu_ncb,11683,27,60,ILB
1730.168265201,lu_ncb,11683,27,60,ILB
1730.207788689,rcu_sched,8,0,28,WAFF
