Start,End,Cpu,Size
1677.76698906,1677.76767449,58,1
1677.76767449,1677.76780335,58,2
1669.95051702,1677.76780335,51,1
1677.76780335,1677.76842013,51,2
1677.76780335,1677.76885775,58,1
1677.76842013,1677.76885775,52,1
1677.76842013,1677.77472655,51,1
1677.77015130,1677.77472655,24,1
1677.77472655,1677.77673752,24,2
1677.76885775,1677.77743836,52,2
1677.77673752,1677.77868524,33,1
1677.77833938,1677.77868524,53,1
1677.77868524,1677.78028414,53,2
1677.77938470,1677.78028414,59,1
1677.78028414,1677.78210918,59,2
1677.78096526,1677.78210918,8,1
1677.78271932,1677.78348684,25,1
1677.78210918,1677.78348684,8,2
1677.78450207,1677.78951184,26,1
1677.78348684,1677.78951184,8,3
1677.78951184,1677.78995125,8,4
1677.78935636,1677.78995125,27,1
1677.78995125,1677.79018632,8,3
1677.78995125,1677.79018632,27,2
1677.79018632,1677.79211296,27,3
1677.79111437,1677.79211296,40,1
1677.79211296,1677.79320623,40,2
1677.79320623,1677.79341923,40,1
1677.79320623,1677.79609576,29,1
1677.79584420,1677.79609576,35,1
1677.79609576,1677.79694064,35,2
1677.79663906,1677.79694064,55,1
1677.79694064,1677.80320894,55,2
1677.80238577,1677.80320894,60,1
1677.80320894,1677.80461055,60,2
1677.80377022,1677.80461055,9,1
1677.79341923,1677.80508829,30,1
1677.80508829,1677.80648058,30,2
1677.80773475,1677.80817634,31,1
1677.77673752,1677.80881024,24,1
1677.79211296,1677.81577262,27,2
1677.79277954,1677.81638169,28,1
1677.80648058,1677.82189883,30,3
1677.80817634,1677.82264025,31,2
1677.80881024,1677.82320510,24,2
1677.81361746,1677.82422492,25,1
1677.81481950,1677.82484548,26,1
1677.81577262,1677.83020840,27,3
1677.81638169,1677.83095305,28,2
1677.81701666,1677.83158229,29,1
1677.82189883,1677.83221309,30,4
1677.82264025,1677.83280169,31,3
1677.80461055,1677.83369767,9,2
1677.83344182,1677.83369767,45,1
1677.82320510,1677.83426193,24,3
1677.83369767,1677.84196420,45,2
1677.84353927,1677.84413148,50,1
1677.84527948,1677.85046117,51,1
1677.77743836,1677.85097325,52,3
1677.78028414,1677.85170269,53,1
1677.79456586,1677.85241195,54,1
1677.84013070,1677.85352700,48,1
1677.84272529,1677.85409650,49,1
1677.84413148,1677.85914592,50,2
1677.85046117,1677.85999045,51,2
1677.85097325,1677.86069846,52,4
1677.86069846,1677.86216111,52,5
1677.86126057,1677.86216111,62,1
1677.86216111,1677.86231140,52,4
1677.86216111,1677.86231140,62,2
1677.78210918,1677.86311735,59,1
1677.85170269,1677.86311735,53,2
1677.79018632,1677.86322266,8,2
1677.86311735,1677.86322266,53,3
1677.79525005,1677.86462076,34,1
1677.85241195,1677.86462076,54,2
1677.79694064,1677.86474800,35,1
1677.86462076,1677.86474800,54,3
1677.83369767,1677.86521774,9,1
1677.80461055,1677.86521774,60,1
1677.83020840,1677.86651326,27,4
1677.81531199,1677.86651326,42,1
1677.82422492,1677.86728989,25,2
1677.82370096,1677.86728989,43,1
1677.83426193,1677.87172200,24,4
1677.86231140,1677.87172200,62,3
1677.86322266,1677.87225528,53,4
1677.77558489,1677.87225528,32,1
1677.87225528,1677.87238117,53,3
1677.86474800,1677.87238117,54,4
1677.87172200,1677.88128399,62,4
1677.84196420,1677.88128399,38,1
1677.88128399,1677.88137918,62,3
1677.88128399,1677.88137918,38,2
1677.88137918,1677.88339130,38,3
1677.88137918,1677.88339130,62,2
1677.87238117,1677.88704595,54,5
1677.83158229,1677.88704595,29,2
1677.88704595,1677.88732914,54,4
1677.88704595,1677.88732914,29,3
1677.86651326,1677.88759283,27,3
1677.88732914,1677.88806575,54,3
1677.88759283,1677.88806575,16,1
1677.80320894,1677.89046199,55,1
1677.88732914,1677.89046199,29,4
1677.83221309,1677.89297545,30,5
1677.86521774,1677.89297545,60,2
1677.83280169,1677.89540022,31,4
1677.89046199,1677.89540022,29,5
1677.89540022,1677.89559367,29,6
1677.88759283,1677.89559367,27,2
1677.86651326,1677.89620116,42,2
1677.81433926,1677.89620116,41,1
1677.87172200,1677.89635011,24,3
1677.89620116,1677.89635011,41,2
1677.82484548,1677.89676312,26,2
1677.86728989,1677.89676312,25,1
1677.89559367,1677.89712995,27,3
1677.82531200,1677.89712995,44,1
1677.85999045,1677.90270782,51,3
1677.83095305,1677.90270782,28,3
1677.85914592,1677.90280404,50,3
1677.89635011,1677.90280404,24,2
1677.86231140,1677.90463819,52,3
1677.90270782,1677.90515447,51,2
1677.88339130,1677.90515447,38,2
1677.88339130,1677.96748816,62,3
1677.90515447,1677.96765969,38,3
1677.96748816,1677.96765969,1,1
1677.96765969,1677.120709370,1,2
1677.87225528,1677.128439675,32,2
1677.96765969,1677.128439675,38,2
1677.96748816,1677.129965154,62,2
1677.90280404,1677.129965154,24,3
1677.89559367,1677.143110327,29,5
1677.129965154,1677.143110327,24,4
1677.143110327,1677.152742593,29,4
1677.89297545,1677.152742593,60,3
1677.152742593,1677.155218234,60,4
1677.129965154,1677.155218234,62,1
1677.155218234,1677.155223434,60,3
1677.155218234,1677.155223434,62,2
1677.155223434,1677.155486513,60,2
1677.89676312,1677.155486513,26,1
1677.89297545,1677.160731193,30,4
1677.128439675,1677.160731193,32,1
1677.88806575,1677.164805636,16,2
1677.85409650,1677.164805636,49,2
1677.143110327,1677.166939098,24,5
1677.88806575,1677.166939098,54,2
1677.90270782,1677.168744048,28,4
1677.89712995,1677.168764531,27,2
1677.90515447,1677.168764531,51,1
1677.152742593,1677.168765047,29,3
1677.89540022,1677.168840511,31,3
1677.160731193,1677.168858299,30,3
1677.89676312,1677.176278689,25,2
1677.160731193,1677.176278689,32,2
1677.155486513,1677.176753897,26,2
1677.86322266,1677.176753897,8,1
1677.155223434,1677.176814862,62,3
1677.120709370,1677.176814862,1,1
1677.168840511,1677.178020299,31,2
1677.168764531,1677.178020299,51,2
1677.164805636,1677.178036901,49,3
1677.178020299,1677.178036901,51,3
1677.166939098,1677.178327820,54,3
1677.85299553,1677.178327820,61,1
1677.166939098,1677.188646714,24,4
1677.168765047,1677.188646714,18,1
1677.178036901,1677.196740740,51,4
1677.196740740,1677.196746986,51,3
1677.196740740,1677.196746986,4,1
1677.168765047,1677.200734282,29,2
1677.168858299,1677.200811086,30,2
1677.168744048,1677.200840673,28,3
1677.178327820,1677.205665548,61,2
1677.155486513,1677.205665548,60,1
1677.85352700,1677.208756340,48,2
1677.196746986,1677.209578463,4,2
1677.176814862,1677.209578463,1,2
1677.89635011,1677.218226131,41,3
1677.89620116,1677.218226131,42,1
1677.200840673,1677.218611289,28,2
1677.176814862,1677.218611289,62,2
1677.218226131,1677.219623998,41,2
1677.188646714,1677.219623998,18,2
1677.90280404,1677.232341324,50,2
1677.87238117,1677.232341324,53,2
1677.86728989,1677.232856561,43,2
1677.89712995,1677.243204090,44,2
1677.168764531,1677.243204090,27,1
1677.188646714,1677.268857091,24,3
1677.218611289,1677.268857091,28,1
1677.219623998,1677.269525085,18,3
1677.178036901,1677.269525085,49,2
1677.268857091,1677.270513264,28,2
1677.209578463,1677.270520922,1,3
1677.268857091,1677.270520922,24,2
1677.176278689,1677.284735530,32,3
1677.232341324,1677.284735530,53,3
1677.178327820,1677.284814070,54,2
1677.269525085,1677.284814070,18,2
1677.270520922,1677.300737706,1,2
1677.168744048,1677.300737706,17,1
1677.218611289,1677.300757825,62,3
1677.300737706,1677.300757825,17,2
1677.128439675,1677.300871662,38,3
1677.200811086,1677.300871662,33,1
1677.284735530,1677.300908547,53,4
1677.200840673,1677.300908547,34,1
1677.300908547,1677.308541967,53,3
1677.284814070,1677.308541967,54,1
1677.300871662,1677.310429323,38,2
1677.300757825,1677.310429323,62,2
1677.284735530,1677.311099098,32,2
1677.300737706,1677.311099098,1,1
1677.269525085,1677.311145563,49,3
1677.120709370,1677.311145563,3,1
1677.284814070,1677.312803242,18,3
1677.176753897,1677.312803242,26,1
1677.270520922,1677.313455656,24,3
1677.270513264,1677.313455656,28,1
1677.311145563,1677.316968503,49,2
1677.232341324,1677.316968503,50,1
1677.90463819,1677.322456640,52,2
1677.311099098,1677.322456640,1,2
1677.313455656,1677.332777096,24,2
1677.308541967,1677.332846347,53,2
1677.196746986,1677.332868116,51,2
1677.312803242,1677.335680149,26,2
1677.332868116,1677.335680149,12,1
1677.310429323,1677.340738431,62,3
1677.316968503,1677.346785963,50,2
1677.308541967,1677.346785963,54,2
1677.300908547,1677.352770085,34,2
1677.311145563,1677.352770085,3,2
1677.300871662,1677.355395641,33,2
1677.310429323,1677.355395641,38,1
1677.176753897,1677.358216888,8,2
1677.332777096,1677.358216888,10,1
1677.300757825,1677.360842515,17,3
1677.322456640,1677.360842515,1,3
1677.360842515,1677.364801548,17,2
1677.243204090,1677.367623832,27,2
1677.164805636,1677.367623832,16,1
1677.205665548,1677.368050424,60,2
1677.340738431,1677.368050424,62,2
1677.218226131,1677.379996007,42,2
1677.219623998,1677.379996007,41,1
1677.360842515,1677.416701418,1,4
1677.232856561,1677.416701418,2,1
1677.312803242,1677.417135622,18,2
1677.209578463,1677.417135622,4,1
1677.416701418,1677.440713204,1,3
1677.416701418,1677.440713204,2,2
1677.346785963,1677.448807696,54,3
1677.335680149,1677.452849696,12,2
1677.352770085,1677.452964768,3,3
1677.452849696,1677.452964768,13,1
1677.313455656,1677.461699878,28,2
1677.367623832,1677.461699878,27,1
1677.452964768,1677.461771092,13,2
1677.332777096,1677.461771092,24,1
1677.358216888,1677.462028697,10,2
1677.440713204,1677.462352813,2,3
1677.368050424,1677.462699681,62,3
1677.200811086,1677.462699681,30,1
1677.462352813,1677.465638890,2,2
1677.176278689,1677.465638890,25,1
1677.452964768,1677.470037489,3,2
1677.452849696,1677.470037489,12,1
1677.448807696,1677.478338857,54,2
1677.417135622,1677.478338857,18,1
1677.440713204,1677.488799327,1,2
1677.417135622,1677.490725087,4,2
1677.316968503,1677.490725087,49,1
1677.462699681,1677.490733003,62,2
1677.208756340,1677.490733003,48,1
1677.462699681,1677.496862292,30,2
1677.367623832,1677.500741536,16,2
1677.355395641,1677.500858035,38,2
1677.379996007,1677.501167094,41,2
1677.448807696,1677.501167094,40,1
1677.465638890,1677.518077794,25,2
1677.346785963,1677.518077794,50,1
1677.490733003,1677.564412813,48,2
1677.465638890,1677.564412813,2,1
1677.501167094,1677.596907405,40,2
1677.478338857,1677.613208226,18,2
1677.500741536,1677.613208226,20,1
1677.490725087,1677.623329216,49,2
1677.478338857,1677.623329216,54,1
1677.518077794,1677.623635303,50,2
1677.90463819,1677.623635303,55,1
1677.564412813,1677.624499747,2,2
1677.564412813,1677.624499747,48,1
1677.461771092,1677.640980116,24,2
1677.613208226,1677.640980116,18,1
1677.470037489,1677.644959020,12,2
1677.461699878,1677.646175421,27,2
1677.84094932,1677.646175421,36,1
1677.623329216,1677.698276154,54,2
1677.613208226,1677.698276154,20,2
1677.698276154,1677.698419636,20,3
1677.332868116,1677.698419636,51,1
1677.646175421,1677.699809101,36,2
1677.640980116,1677.699809101,18,2
1677.699809101,1677.700764108,18,3
1677.496862292,1677.700764108,19,1
1677.698419636,1677.700812786,20,2
1677.698419636,1677.736818186,51,2
1677.700764108,1677.740742408,18,2
1677.623635303,1677.756208451,55,2
1677.322456640,1677.756208451,52,1
1677.624499747,1677.756573782,48,2
1677.332846347,1677.756573782,53,1
1677.700764108,1677.756761526,19,2
1677.756573782,1677.823941672,53,2
1677.756208451,1677.823941672,52,2
1677.823941672,1677.824066667,52,3
1677.736818186,1677.824066667,51,1
1677.824066667,1677.881241836,51,2
1677.698276154,1677.881241836,54,1
1677.824066667,1677.881962132,52,2
1677.823941672,1677.881962132,53,1
1677.881241836,1678.1272473,54,2
1677.623635303,1678.1272473,50,1
1677.881962132,1678.5468193,53,2
1677.623329216,1678.5468193,49,1
1678.1272473,1678.75261688,50,2
1677.352770085,1678.75261688,34,1
1678.5468193,1678.75293545,49,2
1677.490733003,1678.75293545,62,1
1678.75261688,1678.89425667,34,2
1677.488799327,1678.89425667,1,1
1678.89425667,1678.127562142,1,2
1677.756208451,1678.127562142,55,1
1678.75293545,1678.149014821,62,2
1677.340738431,1678.149014821,58,1
1678.149014821,1678.252970535,58,2
1678.127562142,1678.257830467,55,2
1678.75293545,1678.257830467,49,1
1678.257830467,1678.377999446,49,2
1678.257830467,1678.377999446,55,1
1678.377999446,1678.489267719,55,2
1677.756573782,1678.489267719,48,1
1678.489267719,1678.621994232,48,2
1677.881241836,1678.621994232,51,1
1678.621994232,1678.694535325,51,2
1678.1272473,1678.694535325,54,1
1678.694535325,1678.700822829,54,2
1678.127562142,1678.700822829,1,1
1678.700822829,1678.704782964,1,2
1677.490725087,1678.704782964,4,1
1678.704782964,1678.749139679,4,2
1678.700822829,1678.749139679,54,1
1678.749139679,1678.869573751,54,2
1678.694535325,1678.869573751,51,1
1678.869573751,1678.979850900,51,2
1678.489267719,1678.979850900,55,1
1678.979850900,1679.94354070,55,2
1678.75261688,1679.94354070,50,1
1679.94354070,1679.217292311,50,2
1678.979850900,1679.217292311,51,1
1679.217292311,1679.330386903,51,2
1678.621994232,1679.330386903,48,1
1679.330386903,1679.445528590,48,2
1679.217292311,1679.445528590,50,1
1679.445528590,1679.546795236,50,2
1678.377999446,1679.546795236,49,1
1679.546795236,1679.674086247,49,2
1679.546795236,1679.674086247,50,1
1679.674086247,1679.782488570,50,2
1679.445528590,1679.782488570,48,1
1679.782488570,1679.974791987,48,2
1679.674086247,1679.974791987,49,1
1679.974791987,1679.984897020,49,2
1677.84162065,1679.984897020,37,1
1679.984897020,1679.996936911,37,2
1677.270513264,1679.996936911,39,1
1679.996936911,1680.21548747,39,2
1678.869573751,1680.21548747,54,1
1680.21548747,1680.156900568,54,2
1679.974791987,1680.156900568,48,1
1680.156900568,1680.237433938,48,2
1679.94354070,1680.237433938,55,1
1680.237433938,1680.352953056,55,2
1679.330386903,1680.352953056,51,1
1680.352953056,1680.414409749,51,2
1680.156900568,1680.414409749,54,1
1680.414409749,1680.414593638,54,2
1680.237433938,1680.414593638,48,1
1680.414593638,1680.457250822,48,2
1680.414593638,1680.457250822,54,1
1680.457250822,1680.568068693,54,2
1679.984897020,1680.568068693,49,1
1680.568068693,1680.796928836,49,2
1680.457250822,1680.796928836,48,1
1680.796928836,1680.876521937,48,2
1679.782488570,1680.876521937,50,1
1680.876521937,1680.974736747,50,2
1680.796928836,1680.974736747,49,1
1677.500741536,1681.28950801,16,1
1677.624499747,1681.28950801,2,1
1681.28950801,1681.36974702,2,2
1678.749139679,1681.36974702,4,1
1680.974736747,1681.72756949,49,2
1680.974736747,1681.72756949,50,1
1681.36974702,1681.72944786,4,2
1678.5468193,1681.72944786,53,1
1681.72944786,1681.170950884,53,2
1681.72756949,1681.170950884,49,1
1681.72756949,1681.171138049,50,2
1680.568068693,1681.171138049,54,1
1681.170950884,1681.271444682,49,2
1681.171138049,1681.271444682,50,1
1681.171138049,1681.271661379,54,2
1681.170950884,1681.271661379,53,1
1681.271444682,1681.367531697,50,2
1681.271661379,1681.373230463,53,2
1680.876521937,1681.373230463,48,1
1681.373230463,1681.448982230,48,2
1677.488799327,1681.448982230,7,1
1681.448982230,1681.461007476,7,2
1678.704782964,1681.461007476,1,1
1681.461007476,1681.469043117,1,2
1677.462352813,1681.469043117,5,1
1681.469043117,1681.471399128,5,2
1681.72944786,1681.471399128,4,1
1681.367531697,1681.474519560,16,1
1680.352953056,1681.474519560,55,1
1681.474519560,1681.577708294,55,2
1681.367531697,1681.577708294,50,1
1681.471399128,1681.578017313,4,2
1681.448982230,1681.578017313,48,1
1681.577708294,1681.677711052,50,2
1681.271661379,1681.677711052,54,1
1681.578017313,1681.677861267,48,2
1681.577708294,1681.677861267,55,1
1681.677861267,1681.778158263,55,2
1681.677711052,1681.778158263,50,1
1681.677711052,1681.778212375,54,2
1681.677861267,1681.778212375,48,1
1681.778158263,1681.841015460,50,2
1677.736818186,1681.841015460,59,1
1681.778212375,1681.873138098,48,2
1681.841015460,1681.873138098,50,1
1681.841015460,1681.885413298,59,2
1681.873138098,1681.885413298,48,1
1681.873138098,1681.968361389,50,2
1681.373230463,1681.968361389,53,1
1681.885413298,1681.968515496,48,2
1681.271444682,1681.968515496,49,1
1681.968515496,1682.64199694,49,2
1681.968361389,1682.64199694,50,1
1681.968361389,1682.64500092,53,2
1681.778212375,1682.64500092,54,1
1682.64500092,1682.121021488,54,2
1677.644959020,1682.121021488,15,1
1682.121021488,1682.122177129,15,2
1677.358216888,1682.122177129,8,1
1682.64199694,1682.158276911,50,2
1681.968515496,1682.158276911,48,1
1682.122177129,1682.158968283,8,2
1680.414409749,1682.158968283,51,1
1682.158968283,1682.246531833,51,2
1682.158276911,1682.246531833,50,1
1682.158276911,1682.246828701,48,2
1682.64500092,1682.246828701,53,1
1682.246828701,1682.338359391,53,2
1682.246531833,1682.338444539,50,2
1682.121021488,1682.338444539,54,1
1682.338444539,1682.432996074,54,2
1682.338444539,1682.432996074,50,1
1682.338359391,1682.457036681,16,1
1677.700812786,1682.457036681,21,1
1682.457036681,1682.485049471,21,2
1677.700812786,1682.485049471,20,1
1682.432996074,1682.509106066,50,2
1680.21548747,1682.509106066,39,1
1682.485049471,1682.512950993,20,2
1677.311099098,1682.512950993,32,1
1682.509106066,1682.524233430,39,2
1682.246531833,1682.524233430,51,1
1682.512950993,1682.594697526,32,2
1677.500858035,1682.594697526,35,1
1682.524233430,1682.615004441,51,2
1682.432996074,1682.615004441,54,1
1682.594697526,1682.615170709,35,2
1681.778158263,1682.615170709,55,1
1682.615004441,1682.706562460,54,2
1682.246828701,1682.706562460,48,1
1682.615170709,1682.706943804,55,2
1682.338359391,1682.706943804,53,1
1682.706943804,1682.793316189,53,2
1677.881962132,1682.793316189,52,1
1682.706562460,1682.793644589,48,2
1682.509106066,1682.793644589,50,1
1682.793644589,1682.883083071,50,2
1682.793644589,1682.883083071,48,1
1682.883083071,1682.972777531,48,2
1677.596907405,1682.972777531,40,1
1682.793316189,1682.983136490,52,2
1682.972777531,1682.983136490,48,1
1682.972777531,1683.53432918,40,2
1682.983136490,1683.64047523,48,2
1682.793316189,1683.64047523,53,1
1683.64047523,1683.110528868,53,2
1682.706943804,1683.110528868,55,1
1683.110528868,1683.146638040,55,2
1683.64047523,1683.146638040,48,1
1683.146638040,1683.227278751,48,2
1682.706562460,1683.227278751,54,1
1683.227278751,1683.304507397,54,2
1683.227278751,1683.317193262,48,1
1682.64199694,1683.317193262,49,1
1683.317193262,1683.359998856,49,2
1683.110528868,1683.359998856,53,1
1683.359998856,1683.387185703,53,2
1683.359998856,1683.387185703,49,1
1683.387185703,1683.450728170,49,2
1677.208756340,1683.450728170,0,1
1683.304507397,1683.485215125,16,1
1683.387185703,1683.485215125,53,1
1683.450728170,1683.489375147,0,2
1681.461007476,1683.489375147,7,1
1683.485215125,1683.561179163,53,2
1683.561179163,1683.635041361,48,1
1682.615004441,1683.717144492,51,1
1683.635041361,1683.717252146,16,1
1683.450728170,1683.717252146,49,1
1683.717144492,1683.759031637,51,2
1682.983136490,1683.759031637,52,1
1683.759031637,1683.782287286,52,2
1677.461771092,1683.782287286,13,1
1683.717252146,1683.782343207,49,2
1677.462028697,1683.782343207,10,1
1683.782343207,1683.845139501,10,2
1677.200734282,1683.845139501,9,1
1683.845139501,1683.874185481,9,2
1683.782287286,1683.885175455,13,2
1683.782343207,1683.885175455,49,1
1683.885175455,1683.949687857,49,2
1683.304507397,1683.949687857,54,1
1683.146638040,1683.950083623,55,1
1683.950083623,1684.29167844,55,2
1683.949687857,1684.33156224,54,2
1683.949687857,1684.33156224,49,1
1684.33156224,1684.105155201,49,2
1682.883083071,1684.105155201,50,1
1684.105155201,1684.113188542,49,1
1684.113188542,1684.134968564,49,2
1677.364801548,1684.134968564,17,1
1684.134968564,1684.153161998,17,2
1682.524233430,1684.153161998,39,1
1684.105155201,1684.159927886,50,2
1684.134968564,1684.159927886,49,1
1684.153161998,1684.166532809,39,2
1684.33156224,1684.166532809,54,1
1684.159927886,1684.231592346,49,2
1683.759031637,1684.231592346,51,1
1684.166532809,1684.239016454,54,2
1684.29167844,1684.239016454,55,1
1684.231592346,1684.282893750,51,2
1684.239016454,1684.282893750,54,1
1684.239016454,1684.306753596,55,2
1684.282893750,1684.306753596,51,1
1684.282893750,1684.322756368,54,2
1684.306753596,1684.322756368,51,2
1684.322756368,1684.371184596,51,3
1677.500858035,1684.371184596,38,1
1684.371184596,1684.382653961,38,2
1677.756761526,1684.382653961,19,1
1684.371184596,1684.384358193,51,2
1683.782287286,1684.384358193,52,1
1684.384358193,1684.426192289,52,2
1684.322756368,1684.426192289,54,1
1684.426192289,1684.426332246,54,2
1684.426192289,1684.426332246,52,1
1684.426332246,1684.450833707,52,2
1684.426332246,1684.450833707,54,1
1684.382653961,1684.456842004,19,2
1682.485049471,1684.456842004,21,1
1684.456842004,1684.496531863,21,2
1677.368050424,1684.496531863,60,1
1684.450833707,1684.518117122,54,2
1684.231592346,1684.518117122,49,1
1684.496531863,1684.521664959,60,2
1677.168840511,1684.521664959,56,1
1684.518117122,1684.573149540,49,2
1677.243204090,1684.573149540,44,1
1684.573149540,1684.585684195,44,2
1677.84196420,1684.585684195,45,1
1684.521664959,1684.598547508,56,2
1684.573149540,1684.598547508,49,1
1684.585684195,1684.602421038,45,2
1684.598547508,1684.665118593,49,2
1684.585684195,1684.665118593,44,1
1684.159927886,1684.672683775,50,1
1684.672683775,1684.719235624,50,2
1683.53432918,1684.719235624,40,1
1684.665118593,1684.719276918,44,2
1682.122177129,1684.719276918,15,1
1684.719235624,1684.753683144,40,2
1684.719276918,1684.753683144,44,1
1684.719276918,1684.761775742,15,2
1684.450833707,1684.761775742,52,1
1684.761775742,1684.820122510,52,2
1684.719235624,1684.820122510,50,1
1684.753683144,1684.821379024,44,2
1677.232856561,1684.821379024,43,1
1684.820122510,1684.884447725,50,2
1684.306753596,1684.884447725,55,1
1684.884447725,1684.942264283,55,2
1684.384358193,1684.942264283,51,1
1684.942264283,1685.5700535,51,2
1684.518117122,1685.5700535,54,1
1685.5700535,1685.146039344,54,2
1677.740742408,1685.146039344,18,1
1685.146039344,1685.223487566,18,2
1677.335680149,1685.223487566,26,1
1685.223487566,1685.250053447,26,2
1677.646175421,1685.250053447,27,1
1685.250053447,1685.253275306,27,2
1677.496862292,1685.253275306,30,1
1685.253275306,1685.254753180,30,2
1677.518077794,1685.254753180,25,1
1683.489375147,1685.485427668,0,1
1685.485427668,1685.497227457,0,2
1681.471399128,1685.497227457,5,1
1685.497227457,1685.509894755,5,2
1681.36974702,1685.509894755,2,1
1685.509894755,1685.567295546,2,2
1684.942264283,1685.567295546,55,1
1685.567295546,1685.624477036,55,2
1685.5700535,1685.682160263,51,1
1685.682160263,1685.738421344,51,2
1684.665118593,1685.738421344,49,1
1685.738421344,1685.785229782,49,2
1677.332846347,1685.785229782,11,1
1684.382653961,1685.795458970,38,1
1685.785229782,1685.805292943,11,2
1683.874185481,1685.805292943,9,1
1685.795458970,1685.837262195,38,2
1682.594697526,1685.837262195,32,1
1685.837262195,1685.837913097,32,2
1678.89425667,1685.837913097,34,1
1685.837913097,1685.845312380,34,2
1682.615170709,1685.845312380,35,1
1685.845312380,1685.859470979,35,2
1685.624477036,1685.859470979,55,1
1685.859470979,1685.914671035,55,2
1685.146039344,1685.914671035,54,1
1685.914671035,1685.953235360,54,2
1683.885175455,1685.953235360,13,1
1685.953235360,1685.967720205,13,2
1685.785229782,1685.967720205,49,1
1685.967720205,1686.9259629,49,2
1677.205665548,1686.9259629,61,1
1686.9259629,1686.23099310,61,2
1685.567295546,1686.75780794,2,1
1686.75780794,1686.127396468,2,2
1684.820122510,1686.127396468,52,1
1686.127396468,1686.177151131,52,2
1683.561179163,1686.177151131,53,1
1686.177151131,1686.217252696,53,2
1686.217252696,1686.226130024,16,1
1677.178020299,1686.226130024,31,1
1686.226130024,1686.263652922,31,2
1683.53432918,1686.263652922,47,1
1686.263652922,1686.303429480,47,2
1684.821379024,1686.303429480,44,1
1686.303429480,1686.321342838,44,2
1677.596907405,1686.321342838,46,1
1686.217252696,1686.472629273,53,1
1686.472629273,1686.512893475,53,2
1681.578017313,1686.512893475,4,1
1686.512893475,1686.545259022,4,2
1681.469043117,1686.545259022,1,1
1686.545259022,1686.570767733,1,2
1677.740742408,1686.570767733,23,1
1686.570767733,1686.602661782,23,2
1685.837913097,1686.602661782,32,1
1686.602661782,1686.641312986,32,2
1677.355395641,1686.641312986,33,1
1686.641312986,1686.648721385,33,2
1685.845312380,1686.648721385,34,1
1686.648721385,1686.685332915,34,2
1685.859470979,1686.685332915,35,1
1686.685332915,1686.697447216,35,2
1684.521664959,1686.697447216,60,1
1686.697447216,1686.733294391,60,2
1677.168858299,1686.733294391,57,1
1686.733294391,1686.735881375,57,2
1684.884447725,1686.735881375,50,1
1686.735881375,1686.782919348,50,2
1686.512893475,1686.782919348,53,1
1686.782919348,1686.805929949,53,2
1685.805292943,1686.805929949,11,1
1686.805929949,1686.818986010,11,2
1677.756761526,1686.818986010,22,1
1686.818986010,1686.953886850,22,2
1686.805929949,1686.953886850,53,1
1686.953886850,1686.976514103,53,2
1686.177151131,1686.976514103,52,1
1686.976514103,1686.988733108,52,2
1686.9259629,1686.988733108,49,1
1686.988733108,1687.71448075,49,2
1685.953235360,1687.71448075,54,1
1687.71448075,1687.137352519,54,2
1685.253275306,1687.137352519,27,1
1687.137352519,1687.137604860,27,2
1677.461699878,1687.137604860,28,1
1687.137604860,1687.152760535,28,2
1686.782919348,1687.152760535,50,1
1687.152760535,1687.175744161,50,2
1687.137352519,1687.175744161,54,1
1687.175744161,1687.221400298,54,2
1687.152760535,1687.221400298,28,1
1687.221400298,1687.228984135,28,2
1677.379996007,1687.228984135,42,1
1687.228984135,1687.265346730,42,2
1686.733294391,1687.296397431,60,1
1687.296397431,1687.367177966,60,2
1686.321342838,1687.367177966,46,2
1687.367177966,1687.404525367,46,3
1685.738421344,1687.404525367,51,1
1687.404525367,1687.434661870,51,2
1686.685332915,1687.434661870,34,1
1687.434661870,1687.483194781,34,2
1685.837262195,1687.483194781,38,1
1687.483194781,1687.503829702,38,2
1687.434661870,1687.503829702,51,1
1687.503829702,1687.530985380,51,2
1677.644959020,1687.530985380,12,1
1687.530985380,1687.589604385,12,2
1685.805292943,1687.589604385,9,2
1687.589604385,1687.594415785,9,3
1687.221400298,1687.594415785,54,1
1687.594415785,1687.622699508,54,2
1684.753683144,1687.622699508,40,1
1687.622699508,1687.643709115,40,2
1677.501167094,1687.643709115,41,1
1687.643709115,1687.649386136,41,2
1686.648721385,1687.649386136,33,1
1687.649386136,1687.653839421,33,2
1683.489375147,1687.653839421,7,2
1687.653839421,1687.677359654,7,3
1686.570767733,1687.677359654,1,1
1687.677359654,1687.684617267,1,2
1687.530985380,1687.684617267,51,1
1687.684617267,1687.739013165,51,2
1678.252970535,1687.739013165,63,1
1687.739013165,1687.767453619,63,2
1685.497227457,1687.767453619,0,1
1687.767453619,1687.793326425,0,2
1686.127396468,1687.793326425,2,1
1687.793326425,1687.794467742,2,2
1677.470037489,1687.794467742,3,1
1687.794467742,1687.796406779,3,2
1677.699809101,1687.796406779,36,1
1687.796406779,1687.817431945,36,2
1687.483194781,1687.817431945,34,1
1687.817431945,1687.817512792,34,2
1679.996936911,1687.817512792,37,1
1687.817512792,1687.817739752,37,2
1684.166532809,1687.817739752,39,1
1687.817739752,1687.821355948,39,2
1686.697447216,1687.821355948,35,1
1687.821355948,1687.824204416,35,2
1687.739013165,1687.824204416,51,1
1687.824204416,1687.847895715,51,2
1687.367177966,1687.847895715,60,1
1687.847895715,1687.885370065,60,2
1684.598547508,1687.885370065,56,1
1687.885370065,1687.891010800,56,2
1687.767453619,1687.891010800,63,1
1687.891010800,1687.893364028,63,2
1687.885370065,1687.893364028,60,1
1687.893364028,1687.899609201,60,2
1686.976514103,1687.899609201,53,1
1687.899609201,1687.949944562,53,2
1687.594415785,1687.949944562,9,2
1687.949944562,1688.1877066,9,3
1684.761775742,1688.1877066,15,1
1688.1877066,1688.24069265,15,2
1687.847895715,1688.24069265,51,1
1688.24069265,1688.44591810,51,2
1687.589604385,1688.44591810,12,1
1688.44591810,1688.61350325,12,2
1682.158968283,1688.61350325,8,1
1688.61350325,1688.67710395,8,2
1688.44591810,1688.67710395,51,1
1688.67710395,1688.268852012,51,2
1688.61350325,1688.268852012,12,1
1688.268852012,1688.286856335,12,2
1687.649386136,1688.286856335,41,1
1688.286856335,1688.307460523,41,2
1687.893364028,1688.307460523,63,1
1688.307460523,1688.322693271,63,2
1687.899609201,1688.322693271,60,1
1688.322693271,1688.370780168,60,2
1687.949944562,1688.370780168,53,1
1688.370780168,1688.400276152,53,2
1688.286856335,1688.400276152,12,1
1688.400276152,1688.416503846,12,2
1688.400276152,1688.416503846,53,1
1688.416503846,1688.428467083,53,2
1688.1877066,1688.428467083,9,2
1688.428467083,1688.441364550,9,3
1688.67710395,1688.441364550,8,1
1688.441364550,1688.443184658,8,2
1687.796406779,1688.443184658,3,1
1688.443184658,1688.453364377,3,2
1686.545259022,1688.453364377,4,1
1688.453364377,1688.457157850,4,2
1688.453364377,1688.457157850,3,1
1688.457157850,1688.473007928,3,2
1684.456842004,1688.473007928,19,1
1688.473007928,1688.486503045,19,2
1686.953886850,1688.500193099,22,1
1688.500193099,1688.510287792,22,2
1687.71448075,1688.510287792,49,1
1688.510287792,1688.519887165,49,2
1688.307460523,1688.519887165,41,1
1688.519887165,1688.542446016,41,2
1683.845139501,1688.542446016,10,1
1688.542446016,1688.553384033,10,2
1686.818986010,1688.553384033,11,1
1688.553384033,1688.553663619,11,2
1688.553384033,1688.553663619,10,1
1688.553663619,1688.561367542,10,2
1688.416503846,1688.561367542,12,1
1688.561367542,1688.563914465,12,2
1685.914671035,1688.563914465,55,1
1688.563914465,1688.574210855,55,2
1688.268852012,1688.574210855,51,1
1688.574210855,1688.583705432,51,2
1687.684617267,1688.583705432,1,1
1688.583705432,1688.593307638,1,2
1687.794467742,1688.593307638,2,1
1688.593307638,1688.602962992,2,2
1688.583705432,1688.602962992,51,1
1688.602962992,1688.610180897,51,2
1688.428467083,1688.610180897,53,1
1688.610180897,1688.642903430,53,2
1685.967720205,1688.642903430,13,1
1688.642903430,1688.658523545,13,2
1688.610180897,1688.658523545,51,1
1688.658523545,1688.694726095,51,2
1688.519887165,1688.694726095,49,1
1688.694726095,1688.723690363,49,2
1687.643709115,1688.723690363,40,1
1688.723690363,1688.728554841,40,2
1684.821379024,1688.728554841,43,2
1688.728554841,1688.733201974,43,3
1688.723690363,1688.733201974,49,1
1688.733201974,1688.737469154,49,2
1678.252970535,1688.737469154,58,1
1688.737469154,1688.741912527,58,2
1688.694726095,1688.741912527,51,1
1688.741912527,1688.745267936,51,2
1686.602661782,1688.745267936,23,1
1688.745267936,1688.752412241,23,2
1688.745267936,1688.752412241,51,1
1688.752412241,1688.759879835,51,2
1686.988733108,1688.759879835,52,1
1688.759879835,1688.760558015,52,2
1688.759879835,1688.760558015,51,1
1688.760558015,1688.763431600,51,2
1688.642903430,1688.763431600,53,1
1688.763431600,1688.763934273,53,2
1688.763431600,1688.763934273,51,1
1688.763934273,1688.772950434,51,2
1688.763934273,1688.772950434,53,1
1688.772950434,1688.773422184,53,2
1688.486503045,1688.773422184,19,1
1688.773422184,1688.778796130,19,2
1688.457157850,1688.778796130,4,1
1688.778796130,1688.781436407,4,2
1687.793326425,1688.781436407,0,1
1688.781436407,1688.791752892,0,2
1688.473007928,1688.791752892,3,1
1688.791752892,1688.799819034,3,2
1688.553663619,1688.799819034,11,1
1688.799819034,1688.813509171,11,2
1688.602962992,1688.813509171,2,1
1688.813509171,1688.818225438,2,2
1688.781436407,1688.818225438,4,1
1681.885413298,1688.837831225,59,1
1688.593307638,1688.837833504,1,1
1685.250053447,1688.837861189,26,1
1677.462028697,1688.837875726,14,1
1688.813509171,1688.837901472,11,1
1685.223487566,1688.837958160,18,1
1677.640980116,1688.837963655,24,1
1687.817431945,1688.837985620,36,1
1686.23099310,1688.838011065,61,1
1688.563914465,1688.838019164,12,1
1688.818225438,1688.838023977,2,1
1685.509894755,1688.838053330,5,1
1688.24069265,1688.838073978,15,1
1688.441364550,1688.838079693,9,2
1678.149014821,1688.838084490,62,1
1687.817739752,1688.838084820,37,1
1687.137604860,1688.838129149,27,1
1687.677359654,1688.838130270,7,2
1688.799819034,1688.838133622,3,1
1688.791752892,1688.838140216,0,1
1686.735881375,1688.838144401,57,1
1684.602421038,1688.838172534,45,1
1687.265346730,1688.838183501,42,1
1688.760558015,1688.838213924,52,1
1686.321342838,1688.838216217,44,1
1688.561367542,1688.838225720,10,1
1687.228984135,1688.838237187,28,1
1688.658523545,1688.838243452,13,1
1688.818225438,1688.838268390,4,2
1688.728554841,1688.838284821,40,1
1688.773422184,1688.838294083,53,1
1688.733201974,1688.838334602,43,2
1687.824204416,1688.838335533,35,1
1688.752412241,1688.838350663,23,1
1685.254753180,1688.838376305,25,2
1684.496531863,1688.838379753,21,1
1686.263652922,1688.838396081,31,1
1688.443184658,1688.838404305,8,1
1687.653839421,1688.838410248,33,1
1686.641312986,1688.838427982,32,1
1687.175744161,1688.838445371,50,1
1687.817512792,1688.838459926,34,1
1682.512950993,1688.838469302,20,1
1688.838268390,1688.838473451,4,1
1688.772950434,1688.838518365,51,1
1686.303429480,1688.838528402,47,1
1687.622699508,1688.838532846,54,1
1688.370780168,1688.838535672,60,1
1677.200734282,1688.838542625,29,1
1687.503829702,1688.838542868,38,1
1688.510287792,1688.838577475,22,1
1688.778796130,1688.838598953,19,1
1687.891010800,1688.838604020,56,1
1687.821355948,1688.838625543,39,1
1688.542446016,1688.838630294,41,1
1688.322693271,1688.838632279,63,1
1688.737469154,1688.838746663,49,1
1677.364801548,1688.838750857,6,1
1688.741912527,1688.838752441,58,1
1687.404525367,1688.838795408,46,2
1684.153161998,1688.838797719,17,1
1688.574210855,1688.853475017,55,1
1688.838130270,1688.0,7,1
1688.838079693,1688.0,9,1
1688.838376305,1688.0,25,1
1685.254753180,1688.0,30,1
1688.838334602,1688.0,43,1
1688.838795408,1688.0,46,1
