Start,End,Cpu,Size
1657.179501892,1657.179566473,52,1
1657.179566473,1657.179596137,52,2
1649.745627119,1657.179596137,32,1
1657.179596137,1657.179605925,32,2
1657.179596137,1657.179605925,52,1
1657.179605925,1657.179635284,52,2
1657.179760267,1657.179825829,56,1
1657.179635284,1657.179915169,52,1
1657.179892489,1657.179915169,57,1
1657.179989866,1657.180503035,10,1
1657.180677921,1657.180731959,24,1
1657.180731959,1657.180888472,24,2
1657.180789403,1657.180888472,40,1
1657.180948735,1657.180998450,25,1
1657.179915169,1657.181616463,57,2
1657.181578626,1657.181616463,27,1
1657.181675287,1657.181748481,33,1
1657.181616463,1657.181748481,27,2
1657.179635284,1657.181810379,53,1
1657.181944554,1657.182005980,34,1
1657.181748481,1657.182086889,27,3
1657.182060715,1657.182086889,35,1
1657.182145385,1657.182653101,54,1
1657.182086889,1657.182763203,35,2
1657.182738233,1657.182763203,55,1
1657.182763203,1657.182919718,55,2
1657.182825675,1657.182919718,58,1
1657.182919718,1657.183033710,58,2
1657.182977887,1657.183033710,11,1
1657.183033710,1657.183175806,11,2
1657.183245049,1657.183326301,41,1
1657.183175806,1657.183895832,29,1
1657.183853768,1657.183895832,42,1
1657.183895832,1657.184049716,42,2
1657.183962985,1657.184049716,30,1
1657.184049716,1657.184091136,42,1
1657.184049716,1657.184091136,30,2
1657.184348363,1657.184404853,36,1
1657.181810379,1657.185351594,53,2
1657.182005980,1657.185815631,34,2
1657.182763203,1657.185907743,35,1
1657.182653101,1657.185979663,54,2
1657.184404853,1657.186026135,36,2
1657.185044511,1657.186104652,37,1
1657.182919718,1657.186185824,55,1
1657.185106733,1657.186253462,38,1
1657.185221757,1657.186741586,39,1
1657.184163036,1657.186818834,48,1
1657.185277134,1657.186872045,33,1
1657.184269636,1657.186985086,49,1
1657.185815631,1657.187064007,34,3
1657.185907743,1657.187120043,35,2
1657.184480293,1657.187667779,50,1
1657.186026135,1657.187742398,36,3
1657.186104652,1657.187815447,37,2
1657.184968016,1657.187890094,51,1
1657.186253462,1657.187980060,38,2
1657.185163732,1657.188101810,52,1
1657.186741586,1657.188604010,39,2
1657.187064007,1657.188959509,34,4
1657.187120043,1657.188959509,35,3
1657.186985086,1657.189444262,49,2
1657.186927561,1657.189444262,43,1
1657.179825829,1657.190611092,56,2
1657.179605925,1657.190611092,32,1
1657.180888472,1657.191100781,40,2
1657.180503035,1657.191100781,10,2
1657.180998450,1657.191328280,25,2
1657.191100781,1657.191328280,10,3
1657.188959509,1657.191658517,35,4
1657.190611092,1657.191658517,32,2
1657.185979663,1657.191730635,54,3
1657.181096250,1657.191730635,26,1
1657.183326301,1657.191912000,41,2
1657.186818834,1657.191912000,48,2
1657.184091136,1657.191970202,30,3
1657.191912000,1657.191970202,48,3
1657.187742398,1657.191992220,36,4
1657.191730635,1657.191992220,54,2
1657.191992220,1657.192211281,54,3
1657.189444262,1657.192211281,49,1
1657.187815447,1657.192265823,37,3
1657.186872045,1657.192265823,33,2
1657.188604010,1657.192276025,39,3
1657.191658517,1657.192276025,32,3
1657.191970202,1657.192290880,48,4
1657.192211281,1657.192290880,54,2
1657.192265823,1657.192327059,33,3
1657.187980060,1657.192327059,38,3
1657.192276025,1657.192479556,32,4
1657.188036882,1657.192479556,44,1
1657.192327059,1657.192727768,38,4
1657.189444262,1657.192727768,43,2
1657.192727768,1657.192920961,43,3
1657.192727768,1657.192920961,38,3
1657.192479556,1657.193244809,32,3
1657.185351594,1657.193244809,53,3
1657.193244809,1657.199577787,53,4
1657.180888472,1657.199577787,24,1
1657.191328280,1657.199610943,10,4
1657.181616463,1657.199610943,57,1
1657.199577787,1657.199647212,24,2
1657.199610943,1657.199647212,10,3
1657.199647212,1657.199679962,10,4
1657.191100781,1657.199679962,40,1
1657.199679962,1657.203559297,10,3
1657.191328280,1657.203559297,25,1
1657.192290880,1657.223643721,54,3
1657.191992220,1657.223643721,36,3
1657.182086889,1657.223686957,27,2
1657.183136870,1657.223686957,28,1
1657.191730635,1657.223767975,26,2
1657.191970202,1657.227613488,30,2
1657.191912000,1657.227613488,41,1
1657.203559297,1657.231540387,25,2
1657.223643721,1657.239532520,36,4
1657.227613488,1657.239532520,41,2
1657.223686957,1657.247558201,28,2
1657.190611092,1657.247558201,56,1
1657.199577787,1657.248528310,53,3
1657.188101810,1657.248528310,52,2
1657.248528310,1657.256980028,52,3
1657.231540387,1657.256980028,16,1
1657.192211281,1657.263203435,49,2
1657.183033710,1657.263203435,58,1
1657.239532520,1657.271570744,36,3
1657.192327059,1657.271584542,33,2
1657.186185824,1657.279553471,55,2
1657.187667779,1657.279636041,50,2
1657.248528310,1657.279636041,53,2
1657.203559297,1657.280946584,10,2
1657.183175806,1657.280946584,11,1
1657.188959509,1657.281614996,34,3
1657.223686957,1657.281614996,27,1
1657.281614996,1657.281621000,34,2
1657.281614996,1657.281621000,27,2
1657.281621000,1657.282083973,27,3
1657.223767975,1657.282083973,26,1
1657.239532520,1657.282374388,41,3
1657.282083973,1657.282374388,26,2
1657.282374388,1657.282376570,41,2
1657.282374388,1657.282376570,26,3
1657.282376570,1657.282427273,26,4
1657.223767975,1657.282427273,29,1
1657.223643721,1657.288130634,54,2
1657.280946584,1657.288130634,11,2
1657.187890094,1657.289196726,51,2
1657.279553471,1657.289196726,55,1
1657.199610943,1657.289391458,57,2
1657.247558201,1657.289391458,56,2
1657.192920961,1657.290520812,38,4
1657.256980028,1657.290520812,16,2
1657.290520812,1657.290524941,38,3
1657.290520812,1657.290524941,16,3
1657.192290880,1657.298526287,48,3
1657.280946584,1657.298526287,10,1
1657.298526287,1657.298530182,48,2
1657.298526287,1657.298530182,10,2
1657.192265823,1657.300163952,37,2
1657.247558201,1657.300163952,28,1
1657.192479556,1657.301546736,44,2
1657.199679962,1657.301546736,40,2
1657.290524941,1657.303390243,16,4
1657.271584542,1657.303390243,18,1
1657.298530182,1657.303545541,10,3
1657.191658517,1657.310080183,35,3
1657.192276025,1657.310080183,39,2
1657.279636041,1657.311166159,53,3
1657.256980028,1657.311166159,52,2
1657.192920961,1657.315575024,43,2
1657.271570744,1657.315575024,17,1
1657.288130634,1657.354991231,11,3
1657.311166159,1657.354991231,52,3
1657.282427273,1657.355022804,26,3
1657.290524941,1657.355022804,38,2
1657.303390243,1657.355036703,16,3
1657.315575024,1657.355036703,17,2
1657.301546736,1657.355128933,40,3
1657.282376570,1657.355128933,41,1
1657.289391458,1657.355219584,56,3
1657.282427273,1657.355219584,29,2
1657.355036703,1657.355260211,17,3
1657.355219584,1657.355395096,29,3
1657.227613488,1657.355395096,30,1
1657.354991231,1657.371542697,52,4
1657.288130634,1657.371542697,54,1
1657.355219584,1657.371586237,56,2
1657.289196726,1657.371586237,55,2
1657.263203435,1657.387719934,58,2
1657.355128933,1657.387719934,41,2
1657.355022804,1657.394180755,38,3
1657.310080183,1657.394180755,35,2
1657.371586237,1657.395518620,55,3
1657.355260211,1657.395546300,17,2
1657.303390243,1657.395546300,18,2
1657.355022804,1657.403684877,26,2
1657.354991231,1657.403684877,11,2
1657.403684877,1657.411532793,11,3
1657.303545541,1657.411532793,8,1
1657.395546300,1657.411555550,18,3
1657.355260211,1657.411555550,19,1
1657.310080183,1657.411575436,39,3
1657.193244809,1657.411575436,32,2
1657.411555550,1657.411591688,19,2
1657.279636041,1657.411591688,50,1
1657.395518620,1657.411667524,55,2
1657.355395096,1657.411667524,30,2
1657.371542697,1657.411985639,52,3
1657.311166159,1657.411985639,53,2
1657.411591688,1657.421387261,50,2
1657.394180755,1657.421387261,35,3
1657.387719934,1657.425869739,41,3
1657.411591688,1657.425869739,19,1
1657.411532793,1657.427631603,8,2
1657.394180755,1657.427631603,38,2
1657.303545541,1657.427757845,10,2
1657.282083973,1657.427757845,27,2
1657.411555550,1657.436021931,18,2
1657.395546300,1657.436021931,17,1
1657.411667524,1657.439557386,30,3
1657.371586237,1657.439557386,56,1
1657.425869739,1657.443564542,41,2
1657.427631603,1657.443646098,38,3
1657.281621000,1657.443646098,34,1
1657.355128933,1657.443715446,40,2
1657.298530182,1657.443715446,48,1
1657.443646098,1657.446175102,34,2
1657.443715446,1657.446175102,40,1
1657.411575436,1657.447559318,39,2
1657.421387261,1657.454448288,35,4
1657.301546736,1657.454448288,44,1
1657.300163952,1657.454816305,28,2
1657.427631603,1657.454816305,8,1
1657.427757845,1657.463592886,27,3
1657.199647212,1657.463592886,24,1
1657.443715446,1657.466810021,48,2
1657.421387261,1657.466810021,50,1
1657.411985639,1657.500933605,53,3
1657.371542697,1657.500933605,54,2
1657.500933605,1657.501006423,54,3
1657.411667524,1657.501006423,55,1
1657.501006423,1657.501167320,55,2
1657.454448288,1657.501167320,35,3
1657.454816305,1657.501216526,8,2
1657.403684877,1657.501216526,26,1
1657.271570744,1657.501735499,36,2
1657.395518620,1657.501735499,0,1
1657.411575436,1657.503562986,32,3
1657.501167320,1657.503562986,55,1
1657.501167320,1657.503577026,35,4
1657.503562986,1657.503577026,55,2
1657.503577026,1657.519722165,55,3
1657.427757845,1657.519722165,10,1
1657.503577026,1657.519829512,35,3
1657.454448288,1657.519829512,44,2
1657.519722165,1657.531550163,10,2
1657.501216526,1657.531550163,8,1
1657.439557386,1657.535588794,56,2
1657.411985639,1657.535588794,52,2
1657.355395096,1657.539581565,29,2
1657.443564542,1657.539581565,41,1
1657.519829512,1657.539643291,44,3
1657.466810021,1657.539643291,50,2
1657.519722165,1657.540414559,55,2
1657.519829512,1657.540414559,35,2
1657.539643291,1657.541822791,44,2
1657.315575024,1657.541822791,43,1
1657.439557386,1657.543604575,30,2
1657.539581565,1657.543604575,29,1
1657.501735499,1657.547220501,0,2
1657.543604575,1657.547220501,29,2
1657.436021931,1657.551807840,17,2
1657.355036703,1657.551807840,16,2
1657.463592886,1657.555597975,27,2
1657.454816305,1657.555597975,28,1
1657.463592886,1657.555695921,24,2
1657.547220501,1657.555765566,0,1
1657.555695921,1657.555765566,31,1
1657.535588794,1657.558294696,52,3
1657.539643291,1657.562152974,50,3
1657.279553471,1657.562152974,5,1
1657.555765566,1657.563559329,31,2
1657.436021931,1657.563559329,18,1
1657.443646098,1657.563616440,38,2
1657.446175102,1657.563616440,34,1
1657.539581565,1657.568348693,41,2
1657.541822791,1657.568348693,43,2
1657.531550163,1657.570654410,8,2
1657.446175102,1657.570654410,40,2
1657.501006423,1657.571583587,54,2
1657.500933605,1657.571583587,53,2
1657.425869739,1657.577590644,19,2
1657.541822791,1657.577590644,44,1
1657.555597975,1657.579353420,28,2
1657.571583587,1657.579353420,54,1
1657.571583587,1657.587578435,53,3
1657.535588794,1657.587578435,56,1
1657.562152974,1657.587737512,50,2
1657.411532793,1657.587737512,11,2
1657.587737512,1657.590797930,11,3
1657.570654410,1657.590797930,8,1
1657.563616440,1657.590835207,34,2
1657.540414559,1657.590835207,35,3
1657.551807840,1657.591590148,16,3
1657.570654410,1657.594360746,40,3
1657.591590148,1657.594360746,20,1
1657.590835207,1657.598883959,35,4
1657.300163952,1657.598883959,37,1
1657.563559329,1657.598904215,18,2
1657.598883959,1657.598904215,37,2
1657.598904215,1657.606959280,37,3
1657.577590644,1657.606959280,44,2
1657.547220501,1657.649039059,29,3
1657.598883959,1657.649039059,35,3
1657.594360746,1657.649731951,20,2
1657.568348693,1657.663629688,43,3
1657.263203435,1657.663629688,49,1
1657.649039059,1657.663670049,35,4
1657.594360746,1657.663670049,40,2
1657.663670049,1657.671582206,35,3
1657.289391458,1657.671582206,57,1
1657.558294696,1657.679664234,0,1
1657.649731951,1657.679664234,20,1
1657.649039059,1657.679718453,29,2
1657.231540387,1657.679718453,25,1
1657.562152974,1657.679750980,5,2
1657.555695921,1657.679750980,24,1
1657.663629688,1657.687248921,49,2
1657.606959280,1657.687248921,37,2
1657.663670049,1657.688453736,40,3
1657.663629688,1657.688453736,43,2
1657.679750980,1657.688644876,24,2
1657.679718453,1657.688644876,29,1
1657.688453736,1657.688806870,43,3
1657.447559318,1657.688806870,39,1
1657.687248921,1657.695603400,37,3
1657.387719934,1657.695603400,58,1
1657.590797930,1657.695669552,11,2
1657.501735499,1657.695669552,36,1
1657.679718453,1657.699568878,25,2
1657.587578435,1657.699568878,56,2
1657.671582206,1657.707526712,57,2
1657.606959280,1657.711564091,44,3
1657.688806870,1657.718933110,39,2
1657.707526712,1657.718933110,0,1
1657.501216526,1657.720747940,26,2
1657.695603400,1657.720747940,58,2
1657.699568878,1657.727569681,56,3
1657.590797930,1657.744966510,8,2
1657.531550163,1657.744966510,10,1
1657.679664234,1657.747132535,20,2
1657.563616440,1657.747132535,38,1
1657.695669552,1657.751481595,36,2
1657.271584542,1657.751481595,33,1
1657.591590148,1657.752870092,16,2
1657.577590644,1657.752870092,19,1
1657.579353420,1657.755573300,54,2
1657.711564091,1657.758744220,44,2
1657.443564542,1657.758744220,42,1
1657.688453736,1657.765184748,40,2
1657.568348693,1657.765184748,41,1
1657.718933110,1657.787216746,0,2
1657.688806870,1657.787216746,43,2
1657.787216746,1657.787244165,43,3
1657.758744220,1657.787244165,44,1
1657.751481595,1657.787572464,33,2
1657.751481595,1657.787572464,36,1
1657.744966510,1657.787611800,10,2
1657.695669552,1657.787611800,11,1
1657.758744220,1657.787638484,42,2
1657.787611800,1657.787638484,11,2
1657.787638484,1657.787650270,11,3
1657.752870092,1657.787893616,19,2
1657.590835207,1657.787893616,34,1
1657.695603400,1657.803573589,37,2
1657.747132535,1657.803573589,38,2
1657.671582206,1657.815561255,35,2
1657.787572464,1657.815561255,36,2
1657.720747940,1657.827235038,58,3
1657.688644876,1657.827235038,29,2
1657.827235038,1657.827240333,58,2
1657.827235038,1657.827240333,29,3
1657.827240333,1657.827568655,29,4
1657.579353420,1657.827568655,28,1
1657.787244165,1657.827742314,43,2
1657.765184748,1657.827742314,41,2
1657.503562986,1657.828082322,32,2
1657.679750980,1657.828082322,5,1
1657.803573589,1657.828268190,38,3
1657.787216746,1657.828268190,0,1
1657.815561255,1657.830399500,36,3
1657.803573589,1657.830399500,37,1
1657.827742314,1657.830418002,41,3
1657.787638484,1657.830418002,42,1
1657.828268190,1657.832363361,0,2
1657.755573300,1657.832363361,1,1
1657.787893616,1657.833650852,34,2
1657.815561255,1657.833650852,35,1
1657.727569681,1657.839589231,56,2
1657.727569681,1657.839589231,59,1
1657.827568655,1657.839603637,29,3
1657.688644876,1657.839603637,24,1
1657.830418002,1657.851123819,42,2
1657.827742314,1657.851123819,43,1
1657.830399500,1657.855623934,36,2
1657.466810021,1657.855623934,48,1
1657.828268190,1657.855691986,38,2
1657.555597975,1657.855691986,27,1
1657.827568655,1657.855759363,28,2
1657.744966510,1657.855759363,8,1
1657.839589231,1657.855939930,59,2
1657.752870092,1657.855939930,16,1
1657.787650270,1657.856018552,11,2
1657.720747940,1657.856018552,26,1
1657.839603637,1657.867593995,24,2
1657.787650270,1657.867593995,12,1
1657.855691986,1657.868855768,27,2
1657.855759363,1657.868855768,28,1
1657.856018552,1657.870422252,26,2
1657.856018552,1657.870422252,11,1
1657.855759363,1657.882165737,8,2
1657.867593995,1657.882165737,12,2
1657.832363361,1657.885178872,1,2
1657.765184748,1657.885178872,40,1
1657.855939930,1657.885347628,16,2
1657.885178872,1657.885347628,1,1
1657.855623934,1657.892016606,48,2
1657.832363361,1657.892016606,0,1
1657.828082322,1657.929166625,5,2
1657.830418002,1657.929213610,41,2
1657.851123819,1657.929213610,42,1
1657.833650852,1657.931583974,35,2
1657.718933110,1657.931583974,39,1
1657.931583974,1657.931669987,39,2
1657.787572464,1657.931669987,33,1
1657.882165737,1657.947611073,12,3
1657.885347628,1657.947712129,1,2
1657.885178872,1657.947712129,40,2
1657.931669987,1657.951639543,33,2
1657.839603637,1657.963736441,29,2
1657.747132535,1657.963736441,20,1
1657.870422252,1657.963917907,11,2
1657.947712129,1657.964062950,40,3
1657.882165737,1657.964062950,8,1
1657.892016606,1657.967573519,0,2
1657.830399500,1657.979336774,37,2
1657.931583974,1657.979336774,35,1
1657.787244165,1657.979707226,44,2
1657.892016606,1657.979707226,48,1
1657.868855768,1657.983616976,28,2
1657.868855768,1657.983616976,27,1
1657.929213610,1657.983684079,42,2
1657.979707226,1657.983684079,44,1
1657.963736441,1657.986300988,20,2
1657.649731951,1657.986300988,21,1
1657.587578435,1657.986952421,53,2
1657.951639543,1657.986952421,60,1
1657.979707226,1657.987286211,48,2
1657.929166625,1657.987286211,5,1
1657.851123819,1657.993007948,43,2
1657.929213610,1657.993007948,41,1
1657.947611073,1657.999570213,12,2
1657.967573519,1658.4537308,0,1
1657.967573519,1658.4537308,3,1
1657.964062950,1658.7069422,8,2
1657.929166625,1658.7069422,6,1
1657.964062950,1658.31633657,40,2
1657.983684079,1658.31633657,42,1
1658.7069422,1658.53392576,6,2
1657.447559318,1658.53392576,7,1
1657.839589231,1658.72371393,56,1
1658.4537308,1658.79581993,3,2
1657.986300988,1658.79603671,21,2
1657.993007948,1658.79666665,41,2
1657.986952421,1658.91595452,60,2
1657.983684079,1658.95610933,44,2
1657.987286211,1658.95640940,5,2
1657.979336774,1658.110764482,35,2
1657.833650852,1658.110764482,34,1
1658.31633657,1658.111161986,42,2
1657.931669987,1658.111161986,39,1
1658.53392576,1658.111191527,7,2
1657.828082322,1658.111191527,32,1
1657.983616976,1658.111492115,27,2
1657.951639543,1658.111492115,33,1
1658.110764482,1658.226455480,34,2
1658.91595452,1658.226455480,62,1
1658.111191527,1658.232839387,32,2
1657.855691986,1658.232839387,38,1
1658.111161986,1658.233259446,39,2
1657.979336774,1658.233259446,37,1
1658.111492115,1658.233378318,33,2
1657.855623934,1658.233378318,36,1
1658.232839387,1658.315603710,38,2
1658.233259446,1658.315603710,39,1
1658.315603710,1658.315672733,39,2
1658.232839387,1658.315672733,32,1
1658.315672733,1658.315706293,32,2
1658.233378318,1658.315706293,33,1
1658.226455480,1658.338793215,62,2
1658.91595452,1658.338793215,60,1
1658.233378318,1658.340169943,36,2
1658.79603671,1658.340169943,22,1
1658.233259446,1658.345024352,37,2
1658.315603710,1658.345024352,38,1
1658.315706293,1658.352054036,33,2
1657.707526712,1658.352054036,57,1
1658.338793215,1658.426638363,60,2
1658.72371393,1658.426638363,61,1
1658.345024352,1658.426672261,38,2
1658.315672733,1658.426672261,39,1
1658.426672261,1658.473395320,39,2
1658.340169943,1658.473395320,36,1
1658.426638363,1658.473836788,61,2
1658.338793215,1658.473836788,62,1
1658.352054036,1658.490723403,57,2
1657.855939930,1658.490723403,59,1
1658.340169943,1658.494256004,22,2
1658.473836788,1658.547659207,62,2
1657.986300988,1658.547659207,20,1
1658.547659207,1658.587622653,20,2
1658.494256004,1658.587652801,56,1
1658.490723403,1658.598278108,59,2
1658.547659207,1658.598278108,62,1
1658.473395320,1658.600648666,36,2
1658.473395320,1658.600648666,39,1
1658.600648666,1658.661465954,39,2
1658.426672261,1658.661465954,38,1
1658.661465954,1658.716708480,38,2
1658.661465954,1658.716708480,39,1
1658.598278108,1658.716836611,62,2
1658.352054036,1658.716836611,33,1
1658.716836611,1658.780045840,33,2
1658.345024352,1658.780045840,37,1
1658.716708480,1658.795627634,39,2
1658.716708480,1658.795627634,38,1
1658.780045840,1658.799651391,37,2
1658.587622653,1658.799651391,23,1
1658.795627634,1658.826229370,38,2
1658.795627634,1658.826229370,39,1
1658.799651391,1658.833934046,23,2
1658.315706293,1658.833934046,32,1
1658.826229370,1658.947448916,39,2
1658.600648666,1658.947448916,36,1
1658.833934046,1658.956233093,32,2
1658.780045840,1658.956233093,33,1
1658.956233093,1659.20517481,33,2
1658.799651391,1659.20517481,37,1
1658.947448916,1659.20536443,36,2
1658.956233093,1659.20536443,32,1
1659.20536443,1659.73402760,32,2
1659.20517481,1659.73402760,33,1
1659.20517481,1659.73609845,37,2
1658.826229370,1659.73609845,38,1
1659.73609845,1659.135394006,38,2
1659.20536443,1659.135394006,36,1
1659.73402760,1659.187677933,33,2
1659.135394006,1659.187677933,38,1
1659.135394006,1659.187876137,36,2
1658.947448916,1659.187876137,39,1
1659.187876137,1659.252597946,39,2
1659.187677933,1659.252597946,38,2
1659.252597946,1659.252608924,38,3
1659.73402760,1659.252608924,32,1
1659.252608924,1659.252629569,32,2
1658.110764482,1659.252629569,35,1
1659.252608924,1659.305476948,38,2
1659.252597946,1659.305476948,39,1
1659.252629569,1659.305686264,35,2
1658.226455480,1659.305686264,34,1
1659.305686264,1659.371728424,34,2
1659.305686264,1659.371728424,35,1
1659.371728424,1659.371917142,35,2
1659.187677933,1659.371917142,33,1
1659.371917142,1659.425303091,33,2
1659.252629569,1659.425303091,32,1
1659.305476948,1659.441326404,39,2
1659.305476948,1659.441326404,38,1
1659.441326404,1659.543776009,38,2
1659.371728424,1659.543776009,34,1
1659.425303091,1659.546579427,32,2
1659.543776009,1659.598171166,34,2
1659.371917142,1659.598171166,35,1
1659.546579427,1659.598290405,56,1
1658.490723403,1659.598290405,57,1
1659.598171166,1659.650006449,35,2
1659.73609845,1659.650006449,37,1
1659.598290405,1659.655219928,57,2
1658.716836611,1659.655219928,62,1
1659.650006449,1659.711938661,37,2
1659.441326404,1659.711938661,39,1
1659.655219928,1659.761516848,62,2
1659.546579427,1659.761516848,32,1
1659.711938661,1659.774696783,39,2
1658.587652801,1659.774696783,63,1
1659.774696783,1659.823271203,63,2
1658.473836788,1659.823271203,61,1
1659.761516848,1659.832821556,32,2
1657.947712129,1659.832821556,1,1
1659.832821556,1659.870538980,1,2
1659.543776009,1659.870538980,38,1
1659.823271203,1659.872356678,61,2
1659.425303091,1659.872356678,33,1
1659.870538980,1659.991783198,38,2
1659.832821556,1659.991783198,32,1
1659.872356678,1660.5975766,33,2
1659.991783198,1660.5975766,32,2
1660.5975766,1660.46491948,32,3
1659.650006449,1660.46491948,35,1
1660.46491948,1660.96697916,32,2
1660.5975766,1660.96697916,33,1
1660.46491948,1660.110112592,35,2
1657.563559329,1660.110112592,31,1
1660.96697916,1660.203219540,33,2
1659.598171166,1660.203219540,34,1
1660.110112592,1660.207767253,31,2
1657.543604575,1660.207767253,30,1
1660.203219540,1660.262590697,34,2
1660.96697916,1660.262590697,32,1
1660.262590697,1660.262703348,32,2
1660.110112592,1660.262703348,35,1
1660.262703348,1660.305091805,35,2
1660.262703348,1660.305091805,32,1
1660.305091805,1660.476154137,32,2
1659.774696783,1660.476154137,39,1
1660.476154137,1660.487747131,39,2
1657.993007948,1660.487747131,43,1
1660.487747131,1660.525016637,43,2
1657.999570213,1660.525016637,12,1
1660.525016637,1660.587737551,12,2
1657.963917907,1660.587737551,14,1
1660.587737551,1660.591723833,14,2
1660.476154137,1661.30542171,32,1
1660.203219540,1661.30542171,33,1
1661.30542171,1661.99780528,33,2
1657.787893616,1661.99780528,19,1
1661.99780528,1661.111809529,19,2
1658.79581993,1661.111809529,3,1
1661.111809529,1661.133185833,3,2
1661.133185833,1661.195788336,32,1
1658.79581993,1661.195788336,4,1
1661.195788336,1661.199765024,4,2
1659.870538980,1661.199765024,1,1
1661.199765024,1661.207752760,1,2
1658.95640940,1661.207752760,2,1
1661.207752760,1661.216082354,2,2
1658.31633657,1661.216082354,40,1
1661.216082354,1661.252475172,40,2
1658.426638363,1661.252475172,60,1
1661.252475172,1661.350657822,60,2
1657.827240333,1661.350657822,58,1
1661.350657822,1661.388163206,58,2
1659.872356678,1661.388163206,61,1
1661.388163206,1661.431707291,61,2
1661.431707291,1661.526696670,32,1
1660.305091805,1661.526696670,35,1
1661.526696670,1661.587808018,35,2
1661.587808018,1661.625444619,56,1
1659.823271203,1661.625444619,63,1
1661.625444619,1661.722205499,63,2
1661.722205499,1661.776561730,32,1
1657.987286211,1661.776561730,48,1
1661.776561730,1661.779877164,48,2
1657.867593995,1661.779877164,24,1
1661.779877164,1661.795801055,24,2
1657.983616976,1661.795801055,28,1
1660.262590697,1662.767731894,34,1
1662.767731894,1662.853977783,34,2
1662.853977783,1662.941956761,34,1
1662.941956761,1663.26217775,34,2
1663.26217775,1663.113148060,34,1
1663.113148060,1663.187894114,34,2
1661.431707291,1663.187894114,61,1
1661.587808018,1663.199997638,35,1
1661.99780528,1663.200057374,33,1
1659.187876137,1663.200057374,36,1
1663.199997638,1663.241709922,35,2
1663.187894114,1663.241709922,34,1
1663.187894114,1663.241730697,61,2
1659.761516848,1663.241730697,62,1
1663.241709922,1663.276483195,34,2
1663.241730697,1663.281323253,62,2
1661.388163206,1663.281323253,58,1
1663.200057374,1663.287977538,36,2
1663.276483195,1663.287977538,34,1
1663.287977538,1663.322961341,34,2
1663.241709922,1663.322961341,35,1
1663.241730697,1663.357667730,61,1
1663.322961341,1663.358604213,35,2
1660.487747131,1663.358604213,39,1
1663.281323253,1663.362890248,58,2
1663.358604213,1663.441597493,39,2
1663.358604213,1663.441597493,35,1
1663.357667730,1663.441903788,61,2
1663.362890248,1663.448393747,56,1
1659.655219928,1663.448393747,57,1
1663.492756966,1663.493069053,33,1
1663.441597493,1663.493069053,39,1
1663.441597493,1663.528227924,35,2
1663.493069053,1663.528240211,39,2
1663.448393747,1663.534202020,57,2
1661.722205499,1663.534202020,63,1
1663.528227924,1663.597266741,33,1
1661.779877164,1663.597266741,48,1
1661.111809529,1663.597427940,19,1
1663.534202020,1663.599290724,63,2
1658.95610933,1663.599290724,47,1
1663.597266741,1663.659898902,48,2
1657.687248921,1663.659898902,49,1
1663.599290724,1663.680008600,47,2
1663.528240211,1663.680008600,39,1
1663.597427940,1663.687823399,19,2
1661.350657822,1663.687823399,60,1
1663.687823399,1663.755207148,60,2
1663.322961341,1663.755207148,34,1
1663.680008600,1663.766930888,39,2
1663.755207148,1663.766930888,34,2
1663.766930888,1663.799369731,34,3
1663.766930888,1663.799369731,39,1
1663.799369731,1663.800180206,34,2
1663.800180206,1663.831922451,34,1
1663.799369731,1663.836854781,39,2
1663.831922451,1663.906179317,34,2
1663.441903788,1663.906179317,61,1
1663.528227924,1663.906475578,35,1
1663.906179317,1663.967942259,61,2
1663.281323253,1663.967942259,62,1
1663.906475578,1663.974847998,35,2
1657.885347628,1663.974847998,16,1
1663.967942259,1663.975250838,62,2
1657.963736441,1663.975250838,29,1
1663.974847998,1664.29386252,16,2
1657.551807840,1664.29386252,17,1
1664.29386252,1664.29619052,17,2
1657.598904215,1664.29619052,18,1
1663.975250838,1664.35972802,29,2
1661.795801055,1664.35972802,24,1
1664.35972802,1664.72579064,24,2
1663.967942259,1664.72579064,61,1
1664.72579064,1664.133747245,61,2
1663.906179317,1664.204074540,34,1
1664.204074540,1664.270680752,34,2
1663.755207148,1664.270680752,60,1
1664.270680752,1664.345271604,60,2
1663.599290724,1664.345271604,63,1
1664.345271604,1664.415336915,63,2
1664.415336915,1664.523343109,33,1
1663.974847998,1664.523343109,35,1
1664.523343109,1664.550506399,35,2
1664.415336915,1664.550506399,63,1
1664.550506399,1664.625158225,63,2
1663.362890248,1664.625158225,58,1
1664.625158225,1664.685006792,58,2
1664.550506399,1664.685006792,35,1
1664.685006792,1664.755633681,35,2
1664.345271604,1664.755633681,60,1
1664.755633681,1664.788636569,60,2
1664.625158225,1664.788636569,63,1
1664.788636569,1664.817398490,63,2
1664.755633681,1664.817398490,35,1
1664.817398490,1664.881728726,35,2
1664.881728726,1664.921799616,56,1
1663.534202020,1664.921799616,57,1
1664.921799616,1664.949077738,57,2
1664.949077738,1665.8033017,33,1
1665.8033017,1665.79518939,0,1
1658.598278108,1665.79518939,59,1
1665.79518939,1665.109439204,59,2
1664.949077738,1665.109439204,57,1
1665.109439204,1665.112036017,57,2
1661.133185833,1665.112036017,3,1
1665.112036017,1665.116008167,3,2
1661.207752760,1665.116008167,1,1
1665.371438488,1665.428451198,33,1
1659.991783198,1665.428451198,38,1
1665.428451198,1665.487516255,38,2
1665.487516255,1665.516525702,33,1
1663.287977538,1665.516525702,36,1
1665.516525702,1665.517725997,36,2
1659.711938661,1665.517725997,37,1
1665.517725997,1665.542232186,37,2
1665.542232186,1665.597371799,33,1
1665.632978645,1665.656253557,33,1
1664.881728726,1665.656253557,35,1
1665.656253557,1665.712540590,35,2
1665.542232186,1665.712540590,37,1
1665.712540590,1665.770930236,37,2
1664.270680752,1665.770930236,34,1
1665.770930236,1665.821433493,34,2
1665.517725997,1665.856164603,36,1
1665.856164603,1665.857345608,36,2
1665.770930236,1665.857345608,37,1
1665.857345608,1665.879125961,37,2
1665.857345608,1665.879125961,36,1
1665.879125961,1665.913249934,36,2
1665.879125961,1665.913249934,37,1
1665.913249934,1665.913264063,37,2
1665.712540590,1665.913264063,35,1
1665.913264063,1665.936591852,35,2
1665.913249934,1665.936591852,36,1
1665.936591852,1665.964407727,36,2
1665.936591852,1665.964407727,35,1
1665.964407727,1665.979991412,35,2
1658.79603671,1665.979991412,21,1
1665.979991412,1666.20085818,21,2
1658.833934046,1666.20085818,23,1
1666.20085818,1666.40699493,23,2
1665.964407727,1666.40699493,36,1
1666.40699493,1666.83752454,36,2
1663.975250838,1666.83752454,62,1
1666.83752454,1666.148435495,62,2
1664.133747245,1666.148435495,61,1
1666.148435495,1666.176059651,61,2
1664.817398490,1666.176059651,63,1
1666.176059651,1666.190089643,63,2
1665.821433493,1666.190089643,34,1
1666.190089643,1666.239513022,34,2
1666.83752454,1666.239513022,36,1
1666.239513022,1666.265786065,36,2
1665.979991412,1666.265786065,35,1
1666.265786065,1666.266852575,35,2
1666.239513022,1666.266852575,34,1
1666.266852575,1666.286510084,34,2
1666.265786065,1666.286510084,36,1
1666.286510084,1666.335109687,36,2
1665.913264063,1666.335109687,37,1
1666.335109687,1666.383132004,37,2
1666.335109687,1666.409291855,36,1
1666.409291855,1666.409404967,36,2
1665.487516255,1666.429410056,38,1
1666.429410056,1666.473158461,38,2
1666.383132004,1666.473158461,37,1
1666.473158461,1666.497701137,37,2
1666.473158461,1666.497701137,38,1
1666.497701137,1666.516856983,38,2
1666.497701137,1666.516856983,37,1
1666.516856983,1666.562217951,37,2
1666.516856983,1666.562217951,38,1
1666.562217951,1666.585129899,38,2
1666.562217951,1666.585129899,37,1
1666.585129899,1666.585246327,37,2
1663.836854781,1666.585246327,39,1
1666.585246327,1666.585256385,39,2
1666.585256385,1666.586235955,33,1
1666.286510084,1666.586235955,34,1
1666.586235955,1666.599974515,34,2
1666.585129899,1666.599974515,38,1
1666.599974515,1666.648554747,38,2
1666.266852575,1666.648554747,35,1
1666.648554747,1666.673092528,35,2
1666.648554747,1666.673092528,38,1
1666.673092528,1666.692730937,38,2
1666.190089643,1666.692730937,63,1
1666.692730937,1666.741817579,63,2
1666.176059651,1666.741817579,61,1
1666.741817579,1666.768103741,61,2
1666.741817579,1666.768103741,63,1
1666.768103741,1666.770521147,63,2
1661.199765024,1666.770521147,4,1
1666.770521147,1666.816135643,4,2
1658.95610933,1666.848806239,44,1
1666.848806239,1666.904951835,44,2
1658.79666665,1666.904951835,41,1
1666.904951835,1666.939672259,41,2
1666.768103741,1666.939672259,61,1
1666.939672259,1666.964697026,61,2
1663.659898902,1666.964697026,48,1
1666.964697026,1666.968188805,48,2
1657.699568878,1666.968188805,25,1
1666.968188805,1666.972776544,25,2
1657.870422252,1666.972776544,26,1
1666.972776544,1667.16217324,26,2
1658.53392576,1667.46329789,6,1
1667.46329789,1667.68740478,6,2
1658.95640940,1667.68740478,5,1
1666.585246327,1667.721178075,37,1
1667.721178075,1667.771935034,37,2
1667.68740478,1667.771935034,6,1
1667.771935034,1667.787806582,6,2
1658.111191527,1667.787806582,7,1
1667.787806582,1667.787824900,7,2
1665.116008167,1667.787824900,1,2
1667.787824900,1667.797583666,1,3
1666.673092528,1667.797583666,35,1
1667.797583666,1667.843770208,35,2
1667.68740478,1667.843770208,5,2
1667.843770208,1667.860160734,5,3
1661.216082354,1667.860160734,2,1
1667.860160734,1667.868632117,2,2
1667.843770208,1667.868632117,35,1
1667.868632117,1667.999900446,35,2
1666.599974515,1667.999900446,34,1
1667.999900446,1668.130074977,34,2
1667.771935034,1668.130074977,37,1
1668.130074977,1668.164331569,37,2
1668.164331569,1668.196524129,33,1
1666.409404967,1668.196524129,36,1
1668.196524129,1668.244832470,36,2
1668.130074977,1668.244832470,34,1
1668.244832470,1668.286335906,34,2
1667.787806582,1668.286335906,6,1
1668.286335906,1668.296244044,6,2
1667.787824900,1668.296244044,7,1
1668.296244044,1668.301452313,7,2
1668.286335906,1668.301452313,34,1
1668.301452313,1668.313781762,34,2
1664.35972802,1668.313781762,29,1
1668.313781762,1668.322821316,29,2
1660.207767253,1668.322821316,30,2
1668.164331569,1668.673101900,37,1
1666.968188805,1668.673105456,48,1
1666.816135643,1668.673120854,4,1
1666.692730937,1668.673140825,38,1
1666.904951835,1668.673148832,44,1
1657.963917907,1668.673210983,11,1
1657.947611073,1668.673257780,13,1
1660.525016637,1668.673263341,43,1
1660.591723833,1668.673309759,14,1
1664.29386252,1668.673321222,16,1
1661.252475172,1668.673339345,40,1
1666.148435495,1668.673349795,62,1
1658.111161986,1668.673355809,42,1
1657.755573300,1668.673406587,54,1
1666.40699493,1668.673416878,23,1
1658.494256004,1668.673447391,22,1
1663.687823399,1668.673448228,19,1
1664.29619052,1668.673448243,18,2
1657.986952421,1668.673459117,53,1
1657.289196726,1668.673469312,51,1
1664.788636569,1668.673498353,60,1
1657.587737512,1668.673519269,50,1
1668.322821316,1668.673526965,30,3
1658.7069422,1668.673544613,8,1
1666.972776544,1668.673585093,25,1
1666.20085818,1668.673586647,21,1
1667.999900446,1668.673610367,35,1
1658.79666665,1668.673610737,46,1
1657.558294696,1668.673614398,52,2
1657.999570213,1668.673617996,9,1
1667.860160734,1668.673639257,5,2
1668.301452313,1668.673648761,7,1
1666.770521147,1668.673665281,63,1
1657.787611800,1668.673682200,10,1
1667.797583666,1668.673696708,1,2
1663.680008600,1668.673697864,47,1
1666.939672259,1668.673707713,41,1
1665.109439204,1668.673750587,59,1
1660.591723833,1668.673753780,15,1
1661.795801055,1668.673771333,28,2
1665.116008167,1668.673771590,3,1
1668.244832470,1668.673800434,36,1
1658.111492115,1668.673814740,27,1
1667.16217324,1668.673818384,26,1
1660.587737551,1668.673828841,12,1
1668.313781762,1668.673839508,34,1
1664.685006792,1668.673865439,58,1
1664.29619052,1668.673875222,17,1
1664.72579064,1668.673883745,24,1
1668.322821316,1668.673891061,29,1
1666.585256385,1668.673892941,39,1
1660.207767253,1668.673906006,31,1
1657.711564091,1668.673918555,45,1
1665.112036017,1668.674031522,57,1
1668.296244044,1668.674035793,6,1
1657.540414559,1668.674036277,55,1
1658.587622653,1668.674038983,20,1
1667.868632117,1668.674046954,2,1
1666.964697026,1668.674052327,61,1
1663.659898902,1668.689985704,49,2
1668.673696708,1668.0,1,1
1668.673639257,1668.0,5,1
1668.673448243,1668.0,18,1
1668.673771333,1668.0,28,1
1668.673526965,1668.0,30,2
1668.689985704,1668.0,49,1
1668.673614398,1668.0,52,1
