Time,Comm,Pid,Orig,Dest,Trigger
1141.351674350,perf,7613,29,57,ELB
1141.352761956,time,7614,57,15,FLB
1141.352910565,time,7614,15,30,ELB
1141.354659413,volrend,7614,30,44,ELB
1141.354659413,volrend,7614,30,44,ELB
1141.356378989,volrend,7614,44,0,CA
1141.356378989,volrend,7614,44,0,CA
1142.144220903,volrend,7615,0,29,FLB
1142.144220903,volrend,7615,0,29,FLB
1142.144264898,volrend,7615,29,1,CA
1142.144264898,volrend,7615,29,1,CA
1142.144309252,volrend,7614,0,29,WAFF
1142.144309252,volrend,7614,0,29,WAFF
1142.144422439,volrend,7616,29,45,FLB
1142.144422439,volrend,7616,29,45,FLB
1142.144438797,volrend,7616,45,2,CA
1142.144438797,volrend,7616,45,2,CA
1142.144497876,volrend,7617,29,63,FLB
1142.144497876,volrend,7617,29,63,FLB
1142.144510712,volrend,7617,63,3,CA
1142.144510712,volrend,7617,63,3,CA
1142.144570861,volrend,7618,29,46,FLB
1142.144570861,volrend,7618,29,46,FLB
1142.144584611,volrend,7618,46,4,CA
1142.144584611,volrend,7618,46,4,CA
1142.144630980,volrend,7619,29,56,FLB
1142.144630980,volrend,7619,29,56,FLB
1142.144643476,volrend,7619,56,5,CA
1142.144643476,volrend,7619,56,5,CA
1142.144688809,volrend,7620,29,47,FLB
1142.144688809,volrend,7620,29,47,FLB
1142.144696936,volrend,7620,47,6,CA
1142.144696936,volrend,7620,47,6,CA
1142.144751593,volrend,7621,29,57,FLB
1142.144751593,volrend,7621,29,57,FLB
1142.144758557,volrend,7621,57,7,CA
1142.144758557,volrend,7621,57,7,CA
1142.144804221,volrend,7622,29,40,FLB
1142.144804221,volrend,7622,29,40,FLB
1142.144816866,volrend,7622,40,8,CA
1142.144816866,volrend,7622,40,8,CA
1142.144868675,volrend,7623,29,41,FLB
1142.144868675,volrend,7623,29,41,FLB
1142.144875791,volrend,7623,41,9,CA
1142.144875791,volrend,7623,41,9,CA
1142.144924846,volrend,7624,29,42,FLB
1142.144924846,volrend,7624,29,42,FLB
1142.144936925,volrend,7624,42,10,CA
1142.144936925,volrend,7624,42,10,CA
1142.144995463,volrend,7625,29,43,FLB
1142.144995463,volrend,7625,29,43,FLB
1142.145002716,volrend,7625,43,11,CA
1142.145002716,volrend,7625,43,11,CA
1142.145049739,volrend,7626,29,44,FLB
1142.145049739,volrend,7626,29,44,FLB
1142.145061231,volrend,7626,44,12,CA
1142.145061231,volrend,7626,44,12,CA
1142.145116656,volrend,7627,29,45,FLB
1142.145116656,volrend,7627,29,45,FLB
1142.145124413,volrend,7627,45,13,CA
1142.145124413,volrend,7627,45,13,CA
1142.145169905,volrend,7628,29,46,FLB
1142.145169905,volrend,7628,29,46,FLB
1142.145177873,volrend,7628,46,14,CA
1142.145177873,volrend,7628,46,14,CA
1142.145227952,volrend,7629,29,47,FLB
1142.145227952,volrend,7629,29,47,FLB
1142.145236212,volrend,7629,47,15,CA
1142.145236212,volrend,7629,47,15,CA
1142.145281920,volrend,7630,29,40,FLB
1142.145281920,volrend,7630,29,40,FLB
1142.145288873,volrend,7630,40,16,CA
1142.145288873,volrend,7630,40,16,CA
1142.145342583,volrend,7631,29,58,FLB
1142.145342583,volrend,7631,29,58,FLB
1142.145355341,volrend,7631,58,17,CA
1142.145355341,volrend,7631,58,17,CA
1142.145403173,volrend,7632,29,41,FLB
1142.145403173,volrend,7632,29,41,FLB
1142.145411456,volrend,7632,41,18,CA
1142.145411456,volrend,7632,41,18,CA
1142.145463660,volrend,7633,29,59,FLB
1142.145463660,volrend,7633,29,59,FLB
1142.145470800,volrend,7633,59,19,CA
1142.145470800,volrend,7633,59,19,CA
1142.145516032,volrend,7634,29,42,FLB
1142.145516032,volrend,7634,29,42,FLB
1142.145523910,volrend,7634,42,20,CA
1142.145523910,volrend,7634,42,20,CA
1142.145589162,volrend,7635,29,43,FLB
1142.145589162,volrend,7635,29,43,FLB
1142.145597591,volrend,7635,43,21,CA
1142.145597591,volrend,7635,43,21,CA
1142.145642063,volrend,7636,29,56,FLB
1142.145642063,volrend,7636,29,56,FLB
1142.145649854,volrend,7636,56,22,CA
1142.145649854,volrend,7636,56,22,CA
1142.145699540,volrend,7637,29,44,FLB
1142.145699540,volrend,7637,29,44,FLB
1142.145707504,volrend,7637,44,23,CA
1142.145707504,volrend,7637,44,23,CA
1142.145752274,volrend,7638,29,57,FLB
1142.145752274,volrend,7638,29,57,FLB
1142.145758755,volrend,7638,57,24,CA
1142.145758755,volrend,7638,57,24,CA
1142.145812441,volrend,7639,29,45,FLB
1142.145812441,volrend,7639,29,45,FLB
1142.145819988,volrend,7639,45,25,CA
1142.145819988,volrend,7639,45,25,CA
1142.145866206,volrend,7640,29,58,FLB
1142.145866206,volrend,7640,29,58,FLB
1142.145872718,volrend,7640,58,26,CA
1142.145872718,volrend,7640,58,26,CA
1142.145920564,volrend,7641,29,46,FLB
1142.145920564,volrend,7641,29,46,FLB
1142.145928506,volrend,7641,46,27,CA
1142.145928506,volrend,7641,46,27,CA
1142.145974308,volrend,7642,29,59,FLB
1142.145974308,volrend,7642,29,59,FLB
1142.145980899,volrend,7642,59,28,CA
1142.145980899,volrend,7642,59,28,CA
1142.146030970,volrend,7643,29,47,FLB
1142.146030970,volrend,7643,29,47,FLB
1142.146038533,volrend,7643,47,29,CA
1142.146038533,volrend,7643,47,29,CA
1142.146089318,volrend,7643,29,47,ILB
1142.146089318,volrend,7643,29,47,ILB
1142.146093632,volrend,7644,29,60,FLB
1142.146093632,volrend,7644,29,60,FLB
1142.146106165,volrend,7644,60,30,CA
1142.146106165,volrend,7644,60,30,CA
1142.146173747,volrend,7645,29,61,FLB
1142.146173747,volrend,7645,29,61,FLB
1142.146182749,volrend,7645,61,31,CA
1142.146182749,volrend,7645,61,31,CA
1142.146236250,volrend,7646,29,40,FLB
1142.146236250,volrend,7646,29,40,FLB
1142.146249030,volrend,7646,40,32,CA
1142.146249030,volrend,7646,40,32,CA
1142.146310249,volrend,7647,29,62,FLB
1142.146310249,volrend,7647,29,62,FLB
1142.146322266,volrend,7647,62,33,CA
1142.146322266,volrend,7647,62,33,CA
1142.146376145,volrend,7648,29,63,FLB
1142.146376145,volrend,7648,29,63,FLB
1142.146383348,volrend,7648,63,34,CA
1142.146383348,volrend,7648,63,34,CA
1142.146443657,volrend,7649,29,56,FLB
1142.146443657,volrend,7649,29,56,FLB
1142.146455822,volrend,7649,56,35,CA
1142.146455822,volrend,7649,56,35,CA
1142.146507888,volrend,7650,29,57,FLB
1142.146507888,volrend,7650,29,57,FLB
1142.146514769,volrend,7650,57,36,CA
1142.146514769,volrend,7650,57,36,CA
1142.146574652,volrend,7651,29,58,FLB
1142.146574652,volrend,7651,29,58,FLB
1142.146586903,volrend,7651,58,37,CA
1142.146586903,volrend,7651,58,37,CA
1142.146640164,volrend,7652,29,59,FLB
1142.146640164,volrend,7652,29,59,FLB
1142.146647084,volrend,7652,59,38,CA
1142.146647084,volrend,7652,59,38,CA
1142.146702734,volrend,7653,29,60,FLB
1142.146702734,volrend,7653,29,60,FLB
1142.146716982,volrend,7653,60,39,CA
1142.146716982,volrend,7653,60,39,CA
1142.146768210,volrend,7654,29,61,FLB
1142.146768210,volrend,7654,29,61,FLB
1142.146774748,volrend,7654,61,40,CA
1142.146774748,volrend,7654,61,40,CA
1142.146822170,volrend,7655,29,62,FLB
1142.146822170,volrend,7655,29,62,FLB
1142.146828956,volrend,7655,62,41,CA
1142.146828956,volrend,7655,62,41,CA
1142.146877675,volrend,7656,29,63,FLB
1142.146877675,volrend,7656,29,63,FLB
1142.146885300,volrend,7656,63,42,CA
1142.146885300,volrend,7656,63,42,CA
1142.146937277,volrend,7657,29,56,FLB
1142.146937277,volrend,7657,29,56,FLB
1142.146943997,volrend,7657,56,43,CA
1142.146943997,volrend,7657,56,43,CA
1142.146994569,volrend,7658,29,57,FLB
1142.146994569,volrend,7658,29,57,FLB
1142.147001229,volrend,7658,57,44,CA
1142.147001229,volrend,7658,57,44,CA
1142.147054488,volrend,7659,29,58,FLB
1142.147054488,volrend,7659,29,58,FLB
1142.147061860,volrend,7659,58,45,CA
1142.147061860,volrend,7659,58,45,CA
1142.147108610,volrend,7660,29,59,FLB
1142.147108610,volrend,7660,29,59,FLB
1142.147115549,volrend,7660,59,46,CA
1142.147115549,volrend,7660,59,46,CA
1142.147167181,volrend,7661,29,60,FLB
1142.147167181,volrend,7661,29,60,FLB
1142.147174186,volrend,7661,60,47,CA
1142.147174186,volrend,7661,60,47,CA
1142.147219558,volrend,7662,29,61,FLB
1142.147219558,volrend,7662,29,61,FLB
1142.147226731,volrend,7662,61,48,CA
1142.147226731,volrend,7662,61,48,CA
1142.147283517,volrend,7663,29,32,FLB
1142.147283517,volrend,7663,29,32,FLB
1142.147291235,volrend,7663,32,49,CA
1142.147291235,volrend,7663,32,49,CA
1142.147343670,volrend,7664,29,33,FLB
1142.147343670,volrend,7664,29,33,FLB
1142.147350649,volrend,7664,33,50,CA
1142.147350649,volrend,7664,33,50,CA
1142.147405108,volrend,7665,29,34,FLB
1142.147405108,volrend,7665,29,34,FLB
1142.147412903,volrend,7665,34,51,CA
1142.147412903,volrend,7665,34,51,CA
1142.147468079,volrend,7666,29,35,FLB
1142.147468079,volrend,7666,29,35,FLB
1142.147475024,volrend,7666,35,52,CA
1142.147475024,volrend,7666,35,52,CA
1142.147529916,volrend,7667,29,36,FLB
1142.147529916,volrend,7667,29,36,FLB
1142.147537602,volrend,7667,36,53,CA
1142.147537602,volrend,7667,36,53,CA
1142.147588664,volrend,7668,29,37,FLB
1142.147588664,volrend,7668,29,37,FLB
1142.147595660,volrend,7668,37,54,CA
1142.147595660,volrend,7668,37,54,CA
1142.147651299,volrend,7669,29,38,FLB
1142.147651299,volrend,7669,29,38,FLB
1142.147658962,volrend,7669,38,55,CA
1142.147658962,volrend,7669,38,55,CA
1142.147713233,volrend,7670,29,39,FLB
1142.147713233,volrend,7670,29,39,FLB
1142.147720482,volrend,7670,39,56,CA
1142.147720482,volrend,7670,39,56,CA
1142.147769020,volrend,7671,29,32,FLB
1142.147769020,volrend,7671,29,32,FLB
1142.147775737,volrend,7671,32,57,CA
1142.147775737,volrend,7671,32,57,CA
1142.147822869,volrend,7672,29,33,FLB
1142.147822869,volrend,7672,29,33,FLB
1142.147829777,volrend,7672,33,58,CA
1142.147829777,volrend,7672,33,58,CA
1142.147874215,volrend,7673,29,34,FLB
1142.147874215,volrend,7673,29,34,FLB
1142.147881857,volrend,7673,34,59,CA
1142.147881857,volrend,7673,34,59,CA
1142.147926729,volrend,7674,29,35,FLB
1142.147926729,volrend,7674,29,35,FLB
1142.147934061,volrend,7674,35,60,CA
1142.147934061,volrend,7674,35,60,CA
1142.147978280,volrend,7675,29,36,FLB
1142.147978280,volrend,7675,29,36,FLB
1142.147985767,volrend,7675,36,61,CA
1142.147985767,volrend,7675,36,61,CA
1142.148033069,volrend,7676,29,37,FLB
1142.148033069,volrend,7676,29,37,FLB
1142.148040389,volrend,7676,37,62,CA
1142.148040389,volrend,7676,37,62,CA
1142.148086219,volrend,7677,29,38,FLB
1142.148086219,volrend,7677,29,38,FLB
1142.148093247,volrend,7677,38,63,CA
1142.148093247,volrend,7677,38,63,CA
1142.148277641,volrend,7622,8,0,WAFF
1142.148277641,volrend,7622,8,0,WAFF
1142.173586445,rcu_sched,8,33,1,WAFF
1142.177681866,volrend,7661,47,8,ILB
1142.177681866,volrend,7661,47,8,ILB
1142.233626053,rcu_sched,8,1,62,WAFF
1142.249621264,rcu_sched,8,62,56,ILB
1142.257574095,rcu_sched,8,56,57,WAFF
1142.557622225,rcu_sched,8,57,30,WAFF
1142.653623988,rcu_sched,8,30,24,WAFF
1142.685620472,rcu_sched,8,24,51,WAFF
1142.693600310,rcu_sched,8,51,54,WAFF
1142.737609856,volrend,7668,54,55,WAFF
1142.737609856,volrend,7668,54,55,WAFF
1142.743580118,volrend,7668,55,52,WAFF
1142.743580118,volrend,7668,55,52,WAFF
1142.743598301,volrend,7666,52,54,WAFF
1142.743598301,volrend,7666,52,54,WAFF
1142.925627818,volrend,7666,54,55,WAFF
1142.925627818,volrend,7666,54,55,WAFF
1142.928269513,volrend,7669,55,54,WAFF
1142.928269513,volrend,7669,55,54,WAFF
1143.53643464,volrend,7669,54,55,WAFF
1143.53643464,volrend,7669,54,55,WAFF
1143.61674191,volrend,7666,55,54,ILB
1143.61674191,volrend,7666,55,54,ILB
1143.169683402,rcu_sched,8,54,43,ILB
1143.185633628,rcu_sched,8,43,44,WAFF
1143.217642616,rcu_sched,8,44,46,WAFF
1143.393645317,rcu_sched,8,46,47,WAFF
1143.597667410,rcu_sched,8,47,1,WAFF
1143.989746414,rcu_sched,8,1,3,ILB
1144.33690934,rcu_sched,8,3,6,WAFF
1144.117808411,rcu_sched,8,6,49,ILB
1144.221704798,volrend,7663,49,50,WAFF
1144.221704798,volrend,7663,49,50,WAFF
1144.229737491,volrend,7663,50,49,ILB
1144.229737491,volrend,7663,50,49,ILB
1144.845736302,kworker/u128:1,918,38,39,WAFF
1145.157796650,rcu_sched,8,49,17,WAFF
1145.181752571,rcu_sched,8,17,18,WAFF
1145.389771897,rcu_sched,8,18,29,WAFF
1145.865847982,rcu_sched,8,29,14,WAFF
1146.381831686,volrend,7628,14,15,WAFF
1146.381831686,volrend,7628,14,15,WAFF
1146.389887030,volrend,7629,15,14,ILB
1146.389887030,volrend,7629,15,14,ILB
1146.509857256,volrend,7629,14,10,WAFF
1146.509857256,volrend,7629,14,10,WAFF
1146.509984816,volrend,7624,10,14,WAFF
1146.509984816,volrend,7624,10,14,WAFF
1146.557881594,volrend,7624,14,15,WAFF
1146.557881594,volrend,7624,14,15,WAFF
1146.558013695,volrend,7628,15,8,WAFF
1146.558013695,volrend,7628,15,8,WAFF
1146.558207570,volrend,7661,8,10,WAFF
1146.558207570,volrend,7661,8,10,WAFF
1146.565874863,volrend,7629,10,14,ILB
1146.565874863,volrend,7629,10,14,ILB
1146.645911146,rcu_sched,8,14,24,ILB
1146.829851841,jbd2/sdb1-8,1060,0,41,WAFF
1146.851368529,jbd2/sdb1-8,1060,41,0,WAFF
1146.905857920,rcu_sched,8,24,25,WAFF
1147.201918284,rcu_sched,8,25,14,WAFF
1147.213589587,volrend,7648,34,38,ILB
1147.213589587,volrend,7648,34,38,ILB
1147.218533430,volrend,7652,38,34,WAFF
1147.218533430,volrend,7652,38,34,WAFF
1147.429906173,volrend,7629,14,15,WAFF
1147.429906173,volrend,7629,14,15,WAFF
1147.430442326,volrend,7624,15,11,WAFF
1147.430442326,volrend,7624,15,11,WAFF
1147.438033754,volrend,7625,11,14,ILB
1147.438033754,volrend,7625,11,14,ILB
1147.485929914,volrend,7625,14,9,WAFF
1147.485929914,volrend,7625,14,9,WAFF
1147.486162977,volrend,7623,9,10,WAFF
1147.486162977,volrend,7623,9,10,WAFF
1147.486323709,volrend,7661,10,14,WAFF
1147.486323709,volrend,7661,10,14,WAFF
1147.525909248,rcu_sched,8,14,11,WAFF
1148.57961111,rcu_sched,8,11,28,WAFF
1148.417961438,rcu_sched,8,28,16,WAFF
1149.134014349,volrend,7630,16,17,WAFF
1149.134014349,volrend,7630,16,17,WAFF
1149.134984219,volrend,7630,17,20,WAFF
1149.134984219,volrend,7630,17,20,WAFF
1149.135110039,volrend,7634,20,16,WAFF
1149.135110039,volrend,7634,20,16,WAFF
1149.326023501,rcu_sched,8,16,1,WAFF
1149.390124179,khugepaged,413,24,18,ILB
1149.782047274,volrend,7615,1,2,WAFF
1149.782047274,volrend,7615,1,2,WAFF
1149.782476394,volrend,7616,2,8,WAFF
1149.782476394,volrend,7616,2,8,WAFF
1149.782664557,volrend,7628,8,11,WAFF
1149.782664557,volrend,7628,8,11,WAFF
1149.782786364,volrend,7624,11,14,WAFF
1149.782786364,volrend,7624,11,14,WAFF
1149.790097610,volrend,7661,14,1,ILB
1149.790097610,volrend,7661,14,1,ILB
1149.806018229,rcu_sched,8,1,2,WAFF
1149.830069044,rcu_sched,8,2,1,ILB
1149.874022550,rcu_sched,8,1,2,WAFF
1150.434066114,volrend,7615,2,3,WAFF
1150.434066114,volrend,7615,2,3,WAFF
1150.435571239,volrend,7617,3,35,WAFF
1150.435571239,volrend,7617,3,35,WAFF
1150.440917575,volrend,7649,35,33,WAFF
1150.440917575,volrend,7649,35,33,WAFF
1150.476768431,volrend,7647,33,38,WAFF
1150.476768431,volrend,7647,33,38,WAFF
1150.498094415,volrend,7648,38,2,ILB
1150.498094415,volrend,7648,38,2,ILB
1150.630078149,rcu_sched,8,2,5,WAFF
1150.918129218,rcu_sched,8,5,34,WAFF
1150.982096409,rcu_sched,8,34,38,WAFF
1151.38109958,volrend,7647,38,39,WAFF
1151.38109958,volrend,7647,38,39,WAFF
1151.46161180,volrend,7653,39,38,ILB
1151.46161180,volrend,7653,39,38,ILB
1151.230097979,rcu_sched,8,38,39,WAFF
1151.786157523,volrend,7627,13,14,WAFF
1151.786157523,volrend,7627,13,14,WAFF
1151.807042553,volrend,7624,14,9,WAFF
1151.807042553,volrend,7624,14,9,WAFF
1151.807068852,volrend,7624,9,14,ILB
1151.807068852,volrend,7624,9,14,ILB
1151.807088056,volrend,7627,14,13,WAFF
1151.807088056,volrend,7627,14,13,WAFF
1151.998411231,volrend,7622,0,1,WAFF
1151.998411231,volrend,7622,0,1,WAFF
1152.4505794,volrend,7622,1,2,WAFF
1152.4505794,volrend,7622,1,2,WAFF
1152.4929654,volrend,7648,2,0,WAFF
1152.4929654,volrend,7648,2,0,WAFF
1152.134183347,rcu_sched,8,39,33,ILB
1152.190218202,volrend,7649,33,36,WAFF
1152.190218202,volrend,7649,33,36,WAFF
1152.190328113,volrend,7650,36,33,WAFF
1152.190328113,volrend,7650,36,33,WAFF
1152.266160563,rcu_sched,8,33,34,WAFF
1152.462188560,volrend,7648,0,1,ILB
1152.462188560,volrend,7648,0,1,ILB
1152.463147801,volrend,7648,1,2,WAFF
1152.463147801,volrend,7648,1,2,WAFF
1152.463507296,volrend,7622,2,0,WAFF
1152.463507296,volrend,7622,2,0,WAFF
1152.482188275,rcu_sched,8,34,35,WAFF
1152.550177681,rcu_sched,8,35,36,WAFF
1152.710186561,rcu_sched,8,36,37,WAFF
1152.750221145,rcu_sched,8,37,13,WAFF
1152.926278288,rcu_sched,8,13,44,ILB
1153.98242325,volrend,7627,13,14,WAFF
1153.98242325,volrend,7627,13,14,WAFF
1153.99191632,volrend,7627,14,9,WAFF
1153.99191632,volrend,7627,14,9,WAFF
1153.114624910,volrend,7625,9,13,WAFF
1153.114624910,volrend,7625,9,13,WAFF
1153.290274229,rcu_sched,8,44,35,WAFF
1153.366234837,rcu_sched,8,35,36,WAFF
1153.438247788,rcu_sched,8,36,32,WAFF
1153.446234519,rcu_sched,8,32,35,WAFF
1153.526313256,rcu_sched,8,35,1,ILB
1153.534251900,rcu_sched,8,1,3,WAFF
1153.758310704,rcu_sched,8,3,0,ILB
1154.498294444,rcu_sched,8,0,1,WAFF
1154.538319754,rcu_sched,8,1,2,WAFF
1154.670316094,rcu_sched,8,2,13,WAFF
1154.754387831,rcu_sched,8,13,12,ILB
1154.842331836,rcu_sched,8,12,15,WAFF
1154.978330564,volrend,7629,15,8,WAFF
1154.978330564,volrend,7629,15,8,WAFF
1154.980412627,volrend,7616,8,9,WAFF
1154.980412627,volrend,7616,8,9,WAFF
1154.980591406,volrend,7627,9,10,WAFF
1154.980591406,volrend,7627,9,10,WAFF
1154.986351106,volrend,7623,10,15,ILB
1154.986351106,volrend,7623,10,15,ILB
1155.94330422,rcu_sched,8,15,14,WAFF
1155.838397341,rcu_sched,8,14,45,WAFF
1156.2395082,rcu_sched,8,45,46,WAFF
1156.38392021,volrend,7653,38,39,WAFF
1156.38392021,volrend,7653,38,39,WAFF
1156.40733292,volrend,7647,39,32,WAFF
1156.40733292,volrend,7647,39,32,WAFF
1156.40955546,volrend,7646,32,38,WAFF
1156.40955546,volrend,7646,32,38,WAFF
1156.70403460,rcu_sched,8,46,41,WAFF
1156.126420905,rcu_sched,8,41,13,WAFF
1156.548798231,time,7613,57,29,WAFF
