Start,End,Cpu,Size
1352.824989708,1352.829391322,23,1
1352.824526465,1352.831416719,55,1
1352.831416719,1352.831603103,55,2
1352.829179561,1352.831603103,45,1
1352.825245882,1352.832674823,26,1
1352.831603103,1352.832754871,55,1
1352.824712692,1352.832830216,22,1
1352.832754871,1352.832882679,55,2
1352.826620528,1352.832882679,49,1
1352.832674823,1352.833208145,26,2
1352.828955986,1352.833208145,29,1
1352.832830216,1352.833238022,22,2
1352.833208145,1352.833238022,29,2
1352.833238022,1352.833689481,29,3
1352.820175205,1352.833689481,42,1
1352.831603103,1352.833911841,45,2
1352.829773017,1352.833911841,10,1
1352.833689481,1352.834202871,29,2
1352.831151831,1352.834202871,59,1
1352.833208145,1352.834406863,26,1
1352.834406863,1352.835862384,26,2
1352.825650980,1352.835862384,17,1
1352.833911841,1352.837799549,10,2
1352.822206951,1352.837799549,3,1
1352.832882679,1352.838529105,49,2
1352.832882679,1352.838529105,55,1
1352.829391322,1352.839368682,23,2
1352.821283221,1352.839368682,30,1
1352.834202871,1352.843864598,59,2
1352.826750550,1352.843864598,28,1
1352.837799549,1352.845017078,3,2
1352.831554974,1352.845017078,46,1
1352.845017078,1352.845078116,46,2
1352.835862384,1352.845729887,17,2
1352.823844690,1352.845729887,54,1
1352.845729887,1352.845765510,54,2
1352.833911841,1352.845765510,45,1
1352.845765510,1352.845777861,45,2
1352.838529105,1352.846036026,55,2
1352.825113365,1352.846036026,15,1
1352.843864598,1352.846951860,28,2
1352.834202871,1352.846951860,29,1
1352.846951860,1352.848452924,29,2
1352.835862384,1352.848452924,26,1
1352.839368682,1352.857239043,30,2
1352.823166816,1352.857239043,21,1
1352.846036026,1352.858236795,15,2
1352.837799549,1352.858236795,10,1
1352.858236795,1352.859738744,10,2
1352.827601332,1352.859738744,9,1
1352.848452924,1352.862925661,26,2
1352.824249770,1352.862925661,25,1
1352.859738744,1352.864552229,9,2
1352.823405421,1352.864552229,13,1
1352.857239043,1352.864649670,21,2
1352.828505940,1352.864649670,7,1
1352.864552229,1352.868336810,13,2
1352.845078116,1352.868336810,47,1
1352.862925661,1352.868426083,25,2
1352.848452924,1352.868426083,29,1
1352.864649670,1352.868426543,7,2
1352.824091761,1352.868426543,5,1
1352.868426543,1352.868564225,5,2
1352.868426543,1352.868564225,7,1
1352.868426083,1352.868573747,29,2
1352.821955615,1352.868573747,31,1
1352.868564225,1352.868578710,7,2
1352.868336810,1352.868817581,47,2
1352.868573747,1352.870143741,31,2
1352.868426083,1352.870143741,25,1
1352.870143741,1352.875927527,25,2
1352.822802216,1352.875927527,24,1
1352.875927527,1352.877081800,24,2
1352.862925661,1352.877081800,26,1
1352.877081800,1352.878573716,26,2
1352.826412407,1352.878573716,8,1
1352.878573716,1352.879688300,8,2
1352.822675575,1352.879688300,12,1
1352.879688300,1352.881652207,12,2
1352.859738744,1352.881652207,10,1
1352.881652207,1352.891348533,10,2
1352.845777861,1352.891348533,40,1
1352.891348533,1352.895551233,40,2
1352.822444485,1352.895551233,33,1
1352.895551233,1352.899252546,33,2
1352.827821625,1352.899252546,37,1
1352.899252546,1352.905831354,37,2
1352.845078116,1359.149063667,46,1
1352.833689481,1359.191072890,42,2
1352.858236795,1359.234400463,15,1
1352.864552229,1359.243322433,9,1
1352.821862442,1359.297769671,61,1
1352.822300600,1359.316961922,20,1
1352.868817581,1359.324078234,47,1
1352.821356004,1359.327405331,51,1
1352.868336810,1359.378640300,13,1
1352.826041331,1359.418461670,6,1
1352.857239043,1359.458147769,30,1
1352.823974172,1359.461475552,14,1
1352.868578710,1359.461953774,1,1
1352.823305395,1359.500600425,63,1
1352.878573716,1359.514387417,26,1
1352.895551233,1359.534498761,40,1
1352.825861603,1359.582724842,27,1
1352.828743784,1359.674959466,50,1
1352.821730213,1359.708834502,11,1
1352.845729887,1359.711112801,17,1
1352.877081800,1359.820855366,24,1
1352.868817581,1359.841567632,41,1
1352.845765510,1359.862583229,54,1
1352.838529105,1359.869330030,49,1
1352.839368682,1359.885525132,23,1
1352.822911711,1360.6260461,34,1
1352.891348533,1360.38609739,10,1
1352.832412235,1360.45963583,0,1
1352.846036026,1360.63134947,55,1
1352.870143741,1360.86299464,31,1
1359.191072890,1360.168026210,42,1
1352.831022917,1360.239720856,38,1
1352.881652207,1360.247846246,12,1
1352.845017078,1360.252901042,3,1
1352.833238022,1360.310368424,22,1
1352.864649670,1360.347979497,21,1
1352.825448036,1360.411783172,16,1
1352.822534587,1360.435759347,62,1
1352.827401621,1360.445603023,18,1
1352.824410011,1360.459029480,56,1
1352.821088374,1360.472315787,19,1
1352.823031855,1360.474129338,53,1
1352.821599757,1360.502502730,60,1
1352.843864598,1360.504528662,59,1
1352.822046683,1360.521167243,52,1
1352.826228954,1360.534591092,35,1
1352.821154648,1360.550353066,2,1
1352.827148233,1360.554761070,43,1
1352.846951860,1360.562707851,28,1
1352.824842807,1360.587761675,48,1
1352.875927527,1360.622038711,25,1
1352.828230107,1360.666005944,44,1
1352.823556293,1360.697415066,4,1
1352.828030922,1360.702217908,58,1
1352.879688300,1360.758554975,8,1
1352.905831354,1360.832137467,37,1
1352.845777861,1360.866116400,45,1
1352.821495719,1361.18125520,32,1
1352.899252546,1361.18659324,33,1
1352.868564225,1361.19534157,5,1
1352.868573747,1361.20065519,29,1
1352.823703338,1361.20684044,36,1
1352.868578710,1361.21770003,7,1
1361.18125520,1361.37574782,32,2
1361.18065987,1361.39079679,26,1
1361.18472105,1361.39779607,44,1
1361.19401689,1361.40449511,34,1
1361.19187936,1361.40810814,45,1
1361.19660295,1361.41610612,61,1
1361.20368814,1361.41651415,62,1
1361.19884318,1361.42731672,35,1
1361.18659324,1361.42734511,33,2
1361.18293086,1361.42747624,17,1
1361.18802049,1361.42748008,4,1
1361.18173698,1361.43275112,59,1
1361.20684044,1361.44067859,36,2
1361.18534144,1361.44083463,3,1
1361.18981805,1361.45151637,27,1
1361.20065519,1361.45353778,29,2
1361.21357414,1361.45682529,30,1
1361.18717803,1361.45700740,60,1
1361.21579301,1361.46217975,50,1
1361.21137051,1361.46904218,12,1
1361.21770003,1361.47680061,7,2
1361.20941221,1361.48174419,21,1
1361.19057460,1361.48596000,10,1
1361.18883663,1361.48958636,18,1
1361.20555273,1361.50416089,20,1
1361.19534157,1361.50422692,5,2
1361.19295554,1361.50428068,28,1
1361.20222814,1361.51902636,6,1
1361.19776309,1361.52576373,19,1
1361.47680061,1361.52855061,7,1
1361.52892445,1361.77269445,37,1
1361.53259844,1361.78528805,38,1
1361.53356277,1361.79894753,52,1
1361.53489411,1361.79918417,14,1
1361.52944109,1361.80445778,51,1
1361.52855061,1361.80910516,7,2
1361.53207158,1361.81334307,13,1
1361.53135526,1361.82489176,22,1
1361.53565195,1361.83119063,45,1
1361.53072713,1361.83129562,44,1
1361.52796450,1361.83621184,62,1
1361.53669832,1361.84195402,0,1
1361.53812193,1361.86200042,63,1
1361.53441237,1361.86202636,23,1
1361.53743789,1361.87136584,31,1
1361.53017102,1361.87960476,30,1
1352.905831354,1361.88222752,39,1
1361.88222752,1361.122796815,39,2
1361.88381785,1361.123011205,53,1
1361.88439223,1361.124035750,14,1
1361.88580150,1361.125993649,22,1
1361.88313588,1361.126105457,56,1
1361.88269435,1361.126124651,1,1
1361.88171321,1361.127149473,44,1
1352.826932416,1361.127303588,57,1
1361.37574782,1361.127362675,32,1
1361.127362675,1361.163338151,32,2
1361.127412023,1361.164973550,2,1
1361.127303588,1361.165545346,57,2
1361.127452850,1361.165924118,45,1
1361.166059397,1361.201795741,3,1
1361.166010670,1361.202405703,44,1
1361.202498679,1361.239342119,58,1
1361.42734511,1361.239580238,33,1
1361.239451300,1361.240152081,45,1
1361.239499526,1361.240157623,59,1
1361.239540280,1361.240193420,4,1
1361.239580238,1361.240225075,33,2
1361.239698674,1361.240370093,25,1
1361.239819170,1361.240476090,53,1
1361.239871203,1361.240537633,15,1
1361.240111450,1361.240561617,8,1
1361.239988910,1361.240575203,46,1
1361.240219836,1361.240673644,62,1
1361.240275497,1361.240717539,38,1
1361.240369463,1361.240821120,6,1
1361.240422203,1361.240869945,26,1
1361.122796815,1361.241148577,39,1
1361.80910516,1361.241243529,7,1
1361.45353778,1361.241289698,29,1
1361.241148577,1361.241568133,39,2
1361.241189785,1361.241634344,56,1
1361.241243529,1361.241671629,7,2
1361.241289698,1361.241731273,29,2
1361.241339822,1361.241777689,54,1
1361.241389319,1361.241833273,22,1
1361.240225075,1361.241997204,33,1
1361.165545346,1361.242041385,57,1
1361.241952860,1361.242607223,14,1
1361.241997204,1361.242616915,33,2
1361.242041385,1361.242620764,57,2
1361.242096033,1361.242626003,1,1
1361.242189686,1361.242666876,46,1
1361.242242185,1361.242697375,30,1
1361.242146399,1361.242717307,55,1
1361.242293206,1361.242745525,22,1
1361.242417247,1361.242903432,54,1
1361.242649497,1361.243053957,58,1
1361.242759178,1361.243215251,34,1
1361.242863442,1361.243295590,46,1
1361.242969877,1361.243370186,55,1
1361.243018029,1361.243483917,2,1
1361.243117471,1361.243529886,59,1
1361.243064675,1361.243530950,47,1
1361.243168671,1361.243601287,10,1
1361.243258318,1361.243675854,35,1
1361.44067859,1361.243708817,36,1
1361.243312357,1361.243747778,17,1
1361.243380019,1361.243788774,25,1
1361.243502052,1361.243909074,46,1
1361.243560862,1361.243993093,60,1
1361.243610705,1361.244026127,3,1
1361.50422692,1361.244102720,5,1
1361.243708817,1361.244152476,36,2
1361.243783407,1361.244219153,18,1
1361.241568133,1361.244229321,39,1
1361.243838461,1361.244278490,26,1
1361.243954429,1361.244360643,46,1
1361.243992595,1361.244409832,61,1
1361.244039322,1361.244462968,62,1
1361.244102720,1361.244530899,5,2
1361.244181449,1361.244668859,37,1
1361.244229321,1361.244703631,39,2
1361.244308311,1361.244795806,19,1
1361.244375781,1361.244869480,50,1
1361.244420860,1361.244933439,12,1
1361.244474242,1361.244963237,46,1
1361.244528213,1361.245052477,63,1
1361.241671629,1361.245633362,7,1
1361.163338151,1361.245678843,32,1
1361.242620764,1361.245865360,57,1
1361.245479174,1361.246136107,13,1
1361.245511259,1361.246186908,51,1
1361.245548288,1361.246199639,27,1
1361.245633362,1361.246218299,7,2
1361.245582130,1361.246236251,56,1
1361.245678843,1361.246272790,32,2
1361.245722977,1361.246293296,46,1
1361.245819188,1361.246508881,3,1
1361.246218299,1361.246572954,7,1
1361.245865360,1361.246641379,57,2
1361.245928089,1361.246677333,28,1
1361.246134821,1361.246696527,52,1
1361.245980341,1361.246733818,20,1
1361.246233700,1361.246801822,54,1
1361.246323356,1361.246858523,34,1
1361.246398164,1361.246897736,47,1
1361.246521851,1361.247022567,12,1
1361.246572954,1361.247069880,7,2
1361.244152476,1361.247275542,36,1
1361.247085108,1361.247605783,14,1
1361.247141910,1361.247671109,30,1
1361.247182588,1361.247723129,58,1
1361.247033322,1361.247750680,55,1
1361.247236422,1361.247776099,21,1
1361.247275542,1361.247812074,36,2
1361.247319126,1361.247871441,47,1
1361.246272790,1361.247996044,32,1
1361.247779757,1361.248536733,15,1
1361.247955546,1361.248588232,59,1
1361.247838512,1361.248589931,22,1
1361.247996044,1361.248622839,32,2
1361.248035787,1361.248624991,47,1
1361.248622839,1361.249149525,32,1
1361.249419521,1361.249427897,40,1
1361.18409088,1361.249427897,43,1
1361.248763475,1361.249851474,52,1
1361.248879112,1361.249980207,34,1
1361.248922935,1361.250005879,47,1
1361.248804361,1361.250096182,60,1
1361.248988024,1361.250109516,2,1
1361.248836449,1361.250109875,8,1
1361.249149525,1361.250241770,32,2
1361.249092532,1361.250412839,61,1
1361.249193481,1361.250531088,17,1
1361.249294745,1361.250585277,54,1
1361.249427897,1361.250589629,43,2
1361.250692167,1361.251782431,26,1
1361.247069880,1361.251934261,7,1
1361.251848270,1361.254129228,30,1
1361.251890029,1361.254158124,56,1
1361.251934261,1361.254219892,7,2
1361.251977165,1361.254221627,18,1
1361.252109143,1361.254493447,34,1
1361.246641379,1361.254640799,57,1
1361.254681179,1361.259273184,0,1
1361.254640799,1361.259372029,57,2
1361.254747603,1361.259444022,12,1
1361.254720237,1361.259456224,21,1
1361.259511232,1361.269449455,2,1
1361.269506846,1361.290583359,3,1
1361.250589629,1361.548336864,43,1
1361.244530899,1362.0,5,1
1361.254219892,1362.0,7,1
1361.241731273,1362.0,29,1
1361.250241770,1362.0,32,1
1361.242616915,1362.0,33,1
1361.247812074,1362.0,36,1
1361.244703631,1362.0,39,1
1361.259372029,1362.0,57,1
