Start,End,Cpu,Size
1379.821983769,1379.822028602,49,1
1375.565961739,1379.822073366,0,1
1379.822176460,1379.822190942,56,1
1379.822243432,1379.822256902,24,1
1379.822304422,1379.822316647,33,1
1379.822028602,1379.822337826,1,1
1379.822381636,1379.822389349,57,1
1379.822436623,1379.822444845,25,1
1379.822497909,1379.822510183,34,1
1379.822073366,1379.822535291,49,1
1379.822190942,1379.822566194,2,1
1379.822256902,1379.822583638,3,1
1379.822316647,1379.822698675,4,1
1379.822389349,1379.822738359,5,1
1379.822751667,1379.822759003,51,1
1379.822824541,1379.822833118,52,1
1379.822444845,1379.822870433,6,1
1379.822510183,1379.822910455,7,1
1379.822914893,1379.822922749,53,1
1379.822981336,1379.822995538,54,1
1379.823056555,1379.823064540,55,1
1379.823123867,1379.823135974,48,1
1379.823193569,1379.823201245,49,1
1379.823341888,1379.823355742,26,1
1379.822676228,1379.823492760,8,1
1379.822759003,1379.823539495,9,1
1379.823549343,1379.823560118,27,1
1379.823633883,1379.823648625,28,1
1379.823716260,1379.823727626,29,1
1379.823788014,1379.823801766,30,1
1379.822833118,1379.823803575,10,1
1379.823855391,1379.823863440,31,1
1379.822922749,1379.823917809,11,1
1379.823952128,1379.823965370,24,1
1379.824023414,1379.824031077,25,1
1379.822995538,1379.824142830,12,1
1379.823064540,1379.824160412,13,1
1379.824167497,1379.824176604,42,1
1379.822535291,1379.824209516,0,1
1379.823135974,1379.824268537,14,1
1379.823201245,1379.824283356,15,1
1379.824321305,1379.824349440,43,1
1379.824209516,1379.824362862,8,1
1379.824494117,1379.824504250,51,1
1379.824553439,1379.824566091,52,1
1379.824626423,1379.824633958,53,1
1379.824683141,1379.824691401,54,1
1379.823271181,1379.824762118,16,1
1379.824772313,1379.824781097,55,1
1379.824841377,1379.824849099,48,1
1379.823355742,1379.824870897,17,1
1379.824912683,1379.824919572,49,1
1379.825025343,1379.825032746,51,1
1379.825079297,1379.825085609,52,1
1379.825139587,1379.825146255,53,1
1379.825196313,1379.825202964,54,1
1379.825252456,1379.825259537,55,1
1379.825308251,1379.825316434,48,1
1379.825369553,1379.825376556,49,1
1379.825492413,1379.825498977,51,1
1379.825559224,1379.825565411,52,1
1379.824362862,1379.825565411,44,1
1379.825630303,1379.825637281,53,1
1379.825834423,1379.825898414,54,1
1379.825565411,1379.825913797,44,2
1379.823560118,1379.826064857,18,1
1379.826080735,1379.826088825,58,1
1379.826152646,1379.826160173,59,1
1379.826228791,1379.826237079,60,1
1379.826297076,1379.826304882,61,1
1379.826379810,1379.826388139,62,1
1379.823648625,1379.826511874,19,1
1379.826505298,1379.826519399,63,1
1379.826733734,1379.826745080,56,1
1379.823727626,1379.826969245,20,1
1379.826981854,1379.827012597,57,1
1379.825913797,1379.827012597,54,1
1379.823801766,1379.827138943,21,1
1379.827012597,1379.827238552,54,2
1379.823863440,1379.827348190,22,1
1379.827400826,1379.827467472,1,1
1379.827238552,1379.827633105,54,1
1379.823965370,1379.827798773,23,1
1379.827873427,1379.827890644,14,1
1379.827958838,1379.827967219,15,1
1379.828039587,1379.828046575,8,1
1379.828127450,1379.828135633,9,1
1379.828196723,1379.828209555,10,1
1379.828270842,1379.828279276,11,1
1379.828339333,1379.828352668,12,1
1379.828419636,1379.828427496,13,1
1379.828489533,1379.828501645,14,1
1379.824849099,1379.829009705,32,1
1379.824919572,1379.829145950,33,1
1379.827238552,1379.829202545,21,1
1379.824975281,1379.829371087,34,1
1379.825032746,1379.829595030,35,1
1379.825085609,1379.829698523,36,1
1379.828501645,1379.829700800,0,1
1379.825146255,1379.829770277,37,1
1379.825202964,1379.829859418,38,1
1379.825259537,1379.829861756,39,1
1379.825376556,1379.831530850,41,1
1379.825316434,1379.831530925,40,1
1379.825432114,1379.831616016,42,1
1379.825637281,1379.831694283,45,1
1379.825913797,1379.831703158,44,1
1379.825898414,1379.831718346,46,1
1379.825498977,1379.831762021,43,1
1379.826088825,1379.831794940,47,1
1379.826160173,1379.831919709,48,1
1379.824031077,1379.831964873,24,1
1379.824176604,1379.831964882,25,1
1379.826237079,1379.832196976,49,1
1379.826388139,1379.832223575,51,1
1379.824504250,1379.832235420,27,1
1379.824633958,1379.832244197,29,1
1379.824566091,1379.832244207,28,1
1379.824349440,1379.832249630,26,1
1379.827467472,1379.832251237,55,1
1379.824691401,1379.832266444,30,1
1379.826519399,1379.832270297,52,1
1379.824781097,1379.832328765,31,1
1379.826745080,1379.832482222,53,1
1379.827967219,1379.835677614,57,1
1379.828046575,1379.835681427,58,1
1379.828135633,1379.835682781,59,1
1379.827890644,1379.835684044,56,1
1379.828279276,1379.835802452,61,1
1379.828209555,1379.835847000,60,1
1379.828352668,1379.835850291,62,1
1379.828427496,1379.835850757,63,1
1379.835994776,1379.836008944,39,1
1379.836055408,1379.836067086,15,1
1379.827633105,1379.836067086,2,1
1379.836098941,1379.836110846,42,1
1379.836067086,1379.836154970,2,2
1379.836155327,1379.836168479,8,1
1379.836234002,1379.836258154,9,1
1379.836154970,1379.836264787,2,1
1379.836345278,1379.836353228,24,1
1379.836399764,1379.836407525,25,1
1379.836459089,1379.836471710,28,1
1379.836522427,1379.836536247,30,1
1379.836264787,1379.836536247,9,1
1379.836584493,1379.836611969,31,1
1379.836536247,1379.836624359,9,2
1379.836741942,1379.836776514,32,1
1379.836624359,1379.836803981,24,1
1379.836934369,1379.836950162,22,1
1379.837001841,1379.837014670,16,1
1379.837066692,1379.837074709,17,1
1379.837127528,1379.837140050,18,1
1379.837185310,1379.837192337,19,1
1379.837245036,1379.837257404,56,1
1379.837308600,1379.837316661,57,1
1379.837368552,1379.837381010,58,1
1379.837429044,1379.837437181,59,1
1379.837504814,1379.837511600,56,1
1379.837558854,1379.837565487,57,1
1379.837611066,1379.837617935,58,1
1379.837664727,1379.837671325,59,1
1379.837720397,1379.837726926,56,1
1379.837773160,1379.837779634,57,1
1379.837831680,1379.837838252,58,1
1379.837885348,1379.837891864,59,1
1379.837945414,1379.837951938,56,1
1379.837998638,1379.838005181,57,1
1379.838057461,1379.838064528,58,1
1379.838110279,1379.838117090,59,1
1379.838172026,1379.838198114,56,1
1379.836803981,1379.838198114,33,1
1379.838198114,1379.838205160,33,2
1379.838325234,1379.838356117,48,1
1379.838205160,1379.838383768,57,1
1379.838474527,1379.838499660,58,1
1379.838383768,1379.838533361,48,1
1379.838648656,1379.838671089,49,1
1379.838533361,1379.838681889,59,1
1379.838747769,1379.838755893,56,1
1379.838808751,1379.838816314,57,1
1379.838870820,1379.838878452,58,1
1379.838924141,1379.838931672,59,1
1379.838983699,1379.838990508,56,1
1379.839039454,1379.839046546,57,1
1379.836154970,1379.839046546,42,1
1379.839095186,1379.839102003,58,1
1379.839145398,1379.839152405,59,1
1379.839201147,1379.839208277,56,1
1379.839250998,1379.839258034,57,1
1379.839309173,1379.839316335,58,1
1379.839046546,1379.839331471,42,2
1379.839476989,1379.839503419,59,1
1379.838681889,1379.839503419,49,1
1379.839503419,1379.839508852,49,2
1379.839628504,1379.839650717,61,1
1379.839746619,1379.839762796,61,1
1379.839867168,1379.839883729,61,1
1379.839985217,1379.840001647,61,1
1379.840100805,1379.840115658,61,1
1379.840226296,1379.840240363,61,1
1379.840350108,1379.840366664,61,1
1379.840462786,1379.840477885,61,1
1379.840561194,1379.840579571,61,1
1379.839331471,1379.840579571,58,1
1379.840653200,1379.840671340,61,1
1379.840745392,1379.840764239,61,1
1379.839508852,1379.840764239,60,1
1379.840764239,1379.840766766,60,2
1379.841092728,1379.841169013,62,1
1379.840766766,1379.841169013,61,1
1379.841169013,1379.841182834,61,2
1379.841451536,1379.841500408,63,1
1379.841182834,1379.841500408,62,1
1379.840579571,1379.841521112,58,2
1379.841500408,1379.841521112,62,2
1379.841521112,1379.841530074,62,3
1379.838671089,1379.841845369,36,1
1379.841845369,1379.841887695,36,2
1379.841530074,1379.841887695,63,1
1379.841887695,1379.842231683,36,1
1379.842231683,1379.842261752,36,2
1379.841530074,1379.899564559,62,2
1379.840671340,1384.659544253,59,1
1379.839152405,1384.659550331,44,1
1379.838878452,1384.659596371,39,1
1379.839258034,1384.659610535,46,1
1379.837838252,1384.659611510,27,1
1379.839508852,1384.659644895,49,1
1379.836776514,1384.659650354,11,1
1379.836611969,1384.659650364,10,1
1379.839371108,1384.659655777,48,1
1379.841887695,1384.659673728,63,2
1379.837779634,1384.659695692,26,1
1379.839883729,1384.659698964,52,1
1379.899564559,1384.659712408,2,1
1379.836110846,1384.659712423,3,1
1379.837381010,1384.659712566,19,1
1379.838931672,1384.659723911,40,1
1379.899564559,1384.659724448,62,1
1379.840766766,1384.659731622,60,1
1379.840001647,1384.659736330,53,1
1379.838990508,1384.659750947,41,1
1379.841521112,1384.659767659,58,1
1379.841182834,1384.659768606,61,1
1379.836471710,1384.659773158,8,1
1379.837316661,1384.659778271,18,1
1379.836353228,1384.659778284,6,1
1379.837565487,1384.659782117,22,1
1379.839102003,1384.659782503,43,1
1379.839331471,1384.659782514,42,1
1379.837617935,1384.659783893,23,1
1379.836624359,1384.659785131,9,1
1379.837192337,1384.659792226,16,1
1379.837257404,1384.659792238,17,1
1379.836407525,1384.659792967,7,1
1379.839762796,1384.659793520,51,1
1379.839208277,1384.659803801,45,1
1379.842261752,1384.659804465,0,1
1379.836258154,1384.659805342,5,1
1379.836168479,1384.659805355,4,1
1379.839316335,1384.659806349,47,1
1379.838499660,1384.659807057,35,1
1379.838356117,1384.659815280,34,1
1379.836008944,1384.659817554,1,1
1379.838816314,1384.659821157,38,1
1379.840115658,1384.659824691,54,1
1379.840240363,1384.659824727,55,1
1379.837437181,1384.659825185,20,1
1379.837511600,1384.659825195,21,1
1379.840366664,1384.659836499,56,1
1379.840477885,1384.659836510,57,1
1379.837671325,1384.659843858,24,1
1379.837726926,1384.659843874,25,1
1379.838064528,1384.659845162,31,1
1379.838005181,1384.659845186,30,1
1379.838117090,1384.659851422,32,1
1379.838205160,1384.659851443,33,1
1379.837074709,1384.659851608,14,1
1379.837140050,1384.659851622,15,1
1379.837951938,1384.659855178,29,1
1379.837891864,1384.659855189,28,1
1379.842261752,1384.659856809,36,1
1379.838755893,1384.659856820,37,1
1379.836950162,1384.659860816,12,1
1379.837014670,1384.659860827,13,1
1384.659673728,1388.962321681,63,1
