Start,End,Cpu,Size
2356.149377778,2356.149442523,55,1
2356.149442523,2356.149505173,55,2
2356.149505173,2356.149550661,55,3
2356.149550661,2356.149592913,55,4
2356.149592913,2356.149641971,55,5
2356.149641971,2356.149684803,55,6
2356.149684803,2356.149726830,55,7
2356.149726830,2356.149771278,55,8
2356.149771278,2356.149815423,55,9
2356.149815423,2356.149855861,55,10
2356.149855861,2356.149900477,55,11
2356.149900477,2356.149944247,55,12
2356.149944247,2356.149988298,55,13
2356.149988298,2356.150008522,55,14
2356.150008522,2356.150034306,30,1
2356.150008522,2356.150088498,55,13
2356.150088498,2356.150164200,55,14
2356.150164200,2356.150219413,55,15
2356.150219413,2356.150271553,55,16
2356.150271553,2356.150325785,55,17
2356.150325785,2356.150381229,55,18
2356.150381229,2356.150435255,55,19
2356.150435255,2356.150485352,55,20
2356.150485352,2356.150532281,55,21
2356.150532281,2356.150600326,55,22
2356.150600326,2356.150616204,30,1
2356.150578521,2356.150710759,56,1
2356.150710759,2356.150762783,56,2
2356.150762783,2356.150811275,56,3
2356.150811275,2356.150861914,56,4
2356.150861914,2356.150906997,56,5
2356.150906997,2356.150953438,56,6
2356.150953438,2356.150998692,56,7
2356.150998692,2356.151048124,56,8
2356.151048124,2356.151095395,56,9
2356.151095395,2356.151143309,56,10
2356.151143309,2356.151191171,56,11
2356.151191171,2356.151240913,56,12
2356.151240913,2356.151289485,56,13
2356.151289485,2356.151339568,56,14
2356.151339568,2356.151386853,56,15
2356.150600326,2356.151426464,55,21
2356.151386853,2356.151433938,56,16
2356.151433938,2356.151482904,56,17
2356.151482904,2356.151492162,56,16
2356.151492162,2356.151557077,56,17
2356.151557077,2356.151610021,56,18
2356.151610021,2356.151659539,56,19
2356.151659539,2356.151706526,56,20
2356.151706526,2356.151756824,56,21
2356.151756824,2356.151802099,56,22
2356.151802099,2356.151848570,56,23
2356.151848570,2356.151896471,56,24
2356.151946499,2356.152005790,15,1
2356.152005790,2356.152057183,15,2
2356.152057183,2356.152104157,15,3
2356.152104157,2356.152151747,15,4
2356.152151747,2356.152199157,15,5
2356.152199157,2356.152247316,15,6
2356.151426464,2356.152298087,55,20
2356.152247316,2356.152301654,15,7
2356.151896471,2356.152334761,56,25
2356.152301654,2356.152357491,15,8
2356.152357491,2356.152411186,15,9
2356.152411186,2356.152461671,15,10
2356.152461671,2356.152520206,15,11
2356.152520206,2356.152643005,15,12
2356.152298087,2356.155943442,55,19
2356.152643005,2356.155943442,15,11
2356.152334761,2356.155951848,56,24
2356.155943442,2356.155951848,15,12
2356.155943442,2356.155955857,55,18
2356.155951848,2356.155955857,15,13
2356.155951848,2356.155958161,56,23
2356.155955857,2356.155958161,15,14
2356.155955857,2356.155961881,55,17
2356.155958161,2356.155961881,15,15
2356.155958161,2356.155964279,56,22
2356.155961881,2356.155964279,15,16
2356.155961881,2356.155968795,55,16
2356.155964279,2356.155968795,15,17
2356.155964279,2356.155971323,56,21
2356.155968795,2356.155971323,15,18
2356.152629809,2356.155977573,31,1
2356.155971323,2356.156012693,56,20
2356.156012693,2356.156014782,56,19
2356.156012693,2356.156014782,31,1
2356.156014782,2356.156016715,56,18
2356.156014782,2356.156016715,31,2
2356.156016715,2356.156018172,56,17
2356.156016715,2356.156018172,31,3
2356.156018172,2356.156019802,56,16
2356.156018172,2356.156019802,31,4
2356.156019802,2356.158047944,56,15
2356.156019802,2356.158047944,31,5
2356.158047944,2356.158050808,56,14
2356.158047944,2356.158050808,31,6
2356.158050808,2356.158052726,56,13
2356.158050808,2356.158052726,31,7
2356.158052726,2356.158054184,56,12
2356.158052726,2356.158054184,31,8
2356.155971323,2356.158345147,15,19
2356.158345147,2356.158362989,15,18
2356.158362989,2356.158384811,15,17
2356.158384811,2356.158405176,15,16
2356.158405176,2356.158418286,15,15
2356.158418286,2356.158475632,15,14
2356.158475632,2356.158489411,15,13
2356.158489411,2356.158502069,15,12
2356.158502069,2356.158514060,15,11
2356.158514060,2356.158526685,15,10
2356.158526685,2356.158539510,15,9
2356.158539510,2356.158552231,15,8
2356.155968795,2356.158590827,55,15
2356.158552231,2356.158590827,15,7
2356.158590827,2356.158593533,55,14
2356.158590827,2356.158593533,15,8
2356.158593533,2356.158632377,55,13
2356.158593533,2356.158632377,15,9
2356.158632377,2356.158635314,55,12
2356.158632377,2356.158635314,15,10
2356.158054184,2356.158793852,56,11
2356.158327355,2356.158793852,24,1
2356.158793852,2356.158797829,56,10
2356.158793852,2356.158797829,24,2
2356.158797829,2356.158848092,56,9
2356.158797829,2356.158848092,24,3
2356.158848092,2356.158850056,56,8
2356.158848092,2356.158850056,24,4
2356.158635314,2356.159291344,15,11
2356.158850056,2356.159291344,24,5
2356.159291344,2356.159327406,15,10
2356.159291344,2356.159327406,24,6
2356.158635314,2356.159332286,55,11
2356.159327406,2356.159332286,24,7
2356.159327406,2356.159334800,15,9
2356.159332286,2356.159334800,24,8
2356.159334800,2356.159337120,15,8
2356.159334800,2356.159337120,24,9
2356.159337120,2356.159339872,15,7
2356.159337120,2356.159339872,24,10
2356.159339872,2356.159342351,15,6
2356.159339872,2356.159342351,24,11
2356.158054184,2356.159345096,31,9
2356.159342351,2356.159345096,24,12
2356.159345096,2356.159347537,31,8
2356.159345096,2356.159347537,24,13
2356.159347537,2356.159350121,31,7
2356.159347537,2356.159350121,24,14
2356.159350121,2356.159352372,31,6
2356.159350121,2356.159352372,24,15
2356.159352372,2356.159354965,31,5
2356.159352372,2356.159354965,24,16
2356.159354965,2356.159357580,31,4
2356.159354965,2356.159357580,24,17
2356.159342351,2356.159360286,15,5
2356.159357580,2356.159360286,24,18
2356.159360286,2356.159362961,15,4
2356.159360286,2356.159362961,24,19
2356.159362961,2356.159365405,15,3
2356.159362961,2356.159365405,24,20
2356.159357580,2356.159371175,31,3
2356.159365405,2356.159371175,24,21
2356.158850056,2356.159373964,56,7
2356.159371175,2356.159373964,24,22
2356.159365405,2356.159376752,15,2
2356.159373964,2356.159376752,24,23
2356.159332286,2356.159380397,55,10
2356.159376752,2356.159380397,24,24
2356.159380397,2356.159413710,24,25
2356.159413710,2356.159443520,24,24
2356.159443520,2356.159457978,24,23
2356.159457978,2356.159472355,24,22
2356.159472355,2356.159486680,24,21
2356.159486680,2356.159499809,24,20
2356.159499809,2356.159512195,24,19
2356.159512195,2356.159524216,24,18
2356.159524216,2356.159537137,24,17
2356.159537137,2356.159550366,24,16
2356.159550366,2356.159562958,24,15
2356.159562958,2356.159577393,24,14
2356.159577393,2356.159590363,24,13
2356.159590363,2356.159625901,24,12
2356.159625901,2356.159639336,24,11
2356.159371175,2356.159730834,31,2
2356.159639336,2356.159730834,24,10
2356.159376752,2356.159777569,15,1
2356.159730834,2356.159804405,24,11
2356.159380397,2356.159805385,55,9
2356.159805385,2356.159808403,55,8
2356.159805385,2356.159808403,15,1
2356.159804405,2356.159817317,24,10
2356.159817317,2356.159831877,24,9
2356.159373964,2356.159841654,56,6
2356.159730834,2356.159841654,31,1
2356.159831877,2356.159842988,24,8
2356.159842988,2356.159855684,24,7
2356.159855684,2356.159868686,24,6
2356.159868686,2356.159881139,24,5
2356.159881139,2356.159892705,24,4
2356.159841654,2356.159928958,31,2
2356.159892705,2356.159928958,24,3
2356.159841654,2356.159933094,56,5
2356.159928958,2356.159933094,24,4
2356.159933094,2356.159947787,24,5
2356.159787988,2356.160025491,32,1
2356.159947787,2356.160053183,24,4
2356.159808403,2356.160184986,55,7
2356.160053183,2356.160184986,24,3
2356.160184986,2356.160193445,24,4
2356.160193445,2356.160264590,24,3
2356.159933094,2356.160315611,56,4
2356.159928958,2356.160315611,31,1
2356.160315611,2356.160318000,56,3
2356.160315611,2356.160318000,31,2
2356.160318000,2356.160330147,31,3
2356.160264590,2356.160330147,24,2
2356.160330147,2356.160345108,24,3
2356.160345108,2356.160358531,24,2
2356.160318000,2356.160380636,56,2
2356.160358531,2356.160380636,24,1
2356.160025491,2356.160417744,32,2
2356.159808403,2356.160426026,15,2
2356.160330147,2356.160802122,31,2
2356.160380636,2356.160803393,56,1
2356.160380636,2356.160836529,24,2
2356.160184986,2356.160852450,55,6
2356.160417744,2356.161015973,32,1
2356.160426026,2356.161049393,15,1
2356.160852450,2356.161055895,55,5
2356.161055895,2356.161059164,55,4
2356.161055895,2356.161059164,32,1
2356.161059164,2356.161061799,55,3
2356.161061799,2356.161074521,55,2
2356.160802122,2356.161205262,31,1
2356.161059164,2356.161630801,32,2
2356.161074521,2356.161645890,15,1
2356.160852450,2356.161677429,56,1
2356.161074521,2356.161868879,55,1
2356.160836529,2356.162054904,24,1
2356.161630801,2356.162054904,32,1
2356.162592115,2356.162627948,48,1
2356.162627948,2356.162665755,48,2
2356.162665755,2356.162694169,48,3
2356.162694169,2356.162749807,48,4
2356.162749807,2356.162795210,48,5
2356.162795210,2356.162835518,48,6
2356.162835518,2356.162876860,48,7
2356.162876860,2356.162916941,48,8
2356.162916941,2356.162957486,48,9
2356.162957486,2356.162999994,48,10
2356.163043115,2356.163090147,49,1
2356.163090147,2356.163131416,49,2
2356.163131416,2356.163170645,49,3
2356.163170645,2356.163213440,49,4
2356.163213440,2356.163252331,49,5
2356.163252331,2356.163296015,49,6
2356.163296015,2356.163334794,49,7
2356.163334794,2356.163374634,49,8
2356.163374634,2356.163413405,49,9
2356.163413405,2356.163452316,49,10
2356.163452316,2356.163490861,49,11
2356.163490861,2356.163532382,49,12
2356.163532382,2356.163572934,49,13
2356.163572934,2356.163611021,49,14
2356.163611021,2356.163649749,49,15
2356.163649749,2356.163688217,49,16
2356.163688217,2356.163727660,49,17
2356.163727660,2356.163768064,49,18
2356.163768064,2356.163808686,49,19
2356.163808686,2356.163853350,49,20
2356.163853350,2356.163895342,49,21
2356.163895342,2356.163934080,49,22
2356.163934080,2356.163973120,49,23
2356.163973120,2356.164011349,49,24
2356.164011349,2356.164050955,49,25
2356.164050955,2356.164091731,49,26
2356.164091731,2356.164132792,49,27
2356.164132792,2356.164171610,49,28
2356.164171610,2356.164210381,49,29
2356.164251090,2356.164302387,57,1
2356.162054904,2356.164323700,32,2
2356.164302387,2356.164323700,57,2
2356.164323700,2356.164368655,32,1
2356.164323700,2356.164368655,57,3
2356.164368655,2356.164443059,57,4
2356.164210381,2356.166192851,49,30
2356.166192851,2356.166201691,49,29
2356.166192851,2356.166201691,0,1
2356.166201691,2356.166203970,49,28
2356.166201691,2356.166203970,0,2
2356.166203970,2356.166205844,49,27
2356.166203970,2356.166205844,0,3
2356.166205844,2356.166208161,49,26
2356.166205844,2356.166208161,0,4
2356.166208161,2356.166210610,49,25
2356.166208161,2356.166210610,0,5
2356.166210610,2356.166214206,49,24
2356.166210610,2356.166214206,0,6
2356.166214206,2356.166216634,49,23
2356.166214206,2356.166216634,0,7
2356.166216634,2356.166224857,49,22
2356.166224857,2356.166229224,49,21
2356.166224857,2356.166229224,11,1
2356.166229224,2356.166233695,49,20
2356.166229224,2356.166233695,11,2
2356.166233695,2356.166237353,49,19
2356.166233695,2356.166237353,11,3
2356.166237353,2356.166240516,49,18
2356.166237353,2356.166240516,11,4
2356.166240516,2356.166242578,49,17
2356.166240516,2356.166242578,11,5
2356.166242578,2356.166245120,49,16
2356.166242578,2356.166245120,11,6
2356.166245120,2356.166247471,49,15
2356.166245120,2356.166247471,11,7
2356.166247471,2356.166258699,49,14
2356.166258699,2356.166263722,49,13
2356.166258699,2356.166263722,45,1
2356.162999994,2356.166264005,48,11
2356.164443059,2356.166264005,57,5
2356.166263722,2356.166266470,49,12
2356.166263722,2356.166266470,45,2
2356.166266470,2356.166269042,49,11
2356.166266470,2356.166269042,45,3
2356.166269042,2356.166269823,49,10
2356.166264005,2356.166269823,57,6
2356.166269823,2356.166282517,49,9
2356.166282517,2356.166285658,49,8
2356.166282517,2356.166285658,52,1
2356.166285658,2356.166294942,49,7
2356.166294942,2356.166299297,49,6
2356.166294942,2356.166299297,50,1
2356.166299297,2356.166304402,49,5
2356.166304402,2356.166316914,49,4
2356.166316914,2356.166324469,49,3
2356.166264005,2356.168600506,48,10
2356.166269823,2356.168600506,57,7
2356.168600506,2356.168613220,48,9
2356.168600506,2356.168613220,57,8
2356.166324469,2356.169463918,49,2
2356.168687796,2356.169463918,8,1
2356.168613220,2356.170950978,48,8
2356.166216634,2356.170950978,0,8
2356.170950978,2356.170954361,48,7
2356.170950978,2356.170954361,0,9
2356.170954361,2356.170956917,48,6
2356.170954361,2356.170956917,0,10
2356.170956917,2356.170959359,48,5
2356.170956917,2356.170959359,0,11
2356.170959359,2356.171223960,48,4
2356.170959359,2356.171223960,0,12
2356.168613220,2356.171444925,57,9
2356.166324469,2356.171444925,56,1
2356.171444925,2356.171449572,57,8
2356.171444925,2356.171449572,56,2
2356.171449572,2356.171649592,56,3
2356.171223960,2356.171649592,0,13
2356.171449572,2356.171671982,57,7
2356.171649592,2356.171671982,56,2
2356.171649592,2356.171726869,0,14
2356.171671982,2356.171726869,57,6
2356.171726869,2356.171733326,0,13
2356.171726869,2356.171733326,57,7
2356.171733326,2356.171738759,0,12
2356.171733326,2356.171738759,57,8
2356.171738759,2356.171748321,0,11
2356.171738759,2356.171748321,57,9
2356.171748321,2356.171753428,0,10
2356.171748321,2356.171753428,57,10
2356.171753428,2356.171760729,0,9
2356.171753428,2356.171760729,57,11
2356.171760729,2356.171766695,0,8
2356.171760729,2356.171766695,57,12
2356.171766695,2356.171773959,0,7
2356.171766695,2356.171773959,57,13
2356.171773959,2356.171782396,0,6
2356.171773959,2356.171782396,57,14
2356.171782396,2356.171785862,0,5
2356.171782396,2356.171785862,57,15
2356.171223960,2356.172938310,48,3
2356.166316914,2356.172938310,55,1
2356.172938310,2356.172948588,48,2
2356.166299297,2356.172948588,50,2
2356.171671982,2356.173946523,56,3
2356.172948588,2356.173946523,48,1
2356.171785862,2356.174162141,57,16
2356.174162141,2356.174166976,57,15
2356.174162141,2356.174166976,40,1
2356.174166976,2356.174169767,57,14
2356.174166976,2356.174169767,40,2
2356.174169767,2356.174171797,57,13
2356.174169767,2356.174171797,40,3
2356.174171797,2356.174174300,57,12
2356.174171797,2356.174174300,40,4
2356.174174300,2356.174176460,57,11
2356.174174300,2356.174176460,40,5
2356.174176460,2356.174179568,57,10
2356.174176460,2356.174179568,40,6
2356.174179568,2356.174181564,57,9
2356.174179568,2356.174181564,40,7
2356.174181564,2356.174183731,57,8
2356.174181564,2356.174183731,40,8
2356.174183731,2356.174185850,57,7
2356.174183731,2356.174185850,40,9
2356.174185850,2356.174188786,57,6
2356.174185850,2356.174188786,40,10
2356.174188786,2356.174199267,57,5
2356.174199267,2356.174203686,57,4
2356.174199267,2356.174203686,29,1
2356.174203686,2356.174205931,57,3
2356.174203686,2356.174205931,29,2
2356.174205931,2356.174214054,29,3
2356.166247471,2356.174297032,11,8
2356.169463918,2356.174297032,8,2
2356.174297032,2356.174332385,11,7
2356.174297032,2356.174332385,8,3
2356.174332385,2356.174335352,11,6
2356.174332385,2356.174335352,8,4
2356.174335352,2356.175054944,11,5
2356.174335352,2356.175054944,8,5
2356.175054944,2356.175058053,11,4
2356.175054944,2356.175058053,8,6
2356.172948588,2356.181491482,50,3
2356.174205931,2356.181491482,57,2
2356.175058053,2356.181515003,8,7
2356.181491482,2356.181515003,57,3
2356.181515003,2356.181533326,8,6
2356.181515003,2356.181533326,57,4
2356.181533326,2356.181537739,8,5
2356.181533326,2356.181537739,57,5
2356.181537739,2356.181552599,8,4
2356.181537739,2356.181552599,57,6
2356.181552599,2356.181563135,8,3
2356.181552599,2356.181563135,57,7
2356.174188786,2356.181592954,40,11
2356.181563135,2356.181592954,57,8
2356.181592954,2356.181597729,40,10
2356.181592954,2356.181597729,57,9
2356.181597729,2356.181600327,40,9
2356.181597729,2356.181600327,57,10
2356.181600327,2356.181603163,40,8
2356.181600327,2356.181603163,57,11
2356.181603163,2356.181606237,40,7
2356.181603163,2356.181606237,57,12
2356.173946523,2356.182116114,56,2
2356.181704646,2356.182116114,31,1
2356.181606237,2356.182741905,57,13
2356.182116114,2356.182741905,56,1
2356.182741905,2356.182746898,57,12
2356.182741905,2356.182746898,56,2
2356.173946523,2356.182831720,48,2
2356.172938310,2356.182831720,55,2
2356.182746898,2356.184845324,56,3
2356.182116114,2356.184845324,31,2
2356.182746898,2356.185298794,57,11
2356.174214054,2356.185298794,29,2
2356.185298794,2356.185302763,57,10
2356.185298794,2356.185302763,29,3
2356.185302763,2356.185306519,57,9
2356.185302763,2356.185306519,29,4
2356.185306519,2356.185308690,57,8
2356.185306519,2356.185308690,29,5
2356.185308690,2356.185310599,57,7
2356.185308690,2356.185310599,29,6
2356.185310599,2356.185312503,57,6
2356.185310599,2356.185312503,29,7
2356.185312503,2356.185634284,57,5
2356.184845324,2356.185634284,56,2
2356.185634284,2356.185637781,57,4
2356.185634284,2356.185637781,56,3
2356.185637781,2356.185865930,57,3
2356.166269042,2356.185865930,45,4
2356.185637781,2356.186052997,56,4
2356.169463918,2356.186052997,49,1
2356.175058053,2356.186192469,11,3
2356.181563135,2356.186192469,8,2
2356.186192469,2356.190588220,8,3
2356.185865930,2356.190588220,57,2
2356.181606237,2356.190602763,40,6
2356.190588220,2356.190602763,57,3
2356.190602763,2356.190605681,40,5
2356.190602763,2356.190605681,57,4
2356.190605681,2356.190632583,40,4
2356.190605681,2356.190632583,57,5
2356.185312503,2356.190672879,29,8
2356.190632583,2356.190672879,57,6
2356.190672879,2356.190689922,29,7
2356.190672879,2356.190689922,57,7
2356.190689922,2356.190700190,29,6
2356.190689922,2356.190700190,57,8
2356.182831720,2356.192171998,55,3
2356.166304402,2356.192171998,51,1
2356.190700190,2356.197128619,29,5
2356.184845324,2356.197128619,31,3
2356.197128619,2356.197135529,29,4
2356.197128619,2356.197135529,31,4
2356.186052997,2356.197527122,49,2
2356.190588220,2356.197527122,8,2
2356.190700190,2356.197707159,57,9
2356.190632583,2356.197707159,40,3
2356.197707159,2356.197711799,57,8
2356.197707159,2356.197711799,40,4
2356.197711799,2356.197713931,57,7
2356.197711799,2356.197713931,40,5
2356.197713931,2356.197916458,57,6
2356.171785862,2356.197916458,0,4
2356.197916458,2356.197922136,57,5
2356.197916458,2356.197922136,0,5
2356.197922136,2356.197925301,57,4
2356.197922136,2356.197925301,0,6
2356.197925301,2356.197927212,57,3
2356.197925301,2356.197927212,0,7
2356.197713931,2356.198508366,40,6
2356.197927212,2356.198508366,57,2
2356.198508366,2356.198511941,40,5
2356.198508366,2356.198511941,57,3
2356.198511941,2356.200166929,57,4
2356.197135529,2356.200166929,29,3
2356.197927212,2356.202072408,0,8
2356.200166929,2356.202072408,57,3
2356.202072408,2356.202077103,0,7
2356.202072408,2356.202077103,57,4
2356.197135529,2356.202155115,31,5
2356.202077103,2356.202155115,57,5
2356.202077103,2356.202175272,0,6
2356.202155115,2356.202175272,57,6
2356.192171998,2356.204337629,55,2
2356.182831720,2356.204337629,48,1
2356.200166929,2356.208181446,29,4
2356.202155115,2356.208181446,31,4
2356.202175272,2356.208612159,57,7
2356.208181446,2356.208612159,29,3
2356.208612159,2356.208618191,57,6
2356.208612159,2356.208618191,29,4
2356.208618191,2356.208883455,57,5
2356.197527122,2356.208883455,49,1
2356.208883455,2356.208887107,57,4
2356.208883455,2356.208887107,49,2
2356.186052997,2356.208927389,56,3
2356.208887107,2356.208927389,57,3
2356.197527122,2356.209133941,8,3
2356.186192469,2356.209133941,11,2
2356.198511941,2356.209571376,40,4
2356.208927389,2356.209571376,57,4
2356.208887107,2356.212486005,49,3
2356.192171998,2356.212486005,51,2
2356.208618191,2356.212863981,29,5
2356.209571376,2356.212863981,57,5
2356.202175272,2356.212933564,0,5
2356.212863981,2356.212933564,57,6
2356.185865930,2356.217440933,45,5
2356.209571376,2356.217440933,40,3
2356.217440933,2356.217445928,45,4
2356.217440933,2356.217445928,40,4
2356.217445928,2356.218245888,40,5
2356.217445928,2356.218245888,45,3
2356.212933564,2356.219646734,57,7
2356.218245888,2356.219646734,40,4
2356.219646734,2356.219649333,57,6
2356.219646734,2356.219649333,40,5
2356.219649333,2356.222808795,57,5
2356.219649333,2356.222808795,40,6
2356.208181446,2356.223593371,31,5
2356.212863981,2356.223593371,29,4
2356.222808795,2356.223716232,40,7
2356.222808795,2356.223716232,57,4
2356.212933564,2356.223726025,0,4
2356.223716232,2356.223726025,57,5
2356.223716232,2356.223732836,40,6
2356.223726025,2356.223732836,57,6
2356.223732836,2356.223775039,40,5
2356.223732836,2356.223775039,57,7
2356.223775039,2356.223801150,40,4
2356.223775039,2356.223801150,57,8
2356.209133941,2356.226580478,11,3
2356.209133941,2356.226580478,8,2
2356.223801150,2356.226775614,57,9
2356.202339684,2356.226775614,33,1
2356.226775614,2356.226780981,57,8
2356.226775614,2356.226780981,33,2
2356.226780981,2356.226783518,57,7
2356.226780981,2356.226783518,33,3
2356.226783518,2356.226785359,57,6
2356.226783518,2356.226785359,33,4
2356.226785359,2356.226788788,57,5
2356.226785359,2356.226788788,33,5
2356.223593371,2356.226819983,29,5
2356.223593371,2356.226819983,31,4
2356.226788788,2356.227319717,57,4
2356.208927389,2356.227319717,56,2
2356.227319717,2356.228129003,57,3
2356.226819983,2356.228129003,29,4
2356.223801150,2356.228321801,40,3
2356.226819983,2356.228321801,31,5
2356.228321801,2356.228324900,40,2
2356.228321801,2356.228324900,31,6
2356.228324900,2356.229684329,31,7
2356.228129003,2356.229684329,29,5
2356.218245888,2356.230083994,45,4
2356.229684329,2356.230083994,31,6
2356.230083994,2356.230087667,45,3
2356.230083994,2356.230087667,31,7
2356.230087667,2356.231165354,31,8
2356.229684329,2356.231165354,29,6
2356.212486005,2356.231727254,51,3
2356.204337629,2356.231727254,55,1
2356.231165354,2356.236239560,29,7
2356.228129003,2356.236239560,57,2
2356.236239560,2356.236244540,29,6
2356.236239560,2356.236244540,57,3
2356.231165354,2356.236256758,31,7
2356.236244540,2356.236256758,57,4
2356.236256758,2356.236259187,31,6
2356.236256758,2356.236259187,57,5
2356.236259187,2356.236263421,31,5
2356.236259187,2356.236263421,57,6
2356.226788788,2356.236266850,33,6
2356.236263421,2356.236266850,57,7
2356.230087667,2356.238400576,45,2
2356.228324900,2356.238400576,40,1
2356.231727254,2356.242431814,55,2
2356.166285658,2356.242431814,52,2
2356.236266850,2356.244930559,57,8
2356.236244540,2356.244930559,29,5
2356.244930559,2356.244936879,57,7
2356.244930559,2356.244936879,29,6
2356.244936879,2356.244939018,57,6
2356.244936879,2356.244939018,29,7
2356.212486005,2356.245304833,49,2
2356.204337629,2356.245304833,48,2
2356.244939018,2356.245471656,29,8
2356.236263421,2356.245471656,31,4
2356.245471656,2356.245477070,29,7
2356.245471656,2356.245477070,31,5
2356.245477070,2356.246769013,31,6
2356.245477070,2356.246769013,29,6
2356.227319717,2356.247386439,56,3
2356.246769013,2356.247386439,31,5
2356.246769013,2356.247510152,29,7
2356.244939018,2356.247510152,57,5
2356.247386439,2356.247527076,31,6
2356.247510152,2356.247527076,57,6
2356.247527076,2356.247556118,31,5
2356.247527076,2356.247556118,57,7
2356.247510152,2356.247591660,29,6
2356.247556118,2356.247591660,57,8
2356.245304833,2356.248417215,48,3
2356.242431814,2356.248417215,55,1
2356.247591660,2356.249591505,57,9
2356.238400576,2356.249591505,45,1
2356.249591505,2356.249595449,57,8
2356.249591505,2356.249595449,45,2
2356.249595449,2356.249597409,57,7
2356.249595449,2356.249597409,45,3
2356.249597409,2356.249599299,57,6
2356.249597409,2356.249599299,45,4
2356.249599299,2356.249978706,57,5
2356.247734397,2356.249978706,21,1
2356.249978706,2356.249982984,57,4
2356.249978706,2356.249982984,21,2
2356.226580478,2356.250930819,8,3
2356.226580478,2356.250930819,11,2
2356.231727254,2356.251278782,51,2
2356.248417215,2356.251278782,48,2
2356.247591660,2356.252550900,29,5
2356.247556118,2356.252550900,31,4
2356.236266850,2356.252630291,33,5
2356.223958553,2356.252630291,34,1
2356.252630291,2356.252635263,33,4
2356.252630291,2356.252635263,34,2
2356.242431814,2356.254728428,52,3
2356.249982984,2356.254728428,57,3
2356.254728428,2356.254734042,52,2
2356.254728428,2356.254734042,57,4
2356.249599299,2356.254871382,45,5
2356.238400576,2356.254871382,40,2
2356.254734042,2356.255510363,57,5
2356.247386439,2356.255510363,56,2
2356.223726025,2356.256414238,0,3
2356.249982984,2356.256414238,21,3
2356.252550900,2356.256513097,31,5
2356.255510363,2356.256513097,57,4
2356.256414238,2356.256606683,21,4
2356.256513097,2356.256606683,57,5
2356.251278782,2356.257168806,48,3
2356.254734042,2356.257168806,52,1
2356.257168806,2356.257174047,48,2
2356.257168806,2356.257174047,52,2
2356.254871382,2356.258145630,45,4
2356.257174047,2356.259186281,52,3
2356.256414238,2356.259186281,0,2
2356.256606683,2356.260858235,57,6
2356.259186281,2356.260858235,0,3
2356.250930819,2356.260975790,11,3
2356.250930819,2356.260975790,8,2
2356.248417215,2356.262168931,55,2
2356.256513097,2356.263475065,31,4
2356.252550900,2356.263475065,29,4
2356.254871382,2356.264534271,40,3
2356.258145630,2356.264534271,45,3
2356.263475065,2356.267637529,29,5
2356.260858235,2356.267637529,57,5
2356.252635263,2356.269393944,33,3
2356.262168931,2356.269393944,32,1
2356.181491482,2356.270717569,50,2
2356.251278782,2356.270717569,51,1
2356.252635263,2356.271496325,34,3
2356.269393944,2356.271496325,33,2
2356.267637529,2356.272085020,29,4
2356.263475065,2356.272085020,31,3
2356.260975790,2356.272306400,11,2
2356.267799194,2356.272306400,9,1
2356.267637529,2356.273080206,57,6
2356.269393944,2356.273080206,32,2
2356.273080206,2356.273160216,57,5
2356.272085020,2356.273160216,31,4
2356.255510363,2356.273714945,56,3
2356.272085020,2356.273714945,29,3
2356.264534271,2356.273797680,45,4
2356.273714945,2356.273797680,29,4
2356.259186281,2356.274175655,52,2
2356.272306400,2356.274175655,9,2
2356.260858235,2356.276273320,0,4
2356.273160216,2356.276273320,57,4
2356.260975790,2356.276838019,8,3
2356.272306400,2356.276838019,11,1
2356.276273320,2356.277696917,0,3
2356.273080206,2356.277696917,32,3
2356.277696917,2356.277806761,32,4
2356.276273320,2356.277806761,57,5
2356.273797680,2356.277825344,29,5
2356.277806761,2356.277825344,57,6
2356.264534271,2356.278418709,40,2
2356.258145630,2356.278418709,41,1
2356.273797680,2356.279353359,45,3
2356.278418709,2356.279353359,40,1
2356.271496325,2356.280102394,33,3
2356.271496325,2356.280102394,34,2
2356.276838019,2356.281244392,8,2
2356.276838019,2356.281244392,11,2
2356.280102394,2356.282277901,33,2
2356.280102394,2356.282277901,34,3
2356.274175655,2356.283011866,9,3
2356.281244392,2356.283011866,11,3
2356.277825344,2356.284155594,57,7
2356.273714945,2356.284155594,56,2
2356.284155594,2356.284161897,57,6
2356.284155594,2356.284161897,56,3
2356.277825344,2356.284461242,29,4
2356.273160216,2356.284461242,31,5
2356.270717569,2356.285191301,51,2
2356.278418709,2356.285191301,41,2
2356.284161897,2356.285535847,57,5
2356.284461242,2356.285535847,29,3
2356.284161897,2356.287275158,56,4
2356.257174047,2356.287275158,48,1
2356.284461242,2356.288778152,31,6
2356.285535847,2356.288778152,57,4
2356.288778152,2356.288801837,31,5
2356.288778152,2356.288801837,57,5
2356.287275158,2356.289756190,48,2
2356.274175655,2356.289756190,52,1
2356.277696917,2356.290137052,0,2
2356.277806761,2356.290340152,32,3
2356.282277901,2356.290340152,33,1
2356.282277901,2356.292500885,34,4
2356.290340152,2356.292500885,33,2
2356.292500885,2356.292504472,34,3
2356.292500885,2356.292504472,33,3
2356.292504472,2356.293355301,33,4
2356.292504472,2356.293355301,34,2
2356.288801837,2356.293657175,57,6
2356.287275158,2356.293657175,56,3
2356.283011866,2356.294073311,11,4
2356.281244392,2356.294073311,8,1
2356.290340152,2356.294174354,32,2
2356.293355301,2356.294174354,33,3
2356.293657175,2356.294216919,57,5
2356.290137052,2356.294216919,0,1
2356.294216919,2356.294222563,57,4
2356.294216919,2356.294222563,0,2
2356.294073311,2356.296994090,11,3
2356.294073311,2356.296994090,8,2
2356.296994090,2356.297000071,11,2
2356.296994090,2356.297000071,8,3
2356.297000071,2356.299967168,8,4
2356.285535847,2356.299967168,29,4
2356.293657175,2356.300068062,56,4
2356.294222563,2356.300068062,57,3
2356.299967168,2356.300098368,29,5
2356.300068062,2356.300098368,57,4
2356.294174354,2356.300111658,33,4
2356.300098368,2356.300111658,57,5
2356.300098368,2356.300142719,29,4
2356.300111658,2356.300142719,57,6
2356.300111658,2356.301778718,33,3
2356.294174354,2356.301778718,32,1
2356.279353359,2356.304809775,40,2
2356.279353359,2356.304809775,45,2
2356.294222563,2356.306131242,0,3
2356.306131242,2356.306151083,0,2
2356.289756190,2356.306361737,52,2
2356.299967168,2356.306361737,8,3
2356.300142719,2356.306910942,57,7
2356.300142719,2356.306910942,29,3
2356.306910942,2356.306917347,57,6
2356.306910942,2356.306917347,29,4
2356.306917347,2356.306981197,29,5
2356.288801837,2356.306981197,31,4
2356.283011866,2356.307171690,9,2
2356.306361737,2356.307171690,8,4
2356.306917347,2356.307603019,57,5
2356.306151083,2356.307603019,0,1
2356.307603019,2356.307605458,57,4
2356.307603019,2356.307605458,0,2
2356.300068062,2356.308191236,56,3
2356.307605458,2356.308191236,57,3
2356.285191301,2356.313595722,41,3
2356.304809775,2356.313595722,45,3
2356.307171690,2356.313697474,8,5
2356.308191236,2356.313697474,57,4
2356.313697474,2356.313702568,8,4
2356.313697474,2356.313702568,57,5
2356.313595722,2356.313708958,45,4
2356.313702568,2356.313708958,57,6
2356.313708958,2356.320485473,57,7
2356.308191236,2356.320485473,56,2
2356.313708958,2356.322103914,45,3
2356.304809775,2356.322103914,40,1
2356.307605458,2356.322137825,0,3
2356.320485473,2356.322409256,57,6
2356.306981197,2356.322409256,31,5
2356.322409256,2356.322415405,57,5
2356.322409256,2356.322415405,31,6
2356.322415405,2356.323268716,31,7
2356.306981197,2356.323268716,29,4
2356.313702568,2356.323680945,8,3
2356.307171690,2356.323680945,9,1
2356.322415405,2356.324466815,57,4
2356.323268716,2356.324466815,31,6
2356.324466815,2356.325767282,57,3
2356.320485473,2356.325767282,56,3
2356.324466815,2356.326188675,31,7
2356.325767282,2356.326188675,57,2
2356.326188675,2356.326193882,31,6
2356.326188675,2356.326193882,57,3
2356.326193882,2356.326205851,31,5
2356.326193882,2356.326205851,57,4
2356.325767282,2356.326209572,56,4
2356.326205851,2356.326209572,57,5
2356.326205851,2356.326213425,31,4
2356.326209572,2356.326213425,57,6
2356.326213425,2356.326247958,31,3
2356.326213425,2356.326247958,57,7
2356.322137825,2356.327835886,0,2
2356.306151083,2356.327835886,4,1
2356.323268716,2356.328199805,29,5
2356.326247958,2356.328199805,31,2
2356.323680945,2356.330684519,8,2
2356.323680945,2356.330684519,9,2
2356.328199805,2356.331147546,29,4
2356.328199805,2356.331147546,31,3
2356.313595722,2356.331303730,41,2
2356.322103914,2356.331303730,45,2
2356.326247958,2356.332099563,57,8
2356.331147546,2356.332099563,29,3
2356.332099563,2356.332103973,57,7
2356.332099563,2356.332103973,29,4
2356.332103973,2356.333574704,29,5
2356.331147546,2356.333574704,31,4
2356.332103973,2356.333981897,57,6
2356.306131242,2356.333981897,3,1
2356.333981897,2356.333988679,57,5
2356.333981897,2356.333988679,3,2
2356.333988679,2356.333992930,57,4
2356.333988679,2356.333992930,3,3
2356.333992930,2356.338140163,3,4
2356.327835886,2356.338140163,0,1
2356.338140163,2356.338143591,3,3
2356.338140163,2356.338143591,0,2
2356.338143591,2356.340555833,0,3
2356.338143591,2356.340555833,3,2
2356.331303730,2356.340725844,45,3
2356.333992930,2356.340725844,57,3
2356.256606683,2356.340771691,21,3
2356.340725844,2356.340771691,57,4
2356.333574704,2356.341468039,29,4
2356.340882879,2356.341468039,24,1
2356.322103914,2356.342140539,40,2
2356.333574704,2356.343245725,31,5
2356.341468039,2356.343245725,29,3
2356.340555833,2356.346140217,0,2
2356.343245725,2356.346464981,31,4
2356.343245725,2356.346464981,29,4
2356.340771691,2356.348031941,57,5
2356.346464981,2356.348031941,31,3
2356.348031941,2356.348035705,57,4
2356.348031941,2356.348035705,31,4
2356.348035705,2356.349045030,31,5
2356.346464981,2356.349045030,29,5
2356.330684519,2356.349158919,9,3
2356.297000071,2356.349158919,11,1
2356.326209572,2356.350019871,56,3
2356.349045030,2356.350019871,29,6
2356.301778718,2356.352494994,32,2
2356.293355301,2356.352494994,34,3
2356.340771691,2356.354201091,21,2
2356.340555833,2356.357694518,3,3
2356.346140217,2356.357694518,0,1
2356.349045030,2356.357872042,31,4
2356.348035705,2356.357872042,57,3
2356.352494994,2356.360256629,34,4
2356.352494994,2356.360256629,32,1
2356.357694518,2356.362292577,0,2
2356.340725844,2356.362467066,45,2
2356.331303730,2356.362467066,41,1
2356.350019871,2356.363495331,29,7
2356.341468039,2356.363495331,24,2
2356.357872042,2356.364603351,57,4
2356.354201091,2356.364603351,21,1
2356.363495331,2356.366351131,29,6
2356.363495331,2356.366351131,24,3
2356.366351131,2356.366355639,29,5
2356.366351131,2356.366355639,24,4
2356.349158919,2356.369197349,9,2
2356.330684519,2356.369197349,8,1
2356.349158919,2356.369215150,11,2
2356.369197349,2356.369215150,9,1
2356.357694518,2356.370501821,3,2
2356.350019871,2356.370501821,56,2
2356.366355639,2356.370985666,24,5
2356.364603351,2356.370985666,57,3
2356.360256629,2356.375347224,34,3
2356.301778718,2356.375347224,33,2
2356.357872042,2356.375791542,31,3
2356.366355639,2356.375791542,29,4
2356.370985666,2356.376673190,57,4
2356.375791542,2356.376673190,31,2
2356.327835886,2356.378254920,4,2
2356.360256629,2356.378380703,32,2
2356.375347224,2356.378380703,34,2
2356.370501821,2356.378976110,56,3
2356.354201091,2356.378976110,16,1
2356.369215150,2356.381043673,9,2
2356.370985666,2356.381043673,24,4
2356.362467066,2356.383613890,41,2
2356.362467066,2356.383613890,45,1
2356.375347224,2356.383700251,33,3
2356.376673190,2356.383700251,57,3
2356.364603351,2356.390201075,21,2
2356.375791542,2356.390526590,29,5
2356.376673190,2356.390526590,31,3
2356.390526590,2356.390533268,29,4
2356.390526590,2356.390533268,31,4
2356.378976110,2356.390679310,16,2
2356.390201075,2356.390679310,21,1
2356.390533268,2356.391488572,31,5
2356.390533268,2356.391488572,29,3
2356.383613890,2356.392142054,45,2
2356.371149425,2356.392142054,43,1
2356.378380703,2356.392378933,34,3
2356.378380703,2356.392378933,32,1
2356.390679310,2356.394590863,21,2
2356.392142054,2356.394590863,45,1
2356.383700251,2356.394642284,57,4
2356.393239254,2356.394642284,58,1
2356.392378933,2356.397383639,34,2
2356.378254920,2356.397383639,35,1
2356.394642284,2356.397480639,57,3
2356.394642284,2356.397480639,58,2
2356.392378933,2356.399902797,32,2
2356.397383639,2356.399902797,34,1
2356.391488572,2356.401685693,29,4
2356.391488572,2356.401685693,31,4
2356.392142054,2356.402776590,43,2
2356.394590863,2356.402776590,45,2
2356.397480639,2356.402901394,58,3
2356.397480639,2356.402901394,57,2
2356.402901394,2356.402951342,58,2
2356.402901394,2356.402951342,57,3
2356.401685693,2356.402993766,31,5
2356.402951342,2356.402993766,57,4
2356.369197349,2356.406597830,8,2
2356.289002702,2356.406597830,10,1
2356.399902797,2356.406707443,34,2
2356.399902797,2356.406707443,32,1
2356.383700251,2356.407446723,33,2
2356.406707443,2356.407446723,34,1
2356.381043673,2356.411430680,24,5
2356.401685693,2356.411430680,29,3
2356.411430680,2356.411437289,24,4
2356.411430680,2356.411437289,29,4
2356.402993766,2356.411788846,57,5
2356.402951342,2356.411788846,58,1
2356.411788846,2356.412077093,57,4
2356.394590863,2356.412077093,21,1
2356.412077093,2356.412081385,57,3
2356.412077093,2356.412081385,21,2
2356.411437289,2356.412671080,29,5
2356.411437289,2356.412671080,24,3
2356.402776590,2356.420432424,45,3
2356.402776590,2356.420432424,43,1
2356.412081385,2356.420629679,21,3
2356.412081385,2356.420629679,57,2
2356.420629679,2356.420657564,21,2
2356.420629679,2356.420657564,57,3
2356.420657564,2356.421727378,57,4
2356.420788276,2356.421727378,59,1
2356.412671080,2356.424290950,29,4
2356.402993766,2356.424290950,31,4
2356.407446723,2356.426443615,34,2
2356.378976110,2356.426672361,56,2
2356.421727378,2356.426695058,57,3
2356.420657564,2356.426695058,21,1
2356.412671080,2356.426939755,24,4
2356.424290950,2356.426939755,31,5
2356.406707443,2356.427648265,32,2
2356.426443615,2356.427648265,34,1
2356.406597830,2356.428049782,10,2
2356.426695058,2356.428049782,57,2
2356.426695058,2356.429098253,21,2
2356.390201075,2356.429098253,17,1
2356.426939755,2356.432899196,24,3
2356.424290950,2356.432899196,29,3
2356.428049782,2356.432908587,57,3
2356.429098253,2356.432908587,17,2
2356.420432424,2356.433850552,45,2
2356.432899196,2356.433850552,24,2
2356.421727378,2356.438342332,59,2
2356.432908587,2356.438342332,57,2
2356.390679310,2356.440552909,16,1
2356.429098253,2356.440552909,21,1
2356.438342332,2356.442847713,57,3
2356.426939755,2356.444631839,31,6
2356.432899196,2356.444631839,29,4
2356.444631839,2356.446418382,31,5
2356.444631839,2356.446418382,29,5
2356.446418382,2356.446643632,31,4
2356.433850552,2356.446643632,24,3
2356.432908587,2356.447324296,17,3
2356.440552909,2356.447324296,21,2
2356.447324296,2356.448128682,21,3
2356.442847713,2356.448128682,57,2
2356.446643632,2356.448251057,24,4
2356.448128682,2356.448251057,57,3
2356.448128682,2356.449994117,21,2
2356.427648265,2356.452353052,34,2
2356.407446723,2356.452353052,33,1
2356.448251057,2356.456358169,57,4
2356.449994117,2356.456358169,21,1
2356.456358169,2356.456361836,57,3
2356.456358169,2356.456361836,21,2
2356.420432424,2356.457435285,43,2
2356.433850552,2356.457435285,45,1
2356.456361836,2356.457645755,21,3
2356.456361836,2356.457645755,57,2
2356.457645755,2356.458678720,57,3
2356.457435285,2356.458945938,45,2
2356.342140539,2356.458945938,40,1
2356.457645755,2356.462028874,21,2
2356.447324296,2356.462028874,17,2
2356.446418382,2356.462309802,29,6
2356.448251057,2356.462309802,24,3
2356.462309802,2356.463653482,29,5
2356.462309802,2356.463653482,24,4
2356.463653482,2356.463656411,29,4
2356.463653482,2356.463656411,24,5
2356.458945938,2356.466209353,40,2
2356.463656411,2356.466493224,29,3
2356.446643632,2356.466493224,31,3
2356.411788846,2356.468708418,58,2
2356.466493224,2356.468708418,29,2
2356.462028874,2356.469822311,17,3
2356.462028874,2356.469822311,21,1
2356.397383639,2356.471417865,35,2
2356.426443615,2356.471417865,36,1
2356.469822311,2356.472275284,17,2
2356.469822311,2356.472275284,21,2
2356.472275284,2356.475264934,21,3
2356.458678720,2356.475264934,57,2
2356.463656411,2356.479959534,24,6
2356.468708418,2356.479959534,29,3
2356.479959534,2356.481646206,24,5
2356.466493224,2356.481646206,31,4
2356.481646206,2356.481650894,24,4
2356.481646206,2356.481650894,31,5
2356.475264934,2356.481846288,57,3
2356.481650894,2356.481846288,24,3
2356.475264934,2356.482199814,21,2
2356.452353052,2356.488721723,33,2
2356.438604797,2356.488721723,37,1
2356.481846288,2356.490386249,24,4
2356.449994117,2356.490429106,16,1
2356.472275284,2356.490429106,17,1
2356.481650894,2356.490687769,31,6
2356.381043673,2356.490687769,9,1
2356.490429106,2356.492401900,17,2
2356.481846288,2356.492401900,57,2
2356.490386249,2356.495182005,24,3
2356.490386249,2356.495182005,25,1
2356.479959534,2356.496003376,29,4
2356.495182005,2356.496003376,25,2
2356.492401900,2356.497367650,57,3
2356.495182005,2356.497367650,24,2
2356.490687769,2356.497754584,9,2
2356.492922517,2356.497754584,12,1
2356.490687769,2356.499638257,31,5
2356.497367650,2356.499638257,24,3
2356.496003376,2356.502909564,25,3
2356.497367650,2356.502909564,57,2
2356.499638257,2356.506428252,24,4
2356.502909564,2356.506740404,57,3
2356.488721723,2356.506740404,33,1
2356.499638257,2356.510179013,31,4
2356.502909564,2356.510179013,25,2
2356.506428252,2356.511886938,24,3
2356.506740404,2356.511886938,57,2
2356.511886938,2356.513951186,24,2
2356.506428252,2356.513951186,26,1
2356.510179013,2356.515430484,31,3
2356.513951186,2356.515430484,24,1
2356.511886938,2356.517009747,57,3
2356.515430484,2356.517009747,31,2
2356.506740404,2356.522659838,33,2
2356.471417865,2356.524983267,36,2
2356.471417865,2356.524983267,35,1
2356.488721723,2356.525222607,37,2
2356.517009747,2356.525222607,57,2
2356.515430484,2356.529174223,24,2
2356.517009747,2356.529174223,31,3
2356.525222607,2356.529623218,57,3
2356.529174223,2356.529623218,24,1
2356.524983267,2356.532199705,35,2
2356.529623218,2356.532199705,24,2
2356.529174223,2356.532512082,31,4
2356.529623218,2356.532512082,57,2
2356.532512082,2356.534917414,57,3
2356.458678720,2356.534917414,62,1
2356.496003376,2356.538255614,29,3
2356.513951186,2356.538255614,26,2
2356.532199705,2356.541911587,24,3
2356.538255614,2356.541911587,29,2
2356.497754584,2356.543255684,12,2
2356.428049782,2356.543255684,10,1
2356.541911587,2356.545946401,29,3
2356.541911587,2356.545946401,24,2
2356.534917414,2356.546541233,62,2
2356.383613890,2356.546541233,41,1
2356.532512082,2356.548028068,31,3
2356.545946401,2356.548028068,29,2
2356.543255684,2356.551684161,10,2
2356.534917414,2356.551684161,57,2
2356.548028068,2356.554593418,29,3
2356.545946401,2356.554893676,24,3
2356.551684161,2356.555100473,57,3
2356.554893676,2356.555203439,24,2
2356.475703676,2356.555203439,22,1
2356.510179013,2356.555254410,25,3
2356.482199814,2356.555254410,20,1
2356.555254410,2356.555259896,25,2
2356.555254410,2356.555259896,20,2
2356.538255614,2356.559175709,26,3
2356.548028068,2356.559175709,31,2
2356.559175709,2356.559182155,26,2
2356.559175709,2356.559182155,31,3
2356.546541233,2356.562791180,41,2
2356.559182155,2356.567342838,31,4
2356.555259896,2356.567342838,25,1
2356.567342838,2356.567353917,31,3
2356.567342838,2356.567353917,25,2
2356.555259896,2356.573566007,20,3
2356.512457995,2356.573566007,18,1
2356.573566007,2356.573569631,20,2
2356.573566007,2356.573569631,18,2
2356.573569631,2356.579041138,18,3
2356.555100473,2356.579041138,57,2
2356.567353917,2356.630387693,25,3
2356.630387693,2356.630438069,25,2
2356.630387693,2356.630438069,13,1
2356.554593418,2356.630771920,29,2
2356.567353917,2356.670377937,31,2
2356.579041138,2356.698243108,57,3
2356.442847713,2356.698243108,61,1
2356.579041138,2356.714350339,18,2
2356.555203439,2356.714554346,22,2
2356.630438069,2356.730200945,13,2
2356.698243108,2356.794815707,61,2
2356.362292577,2356.794815707,0,1
2356.714554346,2364.507353375,22,1
2356.580111046,2364.507357362,19,1
2356.573569631,2364.507365725,20,1
2356.406597830,2364.507376162,8,1
2356.497754584,2364.507391901,9,1
2356.270717569,2364.507393217,50,1
2356.468708418,2364.507455483,58,1
2356.438342332,2364.507455555,59,1
2356.555100473,2364.507459997,63,1
2356.546541233,2364.507460007,62,1
2356.698243108,2364.507525456,57,2
2356.426672361,2364.507525490,56,1
2356.482199814,2364.507526253,21,1
2356.426672361,2364.507533869,60,1
2356.794815707,2364.507533893,61,1
2356.730200945,2364.507540544,15,1
2356.714554346,2364.507558750,54,1
2356.262168931,2364.507559049,55,1
2356.552551723,2364.507560356,46,1
2356.342140539,2364.507566869,42,1
2356.457435285,2364.507566901,43,1
2356.290137052,2364.507570576,2,1
2356.370501821,2364.507570587,3,1
2356.285191301,2364.507574031,51,1
2356.714350339,2364.507575851,18,1
2356.427648265,2364.507576365,32,1
2356.313897035,2364.507578494,5,1
2356.522659838,2364.507580697,33,1
2356.630771920,2364.507586704,23,1
2356.378254920,2364.507590137,4,1
2356.794815707,2364.507596158,0,2
2356.562791180,2364.507597656,47,1
2356.670377937,2364.507600689,31,1
2356.306361737,2364.507601735,52,1
2356.362292577,2364.507601744,1,1
2356.714350339,2364.507601765,53,1
2356.730200945,2364.507602845,13,1
2356.543255684,2364.507602863,12,1
2356.452353052,2364.507610294,34,1
2356.532199705,2364.507610299,35,1
2356.562791180,2364.507613498,41,1
2356.466209353,2364.507613509,40,1
2356.670377937,2364.507617538,14,1
2356.522659838,2364.507618018,39,1
2356.457977849,2364.507618046,38,1
2356.466209353,2364.507629463,44,1
2356.458945938,2364.507629471,45,1
2356.346140217,2364.507630295,7,1
2356.322137825,2364.507630328,6,1
2356.289756190,2364.507631028,48,1
2356.245304833,2364.507631039,49,1
2356.555203439,2364.507632761,24,1
2356.630438069,2364.507632852,25,1
2356.551684161,2364.507639705,10,1
2356.369215150,2364.507639716,11,1
2356.524983267,2364.507642532,36,1
2356.525222607,2364.507642543,37,1
2356.559182155,2364.507645366,26,1
2356.533143580,2364.507645395,27,1
2356.492401900,2364.507646843,17,1
2356.630771920,2364.507651784,29,1
2356.554593418,2364.507651801,28,1
2364.507525456,2364.507660742,57,1
2364.507660742,2368.698703250,63,1
2364.507596158,2369.0,0,1
