Start,End,Cpu,Size
1086.900597979,1086.900645651,25,1
1086.900645651,1086.900673034,25,2
1084.83238327,1086.900673034,9,1
1086.900673034,1086.900685490,9,2
1086.900673034,1086.900685490,25,1
1086.900685490,1086.901735187,25,2
1086.901735187,1086.902310042,32,1
1086.901843150,1086.902310042,49,1
1086.905730514,1086.917727679,47,1
1086.907866508,1086.922744706,35,1
1086.919783285,1086.923711587,37,1
1086.921721324,1086.924742703,38,1
1086.903783838,1086.925829776,32,1
1086.905674563,1086.926948328,34,1
1086.921773862,1086.930229588,16,1
1086.923663078,1086.931291319,17,1
1086.924694423,1086.933315899,18,1
1086.904704072,1086.936534094,62,1
1086.906744785,1086.937643229,7,1
1086.902310042,1086.939459990,49,2
1086.925829776,1086.939459990,32,2
1086.930229588,1086.946634228,16,2
1086.931291319,1086.946634228,17,2
1086.946634228,1086.946697798,17,3
1086.933315899,1086.946697798,18,2
1086.924742703,1086.947014249,38,2
1086.901251155,1086.947014249,39,1
1086.939459990,1086.949884047,32,3
1086.932347575,1086.949884047,6,1
1086.936534094,1086.959421688,62,2
1086.906806035,1086.959421688,63,1
1086.923711587,1086.960011704,37,2
1086.947014249,1086.960011704,38,1
1086.946697798,1086.963520994,18,3
1086.925783908,1086.963520994,19,1
1086.947014249,1086.963643641,39,2
1086.920748607,1086.963643641,23,1
1086.946697798,1086.963657176,17,2
1086.963520994,1086.963657176,18,2
1086.949884047,1086.963662590,6,2
1086.937643229,1086.963662590,7,2
1086.963662590,1086.963681148,7,3
1086.909800557,1086.963681148,0,1
1086.963520994,1086.963714004,19,2
1086.929157013,1086.963714004,22,1
1086.917727679,1086.963797074,47,2
1086.908823524,1086.963797074,40,1
1086.963797074,1086.963808201,40,2
1086.911786240,1086.963808201,42,1
1086.960011704,1086.963827760,38,2
1086.963643641,1086.963827760,39,1
1086.949884047,1086.963842992,32,2
1086.959421688,1086.963848458,63,2
1086.927980530,1086.963848458,57,1
1086.963657176,1086.963850219,18,3
1086.926896618,1086.963850219,20,1
1086.963643641,1086.967621184,23,2
1086.946634228,1086.967621184,16,1
1086.926948328,1086.967737443,34,2
1086.922744706,1086.967737443,35,2
1086.963808201,1086.967744403,42,2
1086.915490923,1086.967744403,45,1
1086.967621184,1086.967745109,16,2
1086.963714004,1086.967745109,19,1
1086.963850219,1086.967824471,18,2
1086.963850219,1086.967824471,20,2
1086.963714004,1086.967853293,22,2
1086.967621184,1086.967853293,23,1
1086.963681148,1086.967854995,0,2
1086.913397792,1086.967854995,3,1
1086.967737443,1086.967860084,35,3
1086.918818115,1086.967860084,36,1
1086.967860084,1086.967871376,36,2
1086.960011704,1086.967871376,37,1
1086.967854995,1086.967871603,3,2
1086.914481235,1086.967871603,4,1
1086.963848458,1086.967879299,57,2
1086.963797074,1086.967879299,47,1
1086.967824471,1086.969984924,20,3
1086.928036103,1086.969984924,21,1
1086.967860084,1086.970060064,35,2
1086.901735187,1086.970060064,25,1
1086.963827760,1086.970120781,39,2
1086.963842992,1086.970120781,32,1
1086.967871603,1086.971854574,4,2
1086.963662590,1086.971854574,6,1
1086.970120781,1086.971895709,32,2
1086.963842992,1086.971895709,33,1
1086.967871376,1086.971935591,37,2
1086.970120781,1086.971935591,39,1
1086.967745109,1086.971957352,19,2
1086.967853293,1086.971957352,22,1
1086.969984924,1086.971988457,20,2
1086.967745109,1086.971988457,16,1
1086.971988457,1086.972017102,16,2
1086.971957352,1086.972017102,19,1
1086.963681148,1086.973166481,7,2
1086.910848552,1086.973166481,1,1
1086.971935591,1086.973169085,39,2
1086.967737443,1086.973169085,34,1
1086.971854574,1086.973210811,6,2
1086.973166481,1086.973210811,7,1
1086.972017102,1086.973230443,19,2
1086.967853293,1086.973230443,23,2
1086.973169085,1086.973260986,34,2
1086.967871376,1086.973260986,36,1
1086.967744403,1086.973288228,45,2
1086.916658993,1086.973288228,46,1
1086.973166481,1086.973333487,1,2
1086.967871603,1086.973333487,3,1
1086.973288228,1086.973347971,46,2
1086.967879299,1086.973347971,57,1
1086.971895709,1086.973351099,33,2
1086.973260986,1086.973351099,34,1
1086.970060064,1086.973357747,25,2
1086.973333487,1086.973358988,3,2
1086.930176818,1086.973358988,5,1
1086.967879299,1086.973386594,47,2
1086.973210811,1086.973386594,6,1
1086.969984924,1086.973406785,21,2
1086.973230443,1086.973406785,19,1
1086.973347971,1086.973425198,57,2
1086.931244601,1086.973425198,59,1
1086.973406785,1086.973427887,19,2
1086.963657176,1086.973427887,17,1
1086.973230443,1086.973432190,23,3
1086.972017102,1086.973432190,16,1
1086.973386594,1086.974847678,6,2
1086.973210811,1086.974847678,7,2
1086.973351099,1086.977522665,34,2
1086.973260986,1086.977522665,36,2
1086.971957352,1086.977616816,22,2
1086.973432190,1086.977616816,23,2
1086.974847678,1086.977666021,7,3
1086.973333487,1086.977666021,1,1
1086.973427887,1086.977673270,17,2
1086.967824471,1086.977673270,18,1
1086.977522665,1086.977698908,36,3
1086.971895709,1086.977698908,32,1
1086.977698908,1086.977725165,32,2
1086.973386594,1086.977725165,47,1
1086.977666021,1086.977738464,7,2
1086.971854574,1086.977738464,4,1
1086.973432190,1086.977746812,16,2
1086.977616816,1086.977746812,22,1
1086.977616816,1086.977758195,23,3
1086.971988457,1086.977758195,20,1
1086.977725165,1086.977794272,47,2
1086.973347971,1086.977794272,46,1
1086.977758195,1086.979107318,23,2
1086.973406785,1086.979107318,21,1
1086.977758195,1086.979610460,20,2
1086.979107318,1086.979610460,21,2
1086.979610460,1086.979651815,21,3
1086.979107318,1086.979651815,23,1
1086.977794272,1086.979785832,46,2
1086.963808201,1086.979785832,40,1
1086.977738464,1086.979820839,4,2
1086.974847678,1086.979820839,6,1
1086.979820839,1086.979853281,6,2
1086.977738464,1086.979853281,7,1
1086.973425198,1086.979896005,59,2
1086.933364508,1086.979896005,60,1
1086.973358988,1086.979899273,5,2
1086.967854995,1086.979899273,0,1
1086.977746812,1086.979904527,22,2
1086.979651815,1086.979904527,23,2
1086.979896005,1086.979934427,60,2
1086.919730396,1086.979934427,56,1
1086.977698908,1086.979942775,36,2
1086.977725165,1086.979942775,32,1
1086.979785832,1086.979950029,40,2
1086.909851687,1086.979950029,41,1
1086.979651815,1086.979959668,21,2
1086.977673270,1086.979959668,17,1
1086.977666021,1086.979967300,1,2
1086.979899273,1086.979967300,5,1
1086.979904527,1086.980052665,23,3
1086.979959668,1086.980052665,21,1
1086.979934427,1086.980073717,56,2
1086.979934427,1086.980073717,60,1
1086.977673270,1086.980075250,18,2
1086.979904527,1086.980075250,22,1
1086.979959668,1086.982258997,17,2
1086.980075250,1086.982258997,18,1
1086.982258997,1086.982418949,18,2
1086.973427887,1086.982418949,19,1
1086.979950029,1086.982459255,41,2
1086.967744403,1086.982459255,42,1
1086.982418949,1086.982477365,19,2
1086.977746812,1086.982477365,16,1
1086.982477365,1086.982488820,16,2
1086.982258997,1086.982488820,17,1
1086.979967300,1086.982491158,5,2
1086.979967300,1086.982491158,1,1
1086.982459255,1086.982506645,42,2
1086.914427370,1086.982506645,44,1
1086.982491158,1086.982514324,1,2
1086.973358988,1086.982514324,3,1
1086.979853281,1086.982523737,7,2
1086.979820839,1086.982523737,4,1
1086.982488820,1086.982528751,17,2
1086.980052665,1086.982528751,21,2
1086.979942775,1086.982530969,32,2
1086.963827760,1086.982530969,38,1
1086.980052665,1086.983172671,23,2
1086.982488820,1086.983172671,16,1
1086.983172671,1086.984246255,16,2
1086.982528751,1086.984246255,17,1
1086.980075250,1086.984426996,22,2
1086.984246255,1086.984426996,16,1
1086.979899273,1086.984428534,0,2
1086.982514324,1086.984428534,1,1
1086.982506645,1086.984435017,44,2
1086.979785832,1086.984435017,46,1
1086.982528751,1086.984439722,21,3
1086.984246255,1086.984439722,17,2
1086.984428534,1086.984451146,1,2
1086.970060064,1086.984451146,35,1
1086.984439722,1086.984465629,21,2
1086.982418949,1086.984465629,18,1
1086.982530969,1086.984490738,38,2
1086.973169085,1086.984490738,39,1
1086.982523737,1086.984500957,4,2
1086.982523737,1086.984500957,7,1
1086.984435017,1086.984517635,46,2
1086.912414407,1086.984517635,43,1
1086.984490738,1086.984531937,39,2
1086.971935591,1086.984531937,37,1
1086.980073717,1086.984532382,60,2
1086.935449671,1086.984532382,61,1
1086.984465629,1086.984547509,18,2
1086.984426996,1086.984547509,22,1
1086.984531937,1086.984548789,37,2
1086.984490738,1086.984548789,38,1
1086.984500957,1086.984554296,7,2
1086.984428534,1086.984554296,0,1
1086.984451146,1086.984554376,35,2
1086.984548789,1086.984554376,38,2
1086.984547509,1086.984574829,22,2
1086.983172671,1086.984574829,23,1
1086.984554376,1086.984576215,38,3
1086.984531937,1086.984576215,39,1
1086.984439722,1086.984577243,17,3
1086.982530969,1086.984577243,32,1
1086.982514324,1086.984616819,3,2
1086.984554296,1086.984616819,7,1
1086.984577243,1086.984627541,17,2
1086.973357747,1086.984627541,25,1
1086.984576215,1086.984630773,39,2
1086.979942775,1086.984630773,36,1
1086.984627541,1086.984644820,25,2
1086.973357747,1086.984644820,29,1
1086.984644820,1086.984678607,29,2
1086.984577243,1086.984701752,32,2
1086.984630773,1086.984701752,39,1
1086.984630773,1086.984861894,36,2
1086.984548789,1086.984861894,37,1
1086.984576215,1086.984862326,38,2
1086.984554376,1086.984862326,35,1
1086.984861894,1086.985030045,37,2
1086.984644820,1086.985030045,25,1
1086.984554296,1086.985138005,0,2
1086.911836383,1086.985138005,2,1
1086.985138005,1086.985171831,2,2
1086.984451146,1086.985171831,1,1
1086.984426996,1086.985330560,16,2
1086.982477365,1086.985330560,19,1
1086.984862326,1086.985565482,35,2
1086.982491158,1086.985565482,5,1
1086.985030045,1086.985667269,25,2
1086.935497514,1086.985667269,27,1
1086.984517635,1086.985696576,43,2
1086.984435017,1086.985696576,44,1
1086.984574829,1086.989948362,23,2
1086.985667269,1086.989948362,25,1
1086.985565482,1086.995535495,5,2
1086.989948362,1086.995535495,25,2
1086.995535495,1087.818674,25,3
1086.985138005,1087.818674,0,1
1086.984616819,1087.102386277,7,2
1086.995535495,1087.102386277,5,1
1086.984701752,1087.118388970,39,2
1086.985030045,1087.118388970,37,1
1086.985667269,1087.126396617,27,2
1086.984678607,1087.126396617,30,1
1087.126396617,1087.134433963,30,2
1086.936585475,1087.134433963,28,1
1087.118388970,1087.134449286,37,2
1086.984701752,1087.134449286,32,1
1086.985171831,1087.138430634,1,2
1086.900685490,1087.138430634,9,1
1087.818674,1087.162414694,0,2
1086.985330560,1087.162773261,19,2
1087.162414694,1087.162773261,48,1
1087.102386277,1087.174589567,5,2
1087.162773261,1087.174589567,48,2
1087.174589567,1087.176154226,48,3
1086.984465629,1087.176154226,21,1
1087.176154226,1087.198478945,21,2
1086.985330560,1087.198478945,16,1
1086.985696576,1087.198557775,44,2
1086.979950029,1087.198557775,40,1
1086.984532382,1087.198615765,61,2
1086.980073717,1087.198615765,56,1
1087.818674,1087.206407720,25,2
1086.918762444,1087.206407720,24,1
1087.134449286,1087.206433946,32,2
1086.973351099,1087.206433946,33,1
1087.176154226,1087.214492767,48,2
1086.939459990,1087.214492767,49,1
1087.214492767,1087.237383997,49,2
1086.977794272,1087.237383997,47,1
1087.237383997,1087.237543913,47,2
1087.198557775,1087.237543913,44,1
1087.206433946,1087.238228943,33,2
1087.118388970,1087.238228943,39,1
1087.138430634,1087.238286323,9,2
1087.134433963,1087.250446228,28,2
1087.206407720,1087.250446228,25,1
1087.198615765,1087.254447113,56,2
1087.198615765,1087.254447113,61,1
1087.198557775,1087.310413315,40,2
1087.238228943,1087.310438731,39,2
1087.198478945,1087.310455959,16,2
1087.206407720,1087.342415740,24,2
1086.984627541,1087.342415740,17,1
1087.254447113,1087.342437783,61,2
1086.963848458,1087.342437783,63,1
1087.250446228,1087.342454169,25,2
1086.916614360,1087.342454169,11,1
1087.342415740,1087.343773414,17,2
1086.984547509,1087.343773414,18,1
1087.342437783,1087.344092824,63,2
1087.254447113,1087.344092824,56,1
1087.342454169,1087.344205106,11,2
1087.237543913,1087.344247634,44,2
1086.973288228,1087.344247634,45,1
1087.343773414,1087.344274578,18,2
1087.162773261,1087.344274578,19,1
1087.344092824,1087.430413803,56,2
1087.344274578,1087.478412067,19,2
1087.198478945,1087.478412067,21,1
1087.478412067,1087.518455326,21,2
1087.344247634,1087.590418189,45,2
1087.342454169,1089.416106476,25,1
1087.238286323,1089.416106476,13,1
1086.984862326,1089.416131587,38,1
1089.416106476,1089.416131587,13,2
1087.250446228,1089.416144725,28,1
1089.416131587,1089.416144725,13,3
1087.162414694,1089.416154367,0,1
1089.416144725,1089.416154367,13,4
1087.174589567,1089.416163421,5,1
1089.416154367,1089.416163421,13,5
1087.343773414,1089.416178005,17,1
1089.416163421,1089.416178005,13,6
1086.984500957,1089.416187501,4,1
1089.416178005,1089.416187501,13,7
1086.934439438,1089.416233395,26,1
1086.917675405,1089.416233395,12,1
1087.342437783,1089.416291802,61,1
1089.416233395,1089.416291802,12,2
1086.982459255,1089.416307381,41,1
1089.416187501,1089.416307381,13,8
1086.977522665,1089.416320516,34,1
1089.416307381,1089.416320516,13,9
1087.342415740,1089.416330786,24,1
1089.416320516,1089.416330786,13,10
1087.590418189,1089.416339740,45,1
1089.416330786,1089.416339740,13,11
1087.126396617,1089.416420199,27,1
1087.310413315,1089.416420199,40,1
1087.344274578,1089.416464652,18,1
1087.134449286,1089.417636309,37,1
1089.416339740,1089.417636309,13,12
1089.417636309,1089.418009216,13,13
1087.590418189,1089.418009216,55,1
1089.418009216,1089.418018764,55,2
1087.344205106,1089.418018764,14,1
1089.418009216,1089.418026986,13,12
1087.214492767,1089.418026986,48,1
1089.418026986,1089.418055996,13,11
1089.418026986,1089.418055996,48,2
1089.418055996,1089.418202956,48,3
1087.237383997,1089.418202956,49,1
1089.418055996,1089.418207812,13,10
1089.418202956,1089.418207812,48,2
1089.418207812,1089.418364511,13,9
1089.418207812,1089.418364511,48,3
1089.418364511,1089.418539749,13,8
1086.907813838,1089.418539749,8,1
1089.418539749,1089.418993047,8,2
1089.418364511,1089.418993047,48,4
1089.418993047,1089.419129202,48,5
1089.418018764,1089.419129202,14,2
1089.419129202,1089.419132044,48,4
1089.419129202,1089.419132044,14,3
1089.419132044,1089.419138456,14,4
1086.904762144,1089.419138456,15,1
1089.418539749,1089.419146074,13,7
1089.418993047,1089.419146074,8,1
1089.419138456,1089.419154932,14,3
1089.416291802,1089.419154932,12,3
1089.419154932,1089.419169013,12,4
1087.238286323,1089.419169013,9,1
1089.419169013,1089.419186380,12,3
1086.915538861,1089.419186380,10,1
1089.419146074,1089.419202193,13,6
1089.419186380,1089.419202193,10,2
1089.419202193,1089.419318564,10,3
1087.344205106,1089.419318564,11,1
1089.419318564,1089.419379786,10,2
1089.419146074,1089.419379786,8,2
1089.419186380,1089.419384873,12,2
1089.419379786,1089.419384873,10,1
1089.419318564,1089.419472735,11,2
1089.419379786,1089.419472735,8,3
1089.419202193,1089.419529647,13,5
1089.419384873,1089.419529647,10,2
1089.419132044,1089.419702731,48,3
1089.418018764,1089.419702731,55,1
1089.419702731,1089.419711183,55,2
1089.419169013,1089.419711183,9,2
1089.419472735,1089.419783761,8,4
1089.419529647,1089.419783761,10,3
1089.419711183,1089.419947453,9,3
1089.419138456,1089.419947453,15,2
1089.419947453,1089.419973448,15,3
1089.419702731,1089.419973448,48,2
1089.419783761,1089.421136636,10,4
1089.419384873,1089.421136636,12,1
1089.419973448,1089.421579513,48,3
1087.310413315,1089.421579513,50,1
1089.421136636,1089.421927715,10,3
1089.419973448,1089.421927715,15,2
1089.421927715,1089.421929990,10,2
1089.421927715,1089.421929990,15,3
1089.421929990,1089.422184596,15,4
1089.419711183,1089.422184596,55,1
1089.422184596,1089.422662009,15,3
1089.419472735,1089.422662009,11,1
1089.422662009,1089.422672088,11,2
1087.310438731,1089.422672088,51,1
1089.422184596,1089.428851372,55,2
1089.419783761,1089.428851372,8,3
1089.428851372,1089.429181786,8,4
1089.422672088,1089.429181786,11,1
1089.429181786,1089.436520941,11,2
1089.422662009,1089.436520941,15,2
1089.436520941,1089.436535275,15,3
1089.421579513,1089.436535275,48,2
1089.419529647,1089.438529231,13,4
1089.438529231,1089.438531796,13,3
1089.438529231,1089.438531796,24,1
1089.436535275,1089.444020401,48,3
1087.310455959,1089.444020401,52,1
1089.419947453,1089.446598492,9,2
1089.421579513,1089.446598492,50,2
1087.430413803,1089.446618950,56,1
1089.416464652,1089.446618950,41,1
1089.446598492,1089.446630934,50,3
1086.982506645,1089.446630934,42,1
1089.446618950,1089.446657190,41,2
1086.985696576,1089.446657190,43,1
1087.102386277,1089.446695097,7,1
1086.929107951,1089.446695097,58,1
1089.444020401,1089.446750389,52,2
1087.518455326,1089.446750389,54,1
1087.430413803,1089.446832862,53,1
1087.344247634,1089.446832862,44,1
1089.429181786,1089.446837523,8,3
1089.446657190,1089.446871039,43,2
1087.206433946,1089.446871039,32,1
1089.446695097,1089.446885493,58,2
1089.446871039,1089.446885493,43,1
1089.436535275,1089.446933844,15,2
1087.518455326,1089.446933844,21,1
1089.438531796,1089.446941101,24,2
1089.446837523,1089.446941101,25,1
1089.446941101,1089.446956644,25,2
1089.446750389,1089.446975732,54,2
1089.422672088,1089.446993719,51,2
1089.418202956,1089.447081926,49,2
1089.446837523,1089.447095218,8,2
1086.902824230,1089.447095218,31,1
1087.237543913,1089.447103186,47,1
1087.238228943,1089.447103186,33,1
1089.447095218,1089.447105349,31,2
1089.446630934,1089.447116414,50,2
1086.979610460,1089.447148099,20,1
1089.446885493,1089.447148099,58,1
1089.421136636,1089.447155695,12,2
1089.416420199,1089.447155695,40,2
1089.447155695,1089.447173503,40,3
1089.446885493,1089.447173503,43,2
1089.447173503,1089.447187161,43,3
1089.446933844,1089.447188027,21,2
1086.979896005,1089.447188027,59,1
1089.447105349,1089.447287696,0,1
1086.985171831,1089.447287696,2,1
1089.438531796,1089.447364614,13,2
1089.446657190,1089.447391906,41,1
1089.447081926,1089.447394803,37,1
1086.984532382,1089.447394803,60,1
1089.446832862,1089.447472607,44,2
1089.447187161,1089.447714230,47,1
1089.446941101,1089.449554906,24,1
1089.447287696,1089.449628458,2,2
1089.419154932,1089.449683199,14,2
1086.984616819,1089.449683199,3,1
1089.449683199,1089.449702729,3,2
1086.989948362,1089.449702729,23,1
1089.447394803,1089.449853440,60,2
1089.447472607,1089.449853440,41,1
1089.447103186,1089.449920969,33,2
1089.449702729,1089.449930728,23,2
1087.310455959,1089.449930728,16,1
1089.447148099,1089.449958488,58,2
1089.447173503,1089.450112008,40,2
1089.447187161,1089.450137496,43,2
1089.450112008,1089.450137496,47,1
1089.446871039,1089.450222172,32,2
1086.985565482,1089.450222172,35,1
1089.446956644,1089.450244651,25,1
1089.449853440,1089.450246685,41,2
1089.447714230,1089.450246685,4,1
1089.450222172,1089.450418379,35,2
1089.449628458,1089.450418379,5,1
1089.450137496,1089.450750304,47,2
1089.446993719,1089.450750304,56,1
1089.450750304,1089.451355379,56,2
1086.959421688,1089.451355379,62,1
1089.451355379,1089.467329157,62,2
1089.450137496,1089.467329157,43,1
1089.450418379,1089.482583933,5,2
1089.444020401,1089.482583933,48,2
1089.467329157,1089.487596378,43,2
1089.482583933,1089.487596378,48,3
1089.450246685,1089.498552556,4,2
1089.447095218,1089.498552556,8,1
1089.487596378,1089.522673953,48,4
1089.447081926,1089.522673953,49,1
1089.522673953,1089.542137733,49,2
1089.446750389,1089.542137733,52,1
1089.522673953,1089.559377319,48,3
1089.498552556,1089.582576538,8,2
1089.542137733,1089.591710878,52,2
1086.973425198,1089.591710878,57,1
1089.446598492,1089.592441996,9,1
1089.449554906,1089.592441996,26,1
1089.592441996,1089.599284730,26,2
1089.447105349,1089.599284730,31,1
1089.599284730,1089.606569834,31,2
1089.591710878,1090.58558172,57,2
1089.449958488,1090.58558172,61,1
1090.58558172,1090.314570970,61,2
1089.451355379,1090.314570970,56,1
1090.314570970,1090.574586512,56,2
1089.467329157,1090.574586512,62,1
1089.449958488,1091.82613281,58,1
1090.574586512,1091.82613281,56,1
1091.82613281,1091.226757649,56,2
1087.478412067,1091.226757649,19,1
1089.447155695,1092.170697460,12,1
1089.447364614,1092.170697460,20,1
1089.446933844,1092.170768762,15,1
1089.447188027,1092.170822681,21,1
1089.446975732,1092.170879263,45,1
1089.436520941,1092.170879263,11,1
1089.591710878,1092.170941741,52,1
1089.582576538,1092.170941741,8,1
1089.450112008,1092.170976776,40,1
1089.498552556,1092.171055528,4,1
1089.447472607,1092.171055528,44,1
1089.450418379,1092.171119908,35,1
1086.979853281,1092.171162047,6,1
1089.446993719,1092.171277829,51,1
1089.487596378,1092.171327202,43,1
1089.449702729,1092.171385972,3,1
1089.559377319,1092.171456335,53,1
1087.134433963,1092.171529108,30,1
1089.542137733,1092.171529108,49,1
1086.984678607,1092.171578222,29,1
1089.449628458,1092.171578222,2,1
1086.984861894,1092.171669407,36,1
1089.449853440,1092.171716432,60,1
1089.450244651,1092.171764027,27,1
1092.171119908,1092.171810680,35,2
1089.559377319,1092.171810680,48,2
1089.449920969,1092.171829500,33,1
1092.171810680,1092.171829500,48,3
1092.171829500,1092.171879407,48,4
1091.226757649,1092.171879407,56,1
1089.449920969,1092.171944407,37,1
1089.447116414,1092.172004121,50,1
1087.310438731,1092.172059854,39,1
1089.449930728,1092.172059854,23,1
1091.226757649,1092.172120924,19,2
1089.447188027,1092.172120924,59,2
1092.171944407,1092.172136460,60,1
1092.171879407,1092.172234296,56,2
1092.171456335,1092.172234296,21,1
1092.170697460,1092.172343275,20,2
1092.172136460,1092.172343275,60,2
1092.170768762,1092.172349629,15,2
1089.447364614,1092.172349629,13,1
1092.172234296,1092.172419615,21,2
1092.170976776,1092.172419615,12,1
1092.170941741,1092.172512756,8,2
1092.172349629,1092.172512756,13,2
1092.170822681,1092.173099691,9,1
1092.172512756,1092.173099691,8,1
1092.170879263,1092.173107011,11,2
1092.172419615,1092.173125911,12,2
1092.173107011,1092.173125911,9,1
1092.172512756,1092.173242597,13,3
1092.173125911,1092.173242597,9,2
1092.173242597,1092.173260345,13,2
1092.173242597,1092.173260345,9,3
1092.173260345,1092.173680144,9,4
1089.449683199,1092.173680144,14,1
1092.173680144,1092.174193160,9,3
1092.173680144,1092.174193160,14,2
1092.174193160,1092.174286555,9,2
1086.984517635,1092.174286555,46,1
1092.174286555,1092.174289538,9,1
1092.174286555,1092.174289538,46,2
1092.174289538,1092.174297236,46,3
1092.171055528,1092.174300917,44,2
1092.171162047,1092.174333380,45,1
1092.174297236,1092.174394235,46,2
1092.174300917,1092.174394235,36,1
1092.174394235,1092.174408389,36,2
1092.174297236,1092.174408389,9,1
1092.174193160,1092.174425468,14,3
1092.174300917,1092.174425468,44,1
1092.174425468,1092.174436773,44,2
1092.172343275,1092.174448608,60,3
1090.314570970,1092.174448608,61,1
1092.171327202,1092.174467263,43,2
1089.450750304,1092.174467263,47,1
1092.171810680,1092.174503120,35,1
1092.171385972,1092.174503120,40,1
1092.174467263,1092.174514259,47,2
1089.450246685,1092.174514259,41,1
1089.582576538,1092.174545694,28,1
1089.446630934,1092.174545694,42,2
1092.174448608,1092.174570793,60,2
1092.174408389,1092.174570793,9,2
1092.174503120,1092.174577891,40,2
1092.174514259,1092.174577891,41,2
1092.174570793,1092.174595041,9,3
1092.174436773,1092.174595041,45,1
1092.174595041,1092.174598059,9,2
1092.174595041,1092.174598059,45,2
1092.174598059,1092.174599688,9,1
1092.174598059,1092.174599688,45,3
1092.174599688,1092.174610530,45,4
1092.174467263,1092.174610530,43,1
1092.174425468,1092.174615535,14,2
1092.174610530,1092.174644313,45,3
1092.174514259,1092.174644382,47,1
1092.174545694,1092.174645764,42,3
1092.174644313,1092.174690879,45,2
1092.174645764,1092.174690879,42,2
1092.174577891,1092.174718998,41,3
1092.172059854,1092.174738562,23,2
1092.174690879,1092.174738562,42,3
1092.174333380,1092.174785318,37,1
1092.174738562,1092.174785318,42,4
1089.447391906,1092.174785640,34,1
1092.174718998,1092.174801776,28,1
1089.446975732,1092.174801776,54,1
1092.174644382,1092.174830112,35,1
1092.174577891,1092.174831923,40,1
1086.984574829,1092.174831923,22,1
1092.171529108,1092.174834870,49,2
1092.174801776,1092.174834870,54,2
1092.174610530,1092.174886975,43,2
1092.172120924,1092.174913178,19,1
1089.446956644,1092.174916500,7,1
1092.174785318,1092.174934313,42,5
1092.174644313,1092.174934313,27,1
1092.172419615,1092.174938363,21,1
1092.174886975,1092.174938363,43,1
1092.171578222,1092.174939266,2,2
1089.450222172,1092.174939266,32,1
1092.174785640,1092.174954065,29,1
1092.171669407,1092.174954065,3,1
1092.174834870,1092.174954320,54,3
1089.428851372,1092.174954320,55,1
1092.174954065,1092.174969519,3,2
1092.172004121,1092.174969519,33,1
1092.174938363,1092.174996833,43,2
1092.174408389,1092.174996833,36,1
1092.174934313,1092.175011857,27,2
1092.172343275,1092.175036837,20,1
1087.138430634,1092.175063797,1,1
1092.174954320,1092.175063797,54,2
1092.174996833,1092.175066670,36,2
1092.174834870,1092.175066670,49,1
1092.174969519,1092.175067154,3,1
1092.174830112,1092.175067154,28,1
1092.174934313,1092.175085741,42,4
1092.175036837,1092.175085741,35,1
1092.174954320,1092.175086371,55,2
1092.171879407,1092.175086371,48,3
1092.175067154,1092.175090045,28,2
1092.175085741,1092.175097195,35,2
1092.175066670,1092.175098674,49,2
1092.175063797,1092.175106288,54,3
1092.174916500,1092.175131390,39,1
1092.175085741,1092.175131390,42,3
1092.175097195,1092.175169893,35,1
1092.175106288,1092.175169893,54,2
1092.174645764,1092.175174420,47,1
1092.175131390,1092.175179820,42,4
1092.175098674,1092.175193037,19,1
1092.175086371,1092.175199796,48,4
1092.175169893,1092.175199796,54,3
1092.175090045,1092.175199941,28,1
1092.175097195,1092.175205598,37,1
1092.175199941,1092.175205598,51,1
1089.606569834,1092.175248266,17,1
1092.175199796,1092.175276280,48,3
1092.174939266,1092.175306274,2,1
1090.58558172,1092.175306274,57,1
1092.174969519,1092.175330490,33,2
1092.172234296,1092.175338902,56,1
1092.174831923,1092.175344220,22,2
1092.171764027,1092.175395947,18,1
1092.174448608,1092.175408565,61,2
1092.174939266,1092.175431996,32,2
1092.175276280,1092.175431996,25,1
1090.574586512,1092.175437380,62,2
1092.175205598,1092.175440159,51,2
1092.175437380,1092.175440159,18,1
1092.175344220,1092.175457827,22,1
1092.175306274,1092.175459266,57,2
1092.175248266,1092.175459266,37,1
1092.172120924,1092.175484487,59,3
1092.175437380,1092.175484487,62,1
1092.175106288,1092.175485277,50,1
1092.175179820,1092.175485277,42,3
1092.175459266,1092.175512965,57,1
1089.482583933,1092.175517922,5,1
1092.175174420,1092.175523940,20,1
1092.175459266,1092.175541162,37,2
1092.175457827,1092.175602143,52,1
1087.344092824,1092.175602143,63,1
1092.175431996,1092.175606104,25,2
1092.175193037,1092.175628788,35,1
1092.175199796,1092.175634284,54,4
1092.175541162,1092.175634933,19,1
1092.175628788,1092.175653518,58,1
1092.174886975,1092.175653518,40,1
1092.175634284,1092.175665720,54,3
1092.175634933,1092.175685721,19,2
1092.174738562,1092.175685721,23,1
1092.175338902,1092.175687799,7,1
1092.175685721,1092.175692999,23,2
1092.175665720,1092.175692999,54,2
1092.175692999,1092.175744098,54,3
1092.175485277,1092.175825261,42,4
1092.175484487,1092.175825261,59,2
1092.175541162,1092.175834357,37,1
1092.175687799,1092.175834357,20,1
1092.175517922,1092.175851312,53,1
1092.175484487,1092.175851312,62,2
1092.175834357,1092.175864384,20,2
1092.175744098,1092.175879150,54,2
1092.175685721,1092.175879150,19,1
1092.175879150,1092.175906784,19,2
1092.175408565,1092.175906784,17,1
1092.175825261,1092.175917483,59,3
1092.175906784,1092.175919196,17,2
1092.175906784,1092.175919196,19,1
1092.175851312,1092.176003839,62,3
1092.174718998,1092.176052277,41,2
1092.175179820,1092.176052277,47,1
1092.175440159,1092.176053640,18,2
1092.175917483,1092.176053640,22,1
1092.176052277,1092.176132239,47,2
1092.176052277,1092.176132239,41,1
1092.176053640,1092.176233298,22,2
1089.449930728,1092.176233298,16,2
1092.175606104,1092.176264918,25,1
1092.176132239,1092.176354391,41,2
1092.175011857,1092.176354391,27,1
1092.176354391,1092.176383469,27,2
1092.175864384,1092.176383469,21,1
1092.175919196,1092.176558928,19,2
1092.175634284,1092.176558928,50,1
1092.175744098,1092.176580003,58,1
1092.176383469,1092.176580003,27,1
1092.176233298,1092.177066982,16,3
1092.175665720,1092.177066982,52,1
1092.176383469,1092.177369059,21,2
1092.176233298,1092.177369059,22,1
1092.177369059,1092.177444096,22,2
1092.177369059,1092.177444096,21,1
1092.177444096,1092.177489957,21,2
1092.176003839,1092.177489957,53,1
1092.176558928,1092.177537165,50,2
1092.176003839,1092.177537165,62,2
1092.176580003,1092.178050355,27,2
1092.177537165,1092.182902138,62,3
1092.174570793,1092.182902138,60,1
1092.177066982,1092.258841101,52,2
1092.175825261,1092.274780261,42,3
1092.176354391,1092.274780261,41,1
1092.177489957,1092.274803329,53,2
1092.175276280,1092.274803329,48,2
1092.175602143,1092.276078744,63,2
1092.274780261,1092.276078744,42,2
1092.175653518,1092.279895933,40,2
1092.276078744,1092.279895933,42,3
1092.182902138,1092.282758196,60,2
1092.175344220,1092.282758196,56,1
1092.279895933,1092.318972394,42,4
1092.279895933,1092.318972394,40,1
1092.258841101,1092.334751208,0,1
1092.173099691,1092.346710065,8,2
1092.274780261,1092.356089163,41,2
1089.447116414,1092.356089163,38,1
1092.318972394,1092.361173652,40,2
1092.356089163,1092.361173652,41,1
1092.274803329,1092.361844008,48,3
1092.334751208,1092.361844008,3,1
1092.282758196,1092.361866089,56,2
1092.318972394,1092.362605752,42,3
1092.175086371,1092.362605752,55,1
1092.361844008,1092.372319087,3,2
1092.346710065,1092.372319087,4,1
1092.362605752,1092.372395371,55,2
1092.175440159,1092.372395371,51,1
1092.356089163,1092.372544982,38,2
1092.175007895,1092.372544982,34,1
1092.372544982,1092.386732581,34,2
1092.361173652,1092.386974617,41,2
1092.174690879,1092.386974617,45,1
1092.372319087,1092.402697639,4,2
1092.361866089,1092.422699445,58,1
1092.372395371,1092.422719025,51,2
1092.386974617,1092.458710084,45,2
1092.172349629,1096.348236436,15,1
1092.174615535,1096.348236455,14,1
1092.175917483,1096.348248342,59,2
1092.173125911,1096.348303311,12,1
1092.173107011,1096.348337741,11,1
1089.421929990,1096.348337751,10,1
1092.173260345,1096.348339232,13,1
1092.174394235,1096.348411664,46,1
1092.422719025,1096.348434051,51,1
1092.346710065,1096.348456167,8,1
1092.458710084,1096.348489466,45,1
1092.362605752,1096.348519772,42,2
1092.176132239,1096.348535434,47,1
1092.402697639,1096.348544054,5,1
1092.361173652,1096.348590170,40,1
1092.175011857,1096.348636948,29,1
1092.174996833,1096.348644682,43,1
1092.171716432,1096.348649026,6,1
1092.174436773,1096.348653412,44,1
1092.178050355,1096.348713301,28,1
1092.177537165,1096.348724457,50,1
1089.606569834,1096.348732495,31,1
1089.599284730,1096.348809264,26,1
1092.175606104,1096.348859905,1,1
1092.372395371,1096.348872248,55,1
1092.372319087,1096.348907435,3,1
1092.176264918,1096.348941372,2,1
1092.402697639,1096.348954116,4,1
1092.258841101,1096.348986838,52,1
1092.174913178,1096.348996775,30,1
1092.386974617,1096.349005782,41,1
1092.178050355,1096.349054207,27,1
1092.175330490,1096.349057240,33,1
1092.386732581,1096.349109300,34,1
1092.175330490,1096.349165666,39,1
1092.458710084,1096.349185105,37,1
1092.422719025,1096.349197927,7,1
1092.175098674,1096.349235495,49,1
1092.175879150,1096.349249864,54,1
1092.176053640,1096.349255543,18,1
1092.274803329,1096.349260598,53,1
1092.175692999,1096.349320182,23,1
1092.182902138,1096.349328568,62,2
1092.175512965,1096.349378832,57,2
1092.177489957,1096.349432703,21,1
1092.282758196,1096.349434572,60,1
1092.386732581,1096.349446051,35,1
1092.175431996,1096.349473695,32,1
1092.372544982,1096.349475703,38,1
1092.177066982,1096.349535222,16,2
1092.175919196,1096.349535229,17,1
1092.176558928,1096.349536242,19,1
1092.177444096,1096.349551927,22,1
1092.175066670,1096.349564815,36,1
1092.175408565,1096.349583975,61,1
1092.361866089,1096.349713407,56,1
1092.175864384,1096.349753983,20,1
1092.276078744,1096.349757284,63,1
1092.361844008,1096.368474730,48,2
1096.349535222,1097.0,16,1
1096.348519772,1097.0,42,1
1096.368474730,1097.0,48,1
1096.349378832,1097.0,57,1
1096.348248342,1097.0,59,1
1096.349328568,1097.0,62,1
