Time,Comm,Pid,Orig,Dest,Trigger
991.227563800,perf,5779,11,29,ELB
991.228598318,time,5780,29,29,FLB
991.228705674,time,5780,29,44,ELB
991.230409649,linear_regression,5780,44,30,ELB
991.230409649,linear_regression,5780,44,30,ELB
991.231989925,linear_regressi,5780,30,0,CA
991.232630731,linear_regressi,5781,0,32,FLB
991.232645946,linear_regressi,5781,32,1,CA
991.232705938,linear_regressi,5782,0,53,FLB
991.232719120,linear_regressi,5782,53,2,CA
991.232788858,linear_regressi,5783,0,54,FLB
991.232953084,linear_regressi,5784,0,55,FLB
991.232960463,linear_regressi,5784,55,4,CA
991.233016994,linear_regressi,5785,0,48,FLB
991.233029440,linear_regressi,5785,48,5,CA
991.233082445,linear_regressi,5786,0,49,FLB
991.233089927,linear_regressi,5786,49,6,CA
991.233144504,linear_regressi,5787,0,50,FLB
991.233156079,linear_regressi,5787,50,7,CA
991.233209893,linear_regressi,5788,0,51,FLB
991.233217306,linear_regressi,5788,51,8,CA
991.233271980,linear_regressi,5789,0,31,FLB
991.233284038,linear_regressi,5789,31,9,CA
991.233330453,linear_regressi,5790,0,24,FLB
991.233342849,linear_regressi,5790,24,10,CA
991.233392545,linear_regressi,5791,0,25,FLB
991.233400166,linear_regressi,5791,25,11,CA
991.233446534,linear_regressi,5792,0,26,FLB
991.233459601,linear_regressi,5792,26,12,CA
991.233512589,linear_regressi,5793,0,27,FLB
991.233520339,linear_regressi,5793,27,13,CA
991.233567542,linear_regressi,5794,0,28,FLB
991.233579884,linear_regressi,5794,28,14,CA
991.233632796,linear_regressi,5795,0,29,FLB
991.233640951,linear_regressi,5795,29,15,CA
991.233686701,linear_regressi,5796,0,30,FLB
991.233694060,linear_regressi,5796,30,16,CA
991.233743180,linear_regressi,5797,0,31,FLB
991.233750019,linear_regressi,5797,31,17,CA
991.233794546,linear_regressi,5798,0,24,FLB
991.233800928,linear_regressi,5798,24,18,CA
991.233849224,linear_regressi,5799,0,25,FLB
991.233855775,linear_regressi,5799,25,19,CA
991.233902977,linear_regressi,5800,0,26,FLB
991.233910345,linear_regressi,5800,26,20,CA
991.233963690,linear_regressi,5801,0,27,FLB
991.233970839,linear_regressi,5801,27,21,CA
991.234015309,linear_regressi,5802,0,28,FLB
991.234021868,linear_regressi,5802,28,22,CA
991.234070838,linear_regressi,5803,0,29,FLB
991.234077574,linear_regressi,5803,29,23,CA
991.234122350,linear_regressi,5804,0,30,FLB
991.234129041,linear_regressi,5804,30,24,CA
991.234173105,linear_regressi,5805,0,33,FLB
991.234184806,linear_regressi,5805,33,25,CA
991.234232424,linear_regressi,5806,0,34,FLB
991.234245215,linear_regressi,5806,34,26,CA
991.234291861,linear_regressi,5807,0,35,FLB
991.234299054,linear_regressi,5807,35,27,CA
991.234350721,linear_regressi,5808,0,36,FLB
991.234363461,linear_regressi,5808,36,28,CA
991.234407988,linear_regressi,5809,0,37,FLB
991.234415345,linear_regressi,5809,37,29,CA
991.234461595,linear_regressi,5810,0,38,FLB
991.234474337,linear_regressi,5810,38,30,CA
991.234519774,linear_regressi,5811,0,39,FLB
991.234526852,linear_regressi,5811,39,31,CA
991.234573909,linear_regressi,5812,0,32,FLB
991.234630639,linear_regressi,5813,0,52,FLB
991.234638720,linear_regressi,5813,52,33,CA
991.234690360,linear_regressi,5814,0,53,FLB
991.234697624,linear_regressi,5814,53,34,CA
991.234746223,linear_regressi,5815,0,55,FLB
991.234754060,linear_regressi,5815,55,35,CA
991.234804089,linear_regressi,5816,0,48,FLB
991.234811893,linear_regressi,5816,48,36,CA
991.234860960,linear_regressi,5817,0,49,FLB
991.234867846,linear_regressi,5817,49,37,CA
991.234915416,linear_regressi,5818,0,50,FLB
991.234923201,linear_regressi,5818,50,38,CA
991.234970262,linear_regressi,5819,0,51,FLB
991.234977178,linear_regressi,5819,51,39,CA
991.235028586,linear_regressi,5820,0,52,FLB
991.235035575,linear_regressi,5820,52,40,CA
991.235092139,linear_regressi,5821,0,53,FLB
991.235098959,linear_regressi,5821,53,41,CA
991.235152036,linear_regressi,5822,0,55,FLB
991.235159042,linear_regressi,5822,55,42,CA
991.235217301,linear_regressi,5823,0,48,FLB
991.235224524,linear_regressi,5823,48,43,CA
991.235275832,linear_regressi,5824,0,49,FLB
991.235282772,linear_regressi,5824,49,44,CA
991.235337307,linear_regressi,5825,0,50,FLB
991.235345819,linear_regressi,5825,50,45,CA
991.235400587,linear_regressi,5826,0,51,FLB
991.235407311,linear_regressi,5826,51,46,CA
991.235462639,linear_regressi,5827,0,52,FLB
991.235469220,linear_regressi,5827,52,47,CA
991.235521246,linear_regressi,5828,0,53,FLB
991.235528327,linear_regressi,5828,53,48,CA
991.235577256,linear_regressi,5829,0,49,FLB
991.235634201,linear_regressi,5830,0,50,FLB
991.235693576,linear_regressi,5831,0,51,FLB
991.235752793,linear_regressi,5832,0,52,FLB
991.235809589,linear_regressi,5833,0,53,FLB
991.235866390,linear_regressi,5834,0,55,FLB
991.235872236,linear_regressi,5834,55,54,CA
991.235921561,linear_regressi,5835,0,55,FLB
991.235979958,linear_regressi,5836,0,48,FLB
991.235987010,linear_regressi,5836,48,56,CA
991.236036773,linear_regressi,5837,0,24,FLB
991.236044661,linear_regressi,5837,24,57,CA
991.236094123,linear_regressi,5838,0,25,FLB
991.236101647,linear_regressi,5838,25,58,CA
991.236155183,linear_regressi,5839,0,26,FLB
991.236162987,linear_regressi,5839,26,59,CA
991.236207473,linear_regressi,5840,0,27,FLB
991.236214926,linear_regressi,5840,27,60,CA
991.236266329,linear_regressi,5841,0,28,FLB
991.236274165,linear_regressi,5841,28,61,CA
991.236323133,linear_regressi,5842,0,29,FLB
991.236330549,linear_regressi,5842,29,62,CA
991.236380447,linear_regressi,5843,0,30,FLB
991.236388298,linear_regressi,5843,30,63,CA
991.236435390,linear_regressi,5844,0,31,FLB
991.236442305,linear_regressi,5844,31,0,CA
991.236801828,kworker/u135:2,3086,48,51,WAFF
991.236802748,linear_regressi,5844,0,2,NLB
991.255192437,linear_regressi,5783,54,3,WAFF
991.255685722,linear_regressi,5804,24,3,WAFF
991.257138389,linear_regressi,5783,3,11,WAFF
991.257553918,linear_regressi,5791,11,10,WAFF
991.273152583,linear_regressi,5791,10,14,WAFF
991.275118731,linear_regressi,5791,14,15,ILB
991.282817242,linear_regressi,5795,15,9,ILB
991.285392153,linear_regressi,5789,9,11,ILB
991.288884053,linear_regressi,5783,11,13,ILB
991.297731920,linear_regressi,5783,13,10,ILB
991.309796627,linear_regressi,5783,10,9,ILB
991.314362712,linear_regressi,5783,9,12,ILB
991.322439369,linear_regressi,5783,12,15,ILB
991.325250179,linear_regressi,5791,15,12,ILB
991.328925550,linear_regressi,5792,12,8,ILB
991.332867284,linear_regressi,5792,8,11,ILB
991.337445178,linear_regressi,5789,11,17,ILB
991.340825015,rcu_sched,8,52,4,WAFF
991.341034784,linear_regressi,5797,17,22,ILB
991.345732472,linear_regressi,5797,22,17,ILB
991.349194294,linear_regressi,5789,17,44,ILB
991.353164045,linear_regressi,5824,44,27,ILB
991.353188375,linear_regressi,5807,27,24,WAFF
991.727641661,time,5779,29,0,WAFF
991.727870721,perf,5778,12,0,WAFF
