Start,End,Cpu,Size
1020.788990106,1020.790635787,50,1
1020.791291420,1020.791312846,51,1
1020.791374820,1020.791387358,52,1
1020.791457048,1020.791464082,53,1
1020.791518675,1020.791530536,54,1
1020.791586274,1020.791593308,55,1
1020.791645706,1020.791657597,48,1
1020.791712523,1020.791719731,49,1
1020.791774803,1020.791782869,50,1
1020.791833968,1020.791846422,25,1
1020.791898075,1020.791910552,26,1
1020.791960371,1020.791968201,27,1
1020.792011984,1020.792025121,28,1
1020.792074984,1020.792082996,29,1
1020.792130922,1020.792137164,30,1
1020.792188060,1020.792195744,24,1
1020.792244072,1020.792251583,25,1
1020.792301327,1020.792308105,26,1
1020.792352941,1020.792359757,27,1
1020.792407218,1020.792413941,28,1
1020.792461115,1020.792468426,29,1
1020.792520319,1020.792528197,30,1
1020.792573787,1020.792580520,24,1
1020.792629526,1020.792636498,25,1
1020.792682635,1020.792689812,26,1
1020.792733679,1020.792746048,34,1
1020.792791262,1020.792798428,35,1
1020.792841719,1020.792854305,36,1
1020.792903038,1020.792910265,37,1
1020.792954044,1020.792966636,38,1
1020.793014865,1020.793021997,39,1
1020.793068024,1020.793080723,32,1
1020.793131543,1020.793138721,33,1
1020.793191912,1020.793197687,51,1
1020.793257782,1020.793265695,52,1
1020.793315362,1020.793322353,53,1
1020.793372790,1020.793380737,54,1
1020.793429229,1020.793435903,55,1
1020.793484452,1020.793492406,48,1
1020.793539243,1020.793546551,49,1
1020.793597860,1020.793605727,50,1
1020.793661103,1020.793670243,51,1
1020.793721742,1020.793728676,52,1
1020.793786003,1020.793793176,53,1
1020.793842092,1020.793850304,54,1
1020.793904530,1020.793912866,55,1
1020.793966559,1020.793974113,48,1
1020.794027873,1020.794034568,49,1
1020.794085677,1020.794092284,50,1
1020.794092284,1020.794553655,48,1
1020.794553655,1020.794560952,48,2
1020.792689812,1020.794612513,24,1
1020.794612513,1020.794620734,24,2
1020.792746048,1020.794671297,25,1
1020.794671297,1020.794678979,25,2
1020.792854305,1020.794729892,27,1
1020.794729892,1020.794737714,27,2
1020.792910265,1020.794782936,28,1
1020.794782936,1020.794790701,28,2
1020.792966636,1020.794841404,29,1
1020.794841404,1020.794849001,29,2
1020.793021997,1020.794897160,30,1
1020.794897160,1020.794904964,30,2
1020.793080723,1020.794959470,31,1
1020.794959470,1020.794967609,31,2
1020.794620734,1020.795017362,24,1
1020.795017362,1020.795024490,24,2
1020.790635787,1020.795024490,0,1
1020.795024490,1020.802541013,0,2
1020.791464082,1020.802541013,3,1
1020.794560952,1021.58568096,48,1
1020.794139427,1021.58568096,49,1
1021.58568096,1021.58705991,49,2
1020.794253083,1021.58705991,51,1
1021.58705991,1021.71536444,51,2
1020.794361722,1021.71536444,53,1
1021.71536444,1021.74138117,53,2
1020.794418715,1021.74138117,54,1
1021.74138117,1021.74157204,54,2
1020.791312846,1022.674039993,1,1
1020.802541013,1022.674049717,3,2
1020.791387358,1022.674049725,2,1
1020.791782869,1022.674060976,8,1
1020.791846422,1022.674382264,9,1
1022.674049717,1022.674490815,3,1
1020.793322353,1022.674495726,35,1
1020.791530536,1022.674537841,4,1
1020.791719731,1022.674601936,7,1
1020.791657597,1022.674601943,6,1
1020.791910552,1022.674667809,10,1
1020.792137164,1022.674713047,14,1
1020.792025121,1022.674754368,12,1
1020.792082996,1022.830834860,13,1
1020.792195744,1022.830888283,15,1
1020.792308105,1022.830946597,17,1
1020.792251583,1022.830973405,16,1
1020.791968201,1022.831276140,11,1
1020.792528197,1022.831284974,21,1
1020.791593308,1022.831293570,5,1
1020.793265695,1022.831294004,34,1
1020.792413941,1022.831295945,19,1
1020.792359757,1022.831295953,18,1
1020.792636498,1022.831300499,23,1
1020.792580520,1022.831300514,22,1
1020.793138721,1022.831314527,32,1
1020.793197687,1022.831314537,33,1
1020.793380737,1022.831314968,36,1
1020.793435903,1022.831314992,37,1
1020.793492406,1022.831320469,38,1
1020.793546551,1022.831320492,39,1
1020.795024490,1022.831321099,24,1
1020.794678979,1022.831321110,25,1
1020.794737714,1022.831325335,27,1
1020.792798428,1022.831325347,26,1
1021.58705991,1022.831331380,49,1
1021.74157204,1022.831331392,48,1
1020.794849001,1022.831331460,29,1
1020.794790701,1022.831331469,28,1
1020.792468426,1022.831333198,20,1
1020.794967609,1022.831336307,31,1
1020.794904964,1022.831336319,30,1
1020.793728676,1022.831341090,42,1
1020.793793176,1022.831341103,43,1
1021.74157204,1022.831342117,54,1
1020.794470385,1022.831342124,55,1
1020.793605727,1022.831343347,40,1
1020.793670243,1022.831343359,41,1
1020.794196616,1022.831345964,50,1
1021.71536444,1022.831345978,51,1
1020.794313780,1022.831348536,52,1
1021.74138117,1022.831348562,53,1
1020.793912866,1022.831350159,45,1
1020.793850304,1022.831350167,44,1
1020.793974113,1022.831350351,46,1
1020.794034568,1022.831350359,47,1
1020.794560952,1022.831354300,56,1
1020.794620734,1022.831354308,57,1
1020.794678979,1022.831355600,58,1
1020.794737714,1022.831355609,59,1
1020.794904964,1022.831355878,62,1
1020.794967609,1022.831355888,63,1
1020.794849001,1022.831356499,61,1
1020.794790701,1022.831356510,60,1
1020.802541013,1022.835323741,0,1
