Start,End,Cpu,Size
1763.829496456,1763.831433211,48,1
1763.829775219,1763.831560230,13,1
1763.829635922,1763.831606013,24,1
1763.829544388,1763.831652202,1,1
1763.829682509,1763.831698219,43,1
1763.831698219,1763.831723234,43,2
1763.831476475,1763.831723234,41,1
1763.831723234,1763.831732224,41,2
1763.829734032,1763.831764771,49,1
1763.831433211,1763.832050419,48,2
1763.830474006,1763.832050419,51,1
1763.831764771,1763.832065496,49,2
1763.832050419,1763.832065496,51,2
1763.831560230,1763.832106594,13,2
1763.830518111,1763.832106594,8,1
1763.831652202,1763.832186279,1,2
1763.831383508,1763.832186279,0,1
1763.831606013,1763.833848398,24,2
1763.829361164,1763.834064114,31,1
1763.832065496,1763.834289471,51,3
1763.833848398,1763.834289471,23,1
1763.834289471,1763.834291409,51,2
1763.834289471,1763.834291409,23,2
1763.832106594,1763.834303005,8,2
1763.831732224,1763.834303005,12,1
1763.832186279,1763.834886618,0,2
1763.834291409,1763.834886618,23,3
1763.834886618,1763.834927343,23,4
1763.834303005,1763.834927343,12,2
1763.834927343,1763.836859584,12,3
1763.834064114,1763.836859584,31,2
1763.836859584,1763.836962745,12,2
1763.830760934,1763.836962745,9,1
1763.836859584,1763.836992073,31,3
1763.836962745,1763.836992073,9,2
1763.834927343,1763.845815756,23,3
1763.829879994,1763.849855517,53,1
1763.849855517,1763.850215658,53,2
1763.830219601,1763.850215658,50,1
1763.845815756,1763.850516666,23,2
1763.831732224,1763.850516666,41,1
1763.836962745,1763.852075570,12,1
1763.832106594,1763.852075570,13,1
1763.836992073,1763.852179399,9,3
1763.850215658,1763.852578356,50,2
1763.832065496,1763.852578356,49,1
1763.850516666,1763.852872087,41,2
1763.830610940,1763.852872087,46,1
1763.852179399,1763.852891323,9,2
1763.852075570,1763.852891323,13,2
1763.829589506,1763.852976898,2,1
1763.852976898,1763.853082851,2,2
1763.830660501,1763.853082851,5,1
1763.852891323,1763.853814020,13,3
1763.852179399,1763.853814020,12,1
1763.852578356,1763.854035034,49,2
1763.845815756,1763.854035034,17,1
1763.852872087,1763.854094723,46,2
1763.834303005,1763.854094723,8,1
1763.853814020,1763.854301823,13,2
1763.854035034,1763.854301823,17,2
1763.853814020,1763.854354494,12,2
1763.852891323,1763.854354494,9,1
1763.854301823,1763.854358106,17,3
1763.854358106,1763.854371827,17,2
1763.836992073,1763.854417746,31,2
1763.854371827,1763.854417746,17,1
1763.853082851,1763.855185458,5,2
1763.854371827,1763.855185458,19,1
1763.855185458,1763.857640264,19,2
1763.854354494,1763.857649647,9,2
1763.831269233,1763.857649647,11,1
1763.857649647,1763.857653189,11,2
1763.854301823,1763.857653189,13,1
1763.857653189,1763.857696481,13,2
1763.854094723,1763.857696481,8,2
1763.854417746,1763.857708291,17,2
1763.857696481,1763.857941576,8,3
1763.830567175,1763.857941576,27,1
1763.857941576,1763.857945830,8,2
1763.857941576,1763.857945830,27,2
1763.857945830,1763.858360404,27,3
1763.857783434,1763.858360404,35,1
1763.858360404,1763.858407719,35,2
1763.858360404,1763.858740916,27,2
1763.854417746,1763.858740916,31,1
1763.858740916,1763.858795592,31,2
1763.857708291,1763.858795592,17,1
1763.858795592,1763.858809110,17,2
1763.832050419,1763.859359263,48,1
1763.858809110,1763.859402861,22,1
1763.859063432,1763.859446163,32,1
1763.859446163,1763.859470439,32,2
1763.858407719,1763.859470439,36,1
1763.832186279,1763.859514411,1,1
1763.859514411,1763.859871281,1,2
1763.854358106,1763.859871281,18,1
1763.859359263,1763.860198768,48,2
1763.831223872,1763.860198768,55,1
1763.859402861,1763.860409124,22,2
1763.850516666,1763.860409124,23,1
1763.859871281,1763.860419809,18,2
1763.857708291,1763.860419809,21,1
1763.860409124,1763.860425506,23,2
1763.859209403,1763.860425506,16,1
1763.860198768,1763.861899657,55,2
1763.860198768,1763.861899657,48,1
1763.860419809,1763.861990430,21,2
1763.860419809,1763.861990430,18,1
1763.861899657,1763.862015612,48,2
1763.857640264,1763.862015612,19,1
1763.862015612,1763.862028500,19,2
1763.857640264,1763.862028500,20,1
1763.859470439,1763.862057072,36,2
1763.858780320,1763.862057072,37,1
1763.854035034,1763.862106728,49,1
1763.862106728,1763.862876961,49,2
1763.831106222,1763.862876961,7,1
1763.862028500,1763.863049809,20,2
1763.858809110,1763.863049809,17,1
1763.862057072,1763.863058980,37,2
1763.860409124,1763.863058980,22,1
1763.861990430,1763.865367074,18,2
1763.862028500,1763.865367074,19,1
1763.860425506,1763.865383971,16,2
1763.863049809,1763.865383971,17,2
1763.865383971,1763.865387274,17,3
1763.863049809,1763.865387274,20,1
1763.854354494,1763.865404952,12,1
1763.830161645,1763.865404952,14,1
1763.865387274,1763.865851090,20,2
1763.834291409,1763.865851090,51,1
1763.862876961,1763.866003194,7,2
1763.858740916,1763.866003194,27,1
1763.865404952,1763.866106794,14,2
1763.830110352,1763.866106794,44,1
1763.865387274,1763.866423574,17,2
1763.830429405,1763.866423574,45,1
1763.865367074,1763.866504004,19,2
1763.858911777,1763.866504004,38,1
1763.863058980,1763.866521194,22,2
1763.866504004,1763.866521194,38,2
1763.865851090,1763.866679364,51,2
1763.830058615,1763.866679364,3,1
1763.866521194,1763.868372511,38,3
1763.858969074,1763.868372511,39,1
1763.866423574,1763.868609626,45,2
1763.868573163,1763.868609626,61,1
1763.866679364,1763.869041060,3,2
1763.865480405,1763.869041060,60,1
1763.868372511,1763.869935191,38,2
1763.833848398,1763.869935191,24,1
1763.866106794,1763.870547603,44,2
1763.831723234,1763.870547603,43,1
1763.868609626,1763.877813085,61,2
1763.869041060,1763.877824222,60,2
1763.866003194,1763.989804849,27,2
1763.870547603,1764.069807276,43,2
1763.869935191,1764.149798638,24,2
1763.872088990,1764.225232329,62,1
1763.857649647,1764.369970194,9,1
1763.877813085,1764.548241223,57,1
1763.859123274,1764.585273908,33,1
1763.989804849,1764.641738859,56,1
1763.859470439,1764.647694952,32,1
1763.868372511,1764.701376970,39,2
1763.829408705,1764.701376970,42,1
1764.701376970,1764.701401977,42,2
1763.877824222,1764.743508844,60,1
1764.701376970,1764.937720016,39,1
1763.865383971,1764.976048325,16,1
1763.862015612,1765.065707713,48,1
1764.641738859,1765.148124586,57,1
1764.149798638,1765.275296381,24,1
1763.869935191,1765.298323483,38,1
1763.859255809,1765.304398060,34,1
1763.866423574,1765.355261819,17,1
1763.859871281,1765.404646423,1,1
1763.866521194,1765.475102197,22,1
1763.866504004,1765.490793322,19,1
1763.861990430,1765.641637925,21,1
1763.853082851,1765.642343007,2,1
1763.863058980,1765.710630914,37,1
1763.862057072,1765.745662017,36,1
1765.065707713,1765.813768191,60,1
1763.857945830,1765.820630745,8,1
1763.860425506,1765.883111894,23,1
1764.149798638,1765.975931891,63,1
1763.865367074,1766.042271509,18,1
1764.069807276,1766.097361667,43,1
1763.857653189,1766.117885395,11,1
1763.850215658,1766.240023645,53,1
1763.866679364,1766.248758199,51,1
1763.870547603,1766.291436076,44,1
1763.852872087,1766.299886073,41,1
1763.866106794,1766.358804409,14,1
1763.830958471,1766.389916457,54,1
1763.831009917,1766.398724337,10,1
1763.852578356,1766.419709089,50,1
1763.855185458,1766.471825707,5,1
1763.831321011,1766.481603688,30,1
1763.858795592,1766.489726072,31,1
1763.830264979,1766.644147555,15,1
1764.069807276,1766.647790601,59,1
1763.830011148,1766.652563741,25,1
1763.831061457,1766.652637561,29,1
1764.701401977,1766.652637561,42,1
1763.858407719,1766.694726381,35,1
1763.877824222,1766.716071546,58,1
1763.869041060,1766.739028116,3,1
1763.877813085,1766.776140203,61,1
1763.989804849,1766.845870071,27,1
1763.868609626,1767.071105260,45,1
1763.857696481,1767.114411526,13,1
1763.830379756,1767.185305597,4,1
1763.866003194,1767.209632161,7,1
1763.831155948,1767.296182806,40,1
1766.652637561,1767.410566387,42,2
1763.834886618,1768.000000000,0,1
1763.830855711,1768.000000000,6,1
1763.865851090,1768.000000000,20,1
1763.830331229,1768.000000000,26,1
1763.830808234,1768.000000000,28,1
1767.410566387,1768.000000000,42,1
1763.854094723,1768.000000000,46,1
1763.830908813,1768.000000000,47,1
1763.862876961,1768.000000000,49,1
1763.830710910,1768.000000000,52,1
1763.861899657,1768.000000000,55,1
