Time,Comm,Pid,Orig,Dest,Trigger
1343.723513844,perf,9402,34,30,ELB
1343.724545592,time,9403,30,36,FLB
1343.724691615,word_count-pthr,9403,36,31,ELB
1343.724691615,word_count-pthr,9403,36,31,ELB
1343.725494029,word_count-pthr,9404,31,37,FLB
1343.725494029,word_count-pthr,9404,31,37,FLB
1343.725561514,word_count-pthr,9405,31,60,FLB
1343.725561514,word_count-pthr,9405,31,60,FLB
1343.725691401,word_count-pthr,9406,31,10,FLB
1343.725691401,word_count-pthr,9406,31,10,FLB
1343.725794243,word_count-pthr,9407,31,19,FLB
1343.725794243,word_count-pthr,9407,31,19,FLB
1343.725906706,word_count-pthr,9408,31,1,FLB
1343.725906706,word_count-pthr,9408,31,1,FLB
1343.726012527,word_count-pthr,9409,31,50,FLB
1343.726012527,word_count-pthr,9409,31,50,FLB
1343.726141410,word_count-pthr,9410,31,43,FLB
1343.726141410,word_count-pthr,9410,31,43,FLB
1343.726247340,word_count-pthr,9411,31,2,FLB
1343.726247340,word_count-pthr,9411,31,2,FLB
1343.726354975,word_count-pthr,9412,31,38,FLB
1343.726354975,word_count-pthr,9412,31,38,FLB
1343.726458297,word_count-pthr,9413,31,51,FLB
1343.726458297,word_count-pthr,9413,31,51,FLB
1343.726572844,word_count-pthr,9414,31,11,FLB
1343.726572844,word_count-pthr,9414,31,11,FLB
1343.726662532,word_count-pthr,9415,31,44,FLB
1343.726662532,word_count-pthr,9415,31,44,FLB
1343.726769112,word_count-pthr,9416,31,30,FLB
1343.726769112,word_count-pthr,9416,31,30,FLB
1343.726861716,word_count-pthr,9417,31,39,FLB
1343.726861716,word_count-pthr,9417,31,39,FLB
1343.726996290,word_count-pthr,9418,31,61,FLB
1343.726996290,word_count-pthr,9418,31,61,FLB
1343.727097327,word_count-pthr,9419,31,12,FLB
1343.727097327,word_count-pthr,9419,31,12,FLB
1343.727199907,word_count-pthr,9420,31,45,FLB
1343.727199907,word_count-pthr,9420,31,45,FLB
1343.727315961,word_count-pthr,9421,31,3,FLB
1343.727315961,word_count-pthr,9421,31,3,FLB
1343.727446706,word_count-pthr,9422,31,52,FLB
1343.727446706,word_count-pthr,9422,31,52,FLB
1343.727618064,word_count-pthr,9423,31,13,FLB
1343.727618064,word_count-pthr,9423,31,13,FLB
1343.727765402,word_count-pthr,9424,31,46,FLB
1343.727765402,word_count-pthr,9424,31,46,FLB
1343.727923207,word_count-pthr,9425,31,62,FLB
1343.727923207,word_count-pthr,9425,31,62,FLB
1343.728043617,word_count-pthr,9426,31,4,FLB
1343.728043617,word_count-pthr,9426,31,4,FLB
1343.728166628,word_count-pthr,9427,31,32,FLB
1343.728166628,word_count-pthr,9427,31,32,FLB
1343.728348559,word_count-pthr,9428,31,14,FLB
1343.728348559,word_count-pthr,9428,31,14,FLB
1343.728537192,word_count-pthr,9429,31,47,FLB
1343.728537192,word_count-pthr,9429,31,47,FLB
1343.728670297,word_count-pthr,9430,31,20,FLB
1343.728670297,word_count-pthr,9430,31,20,FLB
1343.728853558,word_count-pthr,9431,31,63,FLB
1343.728853558,word_count-pthr,9431,31,63,FLB
1343.729028653,word_count-pthr,9432,31,40,FLB
1343.729028653,word_count-pthr,9432,31,40,FLB
1343.729207730,word_count-pthr,9433,31,5,FLB
1343.729207730,word_count-pthr,9433,31,5,FLB
1343.729476230,word_count-pthr,9434,31,53,FLB
1343.729476230,word_count-pthr,9434,31,53,FLB
1343.729677237,word_count-pthr,9435,31,33,FLB
1343.729677237,word_count-pthr,9435,31,33,FLB
1343.729880251,word_count-pthr,9436,31,56,FLB
1343.729880251,word_count-pthr,9436,31,56,FLB
1343.730090753,word_count-pthr,9437,31,6,FLB
1343.730090753,word_count-pthr,9437,31,6,FLB
1343.730302254,word_count-pthr,9438,31,15,FLB
1343.730302254,word_count-pthr,9438,31,15,FLB
1343.730510850,word_count-pthr,9439,31,21,FLB
1343.730510850,word_count-pthr,9439,31,21,FLB
1343.730644066,word_count-pthr,9440,31,42,FLB
1343.730644066,word_count-pthr,9440,31,42,FLB
1343.730837346,word_count-pthr,9441,31,24,FLB
1343.730837346,word_count-pthr,9441,31,24,FLB
1343.730981042,word_count-pthr,9442,31,35,FLB
1343.730981042,word_count-pthr,9442,31,35,FLB
1343.731188900,word_count-pthr,9443,31,22,FLB
1343.731188900,word_count-pthr,9443,31,22,FLB
1343.731386015,word_count-pthr,9444,31,54,FLB
1343.731386015,word_count-pthr,9444,31,54,FLB
1343.731600067,word_count-pthr,9445,31,57,FLB
1343.731600067,word_count-pthr,9445,31,57,FLB
1343.731809971,word_count-pthr,9446,31,8,FLB
1343.731809971,word_count-pthr,9446,31,8,FLB
1343.732003803,word_count-pthr,9447,31,25,FLB
1343.732003803,word_count-pthr,9447,31,25,FLB
1343.732233325,word_count-pthr,9448,31,7,FLB
1343.732233325,word_count-pthr,9448,31,7,FLB
1343.732467747,word_count-pthr,9449,31,41,FLB
1343.732467747,word_count-pthr,9449,31,41,FLB
1343.732662754,word_count-pthr,9450,31,36,FLB
1343.732662754,word_count-pthr,9450,31,36,FLB
1343.732860859,word_count-pthr,9451,31,58,FLB
1343.732860859,word_count-pthr,9451,31,58,FLB
1343.733041871,word_count-pthr,9452,31,23,FLB
1343.733041871,word_count-pthr,9452,31,23,FLB
1343.733341476,word_count-pthr,9453,31,9,FLB
1343.733341476,word_count-pthr,9453,31,9,FLB
1343.733566544,word_count-pthr,9454,31,26,FLB
1343.733566544,word_count-pthr,9454,31,26,FLB
1343.733812474,word_count-pthr,9455,31,55,FLB
1343.733812474,word_count-pthr,9455,31,55,FLB
1343.734062107,word_count-pthr,9456,31,16,FLB
1343.734062107,word_count-pthr,9456,31,16,FLB
1343.734305383,word_count-pthr,9457,31,40,FLB
1343.734305383,word_count-pthr,9457,31,40,FLB
1343.735300672,word_count-pthr,9432,40,31,WAFF
1343.735300672,word_count-pthr,9432,40,31,WAFF
1343.739013496,word_count-pthr,9403,31,58,ILB
1343.739013496,word_count-pthr,9403,31,58,ILB
1343.739039020,word_count-pthr,9451,58,59,WLB
1343.739039020,word_count-pthr,9451,58,59,WLB
1343.739076210,word_count-pthr,9458,58,63,FLB
1343.739076210,word_count-pthr,9458,58,63,FLB
1343.739118135,word_count-pthr,9458,63,58,ILB
1343.739118135,word_count-pthr,9458,63,58,ILB
1343.739198645,word_count-pthr,9458,58,57,WAFF
1343.739198645,word_count-pthr,9458,58,57,WAFF
1343.739494953,word_count-pthr,9459,58,48,FLB
1343.739494953,word_count-pthr,9459,58,48,FLB
1343.740211572,word_count-pthr,9445,57,58,WAFF
1343.740211572,word_count-pthr,9445,57,58,WAFF
1343.740287221,word_count-pthr,9403,58,17,WAFF
1343.740287221,word_count-pthr,9403,58,17,WAFF
1343.740525271,word_count-pthr,9460,17,0,FLB
1343.740525271,word_count-pthr,9460,17,0,FLB
1343.740736826,word_count-pthr,9461,17,34,FLB
1343.740736826,word_count-pthr,9461,17,34,FLB
1343.740864595,word_count-pthr,9462,17,5,FLB
1343.740864595,word_count-pthr,9462,17,5,FLB
1343.740941641,word_count-pthr,9463,17,27,FLB
1343.740941641,word_count-pthr,9463,17,27,FLB
1343.741041603,word_count-pthr,9462,5,0,ILB
1343.741041603,word_count-pthr,9462,5,0,ILB
1343.741052567,word_count-pthr,9460,0,17,WAFF
1343.741052567,word_count-pthr,9460,0,17,WAFF
1343.741093101,word_count-pthr,9464,17,5,FLB
1343.741093101,word_count-pthr,9464,17,5,FLB
1343.741275692,word_count-pthr,9465,17,49,FLB
1343.741275692,word_count-pthr,9465,17,49,FLB
1343.741390041,word_count-pthr,9464,5,6,ILB
1343.741390041,word_count-pthr,9464,5,6,ILB
1343.741473346,word_count-pthr,9403,17,18,WAFF
1343.741473346,word_count-pthr,9403,17,18,WAFF
1343.741708647,word_count-pthr,9466,18,32,FLB
1343.741708647,word_count-pthr,9466,18,32,FLB
1343.741841822,word_count-pthr,9466,32,7,ILB
1343.741841822,word_count-pthr,9466,32,7,ILB
1343.741925144,word_count-pthr,9466,7,4,WAFF
1343.741925144,word_count-pthr,9466,7,4,WAFF
1343.741964908,word_count-pthr,9467,18,32,FLB
1343.741964908,word_count-pthr,9467,18,32,FLB
1343.742547039,word_count-pthr,9467,32,22,ILB
1343.742547039,word_count-pthr,9467,32,22,ILB
1343.742597414,word_count-pthr,9466,4,6,ILB
1343.742597414,word_count-pthr,9466,4,6,ILB
1343.742712135,word_count-pthr,9464,6,14,WAFF
1343.742712135,word_count-pthr,9464,6,14,WAFF
1343.745332127,word_count-pthr,9467,22,6,ILB
1343.745332127,word_count-pthr,9467,22,6,ILB
1343.745576149,word_count-pthr,9464,14,9,ILB
1343.745576149,word_count-pthr,9464,14,9,ILB
1343.745775896,word_count-pthr,9467,6,4,WAFF
1343.745775896,word_count-pthr,9467,6,4,WAFF
1343.746532096,word_count-pthr,9426,4,32,WAFF
1343.746532096,word_count-pthr,9426,4,32,WAFF
1343.749738063,word_count-pthr,9466,6,7,WAFF
1343.749738063,word_count-pthr,9466,6,7,WAFF
1343.749742329,word_count-pthr,9427,32,36,WAFF
1343.749742329,word_count-pthr,9427,32,36,WAFF
1343.749756735,word_count-pthr,9453,9,12,WAFF
1343.749756735,word_count-pthr,9453,9,12,WAFF
1343.750852730,word_count-pthr,9453,12,15,WAFF
1343.750852730,word_count-pthr,9453,12,15,WAFF
1343.751479875,word_count-pthr,9450,36,43,ILB
1343.751479875,word_count-pthr,9450,36,43,ILB
1343.751490636,word_count-pthr,9410,43,45,WAFF
1343.751490636,word_count-pthr,9410,43,45,WAFF
1343.751570917,word_count-pthr,9420,45,47,WAFF
1343.751570917,word_count-pthr,9420,45,47,WAFF
1343.751649562,word_count-pthr,9448,7,5,WAFF
1343.751649562,word_count-pthr,9448,7,5,WAFF
1343.756241494,word_count-pthr,9453,15,8,WAFF
1343.756241494,word_count-pthr,9453,15,8,WAFF
1343.756280939,word_count-pthr,9433,5,8,ILB
1343.756280939,word_count-pthr,9433,5,8,ILB
1343.760222858,word_count-pthr,9446,8,9,ILB
1343.760222858,word_count-pthr,9446,8,9,ILB
1343.760344403,word_count-pthr,9433,8,62,WAFF
1343.760344403,word_count-pthr,9433,8,62,WAFF
1343.770670512,word_count-pthr,9464,9,24,ILB
1343.770670512,word_count-pthr,9464,9,24,ILB
1343.770682656,word_count-pthr,9441,24,28,WAFF
1343.770682656,word_count-pthr,9441,24,28,WAFF
1343.773295813,rcu_sched,8,28,29,WAFF
1343.776703307,word_count-pthr,9420,47,43,ILB
1343.776703307,word_count-pthr,9420,47,43,ILB
1343.777076879,word_count-pthr,9425,62,48,ILB
1343.777076879,word_count-pthr,9425,62,48,ILB
1343.779840307,word_count-pthr,9420,43,44,WLB
1343.779840307,word_count-pthr,9420,43,44,WLB
1343.779922009,word_count-pthr,9415,44,42,WLB
1343.779922009,word_count-pthr,9415,44,42,WLB
1343.781358267,word_count-pthr,9459,48,29,ILB
1343.781358267,word_count-pthr,9459,48,29,ILB
1343.785800448,word_count-pthr,9440,42,59,ILB
1343.785800448,word_count-pthr,9440,42,59,ILB
1343.789425813,word_count-pthr,9451,59,56,ILB
1343.789425813,word_count-pthr,9451,59,56,ILB
1343.793639382,word_count-pthr,9451,56,45,ILB
1343.793639382,word_count-pthr,9451,56,45,ILB
1343.799236347,word_count-pthr,9410,45,40,ILB
1343.799236347,word_count-pthr,9410,45,40,ILB
1343.799366266,word_count-pthr,9457,40,41,WAFF
1343.799366266,word_count-pthr,9457,40,41,WAFF
1343.825309442,word_count-pthr,9457,41,40,SLB
1343.825309442,word_count-pthr,9457,41,40,SLB
1343.838792092,word_count-pthr,9410,40,49,ILB
1343.838792092,word_count-pthr,9410,40,49,ILB
1343.847185557,word_count-pthr,9465,49,62,ILB
1343.847185557,word_count-pthr,9465,49,62,ILB
1343.851880680,word_count-pthr,9433,62,59,ILB
1343.851880680,word_count-pthr,9433,62,59,ILB
1343.851962419,word_count-pthr,9440,59,62,WAFF
1343.851962419,word_count-pthr,9440,59,62,WAFF
1343.852327994,word_count-pthr,9440,62,28,ILB
1343.852327994,word_count-pthr,9440,62,28,ILB
1343.853440180,word_count-pthr,9441,28,43,ILB
1343.853440180,word_count-pthr,9441,28,43,ILB
1343.857568452,word_count-pthr,9441,43,59,ILB
1343.857568452,word_count-pthr,9441,43,59,ILB
1343.861828834,word_count-pthr,9441,59,25,ILB
1343.861828834,word_count-pthr,9441,59,25,ILB
1343.861981179,word_count-pthr,9447,25,30,WAFF
1343.861981179,word_count-pthr,9447,25,30,WAFF
1343.877752934,word_count-pthr,9416,30,29,ILB
1343.877752934,word_count-pthr,9416,30,29,ILB
1343.889313922,word_count-pthr,9416,29,18,NLB
1343.889313922,word_count-pthr,9416,29,18,NLB
1343.963384914,khugepaged,413,11,29,ILB
1346.321454865,rcu_sched,8,29,41,WAFF
1346.445461834,rcu_sched,8,41,38,WAFF
1346.921489663,rcu_sched,8,38,41,WAFF
1347.157505562,rcu_sched,8,41,34,WAFF
1349.81607113,kworker/u135:0,307,51,48,WAFF
1349.81690645,kworker/u135:2,3086,54,48,WAFF
1349.85609083,rcu_sched,8,34,48,WAFF
1350.49684746,rcu_sched,8,48,7,WAFF
1350.553704332,kworker/u135:2,3086,48,54,WAFF
1350.877728084,kworker/u128:0,6,39,36,NLB
1351.385741929,ext4lazyinit,1063,0,1,WAFF
1351.645804127,rcu_sched,8,7,1,WAFF
1351.701797998,rcu_sched,8,1,0,WAFF
1351.737767234,kworker/u128:0,6,36,39,WAFF
1351.741760739,rcu_sched,8,0,17,WAFF
1351.761788099,rcu_sched,8,17,24,WAFF
1351.877279296,word_count-pthr,9468,18,49,FLB
1351.877279296,word_count-pthr,9468,18,49,FLB
1351.877345484,word_count-pthr,9469,18,25,FLB
1351.877345484,word_count-pthr,9469,18,25,FLB
1351.877390207,word_count-pthr,9470,18,33,FLB
1351.877390207,word_count-pthr,9470,18,33,FLB
1351.877427337,word_count-pthr,9471,18,1,FLB
1351.877427337,word_count-pthr,9471,18,1,FLB
1351.877479582,word_count-pthr,9472,18,19,FLB
1351.877479582,word_count-pthr,9472,18,19,FLB
1351.877555662,word_count-pthr,9473,18,61,FLB
1351.877555662,word_count-pthr,9473,18,61,FLB
1351.877629358,word_count-pthr,9474,18,9,FLB
1351.877629358,word_count-pthr,9474,18,9,FLB
1351.877698588,word_count-pthr,9475,18,42,FLB
1351.877698588,word_count-pthr,9475,18,42,FLB
1351.877757730,word_count-pthr,9476,18,26,FLB
1351.877757730,word_count-pthr,9476,18,26,FLB
1351.877814316,rcu_sched,8,24,32,WAFF
1351.877960588,word_count-pthr,9477,18,43,FLB
1351.877960588,word_count-pthr,9477,18,43,FLB
1351.878018092,word_count-pthr,9478,18,34,FLB
1351.878018092,word_count-pthr,9478,18,34,FLB
1351.878155770,word_count-pthr,9479,18,50,FLB
1351.878155770,word_count-pthr,9479,18,50,FLB
1351.878250325,word_count-pthr,9480,18,2,FLB
1351.878250325,word_count-pthr,9480,18,2,FLB
1351.878366010,word_count-pthr,9481,18,20,FLB
1351.878366010,word_count-pthr,9481,18,20,FLB
1351.878490448,word_count-pthr,9482,18,27,FLB
1351.878490448,word_count-pthr,9482,18,27,FLB
1351.878605295,word_count-pthr,9483,18,21,FLB
1351.878605295,word_count-pthr,9483,18,21,FLB
1351.878717340,word_count-pthr,9484,18,62,FLB
1351.878717340,word_count-pthr,9484,18,62,FLB
1351.878833457,word_count-pthr,9485,18,10,FLB
1351.878833457,word_count-pthr,9485,18,10,FLB
1351.878964834,word_count-pthr,9486,18,44,FLB
1351.878964834,word_count-pthr,9486,18,44,FLB
1351.879096251,word_count-pthr,9487,18,51,FLB
1351.879096251,word_count-pthr,9487,18,51,FLB
1351.879300942,word_count-pthr,9488,18,3,FLB
1351.879300942,word_count-pthr,9488,18,3,FLB
1351.879444287,word_count-pthr,9489,18,35,FLB
1351.879444287,word_count-pthr,9489,18,35,FLB
1351.879577327,word_count-pthr,9490,18,28,FLB
1351.879577327,word_count-pthr,9490,18,28,FLB
1351.879678338,word_count-pthr,9491,18,23,FLB
1351.879678338,word_count-pthr,9491,18,23,FLB
1351.879747561,word_count-pthr,9492,18,63,FLB
1351.879747561,word_count-pthr,9492,18,63,FLB
1351.879885192,word_count-pthr,9493,18,52,FLB
1351.879885192,word_count-pthr,9493,18,52,FLB
1351.880025130,word_count-pthr,9494,18,36,FLB
1351.880025130,word_count-pthr,9494,18,36,FLB
1351.880245102,word_count-pthr,9495,18,4,FLB
1351.880245102,word_count-pthr,9495,18,4,FLB
1351.880396814,word_count-pthr,9496,18,29,FLB
1351.880396814,word_count-pthr,9496,18,29,FLB
1351.880572646,word_count-pthr,9497,18,16,FLB
1351.880572646,word_count-pthr,9497,18,16,FLB
1351.880714028,word_count-pthr,9498,18,11,FLB
1351.880714028,word_count-pthr,9498,18,11,FLB
1351.880844398,word_count-pthr,9499,18,45,FLB
1351.880844398,word_count-pthr,9499,18,45,FLB
1351.910915865,word_count-pthr,9500,18,3,FLB
1351.910915865,word_count-pthr,9500,18,3,FLB
1351.910960830,word_count-pthr,9501,18,46,FLB
1351.910960830,word_count-pthr,9501,18,46,FLB
1351.911018611,word_count-pthr,9502,18,33,FLB
1351.911018611,word_count-pthr,9502,18,33,FLB
1351.911068031,word_count-pthr,9503,18,30,FLB
1351.911068031,word_count-pthr,9503,18,30,FLB
1351.911133777,word_count-pthr,9504,18,53,FLB
1351.911133777,word_count-pthr,9504,18,53,FLB
1351.911192617,word_count-pthr,9505,18,17,FLB
1351.911192617,word_count-pthr,9505,18,17,FLB
1351.911248235,word_count-pthr,9506,18,31,FLB
1351.911248235,word_count-pthr,9506,18,31,FLB
1351.911335343,word_count-pthr,9507,18,12,FLB
1351.911335343,word_count-pthr,9507,18,12,FLB
1351.911393387,word_count-pthr,9508,18,13,FLB
1351.911393387,word_count-pthr,9508,18,13,FLB
1351.911469359,word_count-pthr,9509,18,47,FLB
1351.911469359,word_count-pthr,9509,18,47,FLB
1351.911516575,word_count-pthr,9510,18,54,FLB
1351.911516575,word_count-pthr,9510,18,54,FLB
1351.911609145,word_count-pthr,9511,18,22,FLB
1351.911609145,word_count-pthr,9511,18,22,FLB
1351.911678577,word_count-pthr,9512,18,34,FLB
1351.911678577,word_count-pthr,9512,18,34,FLB
1351.911729532,word_count-pthr,9513,18,4,FLB
1351.911729532,word_count-pthr,9513,18,4,FLB
1351.911876977,word_count-pthr,9514,18,19,FLB
1351.911876977,word_count-pthr,9514,18,19,FLB
1351.911953532,word_count-pthr,9515,18,14,FLB
1351.911953532,word_count-pthr,9515,18,14,FLB
1351.945739492,word_count-pthr,9516,18,40,FLB
1351.945739492,word_count-pthr,9516,18,40,FLB
1351.945825752,word_count-pthr,9517,18,35,FLB
1351.945825752,word_count-pthr,9517,18,35,FLB
1351.945865779,word_count-pthr,9518,18,55,FLB
1351.945865779,word_count-pthr,9518,18,55,FLB
1351.945906138,word_count-pthr,9519,18,5,FLB
1351.945906138,word_count-pthr,9519,18,5,FLB
1351.945961045,word_count-pthr,9520,18,31,FLB
1351.945961045,word_count-pthr,9520,18,31,FLB
1351.946006990,word_count-pthr,9521,18,19,FLB
1351.946006990,word_count-pthr,9521,18,19,FLB
1351.946068455,word_count-pthr,9522,18,14,FLB
1351.946068455,word_count-pthr,9522,18,14,FLB
1351.946141782,word_count-pthr,9523,18,41,FLB
1351.946141782,word_count-pthr,9523,18,41,FLB
1351.989146410,word_count-pthr,9524,18,56,FLB
1351.989146410,word_count-pthr,9524,18,56,FLB
1351.989188868,word_count-pthr,9525,18,35,FLB
1351.989188868,word_count-pthr,9525,18,35,FLB
1351.989246478,word_count-pthr,9526,18,48,FLB
1351.989246478,word_count-pthr,9526,18,48,FLB
1351.989288815,word_count-pthr,9527,18,24,FLB
1351.989288815,word_count-pthr,9527,18,24,FLB
1352.26782569,word_count-pthr,9528,18,35,FLB
1352.26782569,word_count-pthr,9528,18,35,FLB
1352.26822731,word_count-pthr,9529,18,28,FLB
1352.26822731,word_count-pthr,9529,18,28,FLB
1352.29788285,rcu_sched,8,32,24,WAFF
1352.61787036,rcu_sched,8,24,35,WAFF
1352.63112830,word_count-pthr,9530,18,36,FLB
1352.63112830,word_count-pthr,9530,18,36,FLB
1352.96305337,word_count-pthr,9531,18,37,FLB
1352.96305337,word_count-pthr,9531,18,37,FLB
1352.96341116,word_count-pthr,9532,18,43,FLB
1352.96341116,word_count-pthr,9532,18,43,FLB
1352.96376548,word_count-pthr,9533,18,6,FLB
1352.96376548,word_count-pthr,9533,18,6,FLB
1352.96413375,word_count-pthr,9534,18,40,FLB
1352.96413375,word_count-pthr,9534,18,40,FLB
1352.96574822,word_count-pthr,9535,18,24,FLB
1352.96574822,word_count-pthr,9535,18,24,FLB
1352.96628780,word_count-pthr,9536,18,49,FLB
1352.96628780,word_count-pthr,9536,18,49,FLB
1352.96760539,word_count-pthr,9537,18,23,FLB
1352.96760539,word_count-pthr,9537,18,23,FLB
1352.96805777,word_count-pthr,9538,18,51,FLB
1352.96805777,word_count-pthr,9538,18,51,FLB
1352.96905917,word_count-pthr,9539,18,16,FLB
1352.96905917,word_count-pthr,9539,18,16,FLB
1352.96997902,word_count-pthr,9540,18,38,FLB
1352.96997902,word_count-pthr,9540,18,38,FLB
1352.97104379,word_count-pthr,9541,18,7,FLB
1352.97104379,word_count-pthr,9541,18,7,FLB
1352.97154539,word_count-pthr,9542,18,41,FLB
1352.97154539,word_count-pthr,9542,18,41,FLB
1352.97726155,word_count-pthr,9543,18,43,FLB
1352.97726155,word_count-pthr,9543,18,43,FLB
1352.97775018,word_count-pthr,9544,18,28,FLB
1352.97775018,word_count-pthr,9544,18,28,FLB
1352.97777007,rcu_sched,8,35,40,WAFF
1352.97848026,word_count-pthr,9545,18,39,FLB
1352.97848026,word_count-pthr,9545,18,39,FLB
1352.97894273,word_count-pthr,9546,18,55,FLB
1352.97894273,word_count-pthr,9546,18,55,FLB
1352.97942494,word_count-pthr,9547,18,0,FLB
1352.97942494,word_count-pthr,9547,18,0,FLB
1352.97986095,word_count-pthr,9548,18,23,FLB
1352.97986095,word_count-pthr,9548,18,23,FLB
1352.98034768,word_count-pthr,9549,18,57,FLB
1352.98034768,word_count-pthr,9549,18,57,FLB
1352.98577130,word_count-pthr,9550,18,58,FLB
1352.98577130,word_count-pthr,9550,18,58,FLB
1352.98633516,word_count-pthr,9551,18,24,FLB
1352.98633516,word_count-pthr,9551,18,24,FLB
1352.98680100,word_count-pthr,9552,18,32,FLB
1352.98680100,word_count-pthr,9552,18,32,FLB
1352.98729250,word_count-pthr,9553,18,48,FLB
1352.98729250,word_count-pthr,9553,18,48,FLB
1352.98779406,word_count-pthr,9554,18,40,FLB
1352.98779406,word_count-pthr,9554,18,40,FLB
1352.98825466,word_count-pthr,9555,18,2,FLB
1352.98825466,word_count-pthr,9555,18,2,FLB
1352.98873944,word_count-pthr,9556,18,23,FLB
1352.98873944,word_count-pthr,9556,18,23,FLB
1352.98918783,word_count-pthr,9557,18,59,FLB
1352.98918783,word_count-pthr,9557,18,59,FLB
1352.98961068,word_count-pthr,9558,18,60,FLB
1352.98961068,word_count-pthr,9558,18,60,FLB
1352.99007880,word_count-pthr,9559,18,61,FLB
1352.99007880,word_count-pthr,9559,18,61,FLB
1352.99303104,word_count-pthr,9560,18,51,FLB
1352.99303104,word_count-pthr,9560,18,51,FLB
1352.99354332,word_count-pthr,9561,18,39,FLB
1352.99354332,word_count-pthr,9561,18,39,FLB
1352.99425199,word_count-pthr,9562,18,3,FLB
1352.99425199,word_count-pthr,9562,18,3,FLB
1352.99471502,word_count-pthr,9563,18,28,FLB
1352.99471502,word_count-pthr,9563,18,28,FLB
1352.99533046,word_count-pthr,9564,18,23,FLB
1352.99533046,word_count-pthr,9564,18,23,FLB
1352.99582424,word_count-pthr,9565,18,57,FLB
1352.99582424,word_count-pthr,9565,18,57,FLB
1352.99637231,word_count-pthr,9566,18,41,FLB
1352.99637231,word_count-pthr,9566,18,41,FLB
1352.99677599,word_count-pthr,9567,18,6,FLB
1352.99677599,word_count-pthr,9567,18,6,FLB
1352.99719723,word_count-pthr,9568,18,16,FLB
1352.99719723,word_count-pthr,9568,18,16,FLB
1352.99774343,word_count-pthr,9569,18,55,FLB
1352.99774343,word_count-pthr,9569,18,55,FLB
1352.99828646,word_count-pthr,9570,18,32,FLB
1352.99828646,word_count-pthr,9570,18,32,FLB
1352.99880442,word_count-pthr,9571,18,39,FLB
1352.99880442,word_count-pthr,9571,18,39,FLB
1352.99925601,word_count-pthr,9572,18,28,FLB
1352.99925601,word_count-pthr,9572,18,28,FLB
1352.99970796,word_count-pthr,9573,18,23,FLB
1352.99970796,word_count-pthr,9573,18,23,FLB
1352.100035197,word_count-pthr,9574,18,58,FLB
1352.100035197,word_count-pthr,9574,18,58,FLB
1352.100086920,word_count-pthr,9575,18,15,FLB
1352.100086920,word_count-pthr,9575,18,15,FLB
1352.100138056,word_count-pthr,9576,18,42,FLB
1352.100138056,word_count-pthr,9576,18,42,FLB
1352.100188683,word_count-pthr,9577,18,48,FLB
1352.100188683,word_count-pthr,9577,18,48,FLB
1352.100252530,word_count-pthr,9578,18,0,FLB
1352.100252530,word_count-pthr,9578,18,0,FLB
1352.100322891,word_count-pthr,9579,18,39,FLB
1352.100322891,word_count-pthr,9579,18,39,FLB
1352.100365701,word_count-pthr,9580,18,28,FLB
1352.100365701,word_count-pthr,9580,18,28,FLB
1352.100407470,word_count-pthr,9581,18,23,FLB
1352.100407470,word_count-pthr,9581,18,23,FLB
1352.100455639,word_count-pthr,9582,18,8,FLB
1352.100455639,word_count-pthr,9582,18,8,FLB
1352.100506146,word_count-pthr,9583,18,59,FLB
1352.100506146,word_count-pthr,9583,18,59,FLB
1352.100566514,word_count-pthr,9584,18,9,FLB
1352.100566514,word_count-pthr,9584,18,9,FLB
1352.100618602,word_count-pthr,9585,18,42,FLB
1352.100618602,word_count-pthr,9585,18,42,FLB
1352.100668210,word_count-pthr,9586,18,55,FLB
1352.100668210,word_count-pthr,9586,18,55,FLB
1352.100712759,word_count-pthr,9587,18,2,FLB
1352.100712759,word_count-pthr,9587,18,2,FLB
1352.100774701,word_count-pthr,9588,18,39,FLB
1352.100774701,word_count-pthr,9588,18,39,FLB
1352.100819805,word_count-pthr,9589,18,28,FLB
1352.100819805,word_count-pthr,9589,18,28,FLB
1352.100861154,word_count-pthr,9590,18,23,FLB
1352.100861154,word_count-pthr,9590,18,23,FLB
1352.100899938,word_count-pthr,9591,18,16,FLB
1352.100899938,word_count-pthr,9591,18,16,FLB
1352.100984830,word_count-pthr,9592,18,60,FLB
1352.100984830,word_count-pthr,9592,18,60,FLB
1352.101114144,word_count-pthr,9593,18,55,FLB
1352.101114144,word_count-pthr,9593,18,55,FLB
1352.101187247,word_count-pthr,9594,18,6,FLB
1352.101187247,word_count-pthr,9594,18,6,FLB
1352.102147391,word_count-pthr,9595,18,38,FLB
1352.102147391,word_count-pthr,9595,18,38,FLB
1352.102178520,word_count-pthr,9596,18,28,FLB
1352.102178520,word_count-pthr,9596,18,28,FLB
1352.102210533,word_count-pthr,9597,18,59,FLB
1352.102210533,word_count-pthr,9597,18,59,FLB
1352.102245411,word_count-pthr,9598,18,55,FLB
1352.102245411,word_count-pthr,9598,18,55,FLB
1352.102294433,word_count-pthr,9599,18,2,FLB
1352.102294433,word_count-pthr,9599,18,2,FLB
1352.102339091,word_count-pthr,9600,18,23,FLB
1352.102339091,word_count-pthr,9600,18,23,FLB
1352.102389422,word_count-pthr,9601,18,42,FLB
1352.102389422,word_count-pthr,9601,18,42,FLB
1352.102433824,word_count-pthr,9602,18,16,FLB
1352.102433824,word_count-pthr,9602,18,16,FLB
1352.102479138,word_count-pthr,9603,18,57,FLB
1352.102479138,word_count-pthr,9603,18,57,FLB
1352.102525346,word_count-pthr,9604,18,39,FLB
1352.102525346,word_count-pthr,9604,18,39,FLB
1352.102585576,word_count-pthr,9605,18,25,FLB
1352.102585576,word_count-pthr,9605,18,25,FLB
1352.102635535,word_count-pthr,9606,18,49,FLB
1352.102635535,word_count-pthr,9606,18,49,FLB
1352.102741380,word_count-pthr,9607,18,3,FLB
1352.102741380,word_count-pthr,9607,18,3,FLB
1352.102832778,word_count-pthr,9608,18,28,FLB
1352.102832778,word_count-pthr,9608,18,28,FLB
1352.102906474,word_count-pthr,9609,18,10,FLB
1352.102906474,word_count-pthr,9609,18,10,FLB
1352.102989436,word_count-pthr,9610,18,42,FLB
1352.102989436,word_count-pthr,9610,18,42,FLB
1352.103057102,word_count-pthr,9611,18,23,FLB
1352.103057102,word_count-pthr,9611,18,23,FLB
1352.103115287,word_count-pthr,9612,18,38,FLB
1352.103115287,word_count-pthr,9612,18,38,FLB
1352.103541010,word_count-pthr,9613,18,59,FLB
1352.103541010,word_count-pthr,9613,18,59,FLB
1352.103605225,word_count-pthr,9614,18,25,FLB
1352.103605225,word_count-pthr,9614,18,25,FLB
1352.103657651,word_count-pthr,9615,18,38,FLB
1352.103657651,word_count-pthr,9615,18,38,FLB
1352.103703172,word_count-pthr,9616,18,15,FLB
1352.103703172,word_count-pthr,9616,18,15,FLB
1352.103750304,word_count-pthr,9617,18,42,FLB
1352.103750304,word_count-pthr,9617,18,42,FLB
1352.103792357,word_count-pthr,9618,18,6,FLB
1352.103792357,word_count-pthr,9618,18,6,FLB
1352.103837300,word_count-pthr,9619,18,51,FLB
1352.103837300,word_count-pthr,9619,18,51,FLB
1352.104309569,word_count-pthr,9620,18,28,FLB
1352.104309569,word_count-pthr,9620,18,28,FLB
1352.104381999,word_count-pthr,9621,18,38,FLB
1352.104381999,word_count-pthr,9621,18,38,FLB
1352.104438809,word_count-pthr,9622,18,57,FLB
1352.104438809,word_count-pthr,9622,18,57,FLB
1352.104490091,word_count-pthr,9623,18,6,FLB
1352.104490091,word_count-pthr,9623,18,6,FLB
1352.104537669,word_count-pthr,9624,18,15,FLB
1352.104537669,word_count-pthr,9624,18,15,FLB
1352.104583514,word_count-pthr,9625,18,42,FLB
1352.104583514,word_count-pthr,9625,18,42,FLB
1352.104628122,word_count-pthr,9626,18,51,FLB
1352.104628122,word_count-pthr,9626,18,51,FLB
1352.105375520,word_count-pthr,9627,18,38,FLB
1352.105375520,word_count-pthr,9627,18,38,FLB
1352.105403074,word_count-pthr,9628,18,25,FLB
1352.105403074,word_count-pthr,9628,18,25,FLB
1352.105444021,word_count-pthr,9629,18,57,FLB
1352.105444021,word_count-pthr,9629,18,57,FLB
1352.105481982,word_count-pthr,9630,18,6,FLB
1352.105481982,word_count-pthr,9630,18,6,FLB
1352.105543468,word_count-pthr,9631,18,15,FLB
1352.105543468,word_count-pthr,9631,18,15,FLB
1352.105590837,word_count-pthr,9632,18,51,FLB
1352.105590837,word_count-pthr,9632,18,51,FLB
1352.105640888,word_count-pthr,9633,18,23,FLB
1352.105640888,word_count-pthr,9633,18,23,FLB
1352.105687479,word_count-pthr,9634,18,42,FLB
1352.105687479,word_count-pthr,9634,18,42,FLB
1352.105729989,word_count-pthr,9635,18,28,FLB
1352.105729989,word_count-pthr,9635,18,28,FLB
1352.105785069,word_count-pthr,9636,18,60,FLB
1352.105785069,word_count-pthr,9636,18,60,FLB
1352.105846763,word_count-pthr,9637,18,35,FLB
1352.105846763,word_count-pthr,9637,18,35,FLB
1352.105900842,word_count-pthr,9638,18,45,FLB
1352.105900842,word_count-pthr,9638,18,45,FLB
1352.105953982,word_count-pthr,9639,18,50,FLB
1352.105953982,word_count-pthr,9639,18,50,FLB
1352.105995549,word_count-pthr,9640,18,20,FLB
1352.105995549,word_count-pthr,9640,18,20,FLB
1352.106082660,word_count-pthr,9641,18,20,FLB
1352.106082660,word_count-pthr,9641,18,20,FLB
1352.106153658,word_count-pthr,9642,18,44,FLB
1352.106153658,word_count-pthr,9642,18,44,FLB
1352.106937949,word_count-pthr,9641,20,35,ILB
1352.106937949,word_count-pthr,9641,20,35,ILB
1352.108098659,word_count-pthr,9643,18,8,FLB
1352.108098659,word_count-pthr,9643,18,8,FLB
1352.108132924,word_count-pthr,9644,18,29,FLB
1352.108132924,word_count-pthr,9644,18,29,FLB
1352.108170177,word_count-pthr,9645,18,38,FLB
1352.108170177,word_count-pthr,9645,18,38,FLB
1352.108212692,word_count-pthr,9646,18,62,FLB
1352.108212692,word_count-pthr,9646,18,62,FLB
1352.108269427,word_count-pthr,9647,18,1,FLB
1352.108269427,word_count-pthr,9647,18,1,FLB
1352.108318325,word_count-pthr,9648,18,52,FLB
1352.108318325,word_count-pthr,9648,18,52,FLB
1352.108363471,word_count-pthr,9649,18,20,FLB
1352.108363471,word_count-pthr,9649,18,20,FLB
1352.108427885,word_count-pthr,9650,18,45,FLB
1352.108427885,word_count-pthr,9650,18,45,FLB
1352.110791511,word_count-pthr,9651,18,9,FLB
1352.110791511,word_count-pthr,9651,18,9,FLB
1352.110822886,word_count-pthr,9652,18,31,FLB
1352.110822886,word_count-pthr,9652,18,31,FLB
1352.110855899,word_count-pthr,9653,18,63,FLB
1352.110855899,word_count-pthr,9653,18,63,FLB
1352.110886025,word_count-pthr,9654,18,33,FLB
1352.110886025,word_count-pthr,9654,18,33,FLB
1352.115540678,word_count-pthr,9655,18,25,FLB
1352.115540678,word_count-pthr,9655,18,25,FLB
1352.115579251,word_count-pthr,9656,18,34,FLB
1352.115579251,word_count-pthr,9656,18,34,FLB
1352.125312134,word_count-pthr,9657,18,26,FLB
1352.125312134,word_count-pthr,9657,18,26,FLB
1352.217804825,rcu_sched,8,40,41,WAFF
1352.405799105,rcu_sched,8,41,31,WAFF
