Time,Comm,Pid,Orig,Dest,Trigger
992.149778075,perf,5851,33,62,ELB
992.150758536,time,5852,62,42,FLB
992.150910966,time,5852,42,63,ELB
992.152335924,linear_regression,5852,63,43,ELB
992.152335924,linear_regression,5852,63,43,ELB
992.153905278,linear_regressi,5852,43,0,CA
992.154552263,linear_regressi,5853,0,56,FLB
992.154569506,linear_regressi,5853,56,1,CA
992.154625619,linear_regressi,5854,0,44,FLB
992.154638205,linear_regressi,5854,44,2,CA
992.154697035,linear_regressi,5855,0,45,FLB
992.154704621,linear_regressi,5855,45,3,CA
992.154749068,linear_regressi,5856,0,46,FLB
992.154761643,linear_regressi,5856,46,4,CA
992.154811665,linear_regressi,5857,0,47,FLB
992.154819211,linear_regressi,5857,47,5,CA
992.154865755,linear_regressi,5858,0,40,FLB
992.154878465,linear_regressi,5858,40,6,CA
992.154926808,linear_regressi,5859,0,41,FLB
992.154934148,linear_regressi,5859,41,7,CA
992.154986115,linear_regressi,5860,0,42,FLB
992.154994457,linear_regressi,5860,42,8,CA
992.155042482,linear_regressi,5861,0,43,FLB
992.155050030,linear_regressi,5861,43,9,CA
992.155094321,linear_regressi,5862,0,44,FLB
992.155101701,linear_regressi,5862,44,10,CA
992.155154171,linear_regressi,5863,0,45,FLB
992.155161445,linear_regressi,5863,45,11,CA
992.155205351,linear_regressi,5864,0,46,FLB
992.155212531,linear_regressi,5864,46,12,CA
992.155260742,linear_regressi,5865,0,47,FLB
992.155267424,linear_regressi,5865,47,13,CA
992.155313706,linear_regressi,5866,0,40,FLB
992.155321603,linear_regressi,5866,40,14,CA
992.155369378,linear_regressi,5867,0,41,FLB
992.155377322,linear_regressi,5867,41,15,CA
992.155423145,linear_regressi,5868,0,42,FLB
992.155430689,linear_regressi,5868,42,16,CA
992.155481689,linear_regressi,5869,0,17,FLB
992.155528173,linear_regressi,5870,0,18,FLB
992.155579815,linear_regressi,5871,0,19,FLB
992.155628956,linear_regressi,5872,0,20,FLB
992.155684741,linear_regressi,5873,0,21,FLB
992.155733013,linear_regressi,5874,0,22,FLB
992.155786117,linear_regressi,5875,0,23,FLB
992.155832857,linear_regressi,5876,0,16,FLB
992.155839620,linear_regressi,5876,16,24,CA
992.155888287,linear_regressi,5877,0,57,FLB
992.155901374,linear_regressi,5877,57,25,CA
992.155947637,linear_regressi,5878,0,58,FLB
992.155960143,linear_regressi,5878,58,26,CA
992.156008934,linear_regressi,5879,0,59,FLB
992.156016866,linear_regressi,5879,59,27,CA
992.156063519,linear_regressi,5880,0,60,FLB
992.156076471,linear_regressi,5880,60,28,CA
992.156125685,linear_regressi,5881,0,61,FLB
992.156133494,linear_regressi,5881,61,29,CA
992.156180087,linear_regressi,5882,0,62,FLB
992.156192119,linear_regressi,5882,62,30,CA
992.156241982,linear_regressi,5883,0,63,FLB
992.156249902,linear_regressi,5883,63,31,CA
992.156297097,linear_regressi,5884,0,56,FLB
992.156304753,linear_regressi,5884,56,32,CA
992.156353819,linear_regressi,5885,0,57,FLB
992.156361302,linear_regressi,5885,57,33,CA
992.156411872,linear_regressi,5886,0,58,FLB
992.156418843,linear_regressi,5886,58,34,CA
992.156465296,linear_regressi,5887,0,59,FLB
992.156472228,linear_regressi,5887,59,35,CA
992.156523133,linear_regressi,5888,0,60,FLB
992.156530211,linear_regressi,5888,60,36,CA
992.156583451,linear_regressi,5889,0,61,FLB
992.156590949,linear_regressi,5889,61,37,CA
992.156639560,linear_regressi,5890,0,62,FLB
992.156646826,linear_regressi,5890,62,38,CA
992.156699129,linear_regressi,5891,0,63,FLB
992.156706767,linear_regressi,5891,63,39,CA
992.156754446,linear_regressi,5892,0,56,FLB
992.156761622,linear_regressi,5892,56,40,CA
992.156806106,linear_regressi,5893,0,24,FLB
992.156813859,linear_regressi,5893,24,41,CA
992.156871265,linear_regressi,5894,0,57,FLB
992.156878643,linear_regressi,5894,57,42,CA
992.156924498,linear_regressi,5895,0,25,FLB
992.156931936,linear_regressi,5895,25,43,CA
992.156976643,linear_regressi,5896,0,58,FLB
992.156984497,linear_regressi,5896,58,44,CA
992.157034222,linear_regressi,5897,0,26,FLB
992.157041958,linear_regressi,5897,26,45,CA
992.157087194,linear_regressi,5898,0,59,FLB
992.157094345,linear_regressi,5898,59,46,CA
992.157141643,linear_regressi,5899,0,27,FLB
992.157149340,linear_regressi,5899,27,47,CA
992.157197213,linear_regressi,5900,0,60,FLB
992.157204484,linear_regressi,5900,60,48,CA
992.157252513,linear_regressi,5901,0,29,FLB
992.157260309,linear_regressi,5901,29,49,CA
992.157308224,linear_regressi,5902,0,61,FLB
992.157316437,linear_regressi,5902,61,50,CA
992.157368499,linear_regressi,5903,0,30,FLB
992.157376312,linear_regressi,5903,30,51,CA
992.157423311,linear_regressi,5904,0,62,FLB
992.157436371,linear_regressi,5904,62,52,CA
992.157484260,linear_regressi,5905,0,31,FLB
992.157491714,linear_regressi,5905,31,53,CA
992.157538182,linear_regressi,5906,0,63,FLB
992.157545638,linear_regressi,5906,63,54,CA
992.157595174,linear_regressi,5907,0,24,FLB
992.157603257,linear_regressi,5907,24,55,CA
992.157649042,linear_regressi,5908,0,56,FLB
992.158113160,linear_regressi,5909,0,25,FLB
992.158121909,linear_regressi,5909,25,57,CA
992.158604012,linear_regressi,5910,0,26,FLB
992.158613205,linear_regressi,5910,26,58,CA
992.158662654,linear_regressi,5911,0,27,FLB
992.158670537,linear_regressi,5911,27,59,CA
992.158721099,linear_regressi,5912,0,29,FLB
992.158729175,linear_regressi,5912,29,60,CA
992.158775593,linear_regressi,5913,0,30,FLB
992.158783691,linear_regressi,5913,30,61,CA
992.158827380,linear_regressi,5914,0,31,FLB
992.158835150,linear_regressi,5914,31,62,CA
992.158879989,linear_regressi,5915,0,24,FLB
992.158887902,linear_regressi,5915,24,63,CA
992.158934185,linear_regressi,5916,0,25,FLB
992.158940009,linear_regressi,5916,25,0,CA
992.160911423,linear_regressi,5916,0,32,ILB
992.462536061,linear_regressi,5884,32,34,WAFF
992.462544582,linear_regressi,5886,34,36,WAFF
992.462548389,linear_regressi,5888,36,38,WAFF
992.462552281,linear_regressi,5890,38,32,WAFF
992.648885803,rcu_sched,8,32,17,WAFF
992.649135545,linear_regressi,5908,56,33,WAFF
992.654098549,jbd2/sdb1-8,1060,0,1,WAFF
