Time,Comm,Pid,Orig,Dest,Trigger
1034.183509704,perf,7034,49,34,ELB
1034.184483168,time,7035,34,51,FLB
1034.184638092,time,7035,51,9,ELB
1034.186139454,barnes,7035,9,25,ELB
1034.186139454,barnes,7035,9,25,ELB
1034.187846057,barnes,7035,25,0,CA
1034.187846057,barnes,7035,25,0,CA
1034.439308709,kworker/u129:2,744,0,1,WAFF
1034.456921546,systemd-journal,1117,49,48,WAFF
1035.655424579,kthreadd,2,3,52,WAFF
1035.655498198,kthreadd,7036,52,49,FLB
1036.587452494,rcu_sched,8,31,48,WAFF
1036.743444602,jbd2/sdb1-8,1060,0,50,WAFF
1037.21261636,barnes,7037,0,50,FLB
1037.21261636,barnes,7037,0,50,FLB
1037.21304172,barnes,7037,50,1,CA
1037.21304172,barnes,7037,50,1,CA
1037.21349711,barnes,7035,0,51,WAFF
1037.21349711,barnes,7035,0,51,WAFF
1037.21894443,barnes,7038,51,56,FLB
1037.21894443,barnes,7038,51,56,FLB
1037.21910543,barnes,7038,56,2,CA
1037.21910543,barnes,7038,56,2,CA
1037.22422252,barnes,7039,51,26,FLB
1037.22422252,barnes,7039,51,26,FLB
1037.22436202,barnes,7039,26,3,CA
1037.22436202,barnes,7039,26,3,CA
1037.22490661,barnes,7040,51,32,FLB
1037.22490661,barnes,7040,51,32,FLB
1037.22502641,barnes,7040,32,4,CA
1037.22502641,barnes,7040,32,4,CA
1037.23410850,barnes,7041,51,57,FLB
1037.23410850,barnes,7041,51,57,FLB
1037.23423618,barnes,7041,57,5,CA
1037.23423618,barnes,7041,57,5,CA
1037.23481111,barnes,7042,51,27,FLB
1037.23481111,barnes,7042,51,27,FLB
1037.23493907,barnes,7042,27,6,CA
1037.23493907,barnes,7042,27,6,CA
1037.24569790,barnes,7043,51,33,FLB
1037.24569790,barnes,7043,51,33,FLB
1037.24583953,barnes,7043,33,7,CA
1037.24583953,barnes,7043,33,7,CA
1037.24636391,barnes,7044,51,58,FLB
1037.24636391,barnes,7044,51,58,FLB
1037.24648624,barnes,7044,58,8,CA
1037.24648624,barnes,7044,58,8,CA
1037.25594313,barnes,7045,51,28,FLB
1037.25594313,barnes,7045,51,28,FLB
1037.25600462,barnes,7045,28,9,CA
1037.25600462,barnes,7045,28,9,CA
1037.25649167,barnes,7046,51,29,FLB
1037.25649167,barnes,7046,51,29,FLB
1037.25656954,barnes,7046,29,10,CA
1037.25656954,barnes,7046,29,10,CA
1037.26608893,barnes,7047,51,30,FLB
1037.26608893,barnes,7047,51,30,FLB
1037.26623346,barnes,7047,30,11,CA
1037.26623346,barnes,7047,30,11,CA
1037.26669870,barnes,7048,51,34,FLB
1037.26669870,barnes,7048,51,34,FLB
1037.26682289,barnes,7048,34,12,CA
1037.26682289,barnes,7048,34,12,CA
1037.27669151,barnes,7049,51,31,FLB
1037.27669151,barnes,7049,51,31,FLB
1037.27676614,barnes,7049,31,13,CA
1037.27676614,barnes,7049,31,13,CA
1037.27731477,barnes,7050,51,35,FLB
1037.27731477,barnes,7050,51,35,FLB
1037.27743513,barnes,7050,35,14,CA
1037.27743513,barnes,7050,35,14,CA
1037.28817869,barnes,7051,51,59,FLB
1037.28817869,barnes,7051,51,59,FLB
1037.28832213,barnes,7051,59,15,CA
1037.28832213,barnes,7051,59,15,CA
1037.28880742,barnes,7052,51,24,FLB
1037.28880742,barnes,7052,51,24,FLB
1037.28893244,barnes,7052,24,16,CA
1037.28893244,barnes,7052,24,16,CA
1037.29847728,barnes,7053,51,25,FLB
1037.29847728,barnes,7053,51,25,FLB
1037.29860961,barnes,7053,25,17,CA
1037.29860961,barnes,7053,25,17,CA
1037.29909184,barnes,7054,51,26,FLB
1037.29909184,barnes,7054,51,26,FLB
1037.29922495,barnes,7054,26,18,CA
1037.29922495,barnes,7054,26,18,CA
1037.30851471,barnes,7055,51,27,FLB
1037.30851471,barnes,7055,51,27,FLB
1037.30865898,barnes,7055,27,19,CA
1037.30865898,barnes,7055,27,19,CA
1037.30914508,barnes,7056,51,28,FLB
1037.30914508,barnes,7056,51,28,FLB
1037.30927053,barnes,7056,28,20,CA
1037.30927053,barnes,7056,28,20,CA
1037.31392431,barnes,7057,51,29,FLB
1037.31392431,barnes,7057,51,29,FLB
1037.31406230,barnes,7057,29,21,CA
1037.31406230,barnes,7057,29,21,CA
1037.32447265,barnes,7058,51,30,FLB
1037.32447265,barnes,7058,51,30,FLB
1037.32454899,barnes,7058,30,22,CA
1037.32454899,barnes,7058,30,22,CA
1037.33353630,barnes,7059,51,31,FLB
1037.33353630,barnes,7059,51,31,FLB
1037.33366363,barnes,7059,31,23,CA
1037.33366363,barnes,7059,31,23,CA
1037.33413608,barnes,7060,51,24,FLB
1037.33413608,barnes,7060,51,24,FLB
1037.34420376,barnes,7061,51,36,FLB
1037.34420376,barnes,7061,51,36,FLB
1037.34434287,barnes,7061,36,25,CA
1037.34434287,barnes,7061,36,25,CA
1037.34483265,barnes,7062,51,37,FLB
1037.34483265,barnes,7062,51,37,FLB
1037.34490664,barnes,7062,37,26,CA
1037.34490664,barnes,7062,37,26,CA
1037.35440578,barnes,7063,51,38,FLB
1037.35440578,barnes,7063,51,38,FLB
1037.35477513,barnes,7063,38,27,CA
1037.35477513,barnes,7063,38,27,CA
1037.35485468,barnes,7035,51,39,WAFF
1037.35485468,barnes,7035,51,39,WAFF
1037.36063919,barnes,7064,39,60,FLB
1037.36063919,barnes,7064,39,60,FLB
1037.36081266,barnes,7064,60,28,CA
1037.36081266,barnes,7064,60,28,CA
1037.36133703,barnes,7065,39,61,FLB
1037.36133703,barnes,7065,39,61,FLB
1037.36141170,barnes,7065,61,29,CA
1037.36141170,barnes,7065,61,29,CA
1037.37148580,barnes,7066,39,62,FLB
1037.37148580,barnes,7066,39,62,FLB
1037.37163122,barnes,7066,62,30,CA
1037.37163122,barnes,7066,62,30,CA
1037.38049578,barnes,7067,39,63,FLB
1037.38049578,barnes,7067,39,63,FLB
1037.38062612,barnes,7067,63,31,CA
1037.38062612,barnes,7067,63,31,CA
1037.38108844,barnes,7068,39,56,FLB
1037.38108844,barnes,7068,39,56,FLB
1037.38121175,barnes,7068,56,32,CA
1037.38121175,barnes,7068,56,32,CA
1037.39110976,barnes,7069,39,57,FLB
1037.39110976,barnes,7069,39,57,FLB
1037.39125196,barnes,7069,57,33,CA
1037.39125196,barnes,7069,57,33,CA
1037.39682382,barnes,7070,39,58,FLB
1037.39682382,barnes,7070,39,58,FLB
1037.39696253,barnes,7070,58,34,CA
1037.39696253,barnes,7070,58,34,CA
1037.40561869,barnes,7071,39,59,FLB
1037.40561869,barnes,7071,39,59,FLB
1037.40574697,barnes,7071,59,35,CA
1037.40574697,barnes,7071,59,35,CA
1037.40625920,barnes,7072,39,60,FLB
1037.40625920,barnes,7072,39,60,FLB
1037.40638625,barnes,7072,60,36,CA
1037.40638625,barnes,7072,60,36,CA
1037.41591012,barnes,7073,39,61,FLB
1037.41591012,barnes,7073,39,61,FLB
1037.41599375,barnes,7073,61,37,CA
1037.41599375,barnes,7073,61,37,CA
1037.41651339,barnes,7074,39,62,FLB
1037.41651339,barnes,7074,39,62,FLB
1037.41659433,barnes,7074,62,38,CA
1037.41659433,barnes,7074,62,38,CA
1037.42771693,barnes,7075,39,63,FLB
1037.42771693,barnes,7075,39,63,FLB
1037.42806793,barnes,7075,63,39,CA
1037.42806793,barnes,7075,63,39,CA
1037.42813987,barnes,7035,39,56,WAFF
1037.42813987,barnes,7035,39,56,WAFF
1037.43419698,barnes,7076,56,8,FLB
1037.43419698,barnes,7076,56,8,FLB
1037.43436346,barnes,7076,8,40,CA
1037.43436346,barnes,7076,8,40,CA
1037.43954883,barnes,7077,56,0,FLB
1037.43954883,barnes,7077,56,0,FLB
1037.43968658,barnes,7077,0,41,CA
1037.43968658,barnes,7077,0,41,CA
1037.44021994,barnes,7078,56,9,FLB
1037.44021994,barnes,7078,56,9,FLB
1037.44035230,barnes,7078,9,42,CA
1037.44035230,barnes,7078,9,42,CA
1037.44948761,barnes,7079,56,1,FLB
1037.44948761,barnes,7079,56,1,FLB
1037.44964190,barnes,7079,1,43,CA
1037.44964190,barnes,7079,1,43,CA
1037.45477669,barnes,7080,56,10,FLB
1037.45477669,barnes,7080,56,10,FLB
1037.45492186,barnes,7080,10,44,CA
1037.45492186,barnes,7080,10,44,CA
1037.45550230,barnes,7081,56,2,FLB
1037.45550230,barnes,7081,56,2,FLB
1037.45563827,barnes,7081,2,45,CA
1037.45563827,barnes,7081,2,45,CA
1037.46558038,barnes,7082,56,11,FLB
1037.46558038,barnes,7082,56,11,FLB
1037.46573324,barnes,7082,11,46,CA
1037.46573324,barnes,7082,11,46,CA
1037.47488694,barnes,7083,56,12,FLB
1037.47488694,barnes,7083,56,12,FLB
1037.47502659,barnes,7083,12,47,CA
1037.47502659,barnes,7083,12,47,CA
1037.47553272,barnes,7084,56,3,FLB
1037.47553272,barnes,7084,56,3,FLB
1037.47566520,barnes,7084,3,48,CA
1037.47566520,barnes,7084,3,48,CA
1037.48525101,barnes,7085,56,13,FLB
1037.48525101,barnes,7085,56,13,FLB
1037.48538730,barnes,7085,13,49,CA
1037.48538730,barnes,7085,13,49,CA
1037.48588593,barnes,7086,56,14,FLB
1037.48588593,barnes,7086,56,14,FLB
1037.48602188,barnes,7086,14,50,CA
1037.48602188,barnes,7086,14,50,CA
1037.49536872,barnes,7087,56,4,FLB
1037.49536872,barnes,7087,56,4,FLB
1037.49552394,barnes,7087,4,51,CA
1037.49552394,barnes,7087,4,51,CA
1037.50046567,barnes,7088,56,15,FLB
1037.50046567,barnes,7088,56,15,FLB
1037.50060585,barnes,7088,15,52,CA
1037.50060585,barnes,7088,15,52,CA
1037.50119523,barnes,7089,56,8,FLB
1037.50119523,barnes,7089,56,8,FLB
1037.50133260,barnes,7089,8,53,CA
1037.50133260,barnes,7089,8,53,CA
1037.51140540,barnes,7090,56,9,FLB
1037.51140540,barnes,7090,56,9,FLB
1037.51148279,barnes,7090,9,54,CA
1037.51148279,barnes,7090,9,54,CA
1037.51643512,barnes,7091,56,5,FLB
1037.51643512,barnes,7091,56,5,FLB
1037.51657233,barnes,7091,5,55,CA
1037.51657233,barnes,7091,5,55,CA
1037.52659216,barnes,7092,56,10,FLB
1037.52659216,barnes,7092,56,10,FLB
1037.52667267,barnes,7092,10,56,CA
1037.52667267,barnes,7092,10,56,CA
1037.52698200,barnes,7092,56,55,ILB
1037.52698200,barnes,7092,56,55,ILB
1037.52727478,barnes,7093,56,6,FLB
1037.52727478,barnes,7093,56,6,FLB
1037.52741484,barnes,7093,6,57,CA
1037.52741484,barnes,7093,6,57,CA
1037.53765078,barnes,7094,56,11,FLB
1037.53765078,barnes,7094,56,11,FLB
1037.53865557,barnes,7094,11,58,CA
1037.53865557,barnes,7094,11,58,CA
1037.53881491,barnes,7035,56,12,WAFF
1037.53881491,barnes,7035,56,12,WAFF
1037.55064954,barnes,7095,12,7,FLB
1037.55064954,barnes,7095,12,7,FLB
1037.55083479,barnes,7095,7,59,CA
1037.55083479,barnes,7095,7,59,CA
1037.55134245,barnes,7096,12,0,FLB
1037.55134245,barnes,7096,12,0,FLB
1037.55147350,barnes,7096,0,60,CA
1037.55147350,barnes,7096,0,60,CA
1037.56099764,barnes,7097,12,1,FLB
1037.56099764,barnes,7097,12,1,FLB
1037.56106811,barnes,7097,1,61,CA
1037.56106811,barnes,7097,1,61,CA
1037.56154105,barnes,7098,12,2,FLB
1037.56154105,barnes,7098,12,2,FLB
1037.56167433,barnes,7098,2,62,CA
1037.56167433,barnes,7098,2,62,CA
1037.57197323,barnes,7099,12,3,FLB
1037.57197323,barnes,7099,12,3,FLB
1037.57212283,barnes,7099,3,63,CA
1037.57212283,barnes,7099,3,63,CA
1037.58768078,barnes,7092,55,48,WAFF
1037.58768078,barnes,7092,55,48,WAFF
1037.59118992,barnes,7048,12,13,WAFF
1037.59118992,barnes,7048,12,13,WAFF
1037.59165676,barnes,7049,13,14,WAFF
1037.59165676,barnes,7049,13,14,WAFF
1037.59197284,barnes,7050,14,15,WAFF
1037.59197284,barnes,7050,14,15,WAFF
1037.59213435,barnes,7051,15,8,WAFF
1037.59213435,barnes,7051,15,8,WAFF
1037.62629384,barnes,7051,8,9,WAFF
1037.62629384,barnes,7051,8,9,WAFF
1037.71647745,barnes,7051,9,10,WAFF
1037.71647745,barnes,7051,9,10,WAFF
1037.84953341,barnes,7046,10,11,WAFF
1037.84953341,barnes,7046,10,11,WAFF
1037.85519623,barnes,7047,11,12,WAFF
1037.85519623,barnes,7047,11,12,WAFF
1037.86576564,barnes,7092,48,49,WAFF
1037.86576564,barnes,7092,48,49,WAFF
1037.86749595,barnes,7085,49,51,WAFF
1037.86749595,barnes,7085,49,51,WAFF
1037.86783845,barnes,7035,12,11,WAFF
1037.86783845,barnes,7035,12,11,WAFF
1037.86798855,barnes,7085,51,54,ILB
1037.86798855,barnes,7085,51,54,ILB
1037.87663666,barnes,7046,11,15,WAFF
1037.87663666,barnes,7046,11,15,WAFF
1037.87673211,barnes,7050,15,9,WAFF
1037.87673211,barnes,7050,15,9,WAFF
1037.87682010,barnes,7090,54,49,WAFF
1037.87682010,barnes,7090,54,49,WAFF
1037.87690597,barnes,7045,9,10,WAFF
1037.87690597,barnes,7045,9,10,WAFF
1037.87709713,barnes,7051,10,13,WAFF
1037.87709713,barnes,7051,10,13,WAFF
1037.87786126,barnes,7092,49,9,WAFF
1037.87786126,barnes,7092,49,9,WAFF
1037.87814379,barnes,7050,9,17,WAFF
1037.87814379,barnes,7050,9,17,WAFF
1037.88420151,barnes,7050,17,18,WAFF
1037.88420151,barnes,7050,17,18,WAFF
1037.88446510,barnes,7054,18,20,WAFF
1037.88446510,barnes,7054,18,20,WAFF
1037.89811982,barnes,7056,20,22,WAFF
1037.89811982,barnes,7056,20,22,WAFF
1037.90590818,barnes,7056,22,17,WAFF
1037.90590818,barnes,7056,22,17,WAFF
1037.90625478,barnes,7053,17,18,WAFF
1037.90625478,barnes,7053,17,18,WAFF
1037.91560125,barnes,7051,13,8,WAFF
1037.91560125,barnes,7051,13,8,WAFF
1037.91611380,barnes,7053,18,19,WAFF
1037.91611380,barnes,7053,18,19,WAFF
1037.91637102,barnes,7044,8,9,WAFF
1037.91637102,barnes,7044,8,9,WAFF
1037.91664643,barnes,7092,9,10,WAFF
1037.91664643,barnes,7092,9,10,WAFF
1037.91714645,barnes,7045,10,5,WAFF
1037.91714645,barnes,7045,10,5,WAFF
1037.91731568,barnes,7041,5,0,WAFF
1037.91731568,barnes,7041,5,0,WAFF
1037.92497029,barnes,7053,19,20,WAFF
1037.92497029,barnes,7053,19,20,WAFF
1037.92643550,barnes,7053,20,12,WAFF
1037.92643550,barnes,7053,20,12,WAFF
1037.267526228,barnes,7047,12,15,NLB
1037.267526228,barnes,7047,12,15,NLB
1037.291491591,barnes,7047,15,8,NLB
1037.291491591,barnes,7047,15,8,NLB
1037.326156981,barnes,7051,8,9,WAFF
1037.326156981,barnes,7051,8,9,WAFF
1037.326278635,barnes,7044,9,12,WAFF
1037.326278635,barnes,7044,9,12,WAFF
1037.401747994,barnes,7044,12,9,WAFF
1037.401747994,barnes,7044,12,9,WAFF
1037.635499764,dsm_sa_datamgrd,2865,57,56,WLB
1038.855577760,kworker/u128:1,918,39,32,WAFF
1039.665274392,barnes,7068,32,5,WAFF
1039.665274392,barnes,7068,32,5,WAFF
1039.665296036,barnes,7065,29,6,WAFF
1039.665296036,barnes,7065,29,6,WAFF
1039.665329320,barnes,7098,62,7,WAFF
1039.665329320,barnes,7098,62,7,WAFF
1039.665384510,barnes,7092,10,2,WAFF
1039.665384510,barnes,7092,10,2,WAFF
1039.665421787,barnes,7091,55,3,WAFF
1039.665421787,barnes,7091,55,3,WAFF
1039.665447386,barnes,7099,63,4,WAFF
1039.665447386,barnes,7099,63,4,WAFF
1039.665464268,barnes,7094,58,5,WAFF
1039.665464268,barnes,7094,58,5,WAFF
1039.665479571,barnes,7063,27,6,WAFF
1039.665479571,barnes,7063,27,6,WAFF
1039.665494133,barnes,7061,25,7,WAFF
1039.665494133,barnes,7061,25,7,WAFF
1039.665509080,barnes,7070,34,0,WAFF
1039.665509080,barnes,7070,34,0,WAFF
1039.665528227,barnes,7097,61,1,WAFF
1039.665528227,barnes,7097,61,1,WAFF
1039.665544716,barnes,7095,59,2,WAFF
1039.665544716,barnes,7095,59,2,WAFF
1039.665560003,barnes,7062,26,3,WAFF
1039.665560003,barnes,7062,26,3,WAFF
1039.665574822,barnes,7066,30,4,WAFF
1039.665574822,barnes,7066,30,4,WAFF
1039.665588940,barnes,7069,33,5,WAFF
1039.665588940,barnes,7069,33,5,WAFF
1039.665623620,barnes,7035,11,3,WAFF
1039.665623620,barnes,7035,11,3,WAFF
1039.665638069,barnes,7093,57,4,WAFF
1039.665638069,barnes,7093,57,4,WAFF
1039.665652158,barnes,7064,28,5,WAFF
1039.665652158,barnes,7064,28,5,WAFF
1039.665665704,barnes,7067,31,6,WAFF
1039.665665704,barnes,7067,31,6,WAFF
1039.665679605,barnes,7096,60,7,WAFF
1039.665679605,barnes,7096,60,7,WAFF
1039.665734992,barnes,7041,0,25,WAFF
1039.665734992,barnes,7041,0,25,WAFF
1039.665763154,barnes,7090,49,26,WAFF
1039.665763154,barnes,7090,49,26,WAFF
1039.665829920,barnes,7048,13,36,WAFF
1039.665829920,barnes,7048,13,36,WAFF
1039.665899948,barnes,7055,19,43,WAFF
1039.665899948,barnes,7055,19,43,WAFF
1039.665936658,barnes,7074,38,0,WAFF
1039.665936658,barnes,7074,38,0,WAFF
1039.666053066,barnes,7049,14,19,WAFF
1039.666053066,barnes,7049,14,19,WAFF
1039.666104036,barnes,7084,0,38,WAFF
1039.666104036,barnes,7084,0,38,WAFF
1039.666144908,barnes,7086,50,39,WAFF
1039.666144908,barnes,7086,50,39,WAFF
1039.666760711,barnes,7051,56,5,WAFF
1039.666760711,barnes,7051,56,5,WAFF
1039.666770376,barnes,7068,5,0,WAFF
1039.666770376,barnes,7068,5,0,WAFF
1039.666829397,barnes,7099,4,3,WAFF
1039.666829397,barnes,7099,4,3,WAFF
1039.666885729,barnes,7094,5,3,WAFF
1039.666885729,barnes,7094,5,3,WAFF
1039.667109840,barnes,7063,6,3,WAFF
1039.667109840,barnes,7063,6,3,WAFF
1039.667190220,barnes,7094,3,6,WAFF
1039.667190220,barnes,7094,3,6,WAFF
1039.667193821,barnes,7061,7,3,WAFF
1039.667193821,barnes,7061,7,3,WAFF
1039.667207736,barnes,7070,0,3,WAFF
1039.667207736,barnes,7070,0,3,WAFF
1039.667315167,barnes,7065,6,2,WAFF
1039.667315167,barnes,7065,6,2,WAFF
1039.667668076,barnes,7070,3,16,NLB
1039.667668076,barnes,7070,3,16,NLB
1039.667674772,barnes,7099,3,16,NLB
1039.667674772,barnes,7099,3,16,NLB
1039.667677117,barnes,7091,3,16,NLB
1039.667677117,barnes,7091,3,16,NLB
1039.667707182,barnes,7097,1,6,WAFF
1039.667707182,barnes,7097,1,6,WAFF
1039.667731509,barnes,7092,2,0,WAFF
1039.667731509,barnes,7092,2,0,WAFF
1039.667734302,barnes,7062,3,2,WAFF
1039.667734302,barnes,7062,3,2,WAFF
1039.667763077,barnes,7070,16,6,WAFF
1039.667763077,barnes,7070,16,6,WAFF
1039.667778950,barnes,7066,4,2,WAFF
1039.667778950,barnes,7066,4,2,WAFF
1039.667808718,barnes,7091,16,2,WAFF
1039.667808718,barnes,7091,16,2,WAFF
1039.668047001,barnes,7063,3,17,WAFF
1039.668047001,barnes,7063,3,17,WAFF
1039.668067115,barnes,7070,6,18,WAFF
1039.668067115,barnes,7070,6,18,WAFF
1039.668096518,barnes,7091,2,16,ILB
1039.668096518,barnes,7091,2,16,ILB
1039.668098922,barnes,7066,2,16,ILB
1039.668098922,barnes,7066,2,16,ILB
1039.668108029,barnes,7099,16,19,WAFF
1039.668108029,barnes,7099,16,19,WAFF
1039.668143105,barnes,7038,2,6,WAFF
1039.668143105,barnes,7038,2,6,WAFF
1039.668161007,barnes,7035,3,6,WAFF
1039.668161007,barnes,7035,3,6,WAFF
1039.668173914,barnes,7066,16,0,WAFF
1039.668173914,barnes,7066,16,0,WAFF
1039.668247153,barnes,7093,4,6,WAFF
1039.668247153,barnes,7093,4,6,WAFF
1039.668259172,barnes,7064,5,6,WAFF
1039.668259172,barnes,7064,5,6,WAFF
1039.668272230,barnes,7065,2,16,ILB
1039.668272230,barnes,7065,2,16,ILB
1039.668511506,barnes,7068,0,20,WAFF
1039.668511506,barnes,7068,0,20,WAFF
1039.668568109,barnes,7095,2,21,WAFF
1039.668568109,barnes,7095,2,21,WAFF
1039.668634821,barnes,7069,5,22,WAFF
1039.668634821,barnes,7069,5,22,WAFF
1039.668674222,barnes,7097,6,19,ILB
1039.668674222,barnes,7097,6,19,ILB
1039.668679765,barnes,7067,6,19,ILB
1039.668679765,barnes,7067,6,19,ILB
1039.668682311,barnes,7094,6,19,ILB
1039.668682311,barnes,7094,6,19,ILB
1039.668691282,barnes,7099,19,23,WAFF
1039.668691282,barnes,7099,19,23,WAFF
1039.668716353,barnes,7096,7,17,ILB
1039.668716353,barnes,7096,7,17,ILB
1039.668750420,barnes,7067,19,17,WAFF
1039.668750420,barnes,7067,19,17,WAFF
1039.668865853,barnes,7043,7,44,WAFF
1039.668865853,barnes,7043,7,44,WAFF
1039.668880945,barnes,7093,6,45,WAFF
1039.668880945,barnes,7093,6,45,WAFF
1039.668902291,barnes,7074,0,46,WAFF
1039.668902291,barnes,7074,0,46,WAFF
1039.668918080,barnes,7097,19,20,WAFF
1039.668918080,barnes,7097,19,20,WAFF
1039.668921465,barnes,7060,24,37,WAFF
1039.668921465,barnes,7060,24,37,WAFF
1039.668967644,barnes,7048,36,47,WAFF
1039.668967644,barnes,7048,36,47,WAFF
1039.668989610,barnes,7051,5,40,WAFF
1039.668989610,barnes,7051,5,40,WAFF
1039.669044306,barnes,7064,6,5,WAFF
1039.669044306,barnes,7064,6,5,WAFF
1039.669055795,barnes,7067,17,6,WAFF
1039.669055795,barnes,7067,17,6,WAFF
1039.669288388,barnes,7097,20,18,WAFF
1039.669288388,barnes,7097,20,18,WAFF
1039.669295204,barnes,7058,22,20,WAFF
1039.669295204,barnes,7058,22,20,WAFF
1039.669378813,barnes,7068,20,41,WAFF
1039.669378813,barnes,7068,20,41,WAFF
1039.669463485,barnes,7096,17,46,WAFF
1039.669463485,barnes,7096,17,46,WAFF
1039.669465157,barnes,7055,43,20,WAFF
1039.669465157,barnes,7055,43,20,WAFF
1039.669506506,barnes,7096,46,37,ILB
1039.669506506,barnes,7096,46,37,ILB
1039.669517313,barnes,7060,37,38,WAFF
1039.669517313,barnes,7060,37,38,WAFF
1039.669533056,barnes,7054,20,39,WAFF
1039.669533056,barnes,7054,20,39,WAFF
1039.669536760,barnes,7050,18,21,WAFF
1039.669536760,barnes,7050,18,21,WAFF
1039.669549504,barnes,7064,5,32,WAFF
1039.669549504,barnes,7064,5,32,WAFF
1039.669581175,barnes,7058,20,33,WAFF
1039.669581175,barnes,7058,20,33,WAFF
1039.669596490,barnes,7049,19,20,ILB
1039.669596490,barnes,7049,19,20,ILB
1039.669604345,barnes,7055,20,46,WAFF
1039.669604345,barnes,7055,20,46,WAFF
1039.669611593,barnes,7073,37,34,WAFF
1039.669611593,barnes,7073,37,34,WAFF
1039.669632709,barnes,7084,38,35,WAFF
1039.669632709,barnes,7084,38,35,WAFF
1039.669644778,barnes,7050,21,47,WAFF
1039.669644778,barnes,7050,21,47,WAFF
1039.669669221,barnes,7054,39,36,WAFF
1039.669669221,barnes,7054,39,36,WAFF
1039.669687247,barnes,7043,44,35,WAFF
1039.669687247,barnes,7043,44,35,WAFF
1039.669750909,barnes,7035,6,5,WAFF
1039.669750909,barnes,7035,6,5,WAFF
1039.669756621,barnes,7067,6,38,WAFF
1039.669756621,barnes,7067,6,38,WAFF
1039.669763319,barnes,7050,47,43,WAFF
1039.669763319,barnes,7050,47,43,WAFF
1039.669777049,barnes,7084,35,38,WAFF
1039.669777049,barnes,7084,35,38,WAFF
1039.669777369,barnes,7067,38,39,ILB
1039.669777369,barnes,7067,38,39,ILB
1039.669782111,barnes,7074,46,44,WAFF
1039.669782111,barnes,7074,46,44,WAFF
1039.669802358,barnes,7077,41,42,WAFF
1039.669802358,barnes,7077,41,42,WAFF
1039.669822561,barnes,7052,16,42,WAFF
1039.669822561,barnes,7052,16,42,WAFF
1039.669854706,barnes,7045,5,42,WAFF
1039.669854706,barnes,7045,5,42,WAFF
1039.669872417,barnes,7052,42,10,WAFF
1039.669872417,barnes,7052,42,10,WAFF
1039.669885557,barnes,7042,6,42,WAFF
1039.669885557,barnes,7042,6,42,WAFF
1039.669921210,barnes,7099,23,17,WAFF
1039.669921210,barnes,7099,23,17,WAFF
1039.669945805,barnes,7099,17,20,ILB
1039.669945805,barnes,7099,17,20,ILB
1039.670014284,barnes,7041,25,26,WAFF
1039.670014284,barnes,7041,25,26,WAFF
1039.670017868,barnes,7042,42,11,WAFF
1039.670017868,barnes,7042,42,11,WAFF
1039.670059991,barnes,7099,20,21,WAFF
1039.670059991,barnes,7099,20,21,WAFF
1039.670100179,barnes,7082,46,27,WAFF
1039.670100179,barnes,7082,46,27,WAFF
1039.670155291,barnes,7045,42,6,WAFF
1039.670155291,barnes,7045,42,6,WAFF
1039.670156264,barnes,7057,21,53,WAFF
1039.670156264,barnes,7057,21,53,WAFF
1039.670164641,barnes,7050,43,38,WAFF
1039.670164641,barnes,7050,43,38,WAFF
1039.670177564,barnes,7090,26,28,WAFF
1039.670177564,barnes,7090,26,28,WAFF
1039.670188584,barnes,7081,45,55,WAFF
1039.670188584,barnes,7081,45,55,WAFF
1039.670202227,barnes,7067,39,32,WAFF
1039.670202227,barnes,7067,39,32,WAFF
1039.670218138,barnes,7038,6,5,WAFF
1039.670218138,barnes,7038,6,5,WAFF
1039.670218166,barnes,7089,53,48,WAFF
1039.670218166,barnes,7089,53,48,WAFF
1039.670224216,barnes,7060,38,33,WAFF
1039.670224216,barnes,7060,38,33,WAFF
1039.670229992,barnes,7077,42,6,WAFF
1039.670229992,barnes,7077,42,6,WAFF
1039.670253365,barnes,7043,35,37,WAFF
1039.670253365,barnes,7043,35,37,WAFF
1039.670275033,barnes,7097,18,12,WAFF
1039.670275033,barnes,7097,18,12,WAFF
1039.670297764,barnes,7038,5,55,ILB
1039.670297764,barnes,7038,5,55,ILB
1039.670306572,barnes,7081,55,6,WAFF
1039.670306572,barnes,7081,55,6,WAFF
1039.670351935,barnes,7076,40,36,WAFF
1039.670351935,barnes,7076,40,36,WAFF
1039.670361551,barnes,7096,37,49,WAFF
1039.670361551,barnes,7096,37,49,WAFF
1039.670395378,barnes,7075,39,36,WAFF
1039.670395378,barnes,7075,39,36,WAFF
1039.670415258,barnes,7066,0,27,WAFF
1039.670415258,barnes,7066,0,27,WAFF
1039.670459091,barnes,7082,27,13,WAFF
1039.670459091,barnes,7082,27,13,WAFF
1039.670493761,barnes,7075,36,39,ILB
1039.670493761,barnes,7075,36,39,ILB
1039.670512537,barnes,7080,44,41,WAFF
1039.670512537,barnes,7080,44,41,WAFF
1039.670532715,barnes,7080,41,13,ILB
1039.670532715,barnes,7080,41,13,ILB
1039.670548946,barnes,7082,13,14,WAFF
1039.670548946,barnes,7082,13,14,WAFF
1039.670556796,barnes,7083,47,43,WAFF
1039.670556796,barnes,7083,47,43,WAFF
1039.670560831,barnes,7056,25,8,WAFF
1039.670560831,barnes,7056,25,8,WAFF
1039.670571847,barnes,7065,16,20,WAFF
1039.670571847,barnes,7065,16,20,WAFF
1039.670585204,barnes,7072,36,48,WAFF
1039.670585204,barnes,7072,36,48,WAFF
1039.670616342,barnes,7067,32,23,WAFF
1039.670616342,barnes,7067,32,23,WAFF
1039.670644813,barnes,7072,48,55,ILB
1039.670644813,barnes,7072,48,55,ILB
1039.670655765,barnes,7038,55,50,WAFF
1039.670655765,barnes,7038,55,50,WAFF
1039.670683538,barnes,7075,39,57,WAFF
1039.670683538,barnes,7075,39,57,WAFF
1039.670761804,barnes,7076,36,15,WAFF
1039.670761804,barnes,7076,36,15,WAFF
1039.670774427,barnes,7079,57,24,WAFF
1039.670774427,barnes,7079,57,24,WAFF
1039.670826298,barnes,7045,6,54,WAFF
1039.670826298,barnes,7045,6,54,WAFF
1039.670850527,barnes,7077,6,53,WAFF
1039.670850527,barnes,7077,6,53,WAFF
1039.670855550,barnes,7076,15,12,ILB
1039.670855550,barnes,7076,15,12,ILB
1039.670858533,barnes,7081,6,14,WAFF
1039.670858533,barnes,7081,6,14,WAFF
1039.670866451,barnes,7077,53,52,ILB
1039.670866451,barnes,7077,53,52,ILB
1039.670866796,barnes,7081,14,9,ILB
1039.670866796,barnes,7081,14,9,ILB
1039.670895024,barnes,7085,54,15,WAFF
1039.670895024,barnes,7085,54,15,WAFF
1039.670911729,barnes,7076,12,15,WAFF
1039.670911729,barnes,7076,12,15,WAFF
1039.671033423,barnes,7053,24,25,WAFF
1039.671033423,barnes,7053,24,25,WAFF
1039.671043217,barnes,7076,15,37,WAFF
1039.671043217,barnes,7076,15,37,WAFF
1039.671054358,barnes,7060,33,34,WAFF
1039.671054358,barnes,7060,33,34,WAFF
1039.671055732,barnes,7059,23,19,WAFF
1039.671055732,barnes,7059,23,19,WAFF
1039.671060303,barnes,7073,34,35,WAFF
1039.671060303,barnes,7073,34,35,WAFF
1039.671158786,barnes,7071,35,36,WAFF
1039.671158786,barnes,7071,35,36,WAFF
1039.671168050,barnes,7081,9,36,WAFF
1039.671168050,barnes,7081,9,36,WAFF
1039.671198728,barnes,7081,36,39,ILB
1039.671198728,barnes,7081,36,39,ILB
1039.671200137,barnes,7050,38,35,WAFF
1039.671200137,barnes,7050,38,35,WAFF
1039.671228626,barnes,7081,39,55,WAFF
1039.671228626,barnes,7081,39,55,WAFF
1039.671307932,barnes,7059,19,34,WAFF
1039.671307932,barnes,7059,19,34,WAFF
1039.671333473,barnes,7085,15,52,WAFF
1039.671333473,barnes,7085,15,52,WAFF
1039.671412827,barnes,7085,52,50,ILB
1039.671412827,barnes,7085,52,50,ILB
1039.671413429,barnes,7072,55,48,WAFF
1039.671413429,barnes,7072,55,48,WAFF
1039.671415000,barnes,7088,52,50,ILB
1039.671415000,barnes,7088,52,50,ILB
1039.671490888,barnes,7089,48,24,WAFF
1039.671490888,barnes,7089,48,24,WAFF
1039.671662372,barnes,7079,24,13,WAFF
1039.671662372,barnes,7079,24,13,WAFF
1039.671919123,barnes,7088,50,8,WAFF
1039.671919123,barnes,7088,50,8,WAFF
1039.672037879,barnes,7047,8,10,WAFF
1039.672037879,barnes,7047,8,10,WAFF
1039.672042709,barnes,7088,8,43,WAFF
1039.672042709,barnes,7088,8,43,WAFF
1039.719704633,barnes,7054,36,0,NLB
1039.719704633,barnes,7054,36,0,NLB
1039.746029100,barnes,7065,20,22,WAFF
1039.746029100,barnes,7065,20,22,WAFF
1039.751742091,barnes,7088,43,56,NLB
1039.751742091,barnes,7088,43,56,NLB
1039.758464905,barnes,7047,10,11,WAFF
1039.758464905,barnes,7047,10,11,WAFF
1039.758874055,barnes,7073,35,56,ILB
1039.758874055,barnes,7073,35,56,ILB
1039.759708727,barnes,7059,34,0,NLB
1039.759708727,barnes,7059,34,0,NLB
1039.771639915,barnes,7079,13,9,NLB
1039.771639915,barnes,7079,13,9,NLB
1039.771706311,barnes,7043,37,32,NLB
1039.771706311,barnes,7043,37,32,NLB
1039.771743981,barnes,7085,50,48,NLB
1039.771743981,barnes,7085,50,48,NLB
1039.771775975,barnes,7073,56,57,NLB
1039.771775975,barnes,7073,56,57,NLB
1039.785666362,barnes,7054,0,6,WAFF
1039.785666362,barnes,7054,0,6,WAFF
1039.785838114,barnes,7065,22,20,WAFF
1039.785838114,barnes,7065,22,20,WAFF
1039.791736282,barnes,7073,57,58,NLB
1039.791736282,barnes,7073,57,58,NLB
1039.815708553,barnes,7043,32,37,WAFF
1039.815708553,barnes,7043,32,37,WAFF
1039.815749287,barnes,7047,11,13,WAFF
1039.815749287,barnes,7047,11,13,WAFF
1039.835638976,barnes,7079,9,11,WAFF
1039.835638976,barnes,7079,9,11,WAFF
1039.843202745,barnes,7085,48,49,ILB
1039.843202745,barnes,7085,48,49,ILB
1039.843360618,barnes,7043,37,32,ILB
1039.843360618,barnes,7043,37,32,ILB
1039.843556889,barnes,7065,20,27,ILB
1039.843556889,barnes,7065,20,27,ILB
1039.843690576,barnes,7095,21,26,NLB
1039.843690576,barnes,7095,21,26,NLB
1039.844843453,barnes,7061,3,7,ILB
1039.844843453,barnes,7061,3,7,ILB
1039.844844086,barnes,7047,13,12,ILB
1039.844844086,barnes,7047,13,12,ILB
1039.847798453,barnes,7059,0,2,WAFF
1039.847798453,barnes,7059,0,2,WAFF
1039.847798893,barnes,7043,32,33,WAFF
1039.847798893,barnes,7043,32,33,WAFF
1039.847822819,barnes,7079,11,14,WAFF
1039.847822819,barnes,7079,11,14,WAFF
1039.847862561,barnes,7061,7,3,WAFF
1039.847862561,barnes,7061,7,3,WAFF
1039.847894624,barnes,7095,26,28,WAFF
1039.847894624,barnes,7095,26,28,WAFF
1039.848047388,barnes,7085,49,50,WAFF
1039.848047388,barnes,7085,49,50,WAFF
1039.848155202,barnes,7038,50,53,WAFF
1039.848155202,barnes,7038,50,53,WAFF
1039.848172957,barnes,7039,3,4,WAFF
1039.848172957,barnes,7039,3,4,WAFF
1039.848188194,barnes,7082,14,8,WAFF
1039.848188194,barnes,7082,14,8,WAFF
1039.848244737,barnes,7090,28,29,WAFF
1039.848244737,barnes,7090,28,29,WAFF
1039.863707369,barnes,7057,53,54,WAFF
1039.863707369,barnes,7057,53,54,WAFF
1039.863851972,barnes,7065,27,30,WAFF
1039.863851972,barnes,7065,27,30,WAFF
1039.871657903,barnes,7045,54,59,NLB
1039.871657903,barnes,7045,54,59,NLB
1039.911648215,barnes,7043,33,60,NLB
1039.911648215,barnes,7043,33,60,NLB
1039.991653960,barnes,7082,8,31,NLB
1039.991653960,barnes,7082,8,31,NLB
1040.31650686,barnes,7059,2,0,SLB
1040.31650686,barnes,7059,2,0,SLB
1040.71699348,barnes,7047,12,41,ILB
1040.71699348,barnes,7047,12,41,ILB
1040.79705038,barnes,7039,4,62,NLB
1040.79705038,barnes,7039,4,62,NLB
1040.87686144,barnes,7059,0,63,NLB
1040.87686144,barnes,7059,0,63,NLB
1045.447966162,jbd2/sdb1-8,1060,50,0,WAFF
1045.551967261,rcu_sched,8,48,56,WAFF
1045.927994228,rcu_sched,8,56,48,WAFF
