Start,End,Cpu,Size
1034.186139454,1034.187846057,25,1
1037.21261636,1037.21304172,50,1
1034.187846057,1037.21349711,0,1
1037.21894443,1037.21910543,56,1
1037.22422252,1037.22436202,26,1
1037.22490661,1037.22502641,32,1
1037.23410850,1037.23423618,57,1
1037.23481111,1037.23493907,27,1
1037.24569790,1037.24583953,33,1
1037.24636391,1037.24648624,58,1
1037.25594313,1037.25600462,28,1
1037.25649167,1037.25656954,29,1
1037.26608893,1037.26623346,30,1
1037.26669870,1037.26682289,34,1
1037.27669151,1037.27676614,31,1
1037.27731477,1037.27743513,35,1
1037.28817869,1037.28832213,59,1
1037.28880742,1037.28893244,24,1
1037.29847728,1037.29860961,25,1
1037.29909184,1037.29922495,26,1
1037.30851471,1037.30865898,27,1
1037.30914508,1037.30927053,28,1
1037.31392431,1037.31406230,29,1
1037.32447265,1037.32454899,30,1
1037.33353630,1037.33366363,31,1
1037.34420376,1037.34434287,36,1
1037.34483265,1037.34490664,37,1
1037.35440578,1037.35477513,38,1
1037.21349711,1037.35485468,51,1
1037.36063919,1037.36081266,60,1
1037.36133703,1037.36141170,61,1
1037.37148580,1037.37163122,62,1
1037.38049578,1037.38062612,63,1
1037.38108844,1037.38121175,56,1
1037.39110976,1037.39125196,57,1
1037.39682382,1037.39696253,58,1
1037.40561869,1037.40574697,59,1
1037.40625920,1037.40638625,60,1
1037.41591012,1037.41599375,61,1
1037.41651339,1037.41659433,62,1
1037.42771693,1037.42806793,63,1
1037.35485468,1037.42806793,39,1
1037.42806793,1037.42813987,39,2
1037.24648624,1037.43419698,8,1
1037.43419698,1037.43436346,8,2
1037.43954883,1037.43968658,0,1
1037.25600462,1037.44021994,9,1
1037.44021994,1037.44035230,9,2
1037.21304172,1037.44948761,1,1
1037.44948761,1037.44964190,1,2
1037.25656954,1037.45477669,10,1
1037.45477669,1037.45492186,10,2
1037.21910543,1037.45550230,2,1
1037.45550230,1037.45563827,2,2
1037.26623346,1037.46558038,11,1
1037.46558038,1037.46573324,11,2
1037.26682289,1037.47488694,12,1
1037.47488694,1037.47502659,12,2
1037.22436202,1037.47553272,3,1
1037.47553272,1037.47566520,3,2
1037.27676614,1037.48525101,13,1
1037.48525101,1037.48538730,13,2
1037.27743513,1037.48588593,14,1
1037.48588593,1037.48602188,14,2
1037.22502641,1037.49536872,4,1
1037.49536872,1037.49552394,4,2
1037.28832213,1037.50046567,15,1
1037.50046567,1037.50060585,15,2
1037.43436346,1037.50119523,8,1
1037.50119523,1037.50133260,8,2
1037.44035230,1037.51140540,9,1
1037.51140540,1037.51148279,9,2
1037.23423618,1037.51643512,5,1
1037.51643512,1037.51657233,5,2
1037.45492186,1037.52659216,10,1
1037.52659216,1037.52667267,10,2
1037.42813987,1037.52667267,56,1
1037.52667267,1037.52698200,56,2
1037.51657233,1037.52698200,55,1
1037.23493907,1037.52727478,6,1
1037.52727478,1037.52741484,6,2
1037.46573324,1037.53765078,11,1
1037.53765078,1037.53865557,11,2
1037.52698200,1037.53881491,56,1
1037.47502659,1037.53881491,12,1
1037.24583953,1037.55064954,7,1
1037.55064954,1037.55083479,7,2
1037.55134245,1037.55147350,0,1
1037.44964190,1037.56099764,1,1
1037.56099764,1037.56106811,1,2
1037.45563827,1037.56154105,2,1
1037.56154105,1037.56167433,2,2
1037.47566520,1037.57197323,3,1
1037.57197323,1037.57212283,3,2
1037.52698200,1037.58768078,55,2
1037.47566520,1037.58768078,48,1
1037.53881491,1037.59118992,12,2
1037.48538730,1037.59118992,13,1
1037.59118992,1037.59165676,13,2
1037.48602188,1037.59165676,14,1
1037.59165676,1037.59197284,14,2
1037.50060585,1037.59197284,15,1
1037.59197284,1037.59213435,15,2
1037.50133260,1037.59213435,8,1
1037.59213435,1037.62629384,8,2
1037.51148279,1037.62629384,9,1
1037.62629384,1037.71647745,9,2
1037.52667267,1037.71647745,10,1
1037.71647745,1037.84953341,10,2
1037.53865557,1037.84953341,11,1
1037.84953341,1037.85519623,11,2
1037.59118992,1037.85519623,12,1
1037.58768078,1037.86576564,48,2
1037.48538730,1037.86576564,49,1
1037.86576564,1037.86749595,49,2
1037.49552394,1037.86749595,51,1
1037.85519623,1037.86783845,12,2
1037.85519623,1037.86783845,11,1
1037.86749595,1037.86798855,51,2
1037.51148279,1037.86798855,54,1
1037.86783845,1037.87663666,11,2
1037.59213435,1037.87663666,15,1
1037.87663666,1037.87673211,15,2
1037.71647745,1037.87673211,9,1
1037.86798855,1037.87682010,54,2
1037.86749595,1037.87682010,49,1
1037.87673211,1037.87690597,9,2
1037.84953341,1037.87690597,10,1
1037.87690597,1037.87709713,10,2
1037.59165676,1037.87709713,13,1
1037.87682010,1037.87786126,49,2
1037.87690597,1037.87786126,9,1
1037.87786126,1037.87814379,9,2
1037.29860961,1037.87814379,17,1
1037.87814379,1037.88420151,17,2
1037.29922495,1037.88420151,18,1
1037.88420151,1037.88446510,18,2
1037.30927053,1037.88446510,20,1
1037.88446510,1037.89811982,20,2
1037.32454899,1037.89811982,22,1
1037.89811982,1037.90590818,22,2
1037.88420151,1037.90590818,17,1
1037.90590818,1037.90625478,17,2
1037.88446510,1037.90625478,18,1
1037.87709713,1037.91560125,13,2
1037.62629384,1037.91560125,8,1
1037.90625478,1037.91611380,18,2
1037.30865898,1037.91611380,19,1
1037.91560125,1037.91637102,8,2
1037.87814379,1037.91637102,9,1
1037.91637102,1037.91664643,9,2
1037.87709713,1037.91664643,10,1
1037.91664643,1037.91714645,10,2
1037.51657233,1037.91714645,5,1
1037.91714645,1037.91731568,5,2
1037.91611380,1037.92497029,19,2
1037.89811982,1037.92497029,20,1
1037.92497029,1037.92643550,20,2
1037.86783845,1037.92643550,12,1
1037.92643550,1037.267526228,12,2
1037.87673211,1037.267526228,15,1
1037.267526228,1037.291491591,15,2
1037.91637102,1037.291491591,8,1
1037.291491591,1037.326156981,8,2
1037.91664643,1037.326156981,9,1
1037.326156981,1037.326278635,9,2
1037.267526228,1037.326278635,12,1
1037.326278635,1037.401747994,12,2
1037.326278635,1037.401747994,9,1
1037.38121175,1039.665274392,32,1
1037.91731568,1039.665274392,5,1
1037.36141170,1039.665296036,29,1
1037.52741484,1039.665296036,6,1
1037.56167433,1039.665329320,62,1
1037.55083479,1039.665329320,7,1
1037.91714645,1039.665384510,10,1
1037.56167433,1039.665384510,2,1
1037.58768078,1039.665421787,55,1
1037.57212283,1039.665421787,3,1
1037.57212283,1039.665447386,63,1
1037.49552394,1039.665447386,4,1
1037.53865557,1039.665464268,58,1
1039.665274392,1039.665464268,5,2
1037.35477513,1039.665479571,27,1
1039.665296036,1039.665479571,6,2
1037.34434287,1039.665494133,25,1
1039.665329320,1039.665494133,7,2
1037.39696253,1039.665509080,34,1
1037.91731568,1039.665509080,0,1
1037.56106811,1039.665528227,61,1
1037.56106811,1039.665528227,1,1
1037.55083479,1039.665544716,59,1
1039.665384510,1039.665544716,2,2
1037.34490664,1039.665560003,26,1
1039.665421787,1039.665560003,3,2
1037.37163122,1039.665574822,30,1
1039.665447386,1039.665574822,4,2
1037.39125196,1039.665588940,33,1
1039.665464268,1039.665588940,5,3
1037.87663666,1039.665623620,11,1
1039.665560003,1039.665623620,3,3
1037.52741484,1039.665638069,57,1
1039.665574822,1039.665638069,4,3
1037.36081266,1039.665652158,28,1
1039.665588940,1039.665652158,5,4
1037.38062612,1039.665665704,31,1
1039.665479571,1039.665665704,6,3
1037.55147350,1039.665679605,60,1
1039.665494133,1039.665679605,7,3
1039.665509080,1039.665734992,0,2
1037.87786126,1039.665763154,49,1
1037.91560125,1039.665829920,13,1
1037.40638625,1039.665829920,36,1
1037.92497029,1039.665899948,19,1
1037.44964190,1039.665899948,43,1
1037.41659433,1039.665936658,38,1
1039.665734992,1039.665936658,0,1
1037.59197284,1039.666053066,14,1
1039.665936658,1039.666104036,0,2
1037.48602188,1039.666144908,50,1
1037.42813987,1039.666144908,39,1
1039.665652158,1039.666760711,5,5
1039.666760711,1039.666770376,5,6
1039.666104036,1039.666770376,0,1
1039.665638069,1039.666829397,4,4
1039.665623620,1039.666829397,3,4
1039.666770376,1039.666885729,5,5
1039.666829397,1039.666885729,3,5
1039.665665704,1039.667109840,6,4
1039.666885729,1039.667109840,3,6
1039.667109840,1039.667190220,3,7
1039.667109840,1039.667190220,6,3
1039.665679605,1039.667193821,7,4
1039.667190220,1039.667193821,3,6
1039.666770376,1039.667207736,0,2
1039.667193821,1039.667207736,3,7
1039.667190220,1039.667315167,6,4
1039.665544716,1039.667315167,2,3
1039.667207736,1039.667668076,3,8
1037.28893244,1039.667668076,16,1
1039.667668076,1039.667674772,3,7
1039.667668076,1039.667674772,16,2
1039.667674772,1039.667677117,3,6
1039.667674772,1039.667677117,16,3
1039.665528227,1039.667707182,1,2
1039.667315167,1039.667707182,6,3
1039.667315167,1039.667731509,2,4
1039.667207736,1039.667731509,0,1
1039.667677117,1039.667734302,3,5
1039.667731509,1039.667734302,2,3
1039.667677117,1039.667763077,16,4
1039.667707182,1039.667763077,6,4
1039.666829397,1039.667778950,4,3
1039.667734302,1039.667778950,2,4
1039.667763077,1039.667808718,16,3
1039.667778950,1039.667808718,2,5
1039.667734302,1039.668047001,3,4
1037.90625478,1039.668047001,17,1
1039.667763077,1039.668067115,6,5
1037.91611380,1039.668067115,18,1
1039.667808718,1039.668096518,2,6
1039.667808718,1039.668096518,16,2
1039.668096518,1039.668098922,2,5
1039.668096518,1039.668098922,16,3
1039.668098922,1039.668108029,16,4
1039.666053066,1039.668108029,19,1
1039.668098922,1039.668143105,2,4
1039.668067115,1039.668143105,6,4
1039.668047001,1039.668161007,3,3
1039.668143105,1039.668161007,6,5
1039.668108029,1039.668173914,16,3
1039.667731509,1039.668173914,0,2
1039.667778950,1039.668247153,4,2
1039.668161007,1039.668247153,6,6
1039.666885729,1039.668259172,5,4
1039.668247153,1039.668259172,6,7
1039.668143105,1039.668272230,2,3
1039.668173914,1039.668272230,16,2
1039.668173914,1039.668511506,0,3
1037.92643550,1039.668511506,20,1
1039.668272230,1039.668568109,2,2
1037.31406230,1039.668568109,21,1
1039.668259172,1039.668634821,5,3
1037.90590818,1039.668634821,22,1
1039.668259172,1039.668674222,6,8
1039.668108029,1039.668674222,19,2
1039.668674222,1039.668679765,6,7
1039.668674222,1039.668679765,19,3
1039.668679765,1039.668682311,6,6
1039.668679765,1039.668682311,19,4
1039.668682311,1039.668691282,19,5
1037.33366363,1039.668691282,23,1
1039.667193821,1039.668716353,7,3
1039.668047001,1039.668716353,17,2
1039.668691282,1039.668750420,19,4
1039.668716353,1039.668750420,17,3
1039.668716353,1039.668865853,7,2
1037.45492186,1039.668865853,44,1
1039.668682311,1039.668880945,6,5
1037.45563827,1039.668880945,45,1
1039.668511506,1039.668902291,0,2
1037.46573324,1039.668902291,46,1
1039.668750420,1039.668918080,19,3
1039.668511506,1039.668918080,20,2
1037.33413608,1039.668921465,24,1
1037.41599375,1039.668921465,37,1
1039.665829920,1039.668967644,36,2
1037.47502659,1039.668967644,47,1
1039.668634821,1039.668989610,5,2
1037.43436346,1039.668989610,40,1
1039.668880945,1039.669044306,6,4
1039.668989610,1039.669044306,5,1
1039.668750420,1039.669055795,17,4
1039.669044306,1039.669055795,6,3
1039.668918080,1039.669288388,20,3
1039.668067115,1039.669288388,18,2
1039.668634821,1039.669295204,22,2
1039.669288388,1039.669295204,20,2
1039.669295204,1039.669378813,20,3
1037.43968658,1039.669378813,41,1
1039.669055795,1039.669463485,17,3
1039.668902291,1039.669463485,46,2
1039.665899948,1039.669465157,43,2
1039.669378813,1039.669465157,20,2
1039.669463485,1039.669506506,46,3
1039.668921465,1039.669506506,37,2
1039.669506506,1039.669517313,37,3
1039.666104036,1039.669517313,38,1
1039.669465157,1039.669533056,20,3
1039.666144908,1039.669533056,39,2
1039.669288388,1039.669536760,18,3
1039.668568109,1039.669536760,21,2
1039.669044306,1039.669549504,5,2
1039.669533056,1039.669581175,20,2
1039.668918080,1039.669596490,19,2
1039.669581175,1039.669596490,20,1
1039.669596490,1039.669604345,20,2
1039.669506506,1039.669604345,46,2
1039.669517313,1039.669611593,37,2
1039.669517313,1039.669632709,38,2
1037.40574697,1039.669632709,35,1
1039.669536760,1039.669644778,21,3
1039.668967644,1039.669644778,47,2
1039.669533056,1039.669669221,39,3
1039.668967644,1039.669669221,36,1
1039.668865853,1039.669687247,44,2
1039.669632709,1039.669687247,35,2
1039.669055795,1039.669750909,6,4
1039.669549504,1039.669750909,5,1
1039.669750909,1039.669756621,6,3
1039.669632709,1039.669756621,38,1
1039.669644778,1039.669763319,47,3
1039.669465157,1039.669763319,43,1
1039.669687247,1039.669777049,35,3
1039.669756621,1039.669777049,38,2
1039.669777049,1039.669777369,38,3
1039.669669221,1039.669777369,39,2
1039.669604345,1039.669782111,46,3
1039.669687247,1039.669782111,44,1
1039.669378813,1039.669802358,41,2
1037.44035230,1039.669802358,42,1
1039.668272230,1039.669822561,16,3
1039.669802358,1039.669822561,42,2
1039.669750909,1039.669854706,5,2
1039.669822561,1039.669854706,42,3
1039.669854706,1039.669872417,42,4
1039.669756621,1039.669885557,6,2
1039.669872417,1039.669885557,42,3
1039.668691282,1039.669921210,23,2
1039.669463485,1039.669921210,17,2
1039.669921210,1039.669945805,17,3
1039.669604345,1039.669945805,20,1
1039.665734992,1039.670014284,25,1
1039.665763154,1039.670014284,26,1
1039.669885557,1039.670017868,42,4
1039.669945805,1039.670059991,20,2
1039.669644778,1039.670059991,21,2
1039.669782111,1039.670100179,46,2
1039.670017868,1039.670155291,42,3
1039.669885557,1039.670155291,6,1
1039.670059991,1039.670156264,21,3
1037.50133260,1039.670156264,53,1
1039.669763319,1039.670164641,43,2
1039.669777369,1039.670164641,38,2
1039.670014284,1039.670177564,26,2
1039.668880945,1039.670188584,45,2
1039.669777369,1039.670202227,39,3
1039.669549504,1039.670202227,32,1
1039.670155291,1039.670218138,6,2
1039.669854706,1039.670218138,5,1
1039.670156264,1039.670218166,53,2
1037.86576564,1039.670218166,48,1
1039.670164641,1039.670224216,38,3
1039.669581175,1039.670224216,33,1
1039.670155291,1039.670229992,42,2
1039.670218138,1039.670229992,6,1
1039.669777049,1039.670253365,35,2
1039.669611593,1039.670253365,37,1
1039.669536760,1039.670275033,18,2
1037.401747994,1039.670275033,12,1
1039.670218138,1039.670297764,5,2
1039.670188584,1039.670297764,55,1
1039.670297764,1039.670306572,55,2
1039.670229992,1039.670306572,6,2
1039.668989610,1039.670351935,40,2
1039.669669221,1039.670351935,36,2
1039.670253365,1039.670361551,37,2
1039.670202227,1039.670395378,39,2
1039.670351935,1039.670395378,36,3
1039.668902291,1039.670415258,0,1
1039.670100179,1039.670415258,27,1
1039.670415258,1039.670459091,27,2
1039.670395378,1039.670493761,36,4
1039.670395378,1039.670493761,39,1
1039.669782111,1039.670512537,44,2
1039.669802358,1039.670512537,41,1
1039.670512537,1039.670532715,41,2
1039.670459091,1039.670532715,13,1
1039.670532715,1039.670548946,13,2
1039.669763319,1039.670556796,47,2
1039.670164641,1039.670556796,43,1
1037.326156981,1039.670560831,8,1
1039.669822561,1039.670571847,16,2
1039.670059991,1039.670571847,20,1
1039.670493761,1039.670585204,36,3
1039.670218166,1039.670585204,48,2
1039.670202227,1039.670616342,32,2
1039.669921210,1039.670616342,23,1
1039.670585204,1039.670644813,48,3
1039.670306572,1039.670644813,55,1
1039.670644813,1039.670655765,55,2
1039.670493761,1039.670683538,39,2
1039.670585204,1039.670761804,36,2
1037.291491591,1039.670761804,15,1
1039.670683538,1039.670774427,57,1
1039.670306572,1039.670826298,6,3
1037.87682010,1039.670826298,54,1
1039.670826298,1039.670850527,6,2
1039.670218166,1039.670850527,53,1
1039.670761804,1039.670855550,15,2
1039.670275033,1039.670855550,12,2
1039.670850527,1039.670858533,6,1
1039.670548946,1039.670858533,14,1
1039.670850527,1039.670866451,53,2
1037.50060585,1039.670866451,52,1
1039.670858533,1039.670866796,14,2
1037.401747994,1039.670866796,9,2
1039.670826298,1039.670895024,54,2
1039.670855550,1039.670895024,15,1
1039.670855550,1039.670911729,12,3
1039.670895024,1039.670911729,15,2
1039.670774427,1039.671033423,24,1
1039.670911729,1039.671043217,15,3
1039.670361551,1039.671043217,37,1
1039.670224216,1039.671054358,33,2
1039.669611593,1039.671054358,34,1
1039.670616342,1039.671055732,23,2
1039.669596490,1039.671055732,19,1
1039.671054358,1039.671060303,34,2
1039.670253365,1039.671060303,35,1
1039.671060303,1039.671158786,35,2
1039.670761804,1039.671158786,36,1
1039.670866796,1039.671168050,9,3
1039.671158786,1039.671168050,36,2
1039.671168050,1039.671198728,36,3
1039.670683538,1039.671198728,39,1
1039.670224216,1039.671200137,38,2
1039.671158786,1039.671200137,35,1
1039.671198728,1039.671228626,39,2
1039.670655765,1039.671228626,55,1
1039.671055732,1039.671307932,19,2
1039.671060303,1039.671307932,34,1
1039.671043217,1039.671333473,15,2
1039.670866451,1039.671333473,52,2
1039.671333473,1039.671412827,52,3
1039.670655765,1039.671412827,50,1
1039.671228626,1039.671413429,55,2
1039.670644813,1039.671413429,48,2
1039.671412827,1039.671415000,52,2
1039.671412827,1039.671415000,50,2
1039.671413429,1039.671490888,48,3
1039.671490888,1039.671662372,24,1
1039.670548946,1039.671662372,13,1
1039.671415000,1039.671919123,50,3
1039.670560831,1039.671919123,8,2
1039.671919123,1039.672037879,8,3
1039.669872417,1039.672037879,10,1
1039.672037879,1039.672042709,8,2
1039.670556796,1039.672042709,43,2
1039.671198728,1039.719704633,36,2
1039.670571847,1039.746029100,20,2
1039.669295204,1039.746029100,22,1
1039.672042709,1039.751742091,43,3
1039.672037879,1039.758464905,10,2
1039.670017868,1039.758464905,11,1
1039.671200137,1039.758874055,35,2
1039.671307932,1039.759708727,34,2
1039.719704633,1039.759708727,0,1
1039.671662372,1039.771639915,13,2
1039.671168050,1039.771639915,9,2
1039.671043217,1039.771706311,37,2
1039.670616342,1039.771706311,32,1
1039.671919123,1039.771743981,50,2
1039.671490888,1039.771743981,48,2
1039.758874055,1039.771775975,56,1
1039.759708727,1039.785666362,0,2
1039.746029100,1039.785838114,22,2
1039.746029100,1039.785838114,20,1
1039.771775975,1039.791736282,57,1
1039.771706311,1039.815708553,32,2
1039.771706311,1039.815708553,37,1
1039.758464905,1039.815749287,11,2
1039.771639915,1039.815749287,13,1
1039.771639915,1039.835638976,9,3
1039.815749287,1039.835638976,11,1
1039.771743981,1039.843202745,48,3
1039.670361551,1039.843202745,49,1
1039.815708553,1039.843360618,37,2
1039.815708553,1039.843360618,32,1
1039.785838114,1039.843556889,20,2
1039.670459091,1039.843556889,27,1
1039.670156264,1039.843690576,21,2
1039.670177564,1039.843690576,26,1
1039.668161007,1039.844843453,3,2
1039.668865853,1039.844843453,7,1
1039.815749287,1039.844844086,13,2
1039.670911729,1039.844844086,12,2
1039.785666362,1039.847798453,0,1
1039.668568109,1039.847798453,2,1
1039.843360618,1039.847798893,32,2
1039.671054358,1039.847798893,33,1
1039.835638976,1039.847822819,11,2
1039.670866796,1039.847822819,14,1
1039.844843453,1039.847862561,7,2
1039.844843453,1039.847862561,3,1
1039.843690576,1039.847894624,26,2
1039.670177564,1039.847894624,28,1
1039.843202745,1039.848047388,49,2
1039.771743981,1039.848047388,50,1
1039.848047388,1039.848155202,50,2
1039.670866451,1039.848155202,53,1
1039.847862561,1039.848172957,3,2
1039.668247153,1039.848172957,4,1
1039.847822819,1039.848188194,14,2
1039.672042709,1039.848188194,8,1
1039.847894624,1039.848244737,28,2
1039.848155202,1039.863707369,53,2
1039.670895024,1039.863707369,54,1
1039.843556889,1039.863851972,27,2
1039.863707369,1039.871657903,54,2
1039.847798893,1039.911648215,33,2
1039.848188194,1039.991653960,8,2
1039.847798453,1040.31650686,2,2
1039.844844086,1040.71699348,12,3
1039.670532715,1040.71699348,41,1
1039.848172957,1040.79705038,4,2
1040.31650686,1040.87686144,0,1
1040.79705038,1045.948574129,62,1
1040.31650686,1045.948584813,2,1
1039.848172957,1045.948611704,3,1
1040.79705038,1045.948632166,4,1
1039.667707182,1045.948684087,1,1
1039.847862561,1045.948714474,7,1
1039.759708727,1045.948734204,34,1
1039.785666362,1045.948735976,6,1
1039.911648215,1045.948781099,33,1
1039.669945805,1045.948840877,17,2
1039.758874055,1045.948850176,35,1
1039.670275033,1045.948860041,18,1
1039.991653960,1045.948905862,8,1
1039.785838114,1045.948940232,22,1
1039.843556889,1045.948965683,20,1
1040.71699348,1045.948988846,12,2
1039.719704633,1045.949015736,36,1
1039.847798893,1045.949037547,32,1
1039.758464905,1045.949044918,10,1
1039.847822819,1045.949076508,11,1
1039.671200137,1045.949083591,38,1
1039.671333473,1045.949118941,15,1
1039.848155202,1045.949131787,50,1
1039.671307932,1045.949143526,19,1
1039.671055732,1045.949152132,23,1
1039.848047388,1045.949192840,49,1
1039.843690576,1045.949198887,21,1
1039.843360618,1045.949204827,37,1
1039.844844086,1045.949225229,13,1
1039.671228626,1045.949238070,39,1
1039.670571847,1045.949262198,16,1
1039.835638976,1045.949270014,9,2
1039.863707369,1045.949315204,53,1
1039.871657903,1045.949330375,54,1
1037.86798855,1045.949371851,51,1
1039.670351935,1045.949371923,40,1
1039.848188194,1045.949385257,14,1
1039.670229992,1045.949439962,42,1
1039.670556796,1045.949464374,47,1
1039.863851972,1045.949547472,30,1
1040.87686144,1045.949568451,63,1
1039.671415000,1045.949576256,52,1
1040.71699348,1045.949598512,41,2
1039.843202745,1045.949612824,48,2
1039.670100179,1045.949622553,46,1
1039.863851972,1045.949683963,27,1
1039.670188584,1045.949713156,45,1
1039.791736282,1045.949734303,58,1
1039.751742091,1045.949737090,43,2
1039.670512537,1045.949752006,44,1
1039.671413429,1045.949790653,55,1
1039.848244737,1045.949879438,29,1
1039.848244737,1045.949879451,28,1
1039.847894624,1045.949887017,26,1
1039.991653960,1045.949897628,31,1
1039.911648215,1045.950096705,60,1
1039.871657903,1045.950099972,59,1
1039.670297764,1045.967956631,5,1
1045.949270014,1046.0,9,1
1045.948988846,1046.0,12,1
1045.948840877,1046.0,17,1
1045.949598512,1046.0,41,1
1045.949737090,1046.0,43,1
1045.949612824,1046.0,48,1
