Start,End,Cpu,Size
2373.236858904,2373.236918686,15,1
2373.236918686,2373.236971946,15,2
2373.236971946,2373.237016323,15,3
2373.237016323,2373.237057612,15,4
2373.237057612,2373.237096544,15,5
2373.237096544,2373.237135258,15,6
2373.237135258,2373.237175774,15,7
2373.237175774,2373.237215459,15,8
2373.237215459,2373.237261157,15,9
2373.237261157,2373.237302447,15,10
2373.237302447,2373.237341955,15,11
2373.237341955,2373.237354008,15,12
2373.237354008,2373.237388563,15,11
2373.237388563,2373.237435062,15,12
2373.237480329,2373.237532726,21,1
2373.237532726,2373.237576874,21,2
2373.237576874,2373.237615943,21,3
2373.237615943,2373.237655651,21,4
2373.237655651,2373.237695857,21,5
2373.237695857,2373.237734689,21,6
2373.237734689,2373.237775081,21,7
2373.237435062,2373.237813619,15,13
2373.237775081,2373.237815144,21,8
2373.237815144,2373.237859038,21,9
2373.237859038,2373.237900318,21,10
2373.237900318,2373.237939008,21,11
2373.237939008,2373.237979104,21,12
2373.237979104,2373.238021560,21,13
2373.238021560,2373.238060248,21,14
2369.127067363,2373.238134112,56,1
2373.238060248,2373.238134112,21,15
2373.238134112,2373.238256625,21,16
2373.237813619,2373.238283848,15,12
2373.238256625,2373.238283848,21,15
2373.238235512,2373.238311084,29,1
2373.238283848,2373.238311084,21,16
2373.238283848,2373.238491167,15,11
2373.238491167,2373.238494882,15,10
2373.238491167,2373.238494882,14,1
2373.238311084,2373.238981019,21,17
2373.238981019,2373.239021136,21,16
2373.238967417,2373.239070419,30,1
2373.239070419,2373.239117798,30,2
2373.239117798,2373.239165328,30,3
2373.239165328,2373.239206786,30,4
2373.239021136,2373.239221719,21,15
2373.238494882,2373.239221719,14,2
2373.238494882,2373.239263425,15,9
2373.239221719,2373.239263425,14,3
2373.239263425,2373.240130920,14,4
2373.240130920,2373.240178758,14,3
2373.239206786,2373.240214925,30,5
2373.240178758,2373.240214925,14,2
2373.239263425,2373.240219461,15,8
2373.240214925,2373.240219461,14,3
2373.239221719,2373.240223938,21,14
2373.240219461,2373.240223938,14,4
2373.240214925,2373.240299804,30,4
2373.240223938,2373.240415536,14,5
2373.240415536,2373.240432967,14,4
2373.240432967,2373.240451024,14,3
2373.240451024,2373.240472846,14,2
2373.240299804,2373.240498563,30,5
2373.240472846,2373.240498563,14,1
2373.240498563,2373.240595869,14,2
2373.240538793,2373.240656125,31,1
2373.240656125,2373.240719970,31,2
2373.240219461,2373.240747348,15,7
2373.240595869,2373.240747348,14,1
2373.240719970,2373.240796859,31,3
2373.240747348,2373.240856789,14,2
2373.240796859,2373.240916982,31,4
2373.240916982,2373.240986698,31,5
2373.240223938,2373.241017513,21,13
2373.240856789,2373.241017513,14,1
2373.240986698,2373.241059383,31,6
2373.241017513,2373.241119324,14,2
2373.241059383,2373.241177450,31,7
2373.241177450,2373.241237397,31,8
2373.241237397,2373.241296899,31,9
2373.241296899,2373.241364767,31,10
2373.241364767,2373.241427275,31,11
2373.241427275,2373.241490543,31,12
2373.241490543,2373.241553461,31,13
2373.240747348,2373.241615730,15,6
2373.241615730,2373.241637466,15,5
2373.241119324,2373.241637466,14,1
2373.241637466,2373.241639868,15,4
2373.241637466,2373.241639868,14,2
2373.241639868,2373.241642046,15,3
2373.241639868,2373.241642046,14,3
2373.241642046,2373.241644813,15,2
2373.241642046,2373.241644813,14,4
2373.241644813,2373.241647427,15,1
2373.241644813,2373.241647427,14,5
2373.241647427,2373.241669729,14,6
2373.240498563,2373.241669729,30,4
2373.241669729,2373.241698123,30,5
2373.241614449,2373.241698123,24,1
2373.241698123,2373.243075196,30,4
2373.241698123,2373.243075196,24,2
2373.241553461,2373.244447055,31,14
2373.243075196,2373.244447055,24,3
2373.241017513,2373.244452890,21,12
2373.244447055,2373.244452890,24,4
2373.244447055,2373.244458241,31,13
2373.244452890,2373.244458241,24,5
2373.244458241,2373.244467485,31,12
2373.244458241,2373.244467485,24,6
2373.244452890,2373.244470514,21,11
2373.244467485,2373.244470514,24,7
2373.244470514,2373.244478694,24,8
2373.241669729,2373.244484561,14,5
2373.244467485,2373.245126418,31,11
2373.243075196,2373.245126418,30,3
2373.245126418,2373.245132501,31,10
2373.245126418,2373.245132501,30,4
2373.244470514,2373.245557595,21,10
2373.244590375,2373.245557595,46,1
2373.245557595,2373.245563692,21,9
2373.245557595,2373.245563692,46,2
2373.245563692,2373.245566331,21,8
2373.245563692,2373.245566331,46,3
2373.245566331,2373.245569268,21,7
2373.245566331,2373.245569268,46,4
2373.245569268,2373.245572202,21,6
2373.245569268,2373.245572202,46,5
2373.245572202,2373.245574893,21,5
2373.245572202,2373.245574893,46,6
2373.245574893,2373.245577494,21,4
2373.245574893,2373.245577494,46,7
2373.245132501,2373.246123514,31,9
2373.244478694,2373.246123514,24,7
2373.246123514,2373.246126195,31,8
2373.246123514,2373.246126195,24,8
2373.246126195,2373.246128092,31,7
2373.246126195,2373.246128092,24,9
2373.246128092,2373.246130173,31,6
2373.246128092,2373.246130173,24,10
2373.246130173,2373.246512472,24,11
2373.244484561,2373.246512472,14,4
2373.246512472,2373.246541734,24,10
2373.246512472,2373.246541734,14,5
2373.245577494,2373.246556812,46,8
2373.246541734,2373.246556812,14,6
2373.246541734,2373.246559728,24,9
2373.246556812,2373.246559728,14,7
2373.246559728,2373.246562051,24,8
2373.246559728,2373.246562051,14,8
2373.246562051,2373.246564703,24,7
2373.246562051,2373.246564703,14,9
2373.246564703,2373.246567297,24,6
2373.246564703,2373.246567297,14,10
2373.246567297,2373.246572007,24,5
2373.246567297,2373.246572007,14,11
2373.246572007,2373.246599814,14,12
2373.246599814,2373.246614565,14,11
2373.246614565,2373.246645225,14,10
2373.246645225,2373.246662575,14,9
2373.246662575,2373.246679687,14,8
2373.246679687,2373.246694963,14,7
2373.246130173,2373.246768886,31,5
2373.246694963,2373.246768886,14,6
2373.246768886,2373.246771547,31,4
2373.246768886,2373.246771547,14,7
2373.245132501,2373.246913287,30,5
2373.246913287,2373.246987552,30,4
2373.246771547,2373.247493254,31,3
2373.245577494,2373.247493254,21,3
2373.246572007,2373.247747706,24,4
2373.246771547,2373.247747706,14,8
2373.247747706,2373.247750541,24,3
2373.247747706,2373.247750541,14,9
2373.247750541,2373.249930979,14,10
2373.246556812,2373.249930979,46,7
2373.249930979,2373.249975306,14,9
2373.249930979,2373.249975306,46,8
2373.249975306,2373.249978577,14,8
2373.249975306,2373.249978577,46,9
2373.249978577,2373.250013522,14,7
2373.246987552,2373.250019854,30,3
2373.247493254,2373.250029658,21,4
2373.250013522,2373.250036325,14,6
2373.249978577,2373.250036325,46,10
2373.247493254,2373.250042391,31,2
2373.247750541,2373.250050180,24,2
2373.250036325,2373.250054116,14,5
2373.250029658,2373.250056474,21,3
2373.250019854,2373.250063204,30,2
2373.250054116,2373.250072782,14,4
2373.250050180,2373.250085005,24,1
2373.250042391,2373.250085344,31,1
2373.250056474,2373.250089849,21,2
2373.250063204,2373.250101961,30,1
2373.250072782,2373.250105767,14,3
2373.250105767,2373.250128009,14,2
2373.250036325,2373.250131521,46,11
2373.250131521,2373.250155650,46,10
2373.250155650,2373.250162153,46,9
2373.250162153,2373.250165662,46,8
2373.250162153,2373.250165662,30,1
2373.250165662,2373.250167708,46,7
2373.250165662,2373.250167708,30,2
2373.250167708,2373.250169816,46,6
2373.250167708,2373.250169816,30,3
2373.250169816,2373.250171834,46,5
2373.250169816,2373.250171834,30,4
2373.250171834,2373.250173944,46,4
2373.250171834,2373.250173944,30,5
2373.250173944,2373.250283970,30,6
2373.250173944,2373.250283970,46,3
2373.250089849,2373.250286559,21,1
2373.250283970,2373.250287735,30,5
2373.250283970,2373.250287735,46,4
2373.250128009,2373.250288091,14,1
2373.250287735,2373.250292446,30,4
2373.250287735,2373.250292446,46,5
2373.250292446,2373.250306323,30,3
2373.250292446,2373.250319862,46,6
2373.250306323,2373.250322758,30,2
2373.250319862,2373.250339338,46,5
2373.250322758,2373.250341428,30,1
2373.250339338,2373.250355245,46,4
2373.250355245,2373.250371593,46,3
2373.250109023,2373.250434750,53,1
2373.250494092,2373.250544378,53,1
2373.250544378,2373.250591548,53,2
2373.250591548,2373.250633182,53,3
2373.250633182,2373.250673105,53,4
2373.250673105,2373.250714278,53,5
2373.250714278,2373.250756153,53,6
2373.250756153,2373.250795964,53,7
2373.250371593,2373.250802124,46,2
2373.250802124,2373.250809569,46,1
2373.250795964,2373.250809569,53,8
2373.250428276,2373.250859355,31,1
2373.250809569,2373.250859355,53,9
2373.250859355,2373.250992724,53,10
2373.250954017,2373.251039288,35,1
2373.250992724,2373.251340389,53,9
2373.251340389,2373.251353918,53,8
2373.251039288,2373.251353918,35,2
2373.251353918,2373.251718348,53,7
2373.251353918,2373.251718348,35,3
2373.251718348,2373.251793546,35,4
2373.251793546,2373.251826694,35,3
2373.251718348,2373.252006939,53,6
2373.251826694,2373.252183492,35,2
2373.252006939,2373.252332522,53,5
2373.252332522,2373.252646067,53,4
2373.252646067,2373.252961370,53,3
2373.252961370,2373.253275463,53,2
2373.253275463,2373.253587575,53,1
2373.253687224,2373.253721100,54,1
2373.253721100,2373.253757275,54,2
2373.253757275,2373.253785615,54,3
2373.253785615,2373.253841797,54,4
2373.253841797,2373.253883502,54,5
2373.253883502,2373.253923079,54,6
2373.253923079,2373.253962082,54,7
2373.253962082,2373.254000290,54,8
2373.254000290,2373.254038499,54,9
2373.254038499,2373.254085681,54,10
2373.254085681,2373.254127994,54,11
2373.254127994,2373.254166188,54,12
2373.254166188,2373.254205528,54,13
2373.254205528,2373.254244857,54,14
2373.254244857,2373.254284674,54,15
2373.254331939,2373.254381414,57,1
2373.254381414,2373.254422618,57,2
2373.254422618,2373.254488054,57,3
2373.254488054,2373.254549044,57,4
2373.254549044,2373.254592139,57,5
2373.254592139,2373.254635448,57,6
2373.254635448,2373.254680250,57,7
2373.254680250,2373.254724080,57,8
2373.254724080,2373.254768847,57,9
2373.254768847,2373.254813276,57,10
2373.254813276,2373.254854459,57,11
2373.254854459,2373.254895057,57,12
2373.254895057,2373.254937822,57,13
2373.254937822,2373.254980172,57,14
2373.254980172,2373.255022761,57,15
2373.255022761,2373.255067901,57,16
2373.255067901,2373.255109685,57,17
2373.255109685,2373.255151013,57,18
2373.255151013,2373.255196209,57,19
2373.255196209,2373.255237416,57,20
2373.255237416,2373.255276969,57,21
2373.255276969,2373.255319440,57,22
2373.255319440,2373.255360362,57,23
2373.255360362,2373.255402031,57,24
2373.255402031,2373.255445030,57,25
2373.255445030,2373.255488811,57,26
2373.255584850,2373.255681428,36,1
2373.255681428,2373.255724165,36,2
2373.255724165,2373.255766489,36,3
2373.255766489,2373.255807146,36,4
2373.255807146,2373.255847168,36,5
2373.255847168,2373.255889483,36,6
2373.255889483,2373.255929763,36,7
2373.255929763,2373.255972652,36,8
2373.255972652,2373.256014326,36,9
2373.256014326,2373.256054225,36,10
2373.256054225,2373.256095220,36,11
2373.256095220,2373.256135727,36,12
2373.256135727,2373.256178659,36,13
2373.256178659,2373.256219003,36,14
2373.256219003,2373.256263373,36,15
2373.256263373,2373.256305376,36,16
2373.256305376,2373.256346342,36,17
2373.256346342,2373.256385598,36,18
2373.256385598,2373.256428766,36,19
2373.254284674,2373.274490025,54,16
2373.274490025,2373.274494053,54,15
2373.274490025,2373.274494053,53,1
2373.274494053,2373.282515142,54,14
2373.256428766,2373.302482385,36,20
2373.302482385,2373.302485984,36,19
2373.302482385,2373.302485984,6,1
2373.302485984,2373.302488290,36,18
2373.302485984,2373.302488290,6,2
2373.302488290,2373.302490599,36,17
2373.302488290,2373.302490599,6,3
2373.302490599,2373.302492843,36,16
2373.302490599,2373.302492843,6,4
2373.302492843,2373.302494823,36,15
2373.302492843,2373.302494823,6,5
2373.302494823,2373.302497081,36,14
2373.302494823,2373.302497081,6,6
2373.282515142,2373.350659535,54,13
2373.350659535,2373.350664682,54,12
2373.350659535,2373.350664682,48,1
2373.350664682,2373.350677904,54,11
2373.350677904,2373.350681164,54,10
2373.350677904,2373.350681164,49,1
2373.350681164,2373.350690112,54,9
2373.350690112,2373.350704919,54,8
2373.350704919,2373.350713844,54,7
2373.350713844,2373.350722957,54,6
2373.302497081,2373.354497904,36,13
2373.252183492,2373.354497904,35,1
2373.354497904,2373.354501668,36,12
2373.354497904,2373.354501668,35,2
2373.350722957,2373.354615128,54,5
2373.354615128,2373.354621477,54,4
2373.354615128,2373.354621477,21,1
2373.354621477,2373.354623678,54,3
2373.354621477,2373.354623678,21,2
2373.255488811,2373.354635618,57,27
2373.354635618,2373.354638424,57,26
2373.354635618,2373.354638424,24,1
2373.354638424,2373.354642641,57,25
2373.354638424,2373.354642641,24,2
2373.354642641,2373.354645273,57,24
2373.354642641,2373.354645273,24,3
2373.354645273,2373.354649623,57,23
2373.354645273,2373.354649623,24,4
2373.354649623,2373.354653114,57,22
2373.354649623,2373.354653114,24,5
2373.354653114,2373.354655469,57,21
2373.354653114,2373.354655469,24,6
2373.354655469,2373.354658307,57,20
2373.354655469,2373.354658307,24,7
2373.354501668,2373.354660868,36,11
2373.354660868,2373.354666884,36,10
2373.354660868,2373.354666884,32,1
2373.354658307,2373.354671146,57,19
2373.354671146,2373.354676518,57,18
2373.354671146,2373.354676518,30,1
2373.354676518,2373.354679709,57,17
2373.354676518,2373.354679709,30,2
2373.354679709,2373.354682195,57,16
2373.354679709,2373.354682195,30,3
2373.354682195,2373.354684632,57,15
2373.354682195,2373.354684632,30,4
2373.354684632,2373.354687638,57,14
2373.354684632,2373.354687638,30,5
2373.354687638,2373.354702829,57,13
2373.354702829,2373.354707889,57,12
2373.354702829,2373.354707889,31,1
2373.354707889,2373.354712041,57,11
2373.354707889,2373.354712041,31,2
2373.354712041,2373.354715587,57,10
2373.354712041,2373.354715587,31,3
2373.354715587,2373.354725729,57,9
2373.354725729,2373.354730651,57,8
2373.354725729,2373.354730651,45,1
2373.354730651,2373.354733233,57,7
2373.354730651,2373.354733233,45,2
2373.354733233,2373.354735462,57,6
2373.354733233,2373.354735462,45,3
2373.354735462,2373.354743797,57,5
2373.354743797,2373.354747697,57,4
2373.354743797,2373.354747697,46,1
2373.354666884,2373.366654959,36,9
2373.366654959,2373.366666711,36,8
2373.366666711,2373.366674529,36,7
2373.366674529,2373.366682849,36,6
2373.366682849,2373.366697034,36,5
2373.354747697,2373.366763601,57,3
2373.366763601,2373.374541166,57,2
2373.302497081,2373.386536494,6,7
2373.354623678,2373.398521843,54,2
2373.274494053,2373.398553475,53,2
2373.366697034,2373.398597092,36,4
2373.398597092,2373.398601514,36,3
2373.398597092,2373.398601514,16,1
2373.386536494,2373.414477352,6,6
2373.414477352,2373.414501241,6,5
2373.414501241,2373.414510113,6,4
2373.414510113,2373.414523852,6,3
2373.414523852,2373.414533510,6,2
2373.398601514,2373.438962421,36,2
2373.354666884,2373.440531788,32,2
2373.354623678,2373.462805079,21,3
2373.354658307,2373.463077546,24,8
2373.463077546,2373.463086260,24,7
2373.463077546,2373.463086260,25,1
2373.463086260,2373.463146358,24,6
2373.463146358,2373.463148691,24,5
2373.463146358,2373.463148691,26,1
2373.463148691,2373.463182834,24,4
2373.463182834,2373.463211894,24,3
2373.463211894,2373.463233065,24,2
2373.354735462,2373.463280267,45,4
2373.463280267,2373.463312687,45,3
2373.463312687,2373.463319582,45,2
2373.354747697,2373.463348508,46,2
2373.462805079,2373.470502971,21,2
2373.354501668,2373.478641829,35,3
2373.398601514,2373.502500292,16,2
2373.350664682,2373.518661429,48,2
2373.350681164,2373.518915510,49,2
2373.354687638,2373.519371835,30,6
2373.519371835,2373.519381213,30,5
2373.519371835,2373.519381213,10,1
2373.519381213,2373.519387074,30,4
2373.519381213,2373.519387074,10,2
2373.519387074,2373.519389124,30,3
2373.519387074,2373.519389124,10,3
2373.354715587,2373.558808158,31,4
2373.558808158,2373.558860923,31,3
2373.558808158,2373.558860923,23,1
2373.558860923,2373.558881308,31,2
2373.558860923,2373.558881308,23,2
2373.519389124,2373.559955713,30,2
2373.519389124,2373.622620319,10,4
2373.622620319,2373.622959918,10,3
2373.622959918,2373.639068001,10,2
2373.558881308,2373.639486023,23,3
2373.639486023,2373.639826171,23,2
2373.463086260,2373.678736803,25,2
2373.463148691,2373.702882641,26,2
2373.702882641,2381.181404986,26,1
2373.463233065,2381.181410066,29,1
2373.462805079,2381.181443018,18,1
2373.398521843,2381.181447540,8,1
2373.502500292,2381.181468411,16,1
2373.639068001,2381.181487515,60,1
2373.558881308,2381.181525539,31,1
2373.559955713,2381.181525547,30,1
2373.414501241,2381.181530137,2,1
2373.518661429,2381.181544408,48,1
2373.518915510,2381.181544473,49,1
2373.463319582,2381.181548601,42,1
2373.463348508,2381.181561046,43,1
2373.438962421,2381.181565843,17,1
2373.414523852,2381.181569822,4,1
2373.414533510,2381.181570122,5,1
2373.478641829,2381.181582063,35,2
2373.366666711,2381.181582092,34,1
2373.463319582,2381.181589215,45,1
2373.518915510,2381.181592963,59,1
2373.374541166,2381.181592970,58,1
2373.350713844,2381.181600044,52,1
2373.398553475,2381.181601604,53,1
2373.518661429,2381.181609016,44,1
2373.350722957,2381.181613501,55,1
2373.398521843,2381.181613521,54,1
2373.386536494,2381.181619959,7,1
2373.366682849,2381.181622063,38,1
2373.463182834,2381.181625860,27,1
2381.181582063,2381.181627867,35,1
2373.470502971,2381.181627867,21,1
2373.463211894,2381.181628121,28,1
2373.366674529,2381.181628858,37,1
2373.438962421,2381.181628868,36,1
2373.414510113,2381.181629834,3,1
2373.366697034,2381.181635977,39,1
2373.478641829,2381.181638970,20,1
2373.414533510,2381.181640820,6,1
2373.440531788,2381.181641285,32,1
2373.366654959,2381.181641332,33,1
2373.678736803,2381.181641935,25,1
2373.463233065,2381.181641981,24,1
2373.639486023,2381.181642523,61,1
2373.639826171,2381.181650597,23,1
2373.502500292,2381.181650604,22,1
2373.470502971,2381.181652461,19,1
2373.678736803,2381.181654634,63,1
2373.639826171,2381.181654668,62,1
2373.398553475,2381.181655127,9,1
2373.366763601,2381.181663653,56,1
2373.374541166,2381.181663684,57,1
2373.440531788,2381.181667967,0,1
2373.414477352,2381.181667987,1,1
2373.350704919,2381.181668469,51,1
2373.350690112,2381.181668483,50,1
2373.282515142,2381.181673692,14,1
2373.255532413,2381.181673722,15,1
2373.463280267,2381.181674352,40,1
2373.463312687,2381.181674362,41,1
2373.702882641,2381.181675758,47,1
2373.463348508,2381.181675783,46,1
2373.622959918,2381.181683056,12,1
2373.622620319,2381.181683350,13,1
2381.181627867,2381.181923194,21,2
2373.559955713,2381.181923194,11,1
2373.639068001,2381.181923215,10,1
2381.181923194,2381.182017263,21,1
2381.181923194,2381.182653688,11,2
2381.182653688,2381.182736661,14,1
2381.182653688,2385.379944187,11,1
