Time,Comm,Pid,Orig,Dest,Trigger
995.906486965,perf,6149,39,55,ELB
995.907420088,time,6150,55,33,FLB
995.907565414,time,6150,33,48,ELB
995.909032706,linear_regression-pthread,6150,48,34,ELB
995.909032706,linear_regression-pthread,6150,48,34,ELB
995.910745644,linear_regressi,6150,34,0,CA
995.911011833,linear_regressi,6151,0,55,FLB
995.911044882,linear_regressi,6151,55,1,CA
995.911052284,linear_regressi,6150,0,48,WAFF
995.911163013,linear_regressi,6152,48,35,FLB
995.911173851,linear_regressi,6152,35,2,CA
995.911229237,linear_regressi,6153,48,36,FLB
995.911242020,linear_regressi,6153,36,3,CA
995.911321940,linear_regressi,6154,48,37,FLB
995.911329152,linear_regressi,6154,37,4,CA
995.911385581,linear_regressi,6155,48,38,FLB
995.911397660,linear_regressi,6155,38,5,CA
995.911449212,linear_regressi,6156,48,39,FLB
995.911456401,linear_regressi,6156,39,6,CA
995.911512899,linear_regressi,6157,48,33,FLB
995.911524760,linear_regressi,6157,33,7,CA
995.911600775,linear_regressi,6158,48,35,FLB
995.911606584,linear_regressi,6158,35,8,CA
995.911662261,linear_regressi,6159,48,36,FLB
995.911668591,linear_regressi,6159,36,9,CA
995.911740165,linear_regressi,6160,48,37,FLB
995.911748005,linear_regressi,6160,37,10,CA
995.911810385,linear_regressi,6161,48,38,FLB
995.911817517,linear_regressi,6161,38,11,CA
995.911872514,linear_regressi,6162,48,39,FLB
995.911893832,linear_regressi,6162,39,12,CA
995.911905500,linear_regressi,6150,48,32,WAFF
995.912029309,linear_regressi,6163,32,49,FLB
995.912040874,linear_regressi,6163,49,13,CA
995.912090945,linear_regressi,6164,32,50,FLB
995.912103922,linear_regressi,6164,50,14,CA
995.912163643,linear_regressi,6165,32,51,FLB
995.912171408,linear_regressi,6165,51,15,CA
995.912245498,linear_regressi,6166,32,52,FLB
995.912257966,linear_regressi,6166,52,16,CA
995.912308975,linear_regressi,6167,32,53,FLB
995.912316546,linear_regressi,6167,53,17,CA
995.912384457,linear_regressi,6168,32,54,FLB
995.912397188,linear_regressi,6168,54,18,CA
995.912449780,linear_regressi,6169,32,55,FLB
995.912457331,linear_regressi,6169,55,19,CA
995.912523559,linear_regressi,6170,32,48,FLB
995.912530540,linear_regressi,6170,48,20,CA
995.912579333,linear_regressi,6171,32,49,FLB
995.912586555,linear_regressi,6171,49,21,CA
995.912655333,linear_regressi,6172,32,50,FLB
995.912665273,linear_regressi,6172,50,22,CA
995.912713485,linear_regressi,6173,32,51,FLB
995.912720565,linear_regressi,6173,51,23,CA
995.912786791,linear_regressi,6174,32,52,FLB
995.912797324,linear_regressi,6174,52,24,CA
995.912846650,linear_regressi,6175,32,53,FLB
995.912854126,linear_regressi,6175,53,25,CA
995.912903374,linear_regressi,6176,32,54,FLB
995.912909584,linear_regressi,6176,54,26,CA
995.912957646,linear_regressi,6177,32,55,FLB
995.912964979,linear_regressi,6177,55,27,CA
995.913013417,linear_regressi,6178,32,49,FLB
995.913019468,linear_regressi,6178,49,28,CA
995.913071651,linear_regressi,6179,32,50,FLB
995.913223067,linear_regressi,6179,50,29,CA
995.913257519,linear_regressi,6150,32,51,WAFF
995.913358014,linear_regressi,6180,51,33,FLB
995.913368241,linear_regressi,6180,33,30,CA
995.913424005,linear_regressi,6181,51,35,FLB
995.913432181,linear_regressi,6181,35,31,CA
995.913491703,linear_regressi,6182,51,36,FLB
995.913504284,linear_regressi,6182,36,32,CA
995.913578318,linear_regressi,6183,51,46,FLB
995.913589783,linear_regressi,6183,46,33,CA
995.913651509,linear_regressi,6184,51,47,FLB
995.913659557,linear_regressi,6184,47,34,CA
995.913736453,linear_regressi,6185,51,40,FLB
995.913747871,linear_regressi,6185,40,35,CA
995.913822729,linear_regressi,6186,51,41,FLB
995.913830173,linear_regressi,6186,41,36,CA
995.913882548,linear_regressi,6187,51,42,FLB
995.913893940,linear_regressi,6187,42,37,CA
995.913983114,linear_regressi,6188,51,43,FLB
995.913990605,linear_regressi,6188,43,38,CA
995.914043386,linear_regressi,6189,51,44,FLB
995.914054271,linear_regressi,6189,44,39,CA
995.914121111,linear_regressi,6190,51,45,FLB
995.914128586,linear_regressi,6190,45,40,CA
995.914176296,linear_regressi,6191,51,60,FLB
995.914189700,linear_regressi,6191,60,41,CA
995.914258374,linear_regressi,6192,51,61,FLB
995.914266989,linear_regressi,6192,61,42,CA
995.914353715,linear_regressi,6193,51,62,FLB
995.914366913,linear_regressi,6193,62,43,CA
995.914432909,linear_regressi,6194,51,63,FLB
995.914440699,linear_regressi,6194,63,44,CA
995.914528226,linear_regressi,6195,51,56,FLB
995.914541477,linear_regressi,6195,56,45,CA
995.914587298,linear_regressi,6196,51,57,FLB
995.914594719,linear_regressi,6196,57,46,CA
995.914659712,linear_regressi,6197,51,58,FLB
995.914673257,linear_regressi,6197,58,47,CA
995.914739635,linear_regressi,6198,51,59,FLB
995.914747237,linear_regressi,6198,59,48,CA
995.914822150,linear_regressi,6199,51,60,FLB
995.914833168,linear_regressi,6199,60,49,CA
995.914902128,linear_regressi,6200,51,61,FLB
995.914909196,linear_regressi,6200,61,50,CA
995.914984602,linear_regressi,6201,51,62,FLB
995.914992762,linear_regressi,6201,62,51,CA
995.915041532,linear_regressi,6202,51,63,FLB
995.915051272,linear_regressi,6202,63,52,CA
995.915102028,linear_regressi,6203,51,56,FLB
995.915115628,linear_regressi,6203,56,53,CA
995.915238175,linear_regressi,6204,51,57,FLB
995.915246879,linear_regressi,6204,57,54,CA
995.915304254,linear_regressi,6205,51,58,FLB
995.915317180,linear_regressi,6205,58,55,CA
995.915387743,linear_regressi,6206,51,59,FLB
995.915396574,linear_regressi,6206,59,56,CA
995.915458672,linear_regressi,6207,51,60,FLB
995.915472219,linear_regressi,6207,60,57,CA
995.915585526,linear_regressi,6208,51,61,FLB
995.915593922,linear_regressi,6208,61,58,CA
995.915689358,linear_regressi,6209,51,62,FLB
995.915702813,linear_regressi,6209,62,59,CA
995.915758652,linear_regressi,6210,51,60,FLB
995.915841534,linear_regressi,6211,51,0,FLB
995.915850302,linear_regressi,6211,0,61,CA
995.915920119,linear_regressi,6212,51,0,FLB
995.915943007,linear_regressi,6212,0,62,CA
995.915950298,linear_regressi,6150,51,0,WAFF
995.916062096,linear_regressi,6213,0,2,FLB
995.916071319,linear_regressi,6213,2,63,CA
995.916169020,linear_regressi,6214,0,5,FLB
995.916176373,linear_regressi,6214,5,0,CA
997.225198106,rcu_sched,8,54,17,WAFF
997.287448087,kworker/u135:2,3086,51,49,WLB
997.413184711,kworker/u128:0,6,37,33,WAFF
997.861184644,kworker/u128:0,6,33,37,WAFF
997.953289655,linear_regressi,6158,24,1,WAFF
998.45196465,rcu_sched,8,17,48,WAFF
998.245204463,rcu_sched,8,48,8,WAFF
998.341214594,jbd2/sdb1-8,1060,0,1,WAFF
998.433692888,time,6149,55,1,WAFF
998.433934754,perf,6148,32,2,WAFF
