Time,Comm,Pid,Orig,Dest,Trigger
1689.264998284,perf,11566,35,50,ELB
1689.266110200,time,11567,50,28,FLB
1689.266285617,lu_cb,11567,28,36,ELB
1689.266285617,lu_cb,11567,28,36,ELB
1689.269389968,rcu_sched,8,60,50,WAFF
1691.385531628,rcu_sched,8,50,0,WAFF
1697.250897494,lu_cb,11568,36,52,FLB
1697.250897494,lu_cb,11568,36,52,FLB
1697.250956493,lu_cb,11569,36,52,FLB
1697.250956493,lu_cb,11569,36,52,FLB
1697.250986991,lu_cb,11569,52,36,ILB
1697.250986991,lu_cb,11569,52,36,ILB
1697.250996848,lu_cb,11567,36,52,WAFF
1697.250996848,lu_cb,11567,36,52,WAFF
1697.251190973,lu_cb,11570,52,56,FLB
1697.251190973,lu_cb,11570,52,56,FLB
1697.251249860,lu_cb,11571,52,56,FLB
1697.251249860,lu_cb,11571,52,56,FLB
1697.251368847,lu_cb,11572,52,26,FLB
1697.251368847,lu_cb,11572,52,26,FLB
1697.251424137,lu_cb,11573,52,26,FLB
1697.251424137,lu_cb,11573,52,26,FLB
1697.251466423,lu_cb,11573,26,52,ILB
1697.251466423,lu_cb,11573,26,52,ILB
1697.251475945,lu_cb,11567,52,26,WAFF
1697.251475945,lu_cb,11567,52,26,WAFF
1697.251609639,lu_cb,11574,26,37,FLB
1697.251609639,lu_cb,11574,26,37,FLB
1697.251676794,lu_cb,11575,26,38,FLB
1697.251676794,lu_cb,11575,26,38,FLB
1697.251735483,lu_cb,11576,26,53,FLB
1697.251735483,lu_cb,11576,26,53,FLB
1697.251764436,lu_cb,11567,26,39,WAFF
1697.251764436,lu_cb,11567,26,39,WAFF
1697.252288310,lu_cb,11577,39,54,FLB
1697.252288310,lu_cb,11577,39,54,FLB
1697.252350878,lu_cb,11578,39,54,FLB
1697.252350878,lu_cb,11578,39,54,FLB
1697.252455140,lu_cb,11579,39,55,FLB
1697.252455140,lu_cb,11579,39,55,FLB
1697.252479864,lu_cb,11567,39,55,WAFF
1697.252479864,lu_cb,11567,39,55,WAFF
1697.252542622,lu_cb,11580,55,57,FLB
1697.252542622,lu_cb,11580,55,57,FLB
1697.252592683,lu_cb,11567,55,57,WAFF
1697.252592683,lu_cb,11567,55,57,WAFF
1697.252700675,lu_cb,11581,57,8,FLB
1697.252700675,lu_cb,11581,57,8,FLB
1697.252760004,lu_cb,11582,57,8,FLB
1697.252760004,lu_cb,11582,57,8,FLB
1697.252872519,lu_cb,11583,57,40,FLB
1697.252872519,lu_cb,11583,57,40,FLB
1697.253366001,lu_cb,11584,57,40,FLB
1697.253366001,lu_cb,11584,57,40,FLB
1697.253513919,lu_cb,11585,57,41,FLB
1697.253513919,lu_cb,11585,57,41,FLB
1697.253546548,lu_cb,11567,57,41,WAFF
1697.253546548,lu_cb,11567,57,41,WAFF
1697.253614923,lu_cb,11586,41,48,FLB
1697.253614923,lu_cb,11586,41,48,FLB
1697.253719877,lu_cb,11587,41,49,FLB
1697.253719877,lu_cb,11587,41,49,FLB
1697.253791407,lu_cb,11588,41,9,FLB
1697.253791407,lu_cb,11588,41,9,FLB
1697.253844449,lu_cb,11589,41,9,FLB
1697.253844449,lu_cb,11589,41,9,FLB
1697.253856089,rcu_sched,8,0,53,WAFF
1697.253913200,lu_cb,11590,41,19,FLB
1697.253913200,lu_cb,11590,41,19,FLB
1697.254405559,lu_cb,11591,41,54,FLB
1697.254405559,lu_cb,11591,41,54,FLB
1697.254492018,lu_cb,11592,41,32,FLB
1697.254492018,lu_cb,11592,41,32,FLB
1697.254549077,lu_cb,11593,41,10,FLB
1697.254549077,lu_cb,11593,41,10,FLB
1697.254601353,lu_cb,11594,41,55,FLB
1697.254601353,lu_cb,11594,41,55,FLB
1697.254668517,lu_cb,11595,41,11,FLB
1697.254668517,lu_cb,11595,41,11,FLB
1697.254694897,lu_cb,11567,41,11,WAFF
1697.254694897,lu_cb,11567,41,11,WAFF
1697.254747428,lu_cb,11596,11,42,FLB
1697.254747428,lu_cb,11596,11,42,FLB
1697.254829356,lu_cb,11595,11,42,WAFF
1697.254829356,lu_cb,11595,11,42,WAFF
1697.254870458,lu_cb,11567,11,42,WAFF
1697.254870458,lu_cb,11567,11,42,WAFF
1697.254947731,lu_cb,11597,42,48,FLB
1697.254947731,lu_cb,11597,42,48,FLB
1697.255439384,lu_cb,11598,42,49,FLB
1697.255439384,lu_cb,11598,42,49,FLB
1697.255539385,lu_cb,11599,42,50,FLB
1697.255539385,lu_cb,11599,42,50,FLB
1697.255608923,lu_cb,11600,42,12,FLB
1697.255608923,lu_cb,11600,42,12,FLB
1697.255668776,lu_cb,11601,42,12,FLB
1697.255668776,lu_cb,11601,42,12,FLB
1697.255770264,lu_cb,11602,42,51,FLB
1697.255770264,lu_cb,11602,42,51,FLB
1697.255822951,lu_cb,11603,42,5,FLB
1697.255822951,lu_cb,11603,42,5,FLB
1697.255877504,lu_cb,11604,42,52,FLB
1697.255877504,lu_cb,11604,42,52,FLB
1697.256399976,lu_cb,11605,42,13,FLB
1697.256399976,lu_cb,11605,42,13,FLB
1697.256458363,lu_cb,11606,42,14,FLB
1697.256458363,lu_cb,11606,42,14,FLB
1697.256496160,lu_cb,11567,42,14,WAFF
1697.256496160,lu_cb,11567,42,14,WAFF
1697.256546563,lu_cb,11607,14,43,FLB
1697.256546563,lu_cb,11607,14,43,FLB
1697.256589294,lu_cb,11567,14,43,WAFF
1697.256589294,lu_cb,11567,14,43,WAFF
1697.256675272,lu_cb,11608,43,53,FLB
1697.256675272,lu_cb,11608,43,53,FLB
1697.256757196,lu_cb,11609,43,54,FLB
1697.256757196,lu_cb,11609,43,54,FLB
1697.256826330,lu_cb,11610,43,55,FLB
1697.256826330,lu_cb,11610,43,55,FLB
1697.256897042,lu_cb,11611,43,15,FLB
1697.256897042,lu_cb,11611,43,15,FLB
1697.257380391,lu_cb,11612,43,8,FLB
1697.257380391,lu_cb,11612,43,8,FLB
1697.257479292,lu_cb,11613,43,48,FLB
1697.257479292,lu_cb,11613,43,48,FLB
1697.257553378,lu_cb,11614,43,6,FLB
1697.257553378,lu_cb,11614,43,6,FLB
1697.257613213,lu_cb,11615,43,9,FLB
1697.257613213,lu_cb,11615,43,9,FLB
1697.257686694,lu_cb,11616,43,7,FLB
1697.257686694,lu_cb,11616,43,7,FLB
1697.257714035,lu_cb,11567,43,7,WAFF
1697.257714035,lu_cb,11567,43,7,WAFF
1697.257787889,lu_cb,11617,7,44,FLB
1697.257787889,lu_cb,11617,7,44,FLB
1697.257904463,lu_cb,11616,7,44,WAFF
1697.257904463,lu_cb,11616,7,44,WAFF
1697.257944300,lu_cb,11567,7,44,WAFF
1697.257944300,lu_cb,11567,7,44,WAFF
1697.258016213,lu_cb,11618,44,10,FLB
1697.258016213,lu_cb,11618,44,10,FLB
1697.258711757,lu_cb,11619,44,0,FLB
1697.258711757,lu_cb,11619,44,0,FLB
1697.258772269,lu_cb,11620,44,1,FLB
1697.258772269,lu_cb,11620,44,1,FLB
1697.258854069,lu_cb,11621,44,12,FLB
1697.258854069,lu_cb,11621,44,12,FLB
1697.258924412,lu_cb,11622,44,13,FLB
1697.258924412,lu_cb,11622,44,13,FLB
1697.258999042,lu_cb,11623,44,2,FLB
1697.258999042,lu_cb,11623,44,2,FLB
1697.259051423,lu_cb,11624,44,14,FLB
1697.259051423,lu_cb,11624,44,14,FLB
1697.259107883,lu_cb,11625,44,20,FLB
1697.259107883,lu_cb,11625,44,20,FLB
1697.259713189,lu_cb,11626,44,3,FLB
1697.259713189,lu_cb,11626,44,3,FLB
1697.259827378,lu_cb,11627,44,33,FLB
1697.259827378,lu_cb,11627,44,33,FLB
1697.259883423,lu_cb,11628,44,15,FLB
1697.259883423,lu_cb,11628,44,15,FLB
1697.259963726,lu_cb,11629,44,8,FLB
1697.259963726,lu_cb,11629,44,8,FLB
1697.260032037,lu_cb,11630,44,4,FLB
1697.260032037,lu_cb,11630,44,4,FLB
1697.260422305,lu_cb,11586,48,41,WAFF
1697.260422305,lu_cb,11586,48,41,WAFF
1697.260537631,lu_cb,11593,10,32,WAFF
1697.260537631,lu_cb,11593,10,32,WAFF
1697.260731419,lu_cb,11607,43,13,WAFF
1697.260731419,lu_cb,11607,43,13,WAFF
1697.262186734,lu_cb,11571,56,4,ILB
1697.262186734,lu_cb,11571,56,4,ILB
1697.262414073,lu_cb,11578,54,4,ILB
1697.262414073,lu_cb,11578,54,4,ILB
1697.262500786,lu_cb,11582,8,52,ILB
1697.262500786,lu_cb,11582,8,52,ILB
1697.262653476,lu_cb,11584,40,57,ILB
1697.262653476,lu_cb,11584,40,57,ILB
1697.263123297,lu_cb,11589,9,41,ILB
1697.263123297,lu_cb,11589,9,41,ILB
1697.263346083,lu_cb,11596,42,41,ILB
1697.263346083,lu_cb,11596,42,41,ILB
1697.263388329,lu_cb,11600,12,32,WAFF
1697.263388329,lu_cb,11600,12,32,WAFF
1697.263576024,lu_cb,11613,48,41,ILB
1697.263576024,lu_cb,11613,48,41,ILB
1697.263795013,lu_cb,11617,44,41,ILB
1697.263795013,lu_cb,11617,44,41,ILB
1697.263814685,lu_cb,11622,13,41,ILB
1697.263814685,lu_cb,11622,13,41,ILB
1697.263870811,lu_cb,11617,41,8,WAFF
1697.263870811,lu_cb,11617,41,8,WAFF
1697.264036696,lu_cb,11617,8,41,ILB
1697.264036696,lu_cb,11617,8,41,ILB
1697.265919574,lu_cb,11573,52,53,WAFF
1697.265919574,lu_cb,11573,52,53,WAFF
1697.265953388,lu_cb,11576,53,54,WAFF
1697.265953388,lu_cb,11576,53,54,WAFF
1697.273855789,lu_cb,11630,4,1,NLB
1697.273855789,lu_cb,11630,4,1,NLB
1697.275726191,rcu_sched,8,53,18,ILB
1697.275751254,lu_cb,11576,54,18,ILB
1697.275751254,lu_cb,11576,54,18,ILB
1697.281868550,lu_cb,11571,4,5,ILB
1697.281868550,lu_cb,11571,4,5,ILB
1697.281939552,lu_cb,11585,41,42,NLB
1697.281939552,lu_cb,11585,41,42,NLB
1697.281943764,lu_cb,11617,41,42,NLB
1697.281943764,lu_cb,11617,41,42,NLB
1697.282073368,lu_cb,11595,42,32,WAFF
1697.282073368,lu_cb,11595,42,32,WAFF
1697.301897799,lu_cb,11596,41,55,WAFF
1697.301897799,lu_cb,11596,41,55,WAFF
1697.305881145,lu_cb,11582,52,16,NLB
1697.305881145,lu_cb,11582,52,16,NLB
1697.305909030,lu_cb,11593,32,24,NLB
1697.305909030,lu_cb,11593,32,24,NLB
1697.305935164,lu_cb,11589,41,43,NLB
1697.305935164,lu_cb,11589,41,43,NLB
1697.309852272,rcu_sched,8,18,52,WAFF
1697.310759830,lu_cb,11596,55,33,ILB
1697.310759830,lu_cb,11596,55,33,ILB
1697.310765150,lu_cb,11579,55,33,ILB
1697.310765150,lu_cb,11579,55,33,ILB
1697.310782666,lu_cb,11600,32,34,WAFF
1697.310782666,lu_cb,11600,32,34,WAFF
1697.310887155,lu_cb,11603,5,50,WAFF
1697.310887155,lu_cb,11603,5,50,WAFF
1697.311004337,lu_cb,11608,53,14,WAFF
1697.311004337,lu_cb,11608,53,14,WAFF
1697.311967471,lu_cb,11577,54,1,ILB
1697.311967471,lu_cb,11577,54,1,ILB
1697.313904030,lu_cb,11579,33,35,NLB
1697.313904030,lu_cb,11579,33,35,NLB
1697.315279896,lu_cb,11580,57,56,ILB
1697.315279896,lu_cb,11580,57,56,ILB
1697.318842973,lu_cb,11568,52,36,ILB
1697.318842973,lu_cb,11568,52,36,ILB
1697.320024045,lu_cb,11587,49,37,ILB
1697.320024045,lu_cb,11587,49,37,ILB
1697.322086199,lu_cb,11607,13,10,WAFF
1697.322086199,lu_cb,11607,13,10,WAFF
1697.329707039,lu_cb,11591,54,4,ILB
1697.329707039,lu_cb,11591,54,4,ILB
1697.330445190,lu_cb,11594,55,16,ILB
1697.330445190,lu_cb,11594,55,16,ILB
1697.331265781,lu_cb,11595,32,18,ILB
1697.331265781,lu_cb,11595,32,18,ILB
1697.333716487,lu_cb,11581,8,24,ILB
1697.333716487,lu_cb,11581,8,24,ILB
1697.334038203,lu_cb,11624,14,3,WAFF
1697.334038203,lu_cb,11624,14,3,WAFF
1697.335230965,lu_cb,11617,42,40,ILB
1697.335230965,lu_cb,11617,42,40,ILB
1697.341897408,lu_cb,11615,9,24,ILB
1697.341897408,lu_cb,11615,9,24,ILB
1697.343314529,lu_cb,11603,50,19,ILB
1697.343314529,lu_cb,11603,50,19,ILB
1697.345231241,lu_cb,11613,41,35,ILB
1697.345231241,lu_cb,11613,41,35,ILB
1697.346007511,lu_cb,11586,41,58,NLB
1697.346007511,lu_cb,11586,41,58,NLB
1697.351628169,lu_cb,11608,14,43,ILB
1697.351628169,lu_cb,11608,14,43,ILB
1697.363076339,lu_cb,11621,12,9,ILB
1697.363076339,lu_cb,11621,12,9,ILB
1697.363340024,lu_cb,11629,8,40,ILB
1697.363340024,lu_cb,11629,8,40,ILB
1697.365446221,lu_cb,11618,10,16,ILB
1697.365446221,lu_cb,11618,10,16,ILB
1697.367054224,lu_cb,11626,3,4,ILB
1697.367054224,lu_cb,11626,3,4,ILB
1697.370951393,lu_cb,11628,15,44,ILB
1697.370951393,lu_cb,11628,15,44,ILB
1697.409142949,lu_cb,11577,1,26,ILB
1697.409142949,lu_cb,11577,1,26,ILB
1697.409370531,lu_cb,11581,24,26,ILB
1697.409370531,lu_cb,11581,24,26,ILB
1697.410675330,lu_cb,11577,26,27,WAFF
1697.410675330,lu_cb,11577,26,27,WAFF
1697.425868608,lu_cb,11581,26,28,WAFF
1697.425868608,lu_cb,11581,26,28,WAFF
1697.425960402,lu_cb,11568,36,35,WAFF
1697.425960402,lu_cb,11568,36,35,WAFF
1697.437883587,lu_cb,11574,37,57,NLB
1697.437883587,lu_cb,11574,37,57,NLB
1697.441909658,lu_cb,11617,40,43,WAFF
1697.441909658,lu_cb,11617,40,43,WAFF
1697.449512552,lu_cb,11579,35,38,ILB
1697.449512552,lu_cb,11579,35,38,ILB
1697.451097368,lu_cb,11617,43,44,ILB
1697.451097368,lu_cb,11617,43,44,ILB
1697.451111299,lu_cb,11588,9,44,WAFF
1697.451111299,lu_cb,11588,9,44,WAFF
1697.457948639,lu_cb,11588,44,40,NLB
1697.457948639,lu_cb,11588,44,40,NLB
1697.457997014,lu_cb,11584,57,56,WAFF
1697.457997014,lu_cb,11584,57,56,WAFF
1697.474031657,lu_cb,11616,44,52,WAFF
1697.474031657,lu_cb,11616,44,52,WAFF
1697.474190495,lu_cb,11608,43,49,WAFF
1697.474190495,lu_cb,11608,43,49,WAFF
1697.474218184,lu_cb,11603,19,48,WAFF
1697.474218184,lu_cb,11603,19,48,WAFF
1697.474254577,lu_cb,11613,35,51,WAFF
1697.474254577,lu_cb,11613,35,51,WAFF
1697.476440991,lu_cb,11618,16,19,ILB
1697.476440991,lu_cb,11618,16,19,ILB
1697.485869002,lu_cb,11626,4,5,NLB
1697.485869002,lu_cb,11626,4,5,NLB
1697.485948686,lu_cb,11628,44,45,WAFF
1697.485948686,lu_cb,11628,44,45,WAFF
1697.493406196,lu_cb,11588,40,44,ILB
1697.493406196,lu_cb,11588,40,44,ILB
1697.493984717,lu_cb,11584,56,57,NLB
1697.493984717,lu_cb,11584,56,57,NLB
1697.499878205,lu_cb,11603,48,42,ILB
1697.499878205,lu_cb,11603,48,42,ILB
1697.517690575,lu_cb,11602,51,34,ILB
1697.517690575,lu_cb,11602,51,34,ILB
1697.517923383,lu_cb,11598,49,58,ILB
1697.517923383,lu_cb,11598,49,58,ILB
1697.518103029,lu_cb,11604,52,44,ILB
1697.518103029,lu_cb,11604,52,44,ILB
1697.557010703,lu_cb,11567,44,53,WAFF
1697.557010703,lu_cb,11567,44,53,WAFF
1697.557609182,lu_cb,11618,19,21,WAFF
1697.557609182,lu_cb,11618,19,21,WAFF
1697.557610066,lu_cb,11603,42,4,ILB
1697.557610066,lu_cb,11603,42,4,ILB
1697.573940219,lu_cb,11578,4,28,WAFF
1697.573940219,lu_cb,11578,4,28,WAFF
1697.573955089,lu_cb,11579,38,28,WAFF
1697.573955089,lu_cb,11579,38,28,WAFF
1697.586002725,lu_cb,11617,44,35,WAFF
1697.586002725,lu_cb,11617,44,35,WAFF
1697.586059533,lu_cb,11594,16,59,WAFF
1697.586059533,lu_cb,11594,16,59,WAFF
1697.586092737,lu_cb,11615,24,59,WAFF
1697.586092737,lu_cb,11615,24,59,WAFF
1697.596563717,lu_cb,11568,35,33,ILB
1697.596563717,lu_cb,11568,35,33,ILB
1697.597336763,lu_cb,11615,59,40,ILB
1697.597336763,lu_cb,11615,59,40,ILB
1697.597492782,lu_cb,11578,28,44,ILB
1697.597492782,lu_cb,11578,28,44,ILB
1697.597497773,lu_cb,11581,28,44,ILB
1697.597497773,lu_cb,11581,28,44,ILB
1697.597657319,lu_cb,11588,44,19,WAFF
1697.597657319,lu_cb,11588,44,19,WAFF
1697.597888248,lu_cb,11573,53,16,ILB
1697.597888248,lu_cb,11573,53,16,ILB
1697.601917998,lu_cb,11581,44,45,NLB
1697.601917998,lu_cb,11581,44,45,NLB
1697.603606506,lu_cb,11568,33,4,ILB
1697.603606506,lu_cb,11568,33,4,ILB
1697.617926144,lu_cb,11581,45,9,ILB
1697.617926144,lu_cb,11581,45,9,ILB
1697.621599687,lu_cb,11600,34,53,ILB
1697.621599687,lu_cb,11600,34,53,ILB
1697.621987361,lu_cb,11615,40,46,NLB
1697.621987361,lu_cb,11615,40,46,NLB
1697.622060143,lu_cb,11568,4,3,NLB
1697.622060143,lu_cb,11568,4,3,NLB
1697.624936493,lu_cb,11571,5,36,ILB
1697.624936493,lu_cb,11571,5,36,ILB
1697.633810435,lu_cb,11595,18,28,ILB
1697.633810435,lu_cb,11595,18,28,ILB
1697.635871899,lu_cb,11588,19,16,ILB
1697.635871899,lu_cb,11588,19,16,ILB
1697.647781605,lu_cb,11586,58,59,ILB
1697.647781605,lu_cb,11586,58,59,ILB
1697.653706916,lu_cb,11574,57,27,ILB
1697.653706916,lu_cb,11574,57,27,ILB
1697.693043796,lu_cb,11573,16,40,ILB
1697.693043796,lu_cb,11573,16,40,ILB
1697.693129735,lu_cb,11571,36,1,ILB
1697.693129735,lu_cb,11571,36,1,ILB
1697.693150492,lu_cb,11580,56,57,WAFF
1697.693150492,lu_cb,11580,56,57,WAFF
1697.697892575,lu_cb,11573,40,41,NLB
1697.697892575,lu_cb,11573,40,41,NLB
1697.717874970,lu_cb,11630,1,5,NLB
1697.717874970,lu_cb,11630,1,5,NLB
1697.725931273,lu_cb,11620,1,7,WAFF
1697.725931273,lu_cb,11620,1,7,WAFF
1697.734077328,lu_cb,11629,40,47,NLB
1697.734077328,lu_cb,11629,40,47,NLB
1697.734201651,lu_cb,11621,9,11,NLB
1697.734201651,lu_cb,11621,9,11,NLB
1697.735550051,lu_cb,11596,33,38,ILB
1697.735550051,lu_cb,11596,33,38,ILB
1697.745955687,lu_cb,11604,44,60,NLB
1697.745955687,lu_cb,11604,44,60,NLB
1697.745988983,lu_cb,11622,41,61,NLB
1697.745988983,lu_cb,11622,41,61,NLB
1697.749519961,lu_cb,11579,28,24,ILB
1697.749519961,lu_cb,11579,28,24,ILB
1697.749877759,lu_cb,11582,16,22,NLB
1697.749877759,lu_cb,11582,16,22,NLB
1697.750062491,lu_cb,11624,3,35,NLB
1697.750062491,lu_cb,11624,3,35,NLB
1697.750093074,lu_cb,11594,59,62,NLB
1697.750093074,lu_cb,11594,59,62,NLB
1697.752106261,lu_cb,11626,5,37,ILB
1697.752106261,lu_cb,11626,5,37,ILB
1697.752466794,lu_cb,11567,53,36,ILB
1697.752466794,lu_cb,11567,53,36,ILB
1697.752630103,lu_cb,11584,57,56,ILB
1697.752630103,lu_cb,11584,57,56,ILB
1697.765949734,lu_cb,11603,4,48,ILB
1697.765949734,lu_cb,11603,4,48,ILB
1697.766011235,lu_cb,11577,27,25,NLB
1697.766011235,lu_cb,11577,27,25,NLB
1697.821071426,lu_cb,11596,38,39,WAFF
1697.821071426,lu_cb,11596,38,39,WAFF
1697.838543947,lu_cb,11584,56,63,WAFF
1697.838543947,lu_cb,11584,56,63,WAFF
1697.878906808,lu_cb,11587,37,39,ILB
1697.878906808,lu_cb,11587,37,39,ILB
1697.878955820,lu_cb,11617,35,34,ILB
1697.878955820,lu_cb,11617,35,34,ILB
1697.878981059,lu_cb,11569,36,32,ILB
1697.878981059,lu_cb,11569,36,32,ILB
1697.879241616,lu_cb,11597,48,38,ILB
1697.879241616,lu_cb,11597,48,38,ILB
1697.893902963,lu_cb,11579,24,29,NLB
1697.893902963,lu_cb,11579,24,29,NLB
1697.953413496,lu_cb,11569,32,34,ILB
1697.953413496,lu_cb,11569,32,34,ILB
1697.953459744,lu_cb,11617,34,39,ILB
1697.953459744,lu_cb,11617,34,39,ILB
1697.953513771,lu_cb,11587,39,32,ILB
1697.953513771,lu_cb,11587,39,32,ILB
1697.985943522,lu_cb,11617,39,30,NLB
1697.985943522,lu_cb,11617,39,30,NLB
1698.9739425,lu_cb,11602,34,62,ILB
1698.9739425,lu_cb,11602,34,62,ILB
1698.10451604,lu_cb,11575,38,33,ILB
1698.10451604,lu_cb,11575,38,33,ILB
1698.12114155,lu_cb,11592,32,56,ILB
1698.12114155,lu_cb,11592,32,56,ILB
1698.89462468,lu_cb,11575,33,34,WAFF
1698.89462468,lu_cb,11575,33,34,WAFF
1698.89617915,lu_cb,11569,34,39,ILB
1698.89617915,lu_cb,11569,34,39,ILB
1698.109949543,lu_cb,11569,39,55,WAFF
1698.109949543,lu_cb,11569,39,55,WAFF
1698.110021292,lu_cb,11592,56,57,WAFF
1698.110021292,lu_cb,11592,56,57,WAFF
1698.110091363,lu_cb,11580,57,59,WAFF
1698.110091363,lu_cb,11580,57,59,WAFF
1698.136513712,lu_cb,11602,62,33,ILB
1698.136513712,lu_cb,11602,62,33,ILB
1698.140779147,lu_cb,11580,59,56,ILB
1698.140779147,lu_cb,11580,59,56,ILB
1698.149978086,lu_cb,11610,55,17,NLB
1698.149978086,lu_cb,11610,55,17,NLB
1698.280151298,lu_cb,11627,33,36,ILB
1698.280151298,lu_cb,11627,33,36,ILB
1698.280564144,lu_cb,11570,56,38,ILB
1698.280564144,lu_cb,11570,56,38,ILB
1698.350260419,lu_cb,11570,38,36,ILB
1698.350260419,lu_cb,11570,38,36,ILB
1698.350286855,lu_cb,11627,36,38,ILB
1698.350286855,lu_cb,11627,36,38,ILB
1698.405983764,lu_cb,11567,36,39,ILB
1698.405983764,lu_cb,11567,36,39,ILB
1698.406357639,lu_cb,11597,38,34,ILB
1698.406357639,lu_cb,11597,38,34,ILB
1698.479205464,lu_cb,11597,34,32,ILB
1698.479205464,lu_cb,11597,34,32,ILB
1698.533405992,lu_cb,11587,32,33,ILB
1698.533405992,lu_cb,11587,32,33,ILB
1698.534327604,lu_cb,11596,39,34,ILB
1698.534327604,lu_cb,11596,39,34,ILB
1698.604089967,lu_cb,11596,34,36,WAFF
1698.604089967,lu_cb,11596,34,36,WAFF
1698.604210375,lu_cb,11570,36,33,ILB
1698.604210375,lu_cb,11570,36,33,ILB
1698.604324128,lu_cb,11587,33,35,ILB
1698.604324128,lu_cb,11587,33,35,ILB
1698.605970958,lu_cb,11570,33,30,ILB
1698.605970958,lu_cb,11570,33,30,ILB
1698.606051081,lu_cb,11587,35,39,WAFF
1698.606051081,lu_cb,11587,35,39,WAFF
1698.649980958,lu_cb,11617,30,31,NLB
1698.649980958,lu_cb,11617,30,31,NLB
1698.651117278,lu_cb,11567,39,35,ILB
1698.651117278,lu_cb,11567,39,35,ILB
1698.784359440,lu_cb,11624,35,33,ILB
1698.784359440,lu_cb,11624,35,33,ILB
1698.905063737,lu_cb,11602,33,39,ILB
1698.905063737,lu_cb,11602,33,39,ILB
1698.972400243,lu_cb,11602,39,34,ILB
1698.972400243,lu_cb,11602,39,34,ILB
1699.28437067,lu_cb,11602,34,39,ILB
1699.28437067,lu_cb,11602,34,39,ILB
1699.88227602,lu_cb,11602,39,34,WAFF
1699.88227602,lu_cb,11602,39,34,WAFF
1699.88378938,lu_cb,11575,34,33,ILB
1699.88378938,lu_cb,11575,34,33,ILB
1699.142391745,lu_cb,11624,33,39,ILB
1699.142391745,lu_cb,11624,33,39,ILB
1699.204720060,lu_cb,11624,39,32,ILB
1699.204720060,lu_cb,11624,39,32,ILB
1699.258743301,lu_cb,11597,32,39,ILB
1699.258743301,lu_cb,11597,32,39,ILB
1699.321720703,lu_cb,11597,39,33,ILB
1699.321720703,lu_cb,11597,39,33,ILB
1699.374088552,lu_cb,11575,33,38,ILB
1699.374088552,lu_cb,11575,33,38,ILB
1699.436396168,lu_cb,11575,38,32,WAFF
1699.436396168,lu_cb,11575,38,32,WAFF
1699.436583819,lu_cb,11624,32,34,ILB
1699.436583819,lu_cb,11624,32,34,ILB
1699.490868922,lu_cb,11602,34,39,ILB
1699.490868922,lu_cb,11602,34,39,ILB
1699.592223147,lu_cb,11602,39,33,ILB
1699.592223147,lu_cb,11602,39,33,ILB
1699.708702904,lu_cb,11602,33,35,ILB
1699.708702904,lu_cb,11602,33,35,ILB
1699.832936412,lu_cb,11602,35,39,ILB
1699.832936412,lu_cb,11602,35,39,ILB
1699.945756900,lu_cb,11587,39,35,ILB
1699.945756900,lu_cb,11587,39,35,ILB
1700.58328271,lu_cb,11567,35,37,ILB
1700.58328271,lu_cb,11567,35,37,ILB
1700.118841408,lu_cb,11567,37,34,ILB
1700.118841408,lu_cb,11567,37,34,ILB
1700.230715071,lu_cb,11567,34,39,ILB
1700.230715071,lu_cb,11567,34,39,ILB
1700.282044114,lu_cb,11602,39,34,ILB
1700.282044114,lu_cb,11602,39,34,ILB
1700.336787849,lu_cb,11602,34,38,ILB
1700.336787849,lu_cb,11602,34,38,ILB
1700.338779288,lu_cb,11602,38,48,ILB
1700.338779288,lu_cb,11602,38,48,ILB
1700.390100937,lu_cb,11602,48,32,NLB
1700.390100937,lu_cb,11602,48,32,NLB
1700.489534012,lu_cb,11602,32,39,ILB
1700.489534012,lu_cb,11602,32,39,ILB
1700.590812253,lu_cb,11567,39,38,ILB
1700.590812253,lu_cb,11567,39,38,ILB
1700.645478350,lu_cb,11567,38,39,WAFF
1700.645478350,lu_cb,11567,38,39,WAFF
1700.658091172,lu_cb,11602,39,45,ILB
1700.658091172,lu_cb,11602,39,45,ILB
1700.699721716,lu_cb,11628,45,40,ILB
1700.699721716,lu_cb,11628,45,40,ILB
1700.814132717,lu_cb,11628,40,60,ILB
1700.814132717,lu_cb,11628,40,60,ILB
1700.850030303,lu_cb,11628,60,62,ILB
1700.850030303,lu_cb,11628,60,62,ILB
1700.858107425,lu_cb,11628,62,0,ILB
1700.858107425,lu_cb,11628,62,0,ILB
1700.866072426,lu_cb,11619,0,5,NLB
1700.866072426,lu_cb,11619,0,5,NLB
1700.896186978,lu_cb,11619,5,39,ILB
1700.896186978,lu_cb,11619,5,39,ILB
1701.2102178,lu_cb,11567,39,32,NLB
1701.2102178,lu_cb,11567,39,32,NLB
1701.48053239,lu_cb,11567,32,36,ILB
1701.48053239,lu_cb,11567,32,36,ILB
1701.87261429,lu_cb,11567,36,38,ILB
1701.87261429,lu_cb,11567,36,38,ILB
1701.197046190,lu_cb,11567,38,33,ILB
1701.197046190,lu_cb,11567,38,33,ILB
1701.254118097,lu_cb,11567,33,52,ILB
1701.254118097,lu_cb,11567,33,52,ILB
1701.262127810,lu_cb,11616,52,48,NLB
1701.262127810,lu_cb,11616,52,48,NLB
1701.266124757,lu_cb,11603,48,54,NLB
1701.266124757,lu_cb,11603,48,54,NLB
1701.266367318,lu_cb,11609,54,51,WAFF
1701.266367318,lu_cb,11609,54,51,WAFF
1701.291833049,lu_cb,11609,51,39,ILB
1701.291833049,lu_cb,11609,51,39,ILB
1701.385180993,lu_cb,11609,39,34,ILB
1701.385180993,lu_cb,11609,39,34,ILB
1701.450124270,lu_cb,11609,34,7,ILB
1701.450124270,lu_cb,11609,34,7,ILB
1701.458097822,lu_cb,11620,7,2,NLB
1701.458097822,lu_cb,11620,7,2,NLB
1701.466102752,lu_cb,11623,2,5,NLB
1701.466102752,lu_cb,11623,2,5,NLB
1701.489613702,lu_cb,11623,5,34,ILB
1701.489613702,lu_cb,11623,5,34,ILB
1701.590141976,lu_cb,11624,34,32,NLB
1701.590141976,lu_cb,11624,34,32,NLB
1701.676572976,lu_cb,11624,32,35,ILB
1701.676572976,lu_cb,11624,32,35,ILB
1701.734768806,lu_cb,11617,32,36,ILB
1701.734768806,lu_cb,11617,32,36,ILB
1701.777575797,lu_cb,11617,36,38,ILB
1701.777575797,lu_cb,11617,36,38,ILB
1701.778060223,lu_cb,11624,35,39,ILB
1701.778060223,lu_cb,11624,35,39,ILB
1701.869189552,lu_cb,11624,39,33,ILB
1701.869189552,lu_cb,11624,39,33,ILB
1701.869250674,lu_cb,11617,38,32,ILB
1701.869250674,lu_cb,11617,38,32,ILB
1701.955073705,lu_cb,11624,33,39,ILB
1701.955073705,lu_cb,11624,33,39,ILB
1701.970210006,lu_cb,11575,32,34,NLB
1701.970210006,lu_cb,11575,32,34,NLB
1702.48520039,lu_cb,11575,34,35,ILB
1702.48520039,lu_cb,11575,34,35,ILB
1702.48597023,lu_cb,11624,39,38,ILB
1702.48597023,lu_cb,11624,39,38,ILB
1702.139718248,lu_cb,11575,35,32,ILB
1702.139718248,lu_cb,11575,35,32,ILB
1702.139877219,lu_cb,11624,38,37,ILB
1702.139877219,lu_cb,11624,38,37,ILB
1702.191691185,lu_cb,11575,32,34,WAFF
1702.191691185,lu_cb,11575,32,34,WAFF
1702.230978514,lu_cb,11623,34,35,ILB
1702.230978514,lu_cb,11623,34,35,ILB
1702.231155358,lu_cb,11624,37,32,ILB
1702.231155358,lu_cb,11624,37,32,ILB
1702.283247625,lu_cb,11623,35,39,WAFF
1702.283247625,lu_cb,11623,35,39,WAFF
1702.306389617,lu_cb,11623,39,23,NLB
1702.306389617,lu_cb,11623,39,23,NLB
1702.323458766,lu_cb,11624,32,35,ILB
1702.323458766,lu_cb,11624,32,35,ILB
1702.411815612,lu_cb,11624,35,38,ILB
1702.411815612,lu_cb,11624,35,38,ILB
1702.499879462,lu_cb,11624,38,35,ILB
1702.499879462,lu_cb,11624,38,35,ILB
1702.582377417,lu_cb,11624,35,58,ILB
1702.582377417,lu_cb,11624,35,58,ILB
1702.673211690,lu_cb,11624,58,38,ILB
1702.673211690,lu_cb,11624,58,38,ILB
1702.758716769,lu_cb,11624,38,35,ILB
1702.758716769,lu_cb,11624,38,35,ILB
1702.845272910,lu_cb,11624,35,38,ILB
1702.845272910,lu_cb,11624,35,38,ILB
1702.931068394,lu_cb,11624,38,35,ILB
1702.931068394,lu_cb,11624,38,35,ILB
1702.980741689,lu_cb,11624,35,37,WAFF
1702.980741689,lu_cb,11624,35,37,WAFF
1703.17629071,lu_cb,11626,37,38,ILB
1703.17629071,lu_cb,11626,37,38,ILB
1703.98843093,lu_cb,11626,38,35,ILB
1703.98843093,lu_cb,11626,38,35,ILB
1703.175754303,lu_cb,11587,35,39,ILB
1703.175754303,lu_cb,11587,35,39,ILB
1703.265769950,lu_cb,11587,39,34,ILB
1703.265769950,lu_cb,11587,39,34,ILB
1703.346996813,lu_cb,11587,34,57,ILB
1703.346996813,lu_cb,11587,34,57,ILB
1703.440195309,lu_cb,11587,57,58,ILB
1703.440195309,lu_cb,11587,57,58,ILB
1703.518963749,lu_cb,11587,58,62,ILB
1703.518963749,lu_cb,11587,58,62,ILB
1703.593617903,lu_cb,11587,62,32,ILB
1703.593617903,lu_cb,11587,62,32,ILB
1703.670589453,lu_cb,11587,32,38,ILB
1703.670589453,lu_cb,11587,32,38,ILB
1703.750672448,lu_cb,11587,38,32,ILB
1703.750672448,lu_cb,11587,38,32,ILB
1703.819423573,lu_cb,11617,32,37,ILB
1703.819423573,lu_cb,11617,32,37,ILB
1703.901422466,lu_cb,11624,37,38,ILB
1703.901422466,lu_cb,11624,37,38,ILB
1703.945805205,lu_cb,11624,38,33,ILB
1703.945805205,lu_cb,11624,38,33,ILB
1703.945896745,lu_cb,11618,32,39,ILB
1703.945896745,lu_cb,11618,32,39,ILB
1703.962255582,lu_cb,11618,39,36,WAFF
1703.962255582,lu_cb,11618,39,36,WAFF
1703.969361829,lu_cb,11597,33,52,ILB
1703.969361829,lu_cb,11597,33,52,ILB
1703.977113361,lu_cb,11596,36,38,ILB
1703.977113361,lu_cb,11596,36,38,ILB
1704.42355042,lu_cb,11596,38,36,WAFF
1704.42355042,lu_cb,11596,38,36,WAFF
1704.53315285,lu_cb,11618,36,32,ILB
1704.53315285,lu_cb,11618,36,32,ILB
1704.65073144,lu_cb,11597,52,5,ILB
1704.65073144,lu_cb,11597,52,5,ILB
1704.136077097,lu_cb,11587,32,36,ILB
1704.136077097,lu_cb,11587,32,36,ILB
1704.139667287,lu_cb,11630,5,38,ILB
1704.139667287,lu_cb,11630,5,38,ILB
1704.201498097,lu_cb,11627,38,32,ILB
1704.201498097,lu_cb,11627,38,32,ILB
1704.203897350,lu_cb,11596,36,20,ILB
1704.203897350,lu_cb,11596,36,20,ILB
1704.252130951,lu_cb,11596,20,55,ILB
1704.252130951,lu_cb,11596,20,55,ILB
1704.253341381,lu_cb,11596,55,16,WAFF
1704.253341381,lu_cb,11596,55,16,WAFF
1704.278175767,lu_cb,11588,16,20,ILB
1704.278175767,lu_cb,11588,16,20,ILB
1704.332526296,lu_cb,11588,20,21,WAFF
1704.332526296,lu_cb,11588,20,21,WAFF
1704.332603578,lu_cb,11627,32,36,WAFF
1704.332603578,lu_cb,11627,32,36,WAFF
1704.357434212,lu_cb,11627,36,30,ILB
1704.357434212,lu_cb,11627,36,30,ILB
1704.362926388,lu_cb,11618,32,38,ILB
1704.362926388,lu_cb,11618,32,38,ILB
1704.429564682,lu_cb,11630,38,33,ILB
1704.429564682,lu_cb,11630,38,33,ILB
1704.435342116,lu_cb,11570,30,35,ILB
1704.435342116,lu_cb,11570,30,35,ILB
1704.477407464,lu_cb,11570,35,33,ILB
1704.477407464,lu_cb,11570,35,33,ILB
1704.477502815,lu_cb,11630,33,34,WAFF
1704.477502815,lu_cb,11630,33,34,WAFF
1704.490308898,lu_cb,11630,34,43,ILB
1704.490308898,lu_cb,11630,34,43,ILB
1704.502302139,rcu_sched,8,52,18,WAFF
1704.502802218,lu_cb,11624,33,39,ILB
1704.502802218,lu_cb,11624,33,39,ILB
1704.510472459,lu_cb,11630,43,39,ILB
1704.510472459,lu_cb,11630,43,39,ILB
1704.547657143,lu_cb,11630,39,34,WAFF
1704.547657143,lu_cb,11630,39,34,WAFF
1704.554330738,lu_cb,11624,39,18,ILB
1704.554330738,lu_cb,11624,39,18,ILB
1704.566289388,rcu_sched,8,18,39,WAFF
1704.566307016,lu_cb,11576,18,24,NLB
1704.566307016,lu_cb,11576,18,24,NLB
1704.575047849,lu_cb,11593,24,29,ILB
1704.575047849,lu_cb,11593,24,29,ILB
1704.575479080,lu_cb,11630,34,39,ILB
1704.575479080,lu_cb,11630,34,39,ILB
1704.614480274,dsm_sa_datamgrd,2862,4,18,WAFF
1704.614549354,dsm_sa_eventmgr,2882,4,18,WAFF
1704.614618785,dsm_sa_eventmgr,2883,4,18,WAFF
1704.617175291,lu_cb,11630,39,29,ILB
1704.617175291,lu_cb,11630,39,29,ILB
1704.622320431,lu_cb,11630,29,26,NLB
1704.622320431,lu_cb,11630,29,26,NLB
1704.630280185,lu_cb,11572,26,31,NLB
1704.630280185,lu_cb,11572,26,31,NLB
1704.646282740,lu_cb,11579,29,35,ILB
1704.646282740,lu_cb,11579,29,35,ILB
1704.759558047,lu_cb,11579,35,33,ILB
1704.759558047,lu_cb,11579,35,33,ILB
1704.788987185,lu_cb,11570,33,34,ILB
1704.788987185,lu_cb,11570,33,34,ILB
1704.830747227,lu_cb,11570,34,28,ILB
1704.830747227,lu_cb,11570,34,28,ILB
1704.831939415,lu_cb,11570,28,29,WAFF
1704.831939415,lu_cb,11570,28,29,WAFF
1704.842321210,lu_cb,11593,29,24,NLB
1704.842321210,lu_cb,11593,29,24,NLB
1704.854310703,lu_cb,11576,24,20,ILB
1704.854310703,lu_cb,11576,24,20,ILB
1704.898319760,lu_cb,11576,20,16,NLB
1704.898319760,lu_cb,11576,20,16,NLB
1704.924208854,lu_cb,11576,16,33,ILB
1704.924208854,lu_cb,11576,16,33,ILB
1704.986315287,lu_cb,11576,33,32,NLB
1704.986315287,lu_cb,11576,33,32,NLB
1705.49387596,lu_cb,11628,32,34,ILB
1705.49387596,lu_cb,11628,32,34,ILB
1705.86335189,lu_cb,11628,34,50,ILB
1705.86335189,lu_cb,11628,34,50,ILB
1705.94343752,lu_cb,11599,50,48,NLB
1705.94343752,lu_cb,11599,50,48,NLB
1705.98380435,lu_cb,11616,48,52,NLB
1705.98380435,lu_cb,11616,48,52,NLB
1705.110270514,lu_cb,11567,52,34,ILB
1705.110270514,lu_cb,11567,52,34,ILB
1705.173039241,lu_cb,11576,32,39,ILB
1705.173039241,lu_cb,11576,32,39,ILB
1705.173188918,lu_cb,11575,34,38,ILB
1705.173188918,lu_cb,11575,34,38,ILB
1705.226317894,rcu_sched,8,39,18,WAFF
1705.226322926,lu_cb,11618,38,40,ILB
1705.226322926,lu_cb,11618,38,40,ILB
1705.232516591,lu_cb,11619,39,37,ILB
1705.232516591,lu_cb,11619,39,37,ILB
1705.267076132,lu_cb,11619,37,47,ILB
1705.267076132,lu_cb,11619,37,47,ILB
1705.286484639,lu_cb,11583,40,34,ILB
1705.286484639,lu_cb,11583,40,34,ILB
1705.304171570,lu_cb,11619,47,35,ILB
1705.304171570,lu_cb,11619,47,35,ILB
1705.338381650,lu_cb,11583,34,53,ILB
1705.338381650,lu_cb,11583,34,53,ILB
1705.342884940,lu_cb,11619,35,18,ILB
1705.342884940,lu_cb,11619,35,18,ILB
1705.353605679,lu_cb,11619,18,34,ILB
1705.353605679,lu_cb,11619,18,34,ILB
1705.355138603,lu_cb,11583,53,49,ILB
1705.355138603,lu_cb,11583,53,49,ILB
1705.414751737,lu_cb,11567,34,58,ILB
1705.414751737,lu_cb,11567,34,58,ILB
1705.454337483,jbd2/sdb1-8,1060,0,2,WAFF
1705.454777371,jbd2/sdb1-8,1060,2,0,WAFF
1705.476473129,lu_cb,11608,49,56,ILB
1705.476473129,lu_cb,11608,49,56,ILB
1705.482227097,lu_cb,11598,58,56,ILB
1705.482227097,lu_cb,11598,58,56,ILB
1705.515814522,lu_cb,11608,56,57,WAFF
1705.515814522,lu_cb,11608,56,57,WAFF
1705.530370641,lu_cb,11592,57,60,WAFF
1705.530370641,lu_cb,11592,57,60,WAFF
1705.535639585,lu_cb,11580,56,59,ILB
1705.535639585,lu_cb,11580,56,59,ILB
1705.540492507,lu_cb,11604,60,37,ILB
1705.540492507,lu_cb,11604,60,37,ILB
1705.575378356,lu_cb,11604,37,34,ILB
1705.575378356,lu_cb,11604,37,34,ILB
1705.598408722,lu_cb,11619,34,1,ILB
1705.598408722,lu_cb,11619,34,1,ILB
1705.603341978,lu_cb,11586,59,57,ILB
1705.603341978,lu_cb,11586,59,57,ILB
1705.631250022,lu_cb,11586,57,24,ILB
1705.631250022,lu_cb,11586,57,24,ILB
1705.654263930,lu_cb,11586,24,30,ILB
1705.654263930,lu_cb,11586,24,30,ILB
1705.655064186,lu_cb,11571,1,23,ILB
1705.655064186,lu_cb,11571,1,23,ILB
1705.710377959,lu_cb,11627,30,57,ILB
1705.710377959,lu_cb,11627,30,57,ILB
1705.711917985,lu_cb,11623,23,21,ILB
1705.711917985,lu_cb,11623,23,21,ILB
1705.750239072,lu_cb,11627,57,32,ILB
1705.750239072,lu_cb,11627,57,32,ILB
1705.758378648,lu_cb,11627,32,58,ILB
1705.758378648,lu_cb,11627,32,58,ILB
1705.781596957,lu_cb,11588,21,34,ILB
1705.781596957,lu_cb,11588,21,34,ILB
1705.788688971,lu_cb,11567,58,56,ILB
1705.788688971,lu_cb,11567,58,56,ILB
1705.810842233,lu_cb,11588,34,28,ILB
1705.810842233,lu_cb,11588,34,28,ILB
1705.810997959,lu_cb,11567,56,57,WAFF
1705.810997959,lu_cb,11567,56,57,WAFF
1705.833872639,lu_cb,11595,28,11,ILB
1705.833872639,lu_cb,11595,28,11,ILB
1705.868802934,lu_cb,11595,11,14,ILB
1705.868802934,lu_cb,11595,11,14,ILB
1705.868929267,lu_cb,11567,57,35,ILB
1705.868929267,lu_cb,11567,57,35,ILB
1705.889401031,lu_cb,11606,14,3,ILB
1705.889401031,lu_cb,11606,14,3,ILB
1705.892511991,lu_cb,11626,35,32,ILB
1705.892511991,lu_cb,11626,35,32,ILB
1705.927528475,lu_cb,11606,3,4,WAFF
1705.927528475,lu_cb,11606,3,4,WAFF
1705.942154709,lu_cb,11626,32,34,ILB
1705.942154709,lu_cb,11626,32,34,ILB
1705.946368230,lu_cb,11606,4,3,NLB
1705.946368230,lu_cb,11606,4,3,NLB
1705.984139121,lu_cb,11606,3,34,ILB
1705.984139121,lu_cb,11606,3,34,ILB
1705.998510650,lu_cb,11626,34,12,WAFF
1705.998510650,lu_cb,11626,34,12,WAFF
1706.210425,lu_cb,11626,12,55,ILB
1706.210425,lu_cb,11626,12,55,ILB
1706.45655886,lu_cb,11606,34,19,ILB
1706.45655886,lu_cb,11606,34,19,ILB
1706.126494861,lu_cb,11569,55,48,NLB
1706.126494861,lu_cb,11569,55,48,NLB
1706.128332686,lu_cb,11590,19,1,ILB
1706.128332686,lu_cb,11590,19,1,ILB
1706.175327346,lu_cb,11619,1,58,ILB
1706.175327346,lu_cb,11619,1,58,ILB
1706.203605569,lu_cb,11619,58,37,ILB
1706.203605569,lu_cb,11619,58,37,ILB
1706.224472059,lu_cb,11617,37,23,ILB
1706.224472059,lu_cb,11617,37,23,ILB
1706.255287674,lu_cb,11617,23,17,WAFF
1706.255287674,lu_cb,11617,23,17,WAFF
1706.276836052,lu_cb,11617,17,32,ILB
1706.276836052,lu_cb,11617,17,32,ILB
1706.452818928,lu_cb,11617,32,33,WAFF
1706.452818928,lu_cb,11617,32,33,WAFF
1706.472661490,lu_cb,11617,33,35,ILB
1706.472661490,lu_cb,11617,33,35,ILB
1706.520341837,lu_cb,11567,35,39,ILB
1706.520341837,lu_cb,11567,35,39,ILB
1706.550421171,lu_cb,11567,39,20,ILB
1706.550421171,lu_cb,11567,39,20,ILB
1706.558413960,lu_cb,11625,20,16,NLB
1706.558413960,lu_cb,11625,20,16,NLB
1706.578406945,lu_cb,11625,16,17,NLB
1706.578406945,lu_cb,11625,16,17,NLB
1706.598437632,lu_cb,11625,17,16,NLB
1706.598437632,lu_cb,11625,17,16,NLB
1706.606400158,lu_cb,11596,16,21,NLB
1706.606400158,lu_cb,11596,16,21,NLB
1706.615183966,lu_cb,11623,21,35,ILB
1706.615183966,lu_cb,11623,21,35,ILB
1706.660923185,lu_cb,11617,35,37,ILB
1706.660923185,lu_cb,11617,35,37,ILB
1706.697597786,lu_cb,11617,37,34,ILB
1706.697597786,lu_cb,11617,37,34,ILB
1706.793745354,lu_cb,11604,34,56,ILB
1706.793745354,lu_cb,11604,34,56,ILB
1706.811746392,lu_cb,11604,56,62,ILB
1706.811746392,lu_cb,11604,56,62,ILB
1706.830519149,lu_cb,11594,62,36,ILB
1706.830519149,lu_cb,11594,62,36,ILB
1706.852108150,lu_cb,11594,36,37,ILB
1706.852108150,lu_cb,11594,36,37,ILB
1706.864818037,lu_cb,11594,37,35,ILB
1706.864818037,lu_cb,11594,37,35,ILB
1706.908547921,lu_cb,11594,35,50,ILB
1706.908547921,lu_cb,11594,35,50,ILB
1706.954466068,lu_cb,11628,50,33,ILB
1706.954466068,lu_cb,11628,50,33,ILB
1706.975459607,lu_cb,11628,33,35,ILB
1706.975459607,lu_cb,11628,33,35,ILB
1706.987402518,lu_cb,11628,35,29,ILB
1706.987402518,lu_cb,11628,35,29,ILB
1707.60294388,lu_cb,11628,29,31,WAFF
1707.60294388,lu_cb,11628,29,31,WAFF
1707.78463487,lu_cb,11628,31,29,SLB
1707.78463487,lu_cb,11628,31,29,SLB
1707.98469009,lu_cb,11628,29,25,NLB
1707.98469009,lu_cb,11628,29,25,NLB
1707.114049546,lu_cb,11577,25,35,ILB
1707.114049546,lu_cb,11577,25,35,ILB
1707.157226612,lu_cb,11623,35,62,ILB
1707.157226612,lu_cb,11623,35,62,ILB
1707.173438788,lu_cb,11623,62,56,ILB
1707.173438788,lu_cb,11623,62,56,ILB
1707.186657789,lu_cb,11623,56,48,ILB
1707.186657789,lu_cb,11623,56,48,ILB
1707.223817906,lu_cb,11623,48,19,ILB
1707.223817906,lu_cb,11623,48,19,ILB
1707.265514660,lu_cb,11606,19,20,ILB
1707.265514660,lu_cb,11606,19,20,ILB
1707.293240478,lu_cb,11606,20,18,ILB
1707.293240478,lu_cb,11606,20,18,ILB
1707.326446539,lu_cb,11606,18,21,NLB
1707.326446539,lu_cb,11606,18,21,NLB
1707.330447819,lu_cb,11596,21,23,NLB
1707.330447819,lu_cb,11596,21,23,NLB
1707.330532853,lu_cb,11571,23,29,ILB
1707.330532853,lu_cb,11571,23,29,ILB
1707.366514145,lu_cb,11570,29,32,NLB
1707.366514145,lu_cb,11570,29,32,NLB
1707.402458266,lu_cb,11599,32,33,NLB
1707.402458266,lu_cb,11599,32,33,NLB
1707.417559788,lu_cb,11599,33,39,ILB
1707.417559788,lu_cb,11599,33,39,ILB
1707.418597172,lu_cb,11599,39,32,WAFF
1707.418597172,lu_cb,11599,39,32,WAFF
1707.428040179,lu_cb,11570,32,37,ILB
1707.428040179,lu_cb,11570,32,37,ILB
1707.458738076,lu_cb,11570,37,18,ILB
1707.458738076,lu_cb,11570,37,18,ILB
1707.461351916,lu_cb,11624,18,37,ILB
1707.461351916,lu_cb,11624,18,37,ILB
1707.490500975,lu_cb,11624,37,18,ILB
1707.490500975,lu_cb,11624,37,18,ILB
1707.497942914,lu_cb,11570,18,60,ILB
1707.497942914,lu_cb,11570,18,60,ILB
1707.525868558,lu_cb,11570,60,48,ILB
1707.525868558,lu_cb,11570,60,48,ILB
1707.546537229,lu_cb,11570,48,49,NLB
1707.546537229,lu_cb,11570,48,49,NLB
1707.566512709,lu_cb,11570,49,48,NLB
1707.566512709,lu_cb,11570,49,48,NLB
1707.578491928,lu_cb,11570,48,18,ILB
1707.578491928,lu_cb,11570,48,18,ILB
1707.590808454,lu_cb,11570,18,32,ILB
1707.590808454,lu_cb,11570,18,32,ILB
1707.610504896,lu_cb,11570,32,18,ILB
1707.610504896,lu_cb,11570,32,18,ILB
1707.627235993,lu_cb,11570,18,61,ILB
1707.627235993,lu_cb,11570,18,61,ILB
1707.638885290,lu_cb,11570,61,58,ILB
1707.638885290,lu_cb,11570,61,58,ILB
1707.648881689,lu_cb,11570,58,1,ILB
1707.648881689,lu_cb,11570,58,1,ILB
1707.759118979,lu_cb,11570,1,0,ILB
1707.759118979,lu_cb,11570,1,0,ILB
1707.946521289,lu_cb,11624,18,32,NLB
1707.946521289,lu_cb,11624,18,32,NLB
1708.35389703,lu_cb,11624,32,39,ILB
1708.35389703,lu_cb,11624,32,39,ILB
1708.60148392,lu_cb,11624,39,32,ILB
1708.60148392,lu_cb,11624,39,32,ILB
1708.79490693,lu_cb,11624,32,37,ILB
1708.79490693,lu_cb,11624,32,37,ILB
1708.138549403,lu_cb,11624,37,18,ILB
1708.138549403,lu_cb,11624,37,18,ILB
1708.178670216,rcu_sched,8,18,12,WAFF
1708.246496026,rcu_sched,8,12,18,WAFF
1708.334621479,lu_cb,11597,32,18,ILB
1708.334621479,lu_cb,11597,32,18,ILB
1708.342552267,lu_cb,11624,18,57,ILB
1708.342552267,lu_cb,11624,18,57,ILB
1708.357788385,lu_cb,11624,57,61,ILB
1708.357788385,lu_cb,11624,57,61,ILB
1708.419012973,lu_cb,11624,61,32,ILB
1708.419012973,lu_cb,11624,61,32,ILB
1708.432664072,lu_cb,11624,32,19,ILB
1708.432664072,lu_cb,11624,32,19,ILB
1708.447087104,lu_cb,11624,19,37,ILB
1708.447087104,lu_cb,11624,19,37,ILB
1708.460510620,lu_cb,11624,37,19,ILB
1708.460510620,lu_cb,11624,37,19,ILB
1708.470515736,lu_cb,11624,19,18,SLB
1708.470515736,lu_cb,11624,19,18,SLB
1708.474532499,lu_cb,11597,18,16,NLB
1708.474532499,lu_cb,11597,18,16,NLB
1708.475717802,lu_cb,11625,16,60,ILB
1708.475717802,lu_cb,11625,16,60,ILB
1708.486991330,lu_cb,11625,60,57,ILB
1708.486991330,lu_cb,11625,60,57,ILB
1708.517954744,lu_cb,11625,57,56,WAFF
1708.517954744,lu_cb,11625,57,56,WAFF
1708.522192125,lu_cb,11598,56,37,ILB
1708.522192125,lu_cb,11598,56,37,ILB
1708.533442783,lu_cb,11598,37,20,ILB
1708.533442783,lu_cb,11598,37,20,ILB
1708.542546686,lu_cb,11598,20,18,SLB
1708.542546686,lu_cb,11598,20,18,SLB
1708.544563551,lu_cb,11624,18,32,ILB
1708.544563551,lu_cb,11624,18,32,ILB
1708.564751391,lu_cb,11624,32,55,ILB
1708.564751391,lu_cb,11624,32,55,ILB
1708.575210761,lu_cb,11624,55,48,ILB
1708.575210761,lu_cb,11624,55,48,ILB
1708.582578221,lu_cb,11624,48,49,NLB
1708.582578221,lu_cb,11624,48,49,NLB
1708.585058048,lu_cb,11583,49,9,ILB
1708.585058048,lu_cb,11583,49,9,ILB
1708.595665456,lu_cb,11583,9,3,ILB
1708.595665456,lu_cb,11583,9,3,ILB
1708.605305959,lu_cb,11583,3,57,ILB
1708.605305959,lu_cb,11583,3,57,ILB
1708.611451923,lu_cb,11608,57,59,ILB
1708.611451923,lu_cb,11608,57,59,ILB
1708.618663937,lu_cb,11608,59,58,NLB
1708.618663937,lu_cb,11608,59,58,NLB
1708.618684222,lu_cb,11627,58,60,WAFF
1708.618684222,lu_cb,11627,58,60,WAFF
1708.620677491,lu_cb,11592,60,0,ILB
1708.620677491,lu_cb,11592,60,0,ILB
1708.637235728,lu_cb,11592,0,4,ILB
1708.637235728,lu_cb,11592,0,4,ILB
1708.724480708,lu_cb,11592,4,36,ILB
1708.724480708,lu_cb,11592,4,36,ILB
1708.729144901,lu_cb,11592,36,4,ILB
1708.729144901,lu_cb,11592,36,4,ILB
1708.742764834,lu_cb,11591,4,32,ILB
1708.742764834,lu_cb,11591,4,32,ILB
1708.744731626,lu_cb,11591,32,17,ILB
1708.744731626,lu_cb,11591,32,17,ILB
1708.748938612,lu_cb,11591,17,16,WAFF
1708.748938612,lu_cb,11591,17,16,WAFF
1708.749217928,lu_cb,11597,16,32,ILB
1708.749217928,lu_cb,11597,16,32,ILB
1708.753089757,lu_cb,11597,32,62,ILB
1708.753089757,lu_cb,11597,32,62,ILB
1708.758582174,lu_cb,11598,18,39,ILB
1708.758582174,lu_cb,11598,18,39,ILB
1708.758861898,dsm_sa_eventmgr,2883,18,62,ILB
1708.759912180,lu_cb,11598,39,40,ILB
1708.759912180,lu_cb,11598,39,40,ILB
1708.775624545,lu_cb,11598,40,17,ILB
1708.775624545,lu_cb,11598,40,17,ILB
1708.784850994,lu_cb,11598,17,18,WAFF
1708.784850994,lu_cb,11598,17,18,WAFF
1708.786544797,lu_cb,11598,18,19,WAFF
1708.786544797,lu_cb,11598,18,19,WAFF
1708.787750039,lu_cb,11623,19,17,ILB
1708.787750039,lu_cb,11623,19,17,ILB
1708.800653733,lu_cb,11610,17,43,ILB
1708.800653733,lu_cb,11610,17,43,ILB
1708.811526208,lu_cb,11610,43,3,ILB
1708.811526208,lu_cb,11610,43,3,ILB
1708.820295286,lu_cb,11610,3,17,ILB
1708.820295286,lu_cb,11610,3,17,ILB
1708.858582716,rcu_sched,8,18,0,ILB
1708.861909548,perf,11565,35,50,WAFF
