Start,End,Cpu,Size
1407.126922008,1407.126992926,55,1
1407.127043467,1407.127091786,32,1
1407.127133305,1407.127174589,56,1
1407.126992926,1407.127380528,55,2
1407.127091786,1407.127439241,32,2
1407.127174589,1407.127632270,56,2
1407.127439241,1407.127849675,32,1
1407.127380528,1407.127851095,55,1
1407.127632270,1407.128104820,56,1
1403.61002116,1407.128394794,44,1
1407.127823985,1407.128429895,8,1
1407.128464752,1407.128522711,28,1
1407.128575225,1407.128616547,45,1
1407.128658796,1407.128706374,48,1
1407.128750143,1407.128796287,0,1
1407.128834479,1407.128878443,10,1
1407.128616547,1407.128922854,45,2
1407.128917585,1407.128960382,29,1
1407.128878443,1407.129012957,10,2
1407.128394794,1407.129012957,9,1
1407.128706374,1407.129024339,48,2
1407.128960382,1407.129029640,29,2
1407.129012957,1407.129444750,9,2
1407.128522711,1407.129542758,28,2
1407.129444750,1407.129542758,11,1
1407.128796287,1407.129547762,0,2
1407.129542758,1407.129547762,11,2
1407.128922854,1407.129556920,45,1
1407.129012957,1407.129557540,10,1
1407.129024339,1407.129562507,48,1
1407.129547762,1407.129578309,11,3
1407.129578309,1407.129581753,11,2
1407.129581753,1407.129607803,11,1
1407.129581753,1407.129685313,45,1
1407.129444750,1407.129694410,9,1
1407.129029640,1407.129699105,32,1
1407.129024339,1407.129701263,55,1
1407.129029640,1407.129716867,29,1
1407.129542758,1407.130032573,28,1
1407.129547762,1407.130045583,0,1
1407.129747735,1407.130405912,48,1
1407.129876298,1407.130480564,57,1
1407.129815923,1407.130482240,33,1
1407.130048240,1407.130570147,47,1
1407.129997652,1407.130798744,11,1
1407.129942662,1407.130952923,16,1
1407.130640937,1407.131177662,40,1
1407.130519905,1407.131251729,58,1
1407.130423224,1407.131417888,49,1
1407.131116067,1407.131836481,41,1
1407.131252579,1407.131999117,40,1
1407.131064534,1407.132362983,59,1
1407.131642388,1407.132411150,42,1
1407.130581530,1407.132552655,34,1
1407.131879618,1407.132672469,41,1
1407.130756960,1407.132916782,35,1
1407.132077060,1407.133009623,40,1
1407.132232419,1407.133029254,43,1
1407.131307019,1407.133395713,60,1
1407.131414488,1407.133693922,61,1
1407.130695629,1407.133719420,50,1
1407.130117735,1407.133723958,1,1
1407.131941919,1407.133793839,62,1
1407.130847390,1407.133801013,12,1
1407.132445823,1407.133889291,63,1
1407.130903632,1407.133889703,13,1
1407.130953299,1407.133895756,14,1
1407.131589727,1407.133975668,36,1
1407.132179392,1407.134155544,15,1
1407.132128215,1407.134155647,37,1
1407.132633985,1407.134223453,38,1
1407.131362527,1407.134284564,51,1
1407.130354741,1407.134365676,2,1
1407.132289261,1407.134419602,54,1
1407.131474127,1407.134425318,52,1
1407.131821709,1407.134505316,53,1
1407.130190513,1407.134550847,30,1
1407.130276570,1407.134607126,31,1
1407.131704674,1407.134887484,3,1
1407.131013974,1407.135011994,17,1
1407.132012867,1407.135301038,20,1
1407.131763010,1407.135401451,24,1
1407.131191376,1407.135418125,18,1
1407.131536825,1407.135506262,19,1
1407.132582285,1407.135508595,25,1
1407.129607803,1407.140492953,46,1
1407.135815956,1407.140625572,39,1
1407.136885525,1407.140686411,9,1
1407.140306606,1407.140752490,50,1
1407.140752490,1407.145354280,50,2
1407.140625572,1407.209399650,39,2
1407.140686411,1407.253179283,9,2
1407.138437099,1412.11819114,35,1
1407.138949037,1412.11821891,51,1
1407.139456223,1412.11840261,63,1
1407.138294151,1412.11851902,59,1
1407.137999587,1412.11858843,34,1
1407.139004602,1412.11864725,62,1
1407.139639979,1412.11868205,17,1
1407.139827500,1412.11874393,53,1
1407.138896073,1412.11910533,12,1
1407.137945978,1412.11926475,41,1
1407.136102493,1412.11932728,40,1
1407.139328833,1412.11934643,52,1
1407.139764614,1412.11939883,14,1
1407.140432631,1412.11943124,57,1
1407.140492953,1412.11950450,46,2
1407.136153063,1412.11952848,21,1
1407.135745777,1412.11962424,20,1
1407.139568227,1412.11969212,3,1
1407.145354280,1412.11969582,50,1
1407.145354280,1412.11990766,2,1
1407.138637020,1412.11993255,23,1
1407.138733617,1412.11998302,44,1
1407.138060055,1412.12014771,6,1
1407.138482898,1412.12016312,11,1
1407.139231257,1412.12022429,37,1
1407.135955653,1412.12030129,56,1
1407.139962106,1412.12032304,43,1
1407.138110654,1412.12046728,10,1
1407.139069947,1412.12048883,0,1
1407.140128802,1412.12048917,1,1
1407.138218464,1412.12050189,22,1
1407.139121504,1412.12053201,45,1
1407.139177440,1412.12053524,16,1
1407.139276776,1412.12068384,13,1
1407.209399650,1412.12069101,24,1
1407.139405168,1412.12071245,25,1
1407.140244602,1412.12073331,15,1
1407.138335563,1412.12074867,42,1
1407.138394620,1412.12075235,29,1
1407.137849143,1412.12075246,28,1
1407.138845193,1412.12076058,36,1
1407.137899316,1412.12078431,58,1
1412.11950450,1412.12078522,46,1
1407.138584249,1412.12079759,7,1
1407.138684943,1412.12080521,61,1
1407.139888557,1412.12080532,60,1
1407.139704142,1412.12086568,38,1
1407.209399650,1412.12086593,39,1
1407.135777857,1412.12088427,54,1
1407.139502206,1412.12093940,47,1
1407.137795836,1412.12100958,5,1
1407.136009468,1412.12100981,4,1
1407.140367861,1412.12102824,19,1
1407.140559076,1412.12102835,18,1
1407.138162690,1412.12105023,48,1
1407.138529002,1412.12105098,49,1
1407.253179283,1412.12106508,9,1
1407.135911082,1412.12106614,8,1
1407.140186393,1412.12108635,33,1
1407.136056655,1412.12108646,32,1
1407.135851062,1412.12113925,26,1
1407.138793679,1412.12116561,30,1
1407.140040402,1412.12116569,31,1
1407.137730723,1412.12468985,55,1
1407.253179283,1412.12476022,27,1
1412.12078522,1416.299575791,53,1
