Time,Comm,Pid,Orig,Dest,Trigger
1108.796609173,perf,7471,28,40,ELB
1108.797733194,time,7472,40,29,FLB
1108.797889927,time,7472,29,50,ELB
1108.799429122,volrend,7472,50,56,ELB
1108.799429122,volrend,7472,50,56,ELB
1108.801088207,volrend,7472,56,0,CA
1108.801088207,volrend,7472,56,0,CA
1108.807663683,rcu_sched,8,10,56,WAFF
1109.589951907,volrend,7473,0,30,FLB
1109.589951907,volrend,7473,0,30,FLB
1109.589996049,volrend,7473,30,1,CA
1109.589996049,volrend,7473,30,1,CA
1109.590039847,volrend,7472,0,31,WAFF
1109.590039847,volrend,7472,0,31,WAFF
1109.590180620,volrend,7474,31,41,FLB
1109.590180620,volrend,7474,31,41,FLB
1109.590191433,volrend,7474,41,2,CA
1109.590191433,volrend,7474,41,2,CA
1109.590250505,volrend,7475,31,48,FLB
1109.590250505,volrend,7475,31,48,FLB
1109.590263174,volrend,7475,48,3,CA
1109.590263174,volrend,7475,48,3,CA
1109.590327274,volrend,7476,31,39,FLB
1109.590327274,volrend,7476,31,39,FLB
1109.590339602,volrend,7476,39,4,CA
1109.590339602,volrend,7476,39,4,CA
1109.590394384,volrend,7477,31,49,FLB
1109.590394384,volrend,7477,31,49,FLB
1109.590401417,volrend,7477,49,5,CA
1109.590401417,volrend,7477,49,5,CA
1109.590450766,volrend,7478,31,32,FLB
1109.590450766,volrend,7478,31,32,FLB
1109.590462410,volrend,7478,32,6,CA
1109.590462410,volrend,7478,32,6,CA
1109.590516337,volrend,7479,31,50,FLB
1109.590516337,volrend,7479,31,50,FLB
1109.590528727,volrend,7479,50,7,CA
1109.590528727,volrend,7479,50,7,CA
1109.590584404,volrend,7480,31,33,FLB
1109.590584404,volrend,7480,31,33,FLB
1109.590591905,volrend,7480,33,8,CA
1109.590591905,volrend,7480,33,8,CA
1109.590640226,volrend,7481,31,42,FLB
1109.590640226,volrend,7481,31,42,FLB
1109.590652902,volrend,7481,42,9,CA
1109.590652902,volrend,7481,42,9,CA
1109.590701274,volrend,7482,31,43,FLB
1109.590701274,volrend,7482,31,43,FLB
1109.590708793,volrend,7482,43,10,CA
1109.590708793,volrend,7482,43,10,CA
1109.590760858,volrend,7483,31,44,FLB
1109.590760858,volrend,7483,31,44,FLB
1109.590773372,volrend,7483,44,11,CA
1109.590773372,volrend,7483,44,11,CA
1109.590818093,volrend,7484,31,45,FLB
1109.590818093,volrend,7484,31,45,FLB
1109.590825761,volrend,7484,45,12,CA
1109.590825761,volrend,7484,45,12,CA
1109.590877097,volrend,7485,31,46,FLB
1109.590877097,volrend,7485,31,46,FLB
1109.590890257,volrend,7485,46,13,CA
1109.590890257,volrend,7485,46,13,CA
1109.590935155,volrend,7486,31,47,FLB
1109.590935155,volrend,7486,31,47,FLB
1109.590942804,volrend,7486,47,14,CA
1109.590942804,volrend,7486,47,14,CA
1109.590995380,volrend,7487,31,40,FLB
1109.590995380,volrend,7487,31,40,FLB
1109.591008586,volrend,7487,40,15,CA
1109.591008586,volrend,7487,40,15,CA
1109.591056290,volrend,7488,31,41,FLB
1109.591056290,volrend,7488,31,41,FLB
1109.591063708,volrend,7488,41,16,CA
1109.591063708,volrend,7488,41,16,CA
1109.591116258,volrend,7489,31,51,FLB
1109.591116258,volrend,7489,31,51,FLB
1109.591124368,volrend,7489,51,17,CA
1109.591124368,volrend,7489,51,17,CA
1109.591172816,volrend,7490,31,34,FLB
1109.591172816,volrend,7490,31,34,FLB
1109.591185044,volrend,7490,34,18,CA
1109.591185044,volrend,7490,34,18,CA
1109.591238918,volrend,7491,31,52,FLB
1109.591238918,volrend,7491,31,52,FLB
1109.591251412,volrend,7491,52,19,CA
1109.591251412,volrend,7491,52,19,CA
1109.591298881,volrend,7492,31,35,FLB
1109.591298881,volrend,7492,31,35,FLB
1109.591306053,volrend,7492,35,20,CA
1109.591306053,volrend,7492,35,20,CA
1109.591362817,volrend,7493,31,53,FLB
1109.591362817,volrend,7493,31,53,FLB
1109.591370381,volrend,7493,53,21,CA
1109.591370381,volrend,7493,53,21,CA
1109.591419393,volrend,7494,31,36,FLB
1109.591419393,volrend,7494,31,36,FLB
1109.591430705,volrend,7494,36,22,CA
1109.591430705,volrend,7494,36,22,CA
1109.591487648,volrend,7495,31,54,FLB
1109.591487648,volrend,7495,31,54,FLB
1109.591496029,volrend,7495,54,23,CA
1109.591496029,volrend,7495,54,23,CA
1109.591542171,volrend,7496,31,37,FLB
1109.591542171,volrend,7496,31,37,FLB
1109.591549538,volrend,7496,37,24,CA
1109.591549538,volrend,7496,37,24,CA
1109.591600747,volrend,7497,31,55,FLB
1109.591600747,volrend,7497,31,55,FLB
1109.591608350,volrend,7497,55,25,CA
1109.591608350,volrend,7497,55,25,CA
1109.591653702,volrend,7498,31,38,FLB
1109.591653702,volrend,7498,31,38,FLB
1109.591661621,volrend,7498,38,26,CA
1109.591661621,volrend,7498,38,26,CA
1109.591730710,volrend,7499,31,48,FLB
1109.591730710,volrend,7499,31,48,FLB
1109.591738955,volrend,7499,48,27,CA
1109.591738955,volrend,7499,48,27,CA
1109.591788519,volrend,7500,31,39,FLB
1109.591788519,volrend,7500,31,39,FLB
1109.591795085,volrend,7500,39,28,CA
1109.591795085,volrend,7500,39,28,CA
1109.591849739,volrend,7501,31,49,FLB
1109.591849739,volrend,7501,31,49,FLB
1109.591856890,volrend,7501,49,29,CA
1109.591856890,volrend,7501,49,29,CA
1109.591906254,volrend,7502,31,32,FLB
1109.591906254,volrend,7502,31,32,FLB
1109.591914063,volrend,7502,32,30,CA
1109.591914063,volrend,7502,32,30,CA
1109.591965920,volrend,7503,31,50,FLB
1109.591965920,volrend,7503,31,50,FLB
1109.591974409,volrend,7503,50,31,CA
1109.591974409,volrend,7503,50,31,CA
1109.592025901,volrend,7504,31,33,FLB
1109.592025901,volrend,7504,31,33,FLB
1109.592032748,volrend,7504,33,32,CA
1109.592032748,volrend,7504,33,32,CA
1109.592036789,volrend,7503,31,50,ILB
1109.592036789,volrend,7503,31,50,ILB
1109.592087420,volrend,7505,31,50,FLB
1109.592087420,volrend,7505,31,50,FLB
1109.592094059,volrend,7505,50,33,CA
1109.592094059,volrend,7505,50,33,CA
1109.592144839,volrend,7506,31,51,FLB
1109.592144839,volrend,7506,31,51,FLB
1109.592152235,volrend,7506,51,34,CA
1109.592152235,volrend,7506,51,34,CA
1109.592208354,volrend,7507,31,52,FLB
1109.592208354,volrend,7507,31,52,FLB
1109.592220838,volrend,7507,52,35,CA
1109.592220838,volrend,7507,52,35,CA
1109.592271556,volrend,7508,31,53,FLB
1109.592271556,volrend,7508,31,53,FLB
1109.592278936,volrend,7508,53,36,CA
1109.592278936,volrend,7508,53,36,CA
1109.592333467,volrend,7509,31,54,FLB
1109.592333467,volrend,7509,31,54,FLB
1109.592345920,volrend,7509,54,37,CA
1109.592345920,volrend,7509,54,37,CA
1109.592396751,volrend,7510,31,55,FLB
1109.592396751,volrend,7510,31,55,FLB
1109.592404169,volrend,7510,55,38,CA
1109.592404169,volrend,7510,55,38,CA
1109.592456784,volrend,7511,31,48,FLB
1109.592456784,volrend,7511,31,48,FLB
1109.592469602,volrend,7511,48,39,CA
1109.592469602,volrend,7511,48,39,CA
1109.592518023,volrend,7512,31,49,FLB
1109.592518023,volrend,7512,31,49,FLB
1109.592525305,volrend,7512,49,40,CA
1109.592525305,volrend,7512,49,40,CA
1109.592577312,volrend,7513,31,50,FLB
1109.592577312,volrend,7513,31,50,FLB
1109.592586893,volrend,7513,50,41,CA
1109.592586893,volrend,7513,50,41,CA
1109.592634954,volrend,7514,31,51,FLB
1109.592634954,volrend,7514,31,51,FLB
1109.592642551,volrend,7514,51,42,CA
1109.592642551,volrend,7514,51,42,CA
1109.592691389,volrend,7515,31,52,FLB
1109.592691389,volrend,7515,31,52,FLB
1109.592698274,volrend,7515,52,43,CA
1109.592698274,volrend,7515,52,43,CA
1109.592747094,volrend,7516,31,53,FLB
1109.592747094,volrend,7516,31,53,FLB
1109.592754158,volrend,7516,53,44,CA
1109.592754158,volrend,7516,53,44,CA
1109.592803207,volrend,7517,31,54,FLB
1109.592803207,volrend,7517,31,54,FLB
1109.592810344,volrend,7517,54,45,CA
1109.592810344,volrend,7517,54,45,CA
1109.592855222,volrend,7518,31,55,FLB
1109.592855222,volrend,7518,31,55,FLB
1109.592862772,volrend,7518,55,46,CA
1109.592862772,volrend,7518,55,46,CA
1109.592914686,volrend,7519,31,48,FLB
1109.592914686,volrend,7519,31,48,FLB
1109.592922578,volrend,7519,48,47,CA
1109.592922578,volrend,7519,48,47,CA
1109.592968571,volrend,7520,31,49,FLB
1109.592968571,volrend,7520,31,49,FLB
1109.592975449,volrend,7520,49,48,CA
1109.592975449,volrend,7520,49,48,CA
1109.593021576,volrend,7521,31,40,FLB
1109.593021576,volrend,7521,31,40,FLB
1109.593028141,volrend,7521,40,49,CA
1109.593028141,volrend,7521,40,49,CA
1109.593074083,volrend,7522,31,41,FLB
1109.593074083,volrend,7522,31,41,FLB
1109.593081483,volrend,7522,41,50,CA
1109.593081483,volrend,7522,41,50,CA
1109.593127231,volrend,7523,31,42,FLB
1109.593127231,volrend,7523,31,42,FLB
1109.593132880,volrend,7523,42,51,CA
1109.593132880,volrend,7523,42,51,CA
1109.593177901,volrend,7524,31,43,FLB
1109.593177901,volrend,7524,31,43,FLB
1109.593185201,volrend,7524,43,52,CA
1109.593185201,volrend,7524,43,52,CA
1109.593236335,volrend,7525,31,44,FLB
1109.593236335,volrend,7525,31,44,FLB
1109.593243532,volrend,7525,44,53,CA
1109.593243532,volrend,7525,44,53,CA
1109.593292229,volrend,7526,31,45,FLB
1109.593292229,volrend,7526,31,45,FLB
1109.593299535,volrend,7526,45,54,CA
1109.593299535,volrend,7526,45,54,CA
1109.593348184,volrend,7527,31,46,FLB
1109.593348184,volrend,7527,31,46,FLB
1109.593355415,volrend,7527,46,55,CA
1109.593355415,volrend,7527,46,55,CA
1109.593401632,volrend,7528,31,47,FLB
1109.593401632,volrend,7528,31,47,FLB
1109.593408958,volrend,7528,47,56,CA
1109.593408958,volrend,7528,47,56,CA
1109.593461021,volrend,7529,31,40,FLB
1109.593461021,volrend,7529,31,40,FLB
1109.593468327,volrend,7529,40,57,CA
1109.593468327,volrend,7529,40,57,CA
1109.593513681,volrend,7530,31,41,FLB
1109.593513681,volrend,7530,31,41,FLB
1109.593520866,volrend,7530,41,58,CA
1109.593520866,volrend,7530,41,58,CA
1109.593570593,volrend,7531,31,42,FLB
1109.593570593,volrend,7531,31,42,FLB
1109.593578220,volrend,7531,42,59,CA
1109.593578220,volrend,7531,42,59,CA
1109.593621069,volrend,7532,31,43,FLB
1109.593621069,volrend,7532,31,43,FLB
1109.593628583,volrend,7532,43,60,CA
1109.593628583,volrend,7532,43,60,CA
1109.593678054,volrend,7533,31,44,FLB
1109.593678054,volrend,7533,31,44,FLB
1109.593685604,volrend,7533,44,61,CA
1109.593685604,volrend,7533,44,61,CA
1109.593731168,volrend,7534,31,45,FLB
1109.593731168,volrend,7534,31,45,FLB
1109.593738629,volrend,7534,45,62,CA
1109.593738629,volrend,7534,45,62,CA
1109.593788947,volrend,7535,31,46,FLB
1109.593788947,volrend,7535,31,46,FLB
1109.593796741,volrend,7535,46,63,CA
1109.593796741,volrend,7535,46,63,CA
1109.593983054,volrend,7480,8,0,WAFF
1109.593983054,volrend,7480,8,0,WAFF
1109.594003507,volrend,7481,9,1,WAFF
1109.594003507,volrend,7481,9,1,WAFF
1109.594021290,volrend,7482,10,2,WAFF
1109.594021290,volrend,7482,10,2,WAFF
1109.594037663,volrend,7483,11,3,WAFF
1109.594037663,volrend,7483,11,3,WAFF
1109.594055433,volrend,7484,12,4,WAFF
1109.594055433,volrend,7484,12,4,WAFF
1109.594073421,volrend,7485,13,5,WAFF
1109.594073421,volrend,7485,13,5,WAFF
1109.594090977,volrend,7486,14,6,WAFF
1109.594090977,volrend,7486,14,6,WAFF
1109.594107268,volrend,7487,15,7,WAFF
1109.594107268,volrend,7487,15,7,WAFF
1109.594123312,volrend,7488,16,0,WAFF
1109.594123312,volrend,7488,16,0,WAFF
1109.595948102,volrend,7481,1,0,WAFF
1109.595948102,volrend,7481,1,0,WAFF
1109.611695109,volrend,7483,3,2,WAFF
1109.611695109,volrend,7483,3,2,WAFF
1109.623690303,volrend,7485,5,4,WAFF
1109.623690303,volrend,7485,5,4,WAFF
1109.635689066,volrend,7487,7,6,WAFF
1109.635689066,volrend,7487,7,6,WAFF
1109.639739822,volrend,7483,2,57,ILB
1109.639739822,volrend,7483,2,57,ILB
1109.639743785,volrend,7474,2,57,ILB
1109.639743785,volrend,7474,2,57,ILB
1109.647857634,volrend,7480,0,23,ILB
1109.647857634,volrend,7480,0,23,ILB
1109.647866585,volrend,7495,23,16,WAFF
1109.647866585,volrend,7495,23,16,WAFF
1109.651803923,volrend,7485,4,8,ILB
1109.651803923,volrend,7485,4,8,ILB
1109.651809088,volrend,7486,6,10,ILB
1109.651809088,volrend,7486,6,10,ILB
1109.651816445,volrend,7478,6,10,ILB
1109.651816445,volrend,7478,6,10,ILB
1109.651856268,volrend,7478,10,15,ILB
1109.651856268,volrend,7478,10,15,ILB
1109.651910939,volrend,7522,50,51,ILB
1109.651910939,volrend,7522,50,51,ILB
1109.651942103,volrend,7523,51,55,ILB
1109.651942103,volrend,7523,51,55,ILB
1109.659723107,volrend,7484,4,9,NLB
1109.659723107,volrend,7484,4,9,NLB
1109.667701430,volrend,7529,57,58,WAFF
1109.667701430,volrend,7529,57,58,WAFF
1109.667724878,volrend,7530,58,59,WAFF
1109.667724878,volrend,7530,58,59,WAFF
1109.667739904,volrend,7531,59,60,WAFF
1109.667739904,volrend,7531,59,60,WAFF
1109.667763849,volrend,7532,60,61,WAFF
1109.667763849,volrend,7532,60,61,WAFF
1109.684173970,volrend,7523,55,53,WAFF
1109.684173970,volrend,7523,55,53,WAFF
1109.684178252,volrend,7474,57,63,WAFF
1109.684178252,volrend,7474,57,63,WAFF
1109.684186424,volrend,7523,53,51,ILB
1109.684186424,volrend,7523,53,51,ILB
1109.684411171,volrend,7474,63,58,WAFF
1109.684411171,volrend,7474,63,58,WAFF
1109.691686526,rcu_sched,8,56,1,WAFF
1109.693934642,volrend,7488,0,2,WAFF
1109.693934642,volrend,7488,0,2,WAFF
1109.699685580,rcu_sched,8,1,3,WAFF
1109.707709131,volrend,7529,58,38,WAFF
1109.707709131,volrend,7529,58,38,WAFF
1109.724079082,volrend,7533,61,58,WAFF
1109.724079082,volrend,7533,61,58,WAFF
1109.725771445,volrend,7488,2,4,WAFF
1109.725771445,volrend,7488,2,4,WAFF
1109.739757666,volrend,7522,51,41,ILB
1109.739757666,volrend,7522,51,41,ILB
1109.739817453,volrend,7474,58,60,WAFF
1109.739817453,volrend,7474,58,60,WAFF
1109.740055251,volrend,7529,38,37,WAFF
1109.740055251,volrend,7529,38,37,WAFF
1109.747800419,volrend,7474,60,61,NLB
1109.747800419,volrend,7474,60,61,NLB
1109.802553512,volrend,7513,41,42,WAFF
1109.802553512,volrend,7513,41,42,WAFF
1109.802711076,volrend,7514,42,40,WAFF
1109.802711076,volrend,7514,42,40,WAFF
1109.823717253,volrend,7514,40,11,NLB
1109.823717253,volrend,7514,40,11,NLB
1109.823831892,volrend,7529,37,25,ILB
1109.823831892,volrend,7529,37,25,ILB
1109.823845547,volrend,7488,4,6,ILB
1109.823845547,volrend,7488,4,6,ILB
1109.830064277,volrend,7487,6,7,WAFF
1109.830064277,volrend,7487,6,7,WAFF
1109.830411605,volrend,7479,7,2,WAFF
1109.830411605,volrend,7479,7,2,WAFF
1109.830459821,volrend,7482,2,5,WAFF
1109.830459821,volrend,7482,2,5,WAFF
1109.835715053,volrend,7477,5,12,ILB
1109.835715053,volrend,7477,5,12,ILB
1109.843924501,volrend,7497,25,31,ILB
1109.843924501,volrend,7497,25,31,ILB
1109.904329772,volrend,7474,61,57,WAFF
1109.904329772,volrend,7474,61,57,WAFF
1109.919717357,rcu_sched,8,3,29,WAFF
1109.926458509,volrend,7497,31,29,WAFF
1109.926458509,volrend,7497,31,29,WAFF
1109.930168597,volrend,7483,57,60,WAFF
1109.930168597,volrend,7483,57,60,WAFF
1109.942718349,volrend,7531,60,61,WAFF
1109.942718349,volrend,7531,60,61,WAFF
1109.947709473,volrend,7501,29,26,NLB
1109.947709473,volrend,7501,29,26,NLB
1109.963708956,volrend,7532,61,63,WAFF
1109.963708956,volrend,7532,61,63,WAFF
1109.987719340,volrend,7498,26,13,NLB
1109.987719340,volrend,7498,26,13,NLB
1109.987811844,volrend,7535,63,40,ILB
1109.987811844,volrend,7535,63,40,ILB
1110.4301197,volrend,7535,40,47,WAFF
1110.4301197,volrend,7535,40,47,WAFF
1110.27760331,volrend,7519,47,32,NLB
1110.27760331,volrend,7519,47,32,NLB
1110.27803201,volrend,7504,32,34,WAFF
1110.27803201,volrend,7504,32,34,WAFF
1110.66254715,volrend,7506,34,36,WAFF
1110.66254715,volrend,7506,34,36,WAFF
1110.154195111,volrend,7508,36,39,WAFF
1110.154195111,volrend,7508,36,39,WAFF
1110.186221740,volrend,7511,39,32,WAFF
1110.186221740,volrend,7511,39,32,WAFF
1110.187775782,volrend,7519,32,29,ILB
1110.187775782,volrend,7519,32,29,ILB
1110.187809887,volrend,7497,29,24,WAFF
1110.187809887,volrend,7497,29,24,WAFF
1110.212749271,volrend,7496,24,25,WAFF
1110.212749271,volrend,7496,24,25,WAFF
1110.229628971,volrend,7496,25,31,WAFF
1110.229628971,volrend,7496,25,31,WAFF
1110.229668790,volrend,7496,31,27,ILB
1110.229668790,volrend,7496,31,27,ILB
1110.237230255,volrend,7496,27,31,WAFF
1110.237230255,volrend,7496,27,31,WAFF
1110.270734464,volrend,7472,31,24,WAFF
1110.270734464,volrend,7472,31,24,WAFF
1110.271770212,volrend,7497,24,11,NLB
1110.271770212,volrend,7497,24,11,NLB
1110.271853125,volrend,7514,11,14,WAFF
1110.271853125,volrend,7514,11,14,WAFF
1110.451776810,rcu_sched,8,29,14,WAFF
1110.507744244,rcu_sched,8,14,1,WAFF
1110.643745186,volrend,7473,1,2,WAFF
1110.643745186,volrend,7473,1,2,WAFF
1110.649292954,volrend,7479,2,36,WAFF
1110.649292954,volrend,7479,2,36,WAFF
1110.667809997,volrend,7479,36,1,ILB
1110.667809997,volrend,7479,36,1,ILB
1110.723768875,rcu_sched,8,1,7,WAFF
1110.859758810,kworker/u128:0,6,38,39,WAFF
1110.859787570,volrend,7510,38,39,ILB
1110.859787570,volrend,7510,38,39,ILB
1110.861863281,volrend,7508,39,32,WAFF
1110.861863281,volrend,7508,39,32,WAFF
1110.861886863,volrend,7511,32,33,WAFF
1110.861886863,volrend,7511,32,33,WAFF
1110.861992404,volrend,7505,33,38,WAFF
1110.861992404,volrend,7505,33,38,WAFF
1110.899782849,rcu_sched,8,7,2,WAFF
1111.83785584,kworker/u128:0,6,39,33,WAFF
1111.83834648,rcu_sched,8,2,33,ILB
1111.91813373,rcu_sched,8,33,4,ILB
1111.195773974,rcu_sched,8,4,5,WAFF
1111.299788655,rcu_sched,8,5,1,WAFF
1111.379847003,rcu_sched,8,1,5,ILB
1111.463839186,rcu_sched,8,5,8,NLB
1111.471788986,rcu_sched,8,8,9,WAFF
1111.539794174,volrend,7484,9,10,WAFF
1111.539794174,volrend,7484,9,10,WAFF
1111.540812225,volrend,7484,10,15,WAFF
1111.540812225,volrend,7484,10,15,WAFF
1111.540879263,volrend,7478,15,9,WAFF
1111.540879263,volrend,7478,15,9,WAFF
1111.851850766,kworker/u128:0,6,33,39,WAFF
1112.351874167,rcu_sched,8,9,15,WAFF
1112.999885838,rcu_sched,8,15,0,WAFF
1113.663938903,volrend,7481,0,36,ILB
1113.663938903,volrend,7481,0,36,ILB
1113.664999636,volrend,7481,36,37,WAFF
1113.664999636,volrend,7481,36,37,WAFF
1113.683993846,volrend,7481,37,0,ILB
1113.683993846,volrend,7481,37,0,ILB
1113.707978471,rcu_sched,8,0,12,ILB
1113.851957931,rcu_sched,8,12,10,WAFF
1113.871949038,volrend,7486,10,11,WAFF
1113.871949038,volrend,7486,10,11,WAFF
1113.872873410,volrend,7486,11,10,WAFF
1113.872873410,volrend,7486,11,10,WAFF
1114.179968273,rcu_sched,8,10,12,WAFF
1114.307956425,rcu_sched,8,12,13,WAFF
1114.599999690,rcu_sched,8,13,33,WAFF
1114.703979713,rcu_sched,8,33,34,WAFF
1114.811999735,rcu_sched,8,34,35,WAFF
1114.832022378,kworker/u135:2,3086,51,50,WAFF
1115.20035536,volrend,7507,35,36,WAFF
1115.20035536,volrend,7507,35,36,WAFF
1115.21024687,volrend,7507,36,37,WAFF
1115.21024687,volrend,7507,36,37,WAFF
1115.21163018,volrend,7509,37,38,WAFF
1115.21163018,volrend,7509,37,38,WAFF
1115.28032130,volrend,7509,38,35,ILB
1115.28032130,volrend,7509,38,35,ILB
1115.56005006,rcu_sched,8,35,2,WAFF
1115.472042370,volrend,7473,2,3,WAFF
1115.472042370,volrend,7473,2,3,WAFF
1115.473681802,volrend,7475,3,21,WAFF
1115.473681802,volrend,7475,3,21,WAFF
1115.536099453,volrend,7475,21,2,ILB
1115.536099453,volrend,7475,21,2,ILB
1115.716044977,rcu_sched,8,2,3,WAFF
1116.212098199,rcu_sched,8,3,48,WAFF
1116.536093114,volrend,7520,48,49,WAFF
1116.536093114,volrend,7520,48,49,WAFF
1116.541189540,volrend,7521,49,48,WAFF
1116.541189540,volrend,7521,49,48,WAFF
1116.736121137,rcu_sched,8,48,1,WAFF
1116.868110954,rcu_sched,8,1,4,WAFF
1116.924135753,volrend,7476,4,5,WAFF
1116.924135753,volrend,7476,4,5,WAFF
1116.932169073,volrend,7482,5,4,ILB
1116.932169073,volrend,7482,5,4,ILB
1116.996127603,rcu_sched,8,4,6,WAFF
1117.108137657,rcu_sched,8,6,4,WAFF
1117.260147736,rcu_sched,8,4,0,WAFF
1117.780231818,rcu_sched,8,0,48,ILB
1117.932191907,volrend,7521,48,49,WAFF
1117.932191907,volrend,7521,48,49,WAFF
1117.940227405,volrend,7521,49,48,ILB
1117.940227405,volrend,7521,49,48,ILB
1118.92245030,rcu_sched,8,48,54,ILB
1119.234461497,dsm_sa_datamgrd,2863,48,11,ILB
1119.424274757,volrend,7526,54,55,WAFF
1119.424274757,volrend,7526,54,55,WAFF
1119.426230617,volrend,7527,55,54,WAFF
1119.426230617,volrend,7527,55,54,WAFF
1119.428261198,rcu_sched,8,54,0,WAFF
1119.436346654,rcu_sched,8,0,23,ILB
1119.480281675,volrend,7480,23,16,ILB
1119.480281675,volrend,7480,23,16,ILB
1119.488295439,volrend,7480,16,23,ILB
1119.488295439,volrend,7480,16,23,ILB
1119.876297700,volrend,7480,23,6,ILB
1119.876297700,volrend,7480,23,6,ILB
1119.884330287,volrend,7480,6,16,NLB
1119.884330287,volrend,7480,6,16,NLB
1119.902861543,volrend,7495,16,23,WAFF
1119.902861543,volrend,7495,16,23,WAFF
1119.921993301,volrend,7495,23,16,WAFF
1119.921993301,volrend,7495,23,16,WAFF
1119.936350472,volrend,7480,16,23,ILB
1119.936350472,volrend,7480,16,23,ILB
1120.24304624,rcu_sched,8,23,16,WAFF
1120.280310368,rcu_sched,8,16,3,WAFF
1120.408371971,rcu_sched,8,3,7,ILB
1120.640330806,rcu_sched,8,7,3,WAFF
1120.744367504,rcu_sched,8,3,11,WAFF
1120.796327101,rcu_sched,8,11,12,WAFF
1120.860359729,volrend,7477,12,13,WAFF
1120.860359729,volrend,7477,12,13,WAFF
1120.866446792,volrend,7477,13,14,WAFF
1120.866446792,volrend,7477,13,14,WAFF
1120.866694747,volrend,7514,14,12,WAFF
1120.866694747,volrend,7514,14,12,WAFF
1120.968375859,rcu_sched,8,12,15,ILB
1121.104352352,rcu_sched,8,15,8,WAFF
1121.216486190,volrend,7497,11,31,ILB
1121.216486190,volrend,7497,11,31,ILB
1121.219459051,volrend,7497,31,24,WAFF
1121.219459051,volrend,7497,31,24,WAFF
1121.221552834,volrend,7472,24,26,WAFF
1121.221552834,volrend,7472,24,26,WAFF
1121.228436289,volrend,7501,26,8,ILB
1121.228436289,volrend,7501,26,8,ILB
1121.228651769,volrend,7485,8,11,WAFF
1121.228651769,volrend,7485,8,11,WAFF
1121.512384042,rcu_sched,8,8,9,WAFF
1121.824443894,rcu_sched,8,9,0,WAFF
1121.896428812,rcu_sched,8,0,11,WAFF
1122.60445413,rcu_sched,8,11,15,ILB
1122.244425598,rcu_sched,8,15,8,WAFF
1122.284427539,rcu_sched,8,8,15,WAFF
1122.308414856,rcu_sched,8,15,11,WAFF
1122.332445874,volrend,7485,11,12,WAFF
1122.332445874,volrend,7485,11,12,WAFF
1122.333394827,volrend,7485,12,14,WAFF
1122.333394827,volrend,7485,12,14,WAFF
1122.333500752,volrend,7477,14,11,WAFF
1122.333500752,volrend,7477,14,11,WAFF
1122.356488555,rcu_sched,8,11,12,ILB
1122.364452127,rcu_sched,8,12,10,WAFF
1122.372445429,rcu_sched,8,10,14,WAFF
1122.620450497,rcu_sched,8,14,11,WAFF
1122.816503264,dsm_sa_datamgrd,2863,11,12,WAFF
1122.844447085,rcu_sched,8,11,12,WAFF
1122.908483678,rcu_sched,8,12,10,ILB
1122.908503125,dsm_sa_datamgrd,2863,12,9,WAFF
1123.36500369,rcu_sched,8,10,27,WAFF
1123.80528893,volrend,7478,9,10,WAFF
1123.80528893,volrend,7478,9,10,WAFF
1123.97347994,volrend,7486,10,9,WAFF
1123.97347994,volrend,7486,10,9,WAFF
1123.184476424,rcu_sched,8,27,3,WAFF
1123.336530635,rcu_sched,8,3,33,ILB
1123.392510086,rcu_sched,8,33,38,WAFF
1123.452505236,rcu_sched,8,38,32,WAFF
1123.536488406,rcu_sched,8,32,33,WAFF
1123.564562640,rcu_sched,8,33,36,ILB
1123.580493617,rcu_sched,8,36,38,WAFF
1123.732512190,rcu_sched,8,38,37,WAFF
1123.756538618,rcu_sched,8,37,5,WAFF
1123.856518476,rcu_sched,8,5,7,WAFF
1123.904550416,volrend,7487,7,0,WAFF
1123.904550416,volrend,7487,7,0,WAFF
1123.905477654,volrend,7487,0,7,WAFF
1123.905477654,volrend,7487,0,7,WAFF
1123.984562464,dsm_sa_datamgrd,2863,9,13,WAFF
1124.8545955,rcu_sched,8,7,13,WAFF
1124.80536319,rcu_sched,8,13,11,ILB
1124.280543591,rcu_sched,8,11,3,WAFF
1124.648719857,perf,7470,28,41,WAFF
