Start,End,Cpu,Size
1108.799429122,1108.801088207,56,1
1109.589951907,1109.589996049,30,1
1108.801088207,1109.590039847,0,1
1109.590180620,1109.590191433,41,1
1109.590250505,1109.590263174,48,1
1109.590327274,1109.590339602,39,1
1109.590394384,1109.590401417,49,1
1109.590450766,1109.590462410,32,1
1109.590516337,1109.590528727,50,1
1109.590584404,1109.590591905,33,1
1109.590640226,1109.590652902,42,1
1109.590701274,1109.590708793,43,1
1109.590760858,1109.590773372,44,1
1109.590818093,1109.590825761,45,1
1109.590877097,1109.590890257,46,1
1109.590935155,1109.590942804,47,1
1109.590995380,1109.591008586,40,1
1109.591056290,1109.591063708,41,1
1109.591116258,1109.591124368,51,1
1109.591172816,1109.591185044,34,1
1109.591238918,1109.591251412,52,1
1109.591298881,1109.591306053,35,1
1109.591362817,1109.591370381,53,1
1109.591419393,1109.591430705,36,1
1109.591487648,1109.591496029,54,1
1109.591542171,1109.591549538,37,1
1109.591600747,1109.591608350,55,1
1109.591653702,1109.591661621,38,1
1109.591730710,1109.591738955,48,1
1109.591788519,1109.591795085,39,1
1109.591849739,1109.591856890,49,1
1109.591906254,1109.591914063,32,1
1109.591965920,1109.591974409,50,1
1109.590039847,1109.591974409,31,1
1109.592025901,1109.592032748,33,1
1109.591974409,1109.592036789,31,2
1109.592036789,1109.592087420,50,1
1109.592087420,1109.592094059,50,2
1109.592144839,1109.592152235,51,1
1109.592208354,1109.592220838,52,1
1109.592271556,1109.592278936,53,1
1109.592333467,1109.592345920,54,1
1109.592396751,1109.592404169,55,1
1109.592456784,1109.592469602,48,1
1109.592518023,1109.592525305,49,1
1109.592094059,1109.592577312,50,1
1109.592577312,1109.592586893,50,2
1109.592634954,1109.592642551,51,1
1109.592691389,1109.592698274,52,1
1109.592747094,1109.592754158,53,1
1109.592803207,1109.592810344,54,1
1109.592855222,1109.592862772,55,1
1109.592914686,1109.592922578,48,1
1109.592968571,1109.592975449,49,1
1109.592525305,1109.593021576,40,1
1109.593021576,1109.593028141,40,2
1109.592586893,1109.593074083,41,1
1109.593074083,1109.593081483,41,2
1109.592586893,1109.593081483,50,1
1109.592642551,1109.593127231,42,1
1109.593127231,1109.593132880,42,2
1109.592698274,1109.593177901,43,1
1109.593177901,1109.593185201,43,2
1109.592754158,1109.593236335,44,1
1109.593236335,1109.593243532,44,2
1109.592810344,1109.593292229,45,1
1109.593292229,1109.593299535,45,2
1109.592862772,1109.593348184,46,1
1109.593348184,1109.593355415,46,2
1109.592922578,1109.593401632,47,1
1109.593401632,1109.593408958,47,2
1109.593028141,1109.593461021,40,1
1109.593461021,1109.593468327,40,2
1109.593081483,1109.593513681,41,1
1109.593513681,1109.593520866,41,2
1109.593132880,1109.593570593,42,1
1109.593570593,1109.593578220,42,2
1109.593185201,1109.593621069,43,1
1109.593621069,1109.593628583,43,2
1109.593243532,1109.593678054,44,1
1109.593678054,1109.593685604,44,2
1109.593299535,1109.593731168,45,1
1109.593731168,1109.593738629,45,2
1109.593355415,1109.593788947,46,1
1109.593788947,1109.593796741,46,2
1109.590591905,1109.593983054,8,1
1109.590652902,1109.594003507,9,1
1109.589996049,1109.594003507,1,1
1109.590708793,1109.594021290,10,1
1109.590191433,1109.594021290,2,1
1109.590773372,1109.594037663,11,1
1109.590263174,1109.594037663,3,1
1109.590825761,1109.594055433,12,1
1109.590339602,1109.594055433,4,1
1109.590890257,1109.594073421,13,1
1109.590401417,1109.594073421,5,1
1109.590942804,1109.594090977,14,1
1109.590462410,1109.594090977,6,1
1109.591008586,1109.594107268,15,1
1109.590528727,1109.594107268,7,1
1109.591063708,1109.594123312,16,1
1109.593983054,1109.594123312,0,1
1109.594003507,1109.595948102,1,2
1109.594123312,1109.595948102,0,2
1109.594037663,1109.611695109,3,2
1109.594021290,1109.611695109,2,2
1109.594073421,1109.623690303,5,2
1109.594055433,1109.623690303,4,2
1109.594107268,1109.635689066,7,2
1109.594090977,1109.635689066,6,2
1109.611695109,1109.639739822,2,3
1109.593468327,1109.639739822,57,1
1109.639739822,1109.639743785,2,2
1109.639739822,1109.639743785,57,2
1109.595948102,1109.647857634,0,3
1109.591496029,1109.647857634,23,1
1109.647857634,1109.647866585,23,2
1109.623690303,1109.651803923,4,3
1109.635689066,1109.651809088,6,3
1109.651809088,1109.651816445,6,2
1109.651809088,1109.651816445,10,1
1109.651816445,1109.651856268,10,2
1109.593081483,1109.651910939,50,2
1109.593132880,1109.651910939,51,1
1109.651910939,1109.651942103,51,2
1109.593355415,1109.651942103,55,1
1109.651803923,1109.659723107,4,2
1109.639743785,1109.667701430,57,3
1109.593520866,1109.667701430,58,1
1109.667701430,1109.667724878,58,2
1109.593578220,1109.667724878,59,1
1109.667724878,1109.667739904,59,2
1109.593628583,1109.667739904,60,1
1109.667739904,1109.667763849,60,2
1109.593685604,1109.667763849,61,1
1109.651942103,1109.684173970,55,2
1109.593243532,1109.684173970,53,1
1109.667701430,1109.684178252,57,2
1109.593796741,1109.684178252,63,1
1109.684173970,1109.684186424,53,2
1109.651942103,1109.684186424,51,1
1109.684178252,1109.684411171,63,2
1109.667724878,1109.684411171,58,1
1109.647857634,1109.693934642,0,2
1109.639743785,1109.693934642,2,1
1109.684411171,1109.707709131,58,2
1109.592404169,1109.707709131,38,1
1109.667763849,1109.724079082,61,2
1109.707709131,1109.724079082,58,1
1109.693934642,1109.725771445,2,2
1109.659723107,1109.725771445,4,1
1109.684186424,1109.739757666,51,2
1109.593520866,1109.739757666,41,1
1109.724079082,1109.739817453,58,2
1109.667763849,1109.739817453,60,1
1109.707709131,1109.740055251,38,2
1109.592345920,1109.740055251,37,1
1109.739817453,1109.747800419,60,2
1109.724079082,1109.747800419,61,1
1109.739757666,1109.802553512,41,2
1109.593578220,1109.802553512,42,1
1109.802553512,1109.802711076,42,2
1109.593468327,1109.802711076,40,1
1109.802711076,1109.823717253,40,2
1109.740055251,1109.823831892,37,2
1109.591608350,1109.823831892,25,1
1109.725771445,1109.823845547,4,2
1109.651816445,1109.823845547,6,1
1109.823845547,1109.830064277,6,2
1109.635689066,1109.830064277,7,1
1109.830064277,1109.830411605,7,2
1109.725771445,1109.830411605,2,1
1109.830411605,1109.830459821,2,2
1109.623690303,1109.830459821,5,1
1109.830459821,1109.835715053,5,2
1109.823831892,1109.843924501,25,2
1109.592036789,1109.843924501,31,1
1109.747800419,1109.904329772,61,2
1109.684178252,1109.904329772,57,1
1109.843924501,1109.926458509,31,2
1109.591856890,1109.926458509,29,1
1109.904329772,1109.930168597,57,2
1109.747800419,1109.930168597,60,1
1109.930168597,1109.942718349,60,2
1109.904329772,1109.942718349,61,1
1109.926458509,1109.947709473,29,2
1109.591661621,1109.947709473,26,1
1109.942718349,1109.963708956,61,2
1109.684411171,1109.963708956,63,1
1109.947709473,1109.987719340,26,2
1109.963708956,1109.987811844,63,2
1109.823717253,1109.987811844,40,1
1109.987811844,1110.4301197,40,2
1109.593408958,1110.4301197,47,1
1110.4301197,1110.27760331,47,2
1109.592032748,1110.27760331,32,1
1110.27760331,1110.27803201,32,2
1109.592152235,1110.27803201,34,1
1110.27803201,1110.66254715,34,2
1109.592278936,1110.66254715,36,1
1110.66254715,1110.154195111,36,2
1109.592469602,1110.154195111,39,1
1110.154195111,1110.186221740,39,2
1110.27803201,1110.186221740,32,1
1110.186221740,1110.187775782,32,2
1109.947709473,1110.187775782,29,1
1110.187775782,1110.187809887,29,2
1109.591549538,1110.187809887,24,1
1110.187809887,1110.212749271,24,2
1109.843924501,1110.212749271,25,1
1110.212749271,1110.229628971,25,2
1109.926458509,1110.229628971,31,1
1110.229628971,1110.229668790,31,2
1109.591738955,1110.229668790,27,1
1110.229668790,1110.237230255,27,2
1110.229668790,1110.237230255,31,1
1110.237230255,1110.270734464,31,2
1110.212749271,1110.270734464,24,1
1110.270734464,1110.271770212,24,2
1109.823717253,1110.271770212,11,1
1110.271770212,1110.271853125,11,2
1109.595948102,1110.643745186,1,1
1109.830459821,1110.643745186,2,1
1110.643745186,1110.649292954,2,2
1110.154195111,1110.649292954,36,1
1110.649292954,1110.667809997,36,2
1109.740055251,1110.859787570,38,1
1110.186221740,1110.859787570,39,1
1110.859787570,1110.861863281,39,2
1110.187775782,1110.861863281,32,1
1110.861863281,1110.861886863,32,2
1109.592094059,1110.861886863,33,1
1110.861886863,1110.861992404,33,2
1109.659723107,1111.539794174,9,1
1109.651856268,1111.539794174,10,1
1111.539794174,1111.540812225,10,2
1109.651856268,1111.540812225,15,1
1111.540812225,1111.540879263,15,2
1109.693934642,1113.663938903,0,1
1110.667809997,1113.663938903,36,1
1113.663938903,1113.664999636,36,2
1109.823831892,1113.664999636,37,1
1113.664999636,1113.683993846,37,2
1111.540812225,1113.871949038,10,1
1110.271853125,1113.871949038,11,1
1113.871949038,1113.872873410,11,2
1109.592220838,1115.20035536,35,1
1113.664999636,1115.20035536,36,1
1115.20035536,1115.21024687,36,2
1113.683993846,1115.21024687,37,1
1115.21024687,1115.21163018,37,2
1110.861992404,1115.21163018,38,1
1115.21163018,1115.28032130,38,2
1110.649292954,1115.472042370,2,1
1109.611695109,1115.472042370,3,1
1115.472042370,1115.473681802,3,2
1109.591370381,1115.473681802,21,1
1115.473681802,1115.536099453,21,2
1109.592975449,1116.536093114,48,1
1109.593028141,1116.536093114,49,1
1116.536093114,1116.541189540,49,2
1109.823845547,1116.924135753,4,1
1109.835715053,1116.924135753,5,1
1116.924135753,1116.932169073,5,2
1116.541189540,1117.932191907,48,1
1116.541189540,1117.932191907,49,1
1117.932191907,1117.940227405,49,2
1109.593299535,1119.424274757,54,1
1109.684173970,1119.424274757,55,1
1119.424274757,1119.426230617,55,2
1109.647866585,1119.480281675,23,1
1109.647866585,1119.480281675,16,1
1119.480281675,1119.488295439,16,2
1119.488295439,1119.876297700,23,1
1109.830064277,1119.876297700,6,1
1119.876297700,1119.884330287,6,2
1119.488295439,1119.884330287,16,1
1119.884330287,1119.902861543,16,2
1119.902861543,1119.921993301,23,1
1119.902861543,1119.921993301,16,1
1119.921993301,1119.936350472,16,2
1109.835715053,1120.860359729,12,1
1109.987719340,1120.860359729,13,1
1120.860359729,1120.866446792,13,2
1110.271853125,1120.866446792,14,1
1120.866446792,1120.866694747,14,2
1113.872873410,1121.216486190,11,1
1110.270734464,1121.216486190,31,1
1121.216486190,1121.219459051,31,2
1110.271770212,1121.219459051,24,1
1121.219459051,1121.221552834,24,2
1109.987719340,1121.221552834,26,1
1121.221552834,1121.228436289,26,2
1109.651803923,1121.228436289,8,1
1121.228436289,1121.228651769,8,2
1121.228651769,1122.332445874,11,1
1120.866694747,1122.332445874,12,1
1122.332445874,1122.333394827,12,2
1120.866694747,1122.333394827,14,1
1122.333394827,1122.333500752,14,2
1111.540879263,1123.80528893,9,1
1113.872873410,1123.80528893,10,1
1123.80528893,1123.97347994,10,2
1109.830411605,1123.904550416,7,1
1113.683993846,1123.904550416,0,1
1123.904550416,1123.905477654,0,2
1115.28032130,1124.642495590,35,1
1123.97347994,1124.642502669,9,1
1121.228651769,1124.642502730,8,1
1110.861992404,1124.642503825,33,1
1115.536099453,1124.642513542,21,1
1109.651910939,1124.642543686,50,1
1109.593738629,1124.642546058,62,1
1119.936350472,1124.642560520,16,1
1110.861863281,1124.642561629,39,1
1121.221552834,1124.642575201,24,1
1109.593628583,1124.642583402,43,1
1123.97347994,1124.642593906,10,1
1122.333500752,1124.642598072,11,1
1117.940227405,1124.642629289,49,1
1110.27760331,1124.642633545,47,1
1109.593738629,1124.642637582,45,1
1110.861886863,1124.642638759,32,1
1115.21163018,1124.642689625,37,1
1110.237230255,1124.642690543,27,1
1115.536099453,1124.642725185,2,1
1109.591306053,1124.642733233,20,1
1121.219459051,1124.642747383,31,1
1110.187809887,1124.642750395,29,1
1109.591795085,1124.642773650,28,1
1109.739757666,1124.642773939,51,1
1109.591251412,1124.642777638,19,1
1109.591185044,1124.642789756,18,1
1123.905477654,1124.642801329,0,1
1109.593796741,1124.642820345,46,1
1109.667739904,1124.642822837,59,1
1109.591914063,1124.642858024,30,1
1120.866446792,1124.642861419,13,1
1116.932169073,1124.642864919,5,1
1119.936350472,1124.642892996,23,1
1109.591124368,1124.642907408,17,1
1110.4301197,1124.642917761,40,1
1110.667809997,1124.642933195,1,1
1115.28032130,1124.642940318,38,1
1109.593185201,1124.642963566,52,1
1122.333500752,1124.642982874,14,1
1109.593685604,1124.642998062,44,1
1109.942718349,1124.643001122,60,1
1109.593408958,1124.643036016,56,1
1115.21024687,1124.643036079,36,1
1109.930168597,1124.643036090,57,1
1110.66254715,1124.643057957,34,1
1109.684186424,1124.643067324,53,1
1109.739817453,1124.643086016,58,1
1119.426230617,1124.643091151,54,1
1110.229628971,1124.643108072,25,1
1122.333394827,1124.643116276,12,1
1109.591430705,1124.643122944,22,1
1109.802711076,1124.643146254,42,1
1109.802553512,1124.643154795,41,1
1109.987811844,1124.643175491,63,1
1117.940227405,1124.643184083,48,1
1111.540879263,1124.643192260,15,1
1119.426230617,1124.643202307,55,1
1119.884330287,1124.643239890,6,1
1123.905477654,1124.643239934,7,1
1116.932169073,1124.643241194,4,1
1109.963708956,1124.643252954,61,1
1115.473681802,1124.645323106,3,1
1121.228436289,1124.648363666,26,1
