autogroup,barnes,init,1,12.490000
autogroup,barnes,init,2,12.800000
autogroup,barnes,init,3,13.420000
autogroup,barnes,none,1,12.800000
autogroup,barnes,none,2,13.400000
autogroup,barnes,none,3,13.050000
autogroup,bodytrack,init,1,47.220000
autogroup,bodytrack,init,2,48.010000
autogroup,bodytrack,init,3,45.240000
autogroup,bodytrack,none,1,44.170000
autogroup,bodytrack,none,2,49.100000
autogroup,bodytrack,none,3,46.340000
autogroup,histogram_mr,init,1,3.450000
autogroup,histogram_mr,init,2,3.400000
autogroup,histogram_mr,init,3,3.640000
autogroup,histogram_mr,none,1,3.720000
autogroup,histogram_mr,none,2,4.140000
autogroup,histogram_mr,none,3,3.780000
autogroup,lin_reg_mr,init,1,0.690000
autogroup,lin_reg_mr,init,2,0.660000
autogroup,lin_reg_mr,init,3,0.630000
autogroup,lin_reg_mr,none,1,0.660000
autogroup,lin_reg_mr,none,2,0.660000
autogroup,lin_reg_mr,none,3,0.640000
autogroup,lin_reg_pt,init,1,3.330000
autogroup,lin_reg_pt,init,2,3.730000
autogroup,lin_reg_pt,init,3,3.600000
autogroup,lin_reg_pt,none,1,3.150000
autogroup,lin_reg_pt,none,2,3.330000
autogroup,lin_reg_pt,none,3,3.610000
autogroup,lu_cb,init,1,34.430000
autogroup,lu_cb,init,2,36.590000
autogroup,lu_cb,init,3,34.800000
autogroup,lu_cb,none,1,36.060000
autogroup,lu_cb,none,2,36.150000
autogroup,lu_cb,none,3,33.770000
autogroup,lu_ncb,init,1,40.750000
autogroup,lu_ncb,init,2,35.530000
autogroup,lu_ncb,init,3,34.600000
autogroup,lu_ncb,none,1,42.700000
autogroup,lu_ncb,none,2,39.270000
autogroup,lu_ncb,none,3,37.340000
autogroup,pca_pt,init,1,13.040000
autogroup,pca_pt,init,2,15.770000
autogroup,pca_pt,init,3,13.090000
autogroup,pca_pt,none,1,15.710000
autogroup,pca_pt,none,2,16.680000
autogroup,pca_pt,none,3,16.250000
autogroup,volrend,init,1,99.760000
autogroup,volrend,init,2,99.580000
autogroup,volrend,init,3,103.360000
autogroup,volrend,none,1,106.240000
autogroup,volrend,none,2,72.790000
autogroup,volrend,none,3,97.800000
autogroup,word_count_mr,init,1,38.790000
autogroup,word_count_mr,init,2,40.220000
autogroup,word_count_mr,init,3,40.760000
autogroup,word_count_mr,none,1,39.080000
autogroup,word_count_mr,none,2,44.670000
autogroup,word_count_mr,none,3,45.390000
noautogroup,barnes,init,1,11.780000
noautogroup,barnes,init,2,11.780000
noautogroup,barnes,init,3,13.060000
noautogroup,barnes,none,1,11.590000
noautogroup,barnes,none,2,12.280000
noautogroup,barnes,none,3,11.580000
noautogroup,bodytrack,init,1,22.910000
noautogroup,bodytrack,init,2,23.050000
noautogroup,bodytrack,init,3,22.930000
noautogroup,bodytrack,none,1,23.230000
noautogroup,bodytrack,none,2,23.170000
noautogroup,bodytrack,none,3,23.120000
noautogroup,histogram_mr,init,1,2.120000
noautogroup,histogram_mr,init,2,2.040000
noautogroup,histogram_mr,init,3,2.250000
noautogroup,histogram_mr,none,1,2.280000
noautogroup,histogram_mr,none,2,2.300000
noautogroup,histogram_mr,none,3,2.370000
noautogroup,lin_reg_mr,init,1,0.520000
noautogroup,lin_reg_mr,init,2,0.490000
noautogroup,lin_reg_mr,init,3,0.500000
noautogroup,lin_reg_mr,none,1,0.520000
noautogroup,lin_reg_mr,none,2,0.510000
noautogroup,lin_reg_mr,none,3,0.510000
noautogroup,lin_reg_pt,init,1,2.520000
noautogroup,lin_reg_pt,init,2,2.280000
noautogroup,lin_reg_pt,init,3,2.300000
noautogroup,lin_reg_pt,none,1,4.470000
noautogroup,lin_reg_pt,none,2,3.700000
noautogroup,lin_reg_pt,none,3,4.490000
noautogroup,lu_cb,init,1,20.300000
noautogroup,lu_cb,init,2,20.280000
noautogroup,lu_cb,init,3,19.750000
noautogroup,lu_cb,none,1,18.940000
noautogroup,lu_cb,none,2,19.750000
noautogroup,lu_cb,none,3,19.590000
noautogroup,lu_ncb,init,1,20.920000
noautogroup,lu_ncb,init,2,22.050000
noautogroup,lu_ncb,init,3,21.980000
noautogroup,lu_ncb,none,1,22.900000
noautogroup,lu_ncb,none,2,25.820000
noautogroup,lu_ncb,none,3,25.220000
noautogroup,pca_pt,init,1,13.160000
noautogroup,pca_pt,init,2,13.390000
noautogroup,pca_pt,init,3,13.240000
noautogroup,pca_pt,none,1,13.230000
noautogroup,pca_pt,none,2,14.090000
noautogroup,pca_pt,none,3,15.430000
noautogroup,volrend,init,1,15.840000
noautogroup,volrend,init,2,15.860000
noautogroup,volrend,init,3,15.190000
noautogroup,volrend,none,1,15.710000
noautogroup,volrend,none,2,15.630000
noautogroup,volrend,none,3,15.550000
noautogroup,word_count_mr,init,1,16.510000
noautogroup,word_count_mr,init,2,16.630000
noautogroup,word_count_mr,init,3,16.430000
noautogroup,word_count_mr,none,1,16.630000
noautogroup,word_count_mr,none,2,16.780000
noautogroup,word_count_mr,none,3,16.630000
