Start,End,Cpu,Size
1777.669992653,1777.670727642,27,1
1777.670053124,1777.670797790,28,1
1777.668867444,1777.670950199,49,1
1777.669814118,1777.671711514,51,1
1777.668052946,1777.672266891,10,1
1777.668255727,1777.672345884,24,1
1777.668800412,1777.672414744,25,1
1777.670727642,1777.672496590,27,2
1777.670797790,1777.672563978,28,2
1777.670901391,1777.672666783,29,1
1777.671544030,1777.673163002,30,1
1777.671645947,1777.673288376,31,1
1777.672345884,1777.673352450,24,2
1777.672414744,1777.673465626,25,2
1777.672496590,1777.673525492,27,3
1777.672563978,1777.674027464,28,3
1777.672666783,1777.674105719,29,2
1777.673163002,1777.674170191,30,2
1777.673288376,1777.674285587,31,2
1777.673352450,1777.674345026,24,3
1777.673465626,1777.674920342,25,3
1777.673525492,1777.675001152,27,4
1777.674027464,1777.675063918,28,4
1777.674105719,1777.675181081,29,3
1777.670101986,1777.675300931,40,1
1777.672617535,1777.675801569,41,1
1777.675001152,1777.678558201,27,5
1777.675063918,1777.678627776,28,5
1777.670950199,1777.678639208,49,2
1777.668306645,1777.678639208,32,1
1777.674345026,1777.678874780,24,4
1777.668112922,1777.678874780,19,1
1777.678558201,1777.679138426,27,4
1777.678639208,1777.679138426,49,1
1777.675181081,1777.679290504,29,4
1777.670602514,1777.679290504,15,1
1777.674170191,1777.679323358,30,3
1777.669034484,1777.679323358,26,1
1777.674285587,1777.679393664,31,3
1777.679323358,1777.679393664,26,2
1777.678627776,1777.679555497,28,4
1777.675801569,1777.679555497,41,2
1777.679323358,1777.679640317,30,2
1777.671711514,1777.679640317,51,2
1777.679393664,1777.679694148,31,2
1777.672266891,1777.679694148,10,2
1777.679290504,1777.680149315,29,3
1777.679640317,1777.680149315,51,3
1777.679138426,1777.680218159,27,3
1777.678874780,1777.680218159,19,2
1777.675300931,1777.680822399,40,2
1777.678874780,1777.706558432,24,3
1777.679555497,1777.706583942,28,3
1777.680149315,1777.710576195,51,4
1777.679138426,1777.718560720,49,2
1777.673237496,1777.718560720,42,1
1777.679694148,1777.718582875,10,3
1777.718582875,1777.718586394,10,2
1777.718582875,1777.718586394,0,1
1777.674920342,1777.722562084,25,4
1777.674236556,1777.722562084,44,1
1777.679555497,1777.722901088,41,3
1777.675130365,1777.722901088,46,1
1777.679393664,1777.722920811,26,3
1777.722901088,1777.722920811,46,2
1777.680218159,1777.742561819,19,3
1777.742561819,1777.742581059,19,2
1777.678639208,1777.746557733,32,2
1777.722562084,1777.758603350,25,3
1777.722920811,1777.758696716,26,2
1777.679290504,1777.758789872,15,2
1777.710576195,1777.766575047,51,3
1777.766575047,1777.766591346,51,2
1777.718586394,1777.774596920,0,2
1777.680149315,1777.786693686,29,2
1777.678558201,1777.786693686,57,1
1777.722920811,1777.796078928,46,3
1777.706583942,1777.796078928,37,1
1777.796078928,1777.796086002,46,2
1777.796078928,1777.796086002,37,2
1777.706558432,1777.796788934,24,2
1775.507726930,1777.796788934,56,1
1777.796086002,1777.797901157,37,3
1777.669085162,1777.797901157,33,1
1777.758603350,1777.798596187,25,2
1777.722901088,1777.801236709,41,2
1777.671595839,1777.801236709,35,1
1777.706583942,1777.802172719,28,2
1777.706558432,1777.802172719,36,1
1777.718560720,1777.806584676,42,2
1777.680822399,1777.806584676,40,1
1777.680218159,1777.811725250,27,2
1777.746557733,1777.811725250,32,1
1777.722562084,1777.827584135,44,2
1777.758696716,1777.827584135,58,1
1777.786693686,1777.937992435,57,2
1777.796788934,1777.937992435,56,2
1777.937992435,1777.938181958,56,3
1777.827584135,1777.938181958,58,2
1777.938181958,1777.938310864,58,3
1777.938181958,1777.938310864,56,2
1777.801236709,1777.954682202,35,2
1777.758696716,1777.954682202,26,1
1777.797901157,1777.966650280,33,2
1777.679640317,1777.966650280,30,1
1777.938310864,1777.966743221,56,3
1777.796086002,1777.966743221,46,1
1777.811725250,1777.978591247,32,2
1777.798596187,1777.978591247,25,1
1777.806584676,1777.978774767,40,2
1777.827584135,1777.978774767,44,1
1777.802172719,1777.978853338,36,2
1777.766591346,1777.978853338,55,1
1777.797901157,1777.978946090,37,2
1777.802172719,1777.978946090,28,1
1777.966743221,1778.14581582,56,2
1777.938310864,1778.23513111,58,2
1777.937992435,1778.23513111,57,1
1777.954682202,1778.24060390,26,2
1777.746557733,1778.24060390,39,1
1777.966650280,1778.36033560,30,2
1777.978946090,1778.36033560,37,1
1777.966743221,1778.37084852,46,2
1777.978774767,1778.37084852,40,1
1777.978774767,1778.37338512,44,2
1777.954682202,1778.37338512,35,1
1777.978853338,1778.38693893,55,2
1777.978591247,1778.40433074,25,2
1777.966650280,1778.40433074,33,1
1777.978946090,1778.42533704,28,2
1777.978853338,1778.42533704,36,1
1778.24060390,1778.182606137,39,2
1778.23513111,1778.194578232,57,2
1777.796788934,1778.194578232,24,1
1778.40433074,1778.194647791,33,2
1778.23513111,1778.194647791,58,1
1778.36033560,1778.206776683,37,2
1777.801236709,1778.206776683,41,1
1778.194647791,1778.249436809,58,2
1778.182606137,1778.249436809,63,1
1778.37084852,1778.259235504,40,2
1777.798596187,1778.259235504,59,1
1778.42533704,1778.262597254,36,2
1778.206776683,1778.262783919,41,2
1778.14581582,1778.262783919,61,1
1778.37338512,1778.268183774,35,2
1778.14581582,1778.268183774,56,1
1778.194578232,1778.279475344,24,2
1778.194578232,1778.279475344,57,1
1778.249436809,1778.410204013,63,2
1778.259235504,1778.410204013,59,2
1778.410204013,1778.410515369,59,3
1778.38693893,1778.410515369,60,1
1778.410515369,1778.418622093,59,2
1777.774596920,1778.418622093,0,1
1778.268183774,1778.426625290,56,2
1778.418622093,1778.442594867,0,2
1778.279475344,1778.462775970,57,2
1778.262783919,1778.501001640,61,2
1778.249436809,1778.501001640,58,1
1778.410515369,1778.502674352,60,2
1778.426625290,1778.502674352,56,1
1778.501001640,1778.644969172,58,2
1778.502674352,1778.644969172,60,1
1778.644969172,1778.645106566,60,2
1778.418622093,1778.645106566,59,1
1778.645106566,1778.730105360,59,2
1778.426625290,1778.730105360,62,1
1778.502674352,1778.731156460,56,2
1778.410204013,1778.731156460,63,1
1778.731156460,1778.875504962,63,2
1778.644969172,1778.875504962,58,1
1778.730105360,1778.890637231,62,2
1778.194647791,1778.890637231,33,1
1778.875504962,1778.950172864,58,2
1778.462775970,1778.950172864,57,1
1778.890637231,1778.957632639,33,2
1778.730105360,1778.957632639,59,1
1778.957632639,1779.130661480,59,2
1777.978591247,1779.130661480,32,1
1778.950172864,1779.142645767,57,2
1777.811725250,1779.142645767,27,1
1779.142645767,1779.142712929,27,2
1778.24060390,1779.142712929,26,1
1779.130661480,1779.170712939,32,2
1779.142712929,1779.197261662,26,2
1778.206776683,1779.197261662,37,1
1779.197261662,1779.362893056,37,2
1777.670849585,1779.362893056,34,1
1779.362893056,1779.446789529,34,2
1779.142645767,1779.446789529,57,1
1779.446789529,1779.600461102,57,2
1778.950172864,1779.600461102,58,1
1779.600461102,1779.677286415,58,2
1779.600461102,1779.677286415,57,1
1779.677286415,1779.903236283,57,2
1779.677286415,1779.903236283,58,1
1779.903236283,1780.52465333,58,2
1779.903236283,1780.52465333,57,1
1780.52465333,1780.52564268,57,2
1777.774596920,1780.52564268,3,1
1780.52564268,1780.54377705,3,2
1778.262597254,1780.54377705,36,1
1780.54377705,1780.134860583,36,2
1780.52564268,1780.134860583,57,1
1780.134860583,1780.369365945,57,2
1780.52465333,1780.369365945,58,1
1780.369365945,1780.520984042,58,2
1778.731156460,1780.520984042,56,1
1780.520984042,1780.522836925,56,2
1780.369365945,1780.522836925,57,1
1780.522836925,1780.598066619,57,2
1780.520984042,1780.598066619,58,1
1780.598066619,1780.758508437,58,2
1777.758789872,1780.758508437,1,1
1780.758508437,1780.760354076,1,2
1779.446789529,1780.760354076,34,1
1780.760354076,1780.834900977,34,2
1780.758508437,1780.834900977,58,1
1780.834900977,1781.62238485,58,2
1780.598066619,1781.62238485,57,1
1781.62238485,1781.210600482,57,2
1779.130661480,1781.210600482,59,1
1781.210600482,1781.222865940,59,2
1778.442594867,1781.222865940,0,1
1781.222865940,1781.291106278,0,2
1781.210600482,1781.291106278,57,1
1781.291106278,1781.512471442,57,2
1781.62238485,1781.512471442,58,1
1781.512471442,1781.734712288,58,2
1781.512471442,1781.734712288,57,1
1781.734712288,1781.876482458,57,2
1778.501001640,1781.876482458,61,1
1781.876482458,1781.878314641,61,2
1781.734712288,1781.878314641,58,1
1781.878314641,1781.965376747,58,2
1781.876482458,1781.965376747,57,1
1781.965376747,1782.153876109,57,2
1781.965376747,1782.153876109,58,1
1782.153876109,1782.285164746,58,2
1780.522836925,1782.285164746,56,1
1782.285164746,1782.356134446,56,2
1782.285164746,1782.356134446,58,1
1782.356134446,1782.500731726,58,2
1778.890637231,1782.500731726,62,1
1782.500731726,1782.510843667,62,2
1778.279475344,1782.510843667,24,1
1782.510843667,1782.574714735,24,2
1782.500731726,1782.574714735,58,1
1779.170712939,1782.710328028,32,1
1778.182606137,1782.710328028,39,1
1782.574714735,1782.786548632,58,2
1781.222865940,1782.786548632,59,1
1782.710328028,1782.796326354,39,2
1781.878314641,1782.796326354,61,1
1782.796326354,1782.907063735,61,2
1782.153876109,1782.907063735,57,1
1782.786548632,1782.918886069,59,2
1782.574714735,1782.918886069,24,1
1782.907063735,1782.934973100,57,2
1777.766575047,1782.934973100,54,1
1782.918886069,1782.977058316,24,2
1782.934973100,1782.977058316,57,1
1782.934973100,1782.992228657,54,2
1778.268183774,1782.992228657,35,1
1782.977058316,1783.103831422,57,2
1780.54377705,1783.103831422,3,1
1783.103831422,1783.105592703,3,2
1777.710576195,1783.105592703,53,1
1782.992228657,1783.175399318,35,2
1782.786548632,1783.175399318,58,1
1783.105592703,1783.181908130,53,2
1782.356134446,1783.181908130,56,1
1783.175399318,1783.298443668,58,2
1783.103831422,1783.298443668,57,1
1783.181908130,1783.298502199,56,2
1783.298443668,1783.298502199,58,1
1783.298443668,1783.300193638,57,2
1778.645106566,1783.300193638,60,1
1783.300193638,1783.310896344,60,2
1777.786693686,1783.310896344,29,1
1783.298502199,1783.369623545,58,2
1783.300193638,1783.369623545,57,1
1783.310896344,1783.375136326,29,2
1782.918886069,1783.375136326,59,1
1783.369623545,1783.567581825,57,2
1783.369623545,1783.567581825,58,1
1783.375136326,1783.570974620,59,2
1782.510843667,1783.570974620,62,1
1783.570974620,1783.691145000,62,2
1783.567581825,1783.691145000,58,2
1783.691145000,1783.691229403,58,3
1783.310896344,1783.691229403,60,1
1783.691229403,1783.706929839,60,2
1783.175399318,1783.706929839,35,1
1783.691229403,1783.760597961,58,2
1783.567581825,1783.760597961,57,1
1783.706929839,1783.763479117,35,2
1783.570974620,1783.763479117,59,1
1783.760597961,1783.883566738,57,2
1783.760597961,1783.883566738,58,1
1783.763479117,1783.898996702,59,2
1783.763479117,1783.898996702,35,1
1783.898996702,1783.902914799,35,2
1777.758603350,1783.902914799,18,1
1783.883566738,1783.951086185,58,2
1783.898996702,1783.951086185,59,1
1783.902914799,1783.964538043,18,2
1779.362893056,1783.964538043,37,1
1783.951086185,1784.75168079,59,2
1783.883566738,1784.75168079,57,1
1783.964538043,1784.75327053,37,2
1780.834900977,1784.75327053,34,1
1784.75168079,1784.144336735,57,2
1784.75168079,1784.144336735,59,1
1784.75327053,1784.144940999,34,2
1783.691145000,1784.144940999,62,1
1784.144336735,1784.265634271,59,2
1783.298502199,1784.265634271,56,1
1784.144940999,1784.282992859,62,2
1777.675245055,1784.282992859,47,1
1784.265634271,1784.290952303,56,2
1782.977058316,1784.290952303,24,1
1784.290952303,1784.295030894,24,2
1778.42533704,1784.295030894,28,1
1784.282992859,1784.336250249,47,2
1784.282992859,1784.336250249,62,1
1784.295030894,1784.338395059,28,2
1780.134860583,1784.338395059,36,1
1784.336250249,1784.456987681,62,2
1783.951086185,1784.456987681,58,1
1784.338395059,1784.457143543,36,2
1778.957632639,1784.457143543,33,1
1784.456987681,1784.523044951,58,2
1784.144336735,1784.523044951,57,1
1784.457143543,1784.525404633,33,2
1784.290952303,1784.525404633,56,1
1784.523044951,1784.640140167,57,2
1783.706929839,1784.640140167,60,1
1784.640140167,1784.708088181,60,2
1784.456987681,1784.708088181,62,1
1784.525404633,1784.708998973,56,2
1778.875504962,1784.708998973,63,1
1784.708088181,1784.820173863,62,2
1784.640140167,1784.820173863,57,1
1784.820173863,1784.830967970,57,2
1784.336250249,1784.830967970,47,1
1784.708998973,1784.882888787,63,2
1784.708088181,1784.882888787,60,1
1784.830967970,1784.889212783,47,2
1784.265634271,1784.889212783,59,1
1784.882888787,1784.996729347,60,2
1784.820173863,1784.996729347,62,1
1784.996729347,1785.6986441,62,2
1777.718560720,1785.6986441,49,1
1784.889212783,1785.58568100,59,2
1784.830967970,1785.58568100,57,1
1785.6986441,1785.59576086,49,2
1784.996729347,1785.59576086,60,1
1785.58568100,1785.179980782,57,2
1783.105592703,1785.179980782,3,1
1785.179980782,1785.181548284,3,2
1778.262597254,1785.181548284,38,1
1785.181548284,1785.195053337,38,2
1777.766591346,1785.195053337,51,1
1778.442594867,1785.202997357,4,1
1785.202997357,1785.231034450,4,2
1785.59576086,1785.244018298,60,2
1784.708998973,1785.244018298,56,1
1785.195053337,1785.247479893,51,2
1777.670665271,1785.247479893,21,1
1785.244018298,1785.361076437,56,2
1785.179980782,1785.361076437,57,1
1785.361076437,1785.422799735,57,2
1785.361076437,1785.422799735,56,1
1785.422799735,1785.599862023,56,2
1785.6986441,1785.599862023,62,1
1785.599862023,1785.706818841,62,2
1785.422799735,1785.706818841,57,1
1785.706818841,1785.719085661,57,2
1785.247479893,1785.719085661,21,2
1785.719085661,1785.767033976,21,3
1777.678627776,1785.767033976,48,1
1785.719085661,1787.983269413,57,1
1787.983269413,1788.119498774,57,2
1785.244018298,1788.119498774,60,1
1788.119498774,1788.271842582,60,2
1785.58568100,1788.271842582,59,1
1788.271842582,1788.368946700,59,2
1784.523044951,1788.368946700,58,1
1788.368946700,1788.423385915,58,2
1788.368946700,1788.423385915,59,1
1788.423385915,1788.518164203,59,2
1782.907063735,1788.518164203,61,1
1788.518164203,1788.566396388,61,2
1788.518164203,1788.566396388,59,1
1788.566396388,1788.715850716,59,2
1788.119498774,1788.715850716,57,1
1788.715850716,1788.819262699,57,2
1788.423385915,1788.819262699,58,1
1788.819262699,1788.831200439,58,2
1784.889212783,1788.831200439,47,1
1788.831200439,1788.876069398,47,2
1788.715850716,1788.876069398,59,1
1788.876069398,1788.972675166,59,2
1785.599862023,1788.972675166,56,1
1788.972675166,1789.24832303,56,2
1784.882888787,1789.24832303,63,1
1789.24832303,1789.155220346,63,2
1788.819262699,1789.155220346,57,1
1789.155220346,1789.248335812,57,2
1788.566396388,1789.248335812,61,1
1789.248335812,1789.259236441,61,2
1777.675879684,1789.259236441,52,1
1789.259236441,1789.295743420,52,2
1788.972675166,1789.295743420,59,1
1789.295743420,1789.522231121,59,2
1789.259236441,1789.522231121,61,1
1789.522231121,1789.567877485,61,2
1788.831200439,1789.567877485,58,1
1789.567877485,1789.657220470,58,2
1789.248335812,1789.657220470,57,1
1789.657220470,1789.702182493,57,2
1789.657220470,1789.702182493,58,1
1789.702182493,1789.835800694,58,2
1789.522231121,1789.835800694,59,1
1789.835800694,1789.969312376,59,2
1789.155220346,1789.969312376,63,1
1789.969312376,1790.59744575,63,2
1789.24832303,1790.59744575,56,1
1790.59744575,1790.67308696,56,2
1785.59576086,1790.67308696,49,1
1790.67308696,1790.105014551,49,2
1789.702182493,1790.105014551,57,1
1790.105014551,1790.231483192,57,2
1790.59744575,1790.231483192,63,1
1790.231483192,1790.322127174,63,2
1790.231483192,1790.322127174,57,1
1790.322127174,1790.363497307,57,2
1790.322127174,1790.363497307,63,1
1790.363497307,1790.448742500,63,2
1789.835800694,1790.448742500,58,1
1790.448742500,1790.490278459,58,2
1790.448742500,1790.490278459,63,1
1790.490278459,1790.621566277,63,2
1790.490278459,1790.621566277,58,1
1790.621566277,1790.706963959,58,2
1789.969312376,1790.706963959,59,1
1790.706963959,1790.752000780,59,2
1790.621566277,1790.752000780,63,1
1790.752000780,1790.861004600,63,2
1790.706963959,1790.861004600,58,1
1790.861004600,1790.991487021,58,2
1790.861004600,1790.991487021,63,1
1790.991487021,1791.115359346,63,2
1790.991487021,1791.115359346,58,1
1791.115359346,1791.235933912,58,2
1789.567877485,1791.235933912,61,1
1791.235933912,1791.359172828,61,2
1790.67308696,1791.359172828,56,1
1791.359172828,1791.475938077,56,2
1791.115359346,1791.475938077,63,1
1791.475938077,1791.586545552,63,2
1791.235933912,1791.586545552,58,1
1791.586545552,1791.660053121,58,2
1785.706818841,1791.660053121,62,1
1791.660053121,1791.698310701,62,2
1791.660053121,1791.698310701,58,1
1791.698310701,1791.806744922,58,2
1791.586545552,1791.806744922,63,1
1791.806744922,1791.916208638,63,2
1791.806744922,1791.916208638,58,1
1791.916208638,1791.989691875,58,2
1790.752000780,1791.989691875,59,1
1791.989691875,1792.25811587,59,2
1791.916208638,1792.25811587,63,1
1792.25811587,1792.137718453,63,2
1791.989691875,1792.137718453,58,1
1792.137718453,1792.243177309,58,2
1791.698310701,1792.243177309,62,1
1792.243177309,1792.327410600,62,2
1778.262783919,1792.327410600,41,1
1792.327410600,1792.363472599,41,2
1791.475938077,1792.363472599,56,1
1792.363472599,1792.463635034,56,2
1791.359172828,1792.463635034,61,1
1792.463635034,1792.560233685,61,2
1792.137718453,1792.560233685,63,1
1792.560233685,1792.661855656,63,2
1792.243177309,1792.661855656,58,1
1792.661855656,1792.730570022,58,2
1788.271842582,1792.730570022,60,1
1792.730570022,1792.732771649,60,2
1790.363497307,1792.732771649,57,1
1792.732771649,1792.768588386,57,2
1792.661855656,1792.768588386,63,1
1792.768588386,1792.831440533,63,2
1788.876069398,1792.831440533,47,1
1792.831440533,1792.857833090,47,2
1792.463635034,1792.857833090,56,1
1792.857833090,1792.963695897,56,2
1792.768588386,1792.963695897,57,1
1792.963695897,1793.35464328,57,2
1778.462775970,1793.35464328,2,1
1792.963695897,1793.602698444,56,1
1792.831440533,1793.602698444,63,1
1792.327410600,1793.605553375,62,1
1793.602698444,1793.773980981,63,2
1793.605553375,1793.774512329,62,2
1793.35464328,1793.774512329,57,1
1793.773980981,1793.856385787,56,1
1793.773980981,1793.856385787,63,1
1793.774512329,1793.860440109,57,2
1792.560233685,1793.860440109,61,1
1793.860440109,1793.921916082,61,2
1793.774512329,1793.921916082,62,1
1793.856385787,1793.950438208,63,2
1792.730570022,1793.950438208,58,1
1793.921916082,1793.950517203,62,2
1792.25811587,1793.950517203,59,1
1793.950517203,1794.33851103,59,2
1793.950517203,1794.33851103,62,1
1793.950438208,1794.34379090,58,2
1793.921916082,1794.34379090,61,1
1794.33851103,1794.83591036,62,2
1793.950438208,1794.83591036,63,1
1794.34379090,1794.84893884,61,2
1794.83591036,1794.84893884,63,2
1794.84893884,1794.113858621,63,3
1794.113858621,1794.115316497,63,2
1794.84893884,1794.115316497,61,1
1794.113858621,1794.162688609,56,1
1792.732771649,1794.162688609,60,1
1794.115316497,1794.185200171,61,2
1794.83591036,1794.185200171,62,1
1794.162688609,1794.189283394,60,2
1794.189283394,1794.274154486,56,1
1793.860440109,1794.274154486,57,1
1794.185200171,1794.274196673,62,2
1794.33851103,1794.274196673,59,1
1794.274196673,1794.334247073,59,2
1794.274154486,1794.334247073,57,2
1794.334247073,1794.347578421,57,3
1785.195053337,1794.347578421,38,1
1794.347578421,1794.347605202,38,2
1782.796326354,1794.347605202,39,1
1794.347578421,1794.355286483,57,2
1794.334247073,1794.355286483,59,1
1794.347605202,1794.358263140,39,2
1785.767033976,1794.358263140,21,2
1794.358263140,1794.473713824,21,3
1784.457143543,1794.473713824,36,1
1794.355286483,1794.507728491,59,2
1785.181548284,1794.507728491,3,1
1794.507728491,1794.509090991,3,2
1794.274196673,1794.509090991,62,1
1794.509090991,1794.530138636,62,2
1780.760354076,1794.530138636,1,1
1794.473713824,1794.530320928,36,2
1794.509090991,1794.530320928,3,1
1794.530320928,1794.618608801,3,2
1794.530138636,1794.619522297,1,2
1794.507728491,1794.619522297,59,1
1794.619522297,1794.669417139,59,2
1794.189283394,1794.669417139,60,1
1794.347605202,1794.693182989,38,1
1794.669417139,1794.693251612,60,2
1794.693251612,1794.770356760,56,1
1794.355286483,1794.770356760,57,1
1794.693182989,1794.787973100,38,2
1794.530320928,1794.787973100,36,1
1794.770356760,1794.825556429,57,2
1794.185200171,1794.825556429,61,1
1794.787973100,1794.825847317,36,2
1794.825847317,1794.850078595,56,1
1794.825556429,1794.850078595,57,1
1794.825556429,1794.850772442,61,2
1794.693251612,1794.850772442,60,1
1794.850772442,1794.922132286,60,2
1794.115316497,1794.922132286,63,1
1794.922132286,1794.976734980,63,2
1794.669417139,1794.976734980,59,1
1794.976734980,1794.999071041,59,2
1794.976734980,1794.999071041,63,1
1794.850078595,1794.999920752,57,2
1794.34379090,1794.999920752,58,1
1794.999920752,1795.55027908,58,2
1794.618608801,1795.55027908,3,1
1795.55027908,1795.56381938,3,2
1794.530138636,1795.56381938,62,1
1795.56381938,1795.59570351,62,2
1779.197261662,1795.59570351,26,1
1794.999071041,1795.78694154,63,2
1795.59570351,1795.78694154,62,1
1795.59570351,1795.84450161,26,2
1795.78694154,1795.84450161,62,2
1795.84450161,1795.143603644,62,3
1795.56381938,1795.143603644,3,1
1795.143603644,1795.148903717,62,2
1795.55027908,1795.148903717,58,1
1795.143603644,1795.148933322,3,2
1777.669668270,1795.148933322,12,1
1795.148903717,1795.214949518,58,2
1794.999071041,1795.214949518,59,1
1795.214949518,1795.215080048,59,2
1795.214949518,1795.215080048,58,1
1784.144940999,1795.215528459,34,1
1795.215528459,1795.235817552,34,2
1777.668981503,1795.235817552,20,1
1795.215080048,1795.237237439,58,2
1795.215080048,1795.237237439,59,1
1795.237237439,1795.289332686,59,2
1794.922132286,1795.289332686,60,1
1795.289332686,1795.289480732,60,2
1795.289332686,1795.289480732,59,1
1795.148933322,1795.291566556,12,2
1777.671427199,1795.291566556,8,1
1795.289480732,1795.312112335,59,2
1795.289480732,1795.312112335,60,1
1795.235817552,1795.315559979,20,2
1794.473713824,1795.315559979,21,2
1795.291566556,1795.331104218,8,2
1785.231034450,1795.331104218,5,1
1795.312112335,1795.359764332,60,2
1795.148933322,1795.359764332,3,1
1795.359764332,1795.360869808,3,2
1794.850772442,1795.360869808,61,1
1795.360869808,1795.380709575,61,2
1795.359764332,1795.380709575,60,1
1795.331104218,1795.389286654,5,2
1795.360869808,1795.389286654,3,1
1795.380709575,1795.433070395,60,2
1795.237237439,1795.433070395,58,1
1795.389286654,1795.456027936,3,2
1777.680822399,1795.456027936,7,1
1795.433070395,1795.456546212,58,2
1795.148903717,1795.456546212,62,1
1795.456546212,1795.503853776,62,2
1795.433070395,1795.503853776,60,1
1795.503853776,1795.527428842,60,2
1795.503853776,1795.527428842,62,1
1795.456027936,1795.529959147,7,2
1795.291566556,1795.529959147,12,1
1795.527428842,1795.573017619,62,2
1795.389286654,1795.573017619,5,1
1795.573017619,1795.575554012,5,2
1795.529959147,1795.575554012,7,1
1795.575554012,1795.591702272,7,2
1781.291106278,1795.591702272,0,1
1795.529959147,1795.597808561,12,2
1795.312112335,1795.597808561,59,1
1795.597808561,1795.657736731,59,2
1794.999920752,1795.657736731,57,1
1795.657736731,1795.719008749,57,2
1795.657736731,1795.719008749,59,1
1795.719008749,1795.755998632,59,2
1795.719008749,1795.755998632,57,1
1795.755998632,1795.756077190,57,2
1795.527428842,1795.756077190,60,1
1795.756077190,1795.775696291,60,2
1795.380709575,1795.775696291,61,1
1795.775696291,1795.819671111,61,2
1795.755998632,1795.819671111,59,1
1795.819671111,1795.827630256,59,2
1790.105014551,1795.827630256,49,1
1795.827630256,1795.849451132,49,2
1783.375136326,1795.849451132,29,1
1795.849451132,1795.878129951,29,2
1777.742581059,1795.878129951,17,1
1795.878129951,1795.899601845,17,2
1795.827630256,1795.899601845,59,1
1795.899601845,1795.949578575,59,2
1795.819671111,1795.949578575,61,1
1795.949578575,1796.15667384,61,2
1795.756077190,1796.15667384,57,1
1796.15667384,1796.67848788,57,2
1795.573017619,1796.67848788,62,1
1796.67848788,1796.107123906,62,2
1795.775696291,1796.107123906,60,1
1796.107123906,1796.115665027,60,2
1795.849451132,1796.115665027,49,1
1796.115665027,1796.125972061,49,2
1795.949578575,1796.125972061,59,1
1796.125972061,1796.182799596,59,2
1796.182799596,1796.213981271,56,1
1796.182799596,1796.213981271,59,1
1796.213981271,1796.225891558,59,2
1796.107123906,1796.225891558,62,1
1796.225891558,1796.292745119,62,2
1795.78694154,1796.292745119,63,1
1796.292745119,1796.331065589,63,2
1796.67848788,1796.331065589,57,1
1796.331065589,1796.346156056,57,2
1785.767033976,1796.346156056,48,2
1796.346156056,1796.407830356,48,3
1796.115665027,1796.407830356,60,1
1796.407830356,1796.437719185,60,2
1795.456546212,1796.437719185,58,1
1796.437719185,1796.456481624,58,2
1796.292745119,1796.456481624,62,1
1796.456481624,1796.488580100,62,2
1796.456481624,1796.488580100,58,1
1796.488580100,1796.492908327,58,2
1795.315559979,1796.492908327,21,3
1796.492908327,1796.507337600,21,4
1796.492908327,1796.507337600,58,1
1796.507337600,1796.552040809,58,2
1796.437719185,1796.552040809,60,1
1796.552040809,1796.593520953,60,2
1796.225891558,1796.593520953,59,1
1796.593520953,1796.648205164,59,2
1796.593520953,1796.648205164,60,1
1796.648205164,1796.674461579,60,2
1796.674461579,1796.692696714,56,1
1796.552040809,1796.692696714,58,1
1796.692696714,1796.719969132,58,2
1796.674461579,1796.719969132,60,1
1796.719969132,1796.730777733,60,2
1796.346156056,1796.730777733,57,1
1796.730777733,1796.777900629,57,2
1796.719969132,1796.777900629,58,1
1796.777900629,1796.824565292,58,2
1796.488580100,1796.824565292,62,1
1796.824565292,1797.30703717,62,2
1796.15667384,1797.30703717,61,1
1797.30703717,1797.71824666,61,2
1797.30703717,1797.71824666,62,1
1796.777900629,1797.75740323,57,1
1797.71824666,1797.108216471,62,2
1792.363472599,1797.108216471,41,1
1797.75740323,1797.138616156,57,2
1796.730777733,1797.138616156,60,1
1797.108216471,1797.148944349,41,2
1793.35464328,1797.148944349,2,2
1797.138616156,1797.148995048,60,2
1783.902914799,1797.148995048,35,1
1797.148995048,1797.159509854,35,2
1794.825847317,1797.159509854,36,1
1797.159509854,1797.189132365,36,2
1797.159509854,1797.189132365,35,1
1797.148944349,1797.196064358,2,3
1795.591702272,1797.196064358,0,2
1797.196064358,1797.211681710,0,3
1797.196064358,1797.211681710,2,2
1797.189132365,1797.224568046,35,2
1797.189132365,1797.224568046,36,1
1797.211681710,1797.225535531,2,3
1796.824565292,1797.225535531,58,1
1797.224568046,1797.254788468,36,2
1797.225535531,1797.287715039,58,2
1795.575554012,1797.287715039,5,1
1797.287715039,1797.295896943,5,2
1796.648205164,1797.295896943,59,1
1797.138616156,1797.324268961,57,1
1797.295896943,1797.328597494,59,2
1797.71824666,1797.328597494,61,1
1797.328597494,1797.353420993,61,2
1797.287715039,1797.353420993,58,1
1797.324268961,1797.354254531,57,2
1795.84450161,1797.354254531,26,1
1797.354254531,1797.378299477,26,2
1779.142712929,1797.378299477,27,1
1797.378299477,1797.388008249,27,2
1797.211681710,1797.388008249,0,2
1797.353420993,1797.418678053,58,2
1797.148944349,1797.418678053,41,1
1797.388008249,1797.420587421,0,3
1797.378299477,1797.420587421,26,1
1797.420587421,1797.453072797,26,2
1784.338395059,1797.453072797,28,1
1797.453072797,1797.492888408,28,2
1782.992228657,1797.492888408,54,1
1797.492888408,1797.510227457,54,2
1797.354254531,1797.510227457,57,1
1797.510227457,1797.535245678,57,2
1797.328597494,1797.535245678,59,1
1797.535245678,1797.560638959,59,2
1797.418678053,1797.560638959,41,2
1797.560638959,1797.561242118,41,3
1777.674398219,1797.561242118,45,1
1797.561242118,1797.562033681,45,2
1797.224568046,1797.562033681,35,1
1797.562033681,1797.589660357,35,2
1797.560638959,1797.589660357,59,1
1797.561242118,1797.590989657,41,2
1797.418678053,1797.590989657,58,1
1797.589660357,1797.616527912,59,2
1797.535245678,1797.616527912,57,1
1797.590989657,1797.617141753,58,2
1797.148995048,1797.617141753,60,1
1797.617141753,1797.640876465,60,2
1796.331065589,1797.640876465,63,1
1797.640876465,1797.666791130,63,2
1797.616527912,1797.666791130,59,1
1797.666791130,1797.689657935,59,2
1797.492888408,1797.689657935,28,1
1797.616527912,1797.713010630,57,2
1797.590989657,1797.713010630,41,1
1797.689657935,1797.737163390,28,2
1777.669877581,1797.737163390,13,1
1797.713010630,1797.737204467,41,2
1777.758789872,1797.737204467,15,1
1797.737204467,1797.759721994,15,2
1777.669938946,1797.759721994,14,1
1797.737163390,1797.761558152,13,2
1797.453072797,1797.761558152,26,1
1797.761558152,1797.783312113,26,2
1778.40433074,1797.783312113,25,1
1797.783312113,1797.806852398,25,2
1796.507337600,1797.806852398,21,3
1797.806852398,1797.827213083,21,4
1797.617141753,1797.827213083,58,1
1797.827213083,1797.844889939,58,2
1797.353420993,1797.844889939,61,1
1797.844889939,1797.864413960,61,2
1797.689657935,1797.864413960,59,1
1797.864413960,1797.952586897,59,2
1797.713010630,1797.952586897,57,1
1797.952586897,1797.970103073,57,2
1797.640876465,1797.970103073,60,1
1797.970103073,1797.985236885,60,2
1797.108216471,1797.985236885,62,1
1797.985236885,1798.15386653,62,2
1797.737204467,1798.15386653,41,1
1798.15386653,1798.30384789,41,2
1798.15386653,1798.30384789,62,1
1798.30384789,1798.43912248,62,2
1797.985236885,1798.43912248,60,1
1798.43912248,1798.58172101,60,2
1784.525404633,1798.58172101,33,1
1798.58172101,1798.85908844,33,2
1795.235817552,1798.85908844,34,1
1798.85908844,1798.96460811,34,2
1777.742561819,1798.96460811,16,1
1798.96460811,1798.107756562,16,2
1795.899601845,1798.107756562,17,1
1798.107756562,1798.110228442,17,2
1798.107756562,1798.110228442,16,1
1798.110228442,1798.122875016,16,2
1798.58172101,1798.122875016,60,1
1798.122875016,1798.132799544,60,2
1797.952586897,1798.132799544,59,1
1798.132799544,1798.193996276,59,2
1798.132799544,1798.193996276,60,1
1798.193996276,1798.202453075,60,2
1798.193996276,1798.202453075,59,1
1798.202453075,1798.218807662,59,2
1797.844889939,1798.218807662,58,1
1798.218807662,1798.220807533,58,2
1785.247479893,1798.220807533,51,1
1798.220807533,1798.230084788,51,2
1798.202453075,1798.230084788,60,1
1798.230084788,1798.237192915,60,2
1798.218807662,1798.237192915,59,1
1798.237192915,1798.245632213,59,2
1796.407830356,1798.245632213,48,2
1798.245632213,1798.269858858,48,3
1797.970103073,1798.269858858,57,1
1798.269858858,1798.289306319,57,2
1778.37084852,1798.289306319,46,1
1798.289306319,1798.294991712,46,2
1778.259235504,1798.294991712,40,1
1798.294991712,1798.296267438,40,2
1795.591702272,1798.296267438,7,1
1798.296267438,1798.303035234,7,2
1798.289306319,1798.303035234,57,1
1798.303035234,1798.308279301,57,2
1797.666791130,1798.308279301,63,1
1798.308279301,1798.313611339,63,2
1798.220807533,1798.313611339,58,1
1798.313611339,1798.324571679,58,2
1797.589660357,1798.329008168,35,1
1798.329008168,1798.333580083,35,2
1795.878129951,1798.333580083,29,1
1798.333580083,1798.338119815,29,2
1798.333580083,1798.338119815,35,1
1798.338119815,1798.358664533,35,2
1777.675929360,1798.358664533,6,1
1798.358664533,1798.374002144,6,2
1798.303035234,1798.374002144,7,1
1798.374002144,1798.383648512,7,2
1783.964538043,1798.383648512,18,1
1798.383648512,1798.396391833,18,2
1777.673405297,1798.396391833,43,1
1798.396391833,1798.411186406,43,2
1798.358664533,1798.411192399,35,1
1783.181908130,1798.411198243,53,1
1798.85908844,1798.411220712,33,1
1777.668926482,1798.411245784,11,1
1795.597808561,1798.411265558,12,1
1797.761558152,1798.411265569,13,1
1794.787973100,1798.411279251,38,1
1789.295743420,1798.411313119,52,1
1795.315559979,1798.411346017,20,1
1798.110228442,1798.411359222,17,1
1797.759721994,1798.411385793,14,2
1798.43912248,1798.411387134,62,1
1798.230084788,1798.411418935,51,1
1798.308279301,1798.411436392,57,1
1798.396391833,1798.411441102,18,1
1778.37338512,1798.411451059,44,1
1798.122875016,1798.411479099,16,1
1795.456027936,1798.411488656,3,1
1797.737163390,1798.411490232,28,1
1797.295896943,1798.411519887,5,1
1798.269858858,1798.411522143,48,2
1798.338119815,1798.411553779,29,1
1779.170712939,1798.411566416,23,1
1777.669127936,1798.411575126,50,1
1797.783312113,1798.411575488,26,1
1798.30384789,1798.411583236,41,1
1798.296267438,1798.411586797,40,1
1797.388008249,1798.411612997,27,1
1785.231034450,1798.411620995,4,1
1798.313611339,1798.411630858,63,1
1777.671482776,1798.411651833,22,1
1797.759721994,1798.411660685,15,1
1798.324571679,1798.411693055,58,1
1796.125972061,1798.411703707,49,1
1778.36033560,1798.411738917,30,1
1798.383648512,1798.411750519,7,1
1784.295030894,1798.411750568,24,1
1798.96460811,1798.411763726,34,1
1777.742581059,1798.411775056,19,1
1794.358263140,1798.411811835,39,1
1777.806584676,1798.411823717,42,1
1798.294991712,1798.411824527,46,1
1795.331104218,1798.411873031,8,1
1777.671776669,1798.411873055,9,1
1778.38693893,1798.411875895,55,1
1797.864413960,1798.411921260,61,1
1792.857833090,1798.411939298,47,1
1794.619522297,1798.411951378,1,1
1797.510227457,1798.411957446,54,1
1797.420587421,1798.411978716,0,2
1798.245632213,1798.411992760,59,1
1784.75327053,1798.412004090,37,1
1797.225535531,1798.412013587,2,2
1797.254788468,1798.412037468,36,1
1797.562033681,1798.412062838,45,1
1798.237192915,1798.412074534,60,1
1798.411186406,1798.412087469,43,1
1777.718586394,1798.412088115,10,1
1797.806852398,1798.412286604,25,1
1798.374002144,1798.412305860,6,1
1797.827213083,1798.418582169,21,3
1798.411978716,1798.0,0,1
1798.412013587,1798.0,2,1
1798.411385793,1798.0,14,1
1798.418582169,1798.0,21,2
1777.679694148,1798.0,31,1
1798.411522143,1798.0,48,1
