Time,Comm,Pid,Orig,Dest,Trigger
1018.251179853,perf,6592,49,42,ELB
1018.252176653,time,6593,42,17,FLB
1018.252334580,time,6593,17,51,ELB
1018.253921574,histogram,6593,51,18,ELB
1018.253921574,histogram,6593,51,18,ELB
1018.255660546,histogram,6593,18,0,CA
1018.255660546,histogram,6593,18,0,CA
1018.256283436,histogram,6594,0,52,FLB
1018.256283436,histogram,6594,0,52,FLB
1018.256298431,histogram,6594,52,1,CA
1018.256298431,histogram,6594,52,1,CA
1018.256352419,histogram,6595,0,53,FLB
1018.256352419,histogram,6595,0,53,FLB
1018.256360245,histogram,6595,53,2,CA
1018.256360245,histogram,6595,53,2,CA
1018.256422321,histogram,6596,0,54,FLB
1018.256422321,histogram,6596,0,54,FLB
1018.256434814,histogram,6596,54,3,CA
1018.256434814,histogram,6596,54,3,CA
1018.256481281,histogram,6597,0,55,FLB
1018.256481281,histogram,6597,0,55,FLB
1018.256488303,histogram,6597,55,4,CA
1018.256488303,histogram,6597,55,4,CA
1018.256540212,histogram,6598,0,48,FLB
1018.256540212,histogram,6598,0,48,FLB
1018.256552354,histogram,6598,48,5,CA
1018.256552354,histogram,6598,48,5,CA
1018.256599629,histogram,6599,0,49,FLB
1018.256599629,histogram,6599,0,49,FLB
1018.256606410,histogram,6599,49,6,CA
1018.256606410,histogram,6599,49,6,CA
1018.256656590,histogram,6600,0,50,FLB
1018.256656590,histogram,6600,0,50,FLB
1018.256668418,histogram,6600,50,7,CA
1018.256668418,histogram,6600,50,7,CA
1018.256721107,histogram,6601,0,51,FLB
1018.256721107,histogram,6601,0,51,FLB
1018.256728263,histogram,6601,51,8,CA
1018.256728263,histogram,6601,51,8,CA
1018.256782309,histogram,6602,0,43,FLB
1018.256782309,histogram,6602,0,43,FLB
1018.256794807,histogram,6602,43,9,CA
1018.256794807,histogram,6602,43,9,CA
1018.256844560,histogram,6603,0,44,FLB
1018.256844560,histogram,6603,0,44,FLB
1018.256857369,histogram,6603,44,10,CA
1018.256857369,histogram,6603,44,10,CA
1018.256909813,histogram,6604,0,45,FLB
1018.256909813,histogram,6604,0,45,FLB
1018.256917646,histogram,6604,45,11,CA
1018.256917646,histogram,6604,45,11,CA
1018.256964390,histogram,6605,0,46,FLB
1018.256964390,histogram,6605,0,46,FLB
1018.256977397,histogram,6605,46,12,CA
1018.256977397,histogram,6605,46,12,CA
1018.257028911,histogram,6606,0,47,FLB
1018.257028911,histogram,6606,0,47,FLB
1018.257036697,histogram,6606,47,13,CA
1018.257036697,histogram,6606,47,13,CA
1018.257088197,histogram,6607,0,40,FLB
1018.257088197,histogram,6607,0,40,FLB
1018.257100975,histogram,6607,40,14,CA
1018.257100975,histogram,6607,40,14,CA
1018.257154292,histogram,6608,0,42,FLB
1018.257154292,histogram,6608,0,42,FLB
1018.257162474,histogram,6608,42,15,CA
1018.257162474,histogram,6608,42,15,CA
1018.257207908,histogram,6609,0,43,FLB
1018.257207908,histogram,6609,0,43,FLB
1018.257215262,histogram,6609,43,16,CA
1018.257215262,histogram,6609,43,16,CA
1018.257264970,histogram,6610,0,52,FLB
1018.257264970,histogram,6610,0,52,FLB
1018.257272748,histogram,6610,52,17,CA
1018.257272748,histogram,6610,52,17,CA
1018.257323107,histogram,6611,0,44,FLB
1018.257323107,histogram,6611,0,44,FLB
1018.257330110,histogram,6611,44,18,CA
1018.257330110,histogram,6611,44,18,CA
1018.257375984,histogram,6612,0,53,FLB
1018.257375984,histogram,6612,0,53,FLB
1018.257383186,histogram,6612,53,19,CA
1018.257383186,histogram,6612,53,19,CA
1018.257438187,histogram,6613,0,45,FLB
1018.257438187,histogram,6613,0,45,FLB
1018.257445343,histogram,6613,45,20,CA
1018.257445343,histogram,6613,45,20,CA
1018.257496608,histogram,6614,0,54,FLB
1018.257496608,histogram,6614,0,54,FLB
1018.257504404,histogram,6614,54,21,CA
1018.257504404,histogram,6614,54,21,CA
1018.257554589,histogram,6615,0,46,FLB
1018.257554589,histogram,6615,0,46,FLB
1018.257562679,histogram,6615,46,22,CA
1018.257562679,histogram,6615,46,22,CA
1018.257611625,histogram,6616,0,55,FLB
1018.257611625,histogram,6616,0,55,FLB
1018.257618769,histogram,6616,55,23,CA
1018.257618769,histogram,6616,55,23,CA
1018.257666386,histogram,6617,0,47,FLB
1018.257666386,histogram,6617,0,47,FLB
1018.257674784,histogram,6617,47,24,CA
1018.257674784,histogram,6617,47,24,CA
1018.257722676,histogram,6618,0,48,FLB
1018.257722676,histogram,6618,0,48,FLB
1018.257730450,histogram,6618,48,25,CA
1018.257730450,histogram,6618,48,25,CA
1018.257782113,histogram,6619,0,40,FLB
1018.257782113,histogram,6619,0,40,FLB
1018.257790373,histogram,6619,40,26,CA
1018.257790373,histogram,6619,40,26,CA
1018.257838707,histogram,6620,0,50,FLB
1018.257838707,histogram,6620,0,50,FLB
1018.257846651,histogram,6620,50,27,CA
1018.257846651,histogram,6620,50,27,CA
1018.257900720,histogram,6621,0,42,FLB
1018.257900720,histogram,6621,0,42,FLB
1018.257906302,histogram,6621,42,28,CA
1018.257906302,histogram,6621,42,28,CA
1018.257960350,histogram,6622,0,8,FLB
1018.257960350,histogram,6622,0,8,FLB
1018.257967949,histogram,6622,8,29,CA
1018.257967949,histogram,6622,8,29,CA
1018.258020181,histogram,6623,0,9,FLB
1018.258020181,histogram,6623,0,9,FLB
1018.258026941,histogram,6623,9,30,CA
1018.258026941,histogram,6623,9,30,CA
1018.258075504,histogram,6624,0,10,FLB
1018.258075504,histogram,6624,0,10,FLB
1018.258083074,histogram,6624,10,31,CA
1018.258083074,histogram,6624,10,31,CA
1018.258136098,histogram,6625,0,11,FLB
1018.258136098,histogram,6625,0,11,FLB
1018.258142661,histogram,6625,11,32,CA
1018.258142661,histogram,6625,11,32,CA
1018.258201498,histogram,6626,0,51,FLB
1018.258201498,histogram,6626,0,51,FLB
1018.258210398,histogram,6626,51,33,CA
1018.258210398,histogram,6626,51,33,CA
1018.258263225,histogram,6627,0,52,FLB
1018.258263225,histogram,6627,0,52,FLB
1018.258271068,histogram,6627,52,34,CA
1018.258271068,histogram,6627,52,34,CA
1018.258326649,histogram,6628,0,53,FLB
1018.258326649,histogram,6628,0,53,FLB
1018.258333621,histogram,6628,53,35,CA
1018.258333621,histogram,6628,53,35,CA
1018.258401951,histogram,6629,0,24,FLB
1018.258401951,histogram,6629,0,24,FLB
1018.258409953,histogram,6629,24,36,CA
1018.258409953,histogram,6629,24,36,CA
1018.258469127,histogram,6630,0,54,FLB
1018.258469127,histogram,6630,0,54,FLB
1018.258482803,histogram,6630,54,37,CA
1018.258482803,histogram,6630,54,37,CA
1018.258538694,histogram,6631,0,55,FLB
1018.258538694,histogram,6631,0,55,FLB
1018.258546053,histogram,6631,55,38,CA
1018.258546053,histogram,6631,55,38,CA
1018.258602989,histogram,6632,0,48,FLB
1018.258602989,histogram,6632,0,48,FLB
1018.258610053,histogram,6632,48,39,CA
1018.258610053,histogram,6632,48,39,CA
1018.258663030,histogram,6633,0,50,FLB
1018.258663030,histogram,6633,0,50,FLB
1018.258670869,histogram,6633,50,40,CA
1018.258670869,histogram,6633,50,40,CA
1018.258723365,histogram,6634,0,51,FLB
1018.258723365,histogram,6634,0,51,FLB
1018.258730957,histogram,6634,51,41,CA
1018.258730957,histogram,6634,51,41,CA
1018.258780974,histogram,6635,0,52,FLB
1018.258780974,histogram,6635,0,52,FLB
1018.258787281,histogram,6635,52,42,CA
1018.258787281,histogram,6635,52,42,CA
1018.258841227,histogram,6636,0,53,FLB
1018.258841227,histogram,6636,0,53,FLB
1018.258848212,histogram,6636,53,43,CA
1018.258848212,histogram,6636,53,43,CA
1018.258904535,histogram,6637,0,54,FLB
1018.258904535,histogram,6637,0,54,FLB
1018.258911705,histogram,6637,54,44,CA
1018.258911705,histogram,6637,54,44,CA
1018.258967650,histogram,6638,0,55,FLB
1018.258967650,histogram,6638,0,55,FLB
1018.258974555,histogram,6638,55,45,CA
1018.258974555,histogram,6638,55,45,CA
1018.259024306,histogram,6639,0,48,FLB
1018.259024306,histogram,6639,0,48,FLB
1018.259030724,histogram,6639,48,46,CA
1018.259030724,histogram,6639,48,46,CA
1018.259078359,histogram,6640,0,50,FLB
1018.259078359,histogram,6640,0,50,FLB
1018.259086635,histogram,6640,50,47,CA
1018.259086635,histogram,6640,50,47,CA
1018.259137975,histogram,6641,0,51,FLB
1018.259137975,histogram,6641,0,51,FLB
1018.259144566,histogram,6641,51,48,CA
1018.259144566,histogram,6641,51,48,CA
1018.259195276,histogram,6642,0,50,FLB
1018.259195276,histogram,6642,0,50,FLB
1018.259202070,histogram,6642,50,49,CA
1018.259202070,histogram,6642,50,49,CA
1018.259254918,histogram,6643,0,50,FLB
1018.259254918,histogram,6643,0,50,FLB
1018.259312985,histogram,6644,0,51,FLB
1018.259312985,histogram,6644,0,51,FLB
1018.259368928,histogram,6645,0,52,FLB
1018.259368928,histogram,6645,0,52,FLB
1018.259418197,histogram,6646,0,53,FLB
1018.259418197,histogram,6646,0,53,FLB
1018.259477737,histogram,6647,0,54,FLB
1018.259477737,histogram,6647,0,54,FLB
1018.259532416,histogram,6648,0,55,FLB
1018.259532416,histogram,6648,0,55,FLB
1018.259589106,histogram,6649,0,48,FLB
1018.259589106,histogram,6649,0,48,FLB
1018.259596560,histogram,6649,48,56,CA
1018.259596560,histogram,6649,48,56,CA
1018.259648117,histogram,6650,0,25,FLB
1018.259648117,histogram,6650,0,25,FLB
1018.259656213,histogram,6650,25,57,CA
1018.259656213,histogram,6650,25,57,CA
1018.259701399,histogram,6651,0,26,FLB
1018.259701399,histogram,6651,0,26,FLB
1018.259709247,histogram,6651,26,58,CA
1018.259709247,histogram,6651,26,58,CA
1018.259758196,histogram,6652,0,27,FLB
1018.259758196,histogram,6652,0,27,FLB
1018.259765740,histogram,6652,27,59,CA
1018.259765740,histogram,6652,27,59,CA
1018.259811412,histogram,6653,0,28,FLB
1018.259811412,histogram,6653,0,28,FLB
1018.259819346,histogram,6653,28,60,CA
1018.259819346,histogram,6653,28,60,CA
1018.259871524,histogram,6654,0,29,FLB
1018.259871524,histogram,6654,0,29,FLB
1018.259879197,histogram,6654,29,61,CA
1018.259879197,histogram,6654,29,61,CA
1018.259925357,histogram,6655,0,30,FLB
1018.259925357,histogram,6655,0,30,FLB
1018.259933154,histogram,6655,30,62,CA
1018.259933154,histogram,6655,30,62,CA
1018.259987306,histogram,6656,0,31,FLB
1018.259987306,histogram,6656,0,31,FLB
1018.259995188,histogram,6656,31,63,CA
1018.259995188,histogram,6656,31,63,CA
1018.260040550,histogram,6657,0,24,FLB
1018.260040550,histogram,6657,0,24,FLB
1018.260046858,histogram,6657,24,0,CA
1018.260046858,histogram,6657,24,0,CA
1018.266393263,histogram,6657,0,4,ILB
1018.266393263,histogram,6657,0,4,ILB
1018.455992754,systemd-journal,1117,61,60,WAFF
1019.79340352,jbd2/sdb1-8,1060,4,0,WAFF
1019.458452522,rcu_sched,8,4,48,WAFF
1020.373404271,time,6592,42,0,WAFF
1020.373643606,perf,6591,50,0,WAFF
