Start,End,Cpu,Size
1173.915763632,1173.916171488,28,1
1173.915824826,1173.916213930,29,1
1173.915879628,1173.916254837,30,1
1173.915929885,1173.916300129,31,1
1173.915978316,1173.916341627,24,1
1173.916032502,1173.916381948,25,1
1173.916079773,1173.916422366,26,1
1173.916128284,1173.916466677,27,1
1173.916171488,1173.916509037,28,2
1173.916213930,1173.916557459,29,2
1173.916254837,1173.916601021,30,2
1173.916300129,1173.916642362,31,2
1173.916341627,1173.916684191,24,2
1173.916381948,1173.916726010,25,2
1173.916422366,1173.916766053,26,2
1173.916466677,1173.916810896,27,2
1173.916509037,1173.916852563,28,3
1173.916557459,1173.916893189,29,3
1173.916601021,1173.916935452,30,3
1173.916642362,1173.916977898,31,3
1173.916684191,1173.917019121,24,3
1173.916726010,1173.917059227,25,3
1173.916766053,1173.917102535,26,3
1173.916810896,1173.917144591,27,3
1173.916852563,1173.917188020,28,4
1173.916893189,1173.917229870,29,4
1173.916935452,1173.917273673,30,4
1173.916977898,1173.917314789,31,4
1173.917019121,1173.917360684,24,4
1173.917059227,1173.917401754,25,4
1173.917102535,1173.917449604,26,4
1173.917144591,1173.917491986,27,4
1173.917188020,1173.917532979,28,5
1173.917229870,1173.917574977,29,5
1173.917273673,1173.917618423,30,5
1173.917314789,1173.917659477,31,5
1173.917360684,1173.917700885,24,5
1173.917401754,1173.917745158,25,5
1173.917449604,1173.917787517,26,5
1173.917491986,1173.917829362,27,5
1173.917532979,1173.917875197,28,6
1173.917574977,1173.917916473,29,6
1173.917618423,1173.917958336,30,6
1173.917659477,1173.917999650,31,6
1173.917700885,1173.918039586,24,6
1173.917745158,1173.918082250,25,6
1173.917787517,1173.918123842,26,6
1173.917829362,1173.918165340,27,6
1173.917875197,1173.918205316,28,7
1173.917916473,1173.918246103,29,7
1173.917958336,1173.918289905,30,7
1173.917999650,1173.918332318,31,7
1173.918039586,1173.918375442,24,7
1173.918082250,1173.918415985,25,7
1173.918123842,1173.918455409,26,7
1173.918415985,1173.919804236,25,8
1173.918205316,1173.919804236,28,8
1173.919804236,1173.923445982,28,9
1173.918455409,1173.923477399,26,8
1173.918375442,1173.923477399,24,8
1173.923477399,1173.935476815,24,9
1173.918165340,1173.935476815,27,7
1173.935476815,1173.967569304,27,8
1173.967569304,1173.967573367,27,7
1173.967569304,1173.967573367,39,1
1173.967573367,1173.967575223,27,6
1173.967573367,1173.967575223,39,2
1173.923445982,1173.975446882,28,8
1173.975446882,1173.975449521,28,7
1173.975446882,1173.975449521,32,1
1173.919804236,1173.979449338,25,7
1173.979449338,1173.979452409,25,6
1173.979449338,1173.979452409,61,1
1173.979452409,1173.979454059,25,5
1173.979452409,1173.979454059,61,2
1173.979454059,1173.979455584,25,4
1173.979454059,1173.979455584,61,3
1173.918246103,1173.983425871,29,8
1173.975449521,1173.983425871,28,6
1173.979455584,1173.983518168,61,4
1173.983518168,1173.983529646,61,3
1173.923477399,1173.991448363,26,7
1173.979455584,1173.991448363,25,3
1173.918289905,1173.999449175,30,8
1173.999449175,1173.999451953,30,7
1173.999449175,1173.999451953,8,1
1173.999451953,1173.999453842,30,6
1173.999451953,1173.999453842,8,2
1173.999453842,1173.999455817,30,5
1173.999453842,1173.999455817,8,3
1173.999455817,1173.999457468,30,4
1173.999455817,1173.999457468,8,4
1173.918332318,1173.999471729,31,8
1173.935476815,1173.999485662,24,8
1173.991448363,1173.999515774,26,6
1173.999515774,1173.999517614,26,5
1173.999515774,1173.999517614,16,1
1173.999517614,1173.999519494,26,4
1173.999517614,1173.999519494,16,2
1173.999519494,1173.999521248,26,3
1173.999519494,1173.999521248,16,3
1173.983425871,1173.999533284,29,7
1173.999533284,1173.999535424,29,6
1173.999533284,1173.999535424,17,1
1173.999535424,1173.999537439,29,5
1173.999535424,1173.999537439,17,2
1173.999471729,1173.999607236,31,7
1173.967575223,1173.999631639,39,3
1173.983425871,1174.3438751,28,7
1173.967575223,1174.3438751,27,5
1173.999457468,1174.7442040,8,5
1173.999607236,1174.11440178,31,6
1173.999457468,1174.11440178,30,3
1173.999485662,1174.23423619,24,7
1174.11440178,1174.23423619,30,4
1173.999521248,1174.31443158,16,4
1174.31443158,1174.31453269,16,3
1174.3438751,1174.31462831,27,6
1173.999521248,1174.31462831,26,2
1174.23423619,1174.31480234,24,6
1174.31480234,1174.31482320,24,5
1174.31480234,1174.31482320,33,1
1174.3438751,1174.31500285,28,6
1174.7442040,1174.31552484,8,4
1174.31552484,1174.31554631,8,3
1174.31552484,1174.31554631,48,1
1173.983529646,1174.39431541,61,2
1173.975449521,1174.47452593,32,2
1174.31500285,1174.59425963,28,5
1174.31462831,1174.59425963,26,3
1174.11440178,1174.59450076,31,5
1174.23423619,1174.59450076,30,5
1173.999537439,1174.63450825,17,3
1174.63450825,1174.63459404,17,2
1174.31462831,1174.63459668,27,5
1174.63459668,1174.63464048,27,4
1174.63459668,1174.63464048,62,1
1174.63464048,1174.63465947,27,3
1174.63464048,1174.63465947,62,2
1174.59425963,1174.63547608,28,4
1174.63547608,1174.63549453,28,3
1174.63547608,1174.63549453,1,1
1174.63549453,1174.63551440,28,2
1174.63549453,1174.63551440,1,2
1174.31482320,1174.75616189,24,4
1174.63465947,1174.75646948,62,3
1174.75616189,1174.75646948,59,1
1174.75646948,1174.75656895,59,2
1174.63551440,1174.75682297,1,3
1174.31554631,1174.75695605,8,2
1173.923445982,1174.75695605,13,1
1174.31453269,1174.75715614,16,2
1174.31453269,1174.75715614,19,1
1174.75646948,1174.75718567,62,2
1173.983529646,1174.75718567,57,1
1174.75715614,1174.75727949,19,2
1174.75695605,1174.75750387,13,2
1174.75682297,1174.75761277,1,2
1173.999631639,1174.75761277,0,1
1174.59450076,1174.75769530,31,4
1174.75656895,1174.75769530,60,1
1174.59450076,1174.75791055,30,6
1174.75750387,1174.75791055,13,1
1174.75791055,1174.75793099,30,5
1174.75791055,1174.75793099,13,2
1174.75793099,1174.75794968,30,4
1174.75793099,1174.75794968,13,3
1174.75794968,1174.75804432,13,4
1173.991448363,1174.75821182,25,4
1174.47452593,1174.75821182,35,1
1174.75821182,1174.75825553,25,3
1174.75821182,1174.75825553,35,2
1174.75825553,1174.75833739,35,3
1174.75804432,1174.75841128,13,3
1174.75750387,1174.75841128,15,1
1173.999537439,1174.75862908,29,4
1174.63459404,1174.75862908,21,1
1173.999631639,1174.75866211,39,2
1174.75833739,1174.75907291,35,2
1174.75866211,1174.75907291,37,1
1174.75616189,1174.76136061,24,3
1174.75715614,1174.76136061,16,1
1174.75769530,1174.76153191,31,3
1174.75682297,1174.76153191,22,1
1174.59425963,1174.76178651,26,4
1173.128611495,1174.76178651,63,1
1174.31482320,1174.76217428,33,2
1174.47452593,1174.76217428,32,1
1174.75841128,1174.76381795,13,2
1174.75794968,1174.76405043,30,3
1174.75695605,1174.76405043,8,1
1174.76178651,1174.76551926,26,3
1174.76381795,1174.76551926,12,1
1174.75862908,1174.78152508,29,3
1174.75761277,1174.78152508,1,1
1174.78152508,1174.78163600,1,2
1174.75907291,1174.78407409,37,2
1174.76217428,1174.78507275,32,2
1174.31500285,1174.78507275,34,1
1174.31554631,1174.78570116,48,2
1174.75825553,1174.78581719,25,2
1174.76405043,1174.78581719,30,2
1174.78507275,1174.78670775,34,2
1174.78407409,1174.78670775,37,1
1174.78581719,1174.78716170,30,3
1174.78670775,1174.78716170,37,2
1174.75761277,1174.78780073,0,2
1174.78716170,1174.78919612,37,3
1174.39431541,1174.78919612,61,1
1174.75718567,1174.83457816,57,2
1174.75841128,1174.83473556,15,2
1174.76178651,1174.83492286,63,2
1174.76551926,1174.83505663,12,2
1174.78919612,1174.83524063,37,2
1174.76405043,1174.83536774,8,2
1174.76153191,1174.83579757,22,2
1174.76136061,1174.91480010,24,2
1174.75866211,1174.91480010,39,1
1174.91480010,1174.91915279,39,2
1174.78407409,1174.91915279,38,1
1174.78716170,1174.98028548,30,2
1174.91480010,1174.98028548,24,1
1174.76153191,1174.98127025,31,2
1174.78581719,1174.98127025,25,1
1174.98028548,1174.98162919,24,2
1174.76551926,1174.98162919,26,2
1174.75769530,1174.111652825,60,2
1174.83457816,1174.111652825,57,1
1174.78919612,1174.111670973,61,2
1173.999607236,1174.111670973,58,1
1174.91915279,1174.111699545,38,2
1174.75907291,1174.111699545,35,1
1174.98162919,1174.127447590,26,3
1174.111670973,1174.127447590,58,2
1174.75862908,1174.131492444,21,2
1174.78570116,1174.131492444,49,1
1174.131492444,1174.131501517,49,2
1174.127447590,1174.139658271,58,3
1174.83457816,1174.139658271,41,1
1174.76136061,1174.139689176,16,2
1174.83579757,1174.139689176,4,1
1174.139689176,1174.139701081,4,2
1174.111652825,1174.139735611,57,2
1174.78570116,1174.139735611,48,1
1174.111699545,1174.139755619,35,2
1174.91915279,1174.139755619,39,1
1174.139735611,1174.139938215,48,2
1174.139658271,1174.140331173,41,2
1174.139755619,1174.147456563,39,2
1174.139658271,1174.147478638,58,2
1174.127447590,1174.159539461,26,2
1174.63465947,1174.159539461,27,2
1174.159539461,1174.161500058,27,3
1174.63551440,1174.161500058,28,1
1174.161500058,1174.161713180,28,2
1174.98127025,1174.161713180,25,2
1174.161713180,1174.179700114,25,3
1174.75727949,1174.179700114,23,1
1174.161500058,1174.179737222,27,2
1174.83473556,1174.179737222,15,1
1174.179737222,1174.182082812,15,2
1174.75804432,1174.182082812,11,1
1174.75718567,1174.183435924,62,1
1174.83492286,1174.183435924,63,1
1174.183435924,1174.187747532,63,2
1173.983518168,1174.187747532,56,1
1174.187747532,1174.188135539,56,2
1174.139735611,1174.188135539,57,1
1174.188135539,1174.191492750,57,2
1174.78152508,1174.191628119,29,2
1174.159539461,1174.191628119,26,1
1174.179700114,1174.191646457,25,2
1174.161713180,1174.191646457,28,1
1174.182082812,1174.203454933,11,2
1174.179700114,1174.226025189,23,2
1174.139938215,1174.226025189,48,1
1174.226025189,1174.226036259,48,2
1174.147456563,1174.226036259,52,1
1174.226036259,1174.231452279,52,2
1174.191646457,1174.240485908,28,2
1174.98127025,1174.240485908,31,1
1174.191628119,1174.241499650,26,2
1174.98028548,1174.241499650,30,1
1174.241499650,1174.241560281,30,2
1174.241499650,1174.241560281,26,1
1174.241560281,1174.241580625,26,2
1174.179737222,1174.241580625,27,1
1174.240485908,1174.241590477,31,2
1174.191628119,1174.241590477,29,1
1174.241590477,1174.255499352,29,2
1174.240485908,1174.255499352,28,1
1174.241580625,1174.255648544,27,2
1174.241560281,1174.255648544,30,1
1174.255499352,1174.255765044,28,2
1174.241590477,1174.255765044,31,1
1174.255765044,1174.299505258,31,2
1174.76217428,1174.299505258,33,1
1174.255648544,1174.311862885,30,2
1174.83536774,1174.311862885,8,1
1174.299505258,1174.320405569,33,2
1174.139755619,1174.320405569,35,1
1174.320405569,1174.320431733,35,2
1174.83524063,1174.320431733,37,1
1174.311862885,1174.323499729,8,2
1174.78780073,1174.323499729,3,1
1174.323499729,1174.323514183,3,2
1174.320431733,1174.394538920,37,2
1174.78507275,1174.394538920,32,1
1174.394538920,1174.415465117,32,2
1174.203454933,1176.11555153,11,1
1174.83505663,1176.11555153,12,1
1176.11555153,1176.12581538,12,2
1174.76381795,1176.12581538,13,1
1176.12581538,1176.19602409,13,2
1176.19602409,1176.239558151,11,1
1176.12581538,1176.239558151,12,1
1176.239558151,1176.243595535,12,2
1174.78780073,1176.827637634,0,1
1174.323514183,1176.827637634,3,1
1176.827637634,1176.828234000,3,2
1173.999471729,1177.459647684,9,1
1173.999485662,1177.459647684,10,1
1177.459647684,1177.461046095,10,2
1174.78163600,1178.635700637,1,1
1174.78163600,1178.635700637,2,1
1178.635700637,1178.636714479,2,2
1178.636714479,1178.995740476,1,1
1178.636714479,1178.995740476,2,1
1178.995740476,1178.997647364,2,2
1174.226036259,1179.307735374,48,1
1174.131501517,1179.307735374,49,1
1179.307735374,1179.314112018,49,2
1174.231452279,1179.314112018,52,1
1179.314112018,1179.314529262,52,2
1174.231452279,1179.314529262,55,1
1179.314529262,1179.314626901,55,2
1179.314626901,1179.495755863,48,1
1179.314112018,1179.495755863,49,1
1179.495755863,1179.498431021,49,2
1178.997647364,1180.624025333,2,1
1176.828234000,1180.624025333,3,1
1180.624025333,1180.624307658,3,2
1174.139701081,1180.624307658,4,1
1180.624307658,1180.661242258,4,2
1179.498431021,1180.763822341,48,1
1179.498431021,1180.763822341,49,1
1180.763822341,1180.765395959,49,2
1174.131501517,1180.765395959,50,1
1180.765395959,1180.765600456,50,2
1180.661242258,1181.815890920,4,1
1174.139701081,1181.815890920,5,1
1181.815890920,1181.816861207,5,2
1174.98162919,1181.816861207,24,1
1181.816861207,1181.835903589,24,2
1174.241580625,1181.835903589,26,1
1181.835903589,1181.859893863,26,2
1181.835903589,1181.859893863,24,1
1181.859893863,1181.859908603,24,2
1177.461046095,1181.859908603,9,1
1181.859908603,1181.903902904,9,2
1181.903902904,1182.287929084,4,1
1181.816861207,1182.287929084,5,1
1182.287929084,1182.288932967,5,2
1174.140331173,1182.288932967,41,1
1182.288932967,1182.304912941,41,2
1174.140331173,1182.304912941,47,1
1182.304912941,1182.304944508,47,2
1176.19602409,1182.304944508,13,1
1182.304944508,1182.304959012,13,2
1174.147478638,1182.304959012,53,1
1182.304959012,1182.387818123,53,2
1174.203454933,1182.387818123,54,1
1182.387818123,1182.415981243,54,2
1182.415981243,1182.467928815,4,1
1182.288932967,1182.467928815,5,1
1182.467928815,1182.469787748,5,2
1181.903902904,1182.523972413,9,1
1182.304959012,1182.523972413,13,1
1182.523972413,1182.531947559,13,2
1182.531947559,1182.539924963,9,1
1177.461046095,1182.539924963,10,1
1182.539924963,1182.541289656,10,2
1176.243595535,1182.541289656,12,1
1182.541289656,1182.547975823,12,2
1182.547975823,1183.168039613,9,1
1182.541289656,1183.168039613,10,1
1183.168039613,1183.168281229,10,2
1176.243595535,1183.503993591,11,1
1174.182082812,1183.503993591,15,1
1183.503993591,1183.505004984,15,2
1174.323499729,1183.505004984,8,1
1183.505004984,1183.505091477,8,2
1183.168281229,1183.505091477,9,1
1183.505091477,1183.505333862,9,2
1180.765600456,1184.108019310,48,1
1180.765395959,1184.108019310,49,1
1184.108019310,1184.109193892,49,2
1179.314529262,1184.109193892,52,1
1184.109193892,1184.109392974,52,2
1179.314626901,1184.109392974,55,1
1184.109392974,1184.109423091,55,2
1182.469787748,1184.584067516,5,1
1174.323514183,1184.584067516,6,1
1184.584067516,1184.584641901,6,2
1182.387818123,1184.584641901,53,1
1184.584641901,1184.616102910,53,2
1174.131492444,1186.568193786,21,1
1174.63450825,1186.568193786,20,1
1186.568193786,1186.571785921,20,2
1186.571785921,1186.616162406,21,1
1174.83579757,1186.616162406,22,1
1186.616162406,1186.621461772,22,2
1174.139689176,1186.621461772,16,1
1186.621461772,1186.622020167,16,2
1186.622020167,1186.748174176,21,1
1186.621461772,1186.748174176,22,1
1186.748174176,1186.748733924,22,2
1174.75727949,1186.748733924,19,1
1186.748733924,1186.756247640,19,2
1186.756247640,1186.944195560,21,1
1174.226025189,1186.944195560,23,1
1186.944195560,1186.950154335,23,2
1186.622020167,1186.950154335,16,1
1186.950154335,1186.950702838,16,2
1176.828234000,1188.224283094,0,1
1178.997647364,1188.224283094,1,1
1188.224283094,1188.232323813,1,2
1174.188135539,1188.500279646,56,1
1174.111652825,1188.500279646,60,1
1188.500279646,1188.501320359,60,2
1174.111670973,1188.501320359,61,1
1188.501320359,1188.508297147,61,2
1184.616102910,1188.761932413,53,1
1174.111699545,1188.761934326,38,1
1174.299505258,1188.761944067,31,1
1174.31443158,1188.761957957,18,1
1174.83473556,1188.761958135,42,1
1174.191492750,1188.761990726,62,1
1174.255499352,1188.761995449,29,1
1184.616102910,1188.762006687,5,1
1174.78670775,1188.762016851,34,1
1174.255648544,1188.762040147,27,1
1188.508297147,1188.762047229,61,1
1174.191646457,1188.762049612,25,1
1182.531947559,1188.762049796,13,1
1174.255765044,1188.762069564,28,1
1188.501320359,1188.762073171,60,1
1174.394538920,1188.762108325,37,1
1186.571785921,1188.762111511,20,1
1186.756247640,1188.762121021,19,1
1174.320431733,1188.762128484,35,1
1182.304944508,1188.762130346,47,1
1174.191492750,1188.762132803,57,1
1174.83505663,1188.762138990,44,1
1184.109392974,1188.762152060,52,1
1174.75833739,1188.762167915,36,1
1186.950702838,1188.762173849,21,1
1184.109423091,1188.762204162,48,1
1174.320405569,1188.762220642,33,1
1180.661242258,1188.762232101,2,1
1180.624307658,1188.762232111,3,1
1188.232323813,1188.762261032,1,1
1184.109193892,1188.762274431,49,1
1182.547975823,1188.762287255,12,1
1183.505004984,1188.762292458,15,1
1188.508297147,1188.762317651,56,1
1183.505091477,1188.762338100,8,1
1174.83536774,1188.762352189,46,1
1186.950154335,1188.762353439,23,1
1174.415465117,1188.762375802,7,1
1184.109423091,1188.762391264,55,1
1186.748733924,1188.762395281,22,1
1188.232323813,1188.762402928,0,1
1174.139938215,1188.762445389,51,1
1174.7442040,1188.762449057,14,1
1174.39431541,1188.762456223,40,1
1181.859893863,1188.762478962,26,1
1183.168281229,1188.762486929,10,1
1183.505333862,1188.762502314,9,1
1186.950702838,1188.762511411,16,1
1174.311862885,1188.762524972,30,1
1183.505333862,1188.762527527,11,1
1174.187747532,1188.762547006,63,1
1174.63459404,1188.762559890,17,1
1174.415465117,1188.762565066,32,1
1174.75656895,1188.762592424,59,1
1174.83524063,1188.762594637,45,1
1174.147456563,1188.762620049,39,1
1182.415981243,1188.762643207,54,1
1182.469787748,1188.762645505,4,1
1182.304912941,1188.762650430,41,1
1174.147478638,1188.762661363,58,1
1181.859908603,1188.762683636,24,1
1180.765600456,1188.762690319,50,1
1184.584641901,1188.764748669,6,1
1174.83492286,1188.767951283,43,1
