Start,End,Cpu,Size
1730.617375343,1730.619121862,31,1
1732.784304742,1732.784347737,49,1
1730.619121862,1732.784392033,0,1
1732.784533499,1732.784548122,63,1
1732.784611635,1732.784619605,29,1
1732.784392033,1732.784688636,49,1
1732.784619605,1732.784688636,3,1
1732.784802984,1732.784837634,32,1
1732.784688636,1732.784870427,3,2
1732.784870427,1732.784966166,32,1
1732.784837634,1732.784966166,4,1
1732.785486693,1732.785505355,50,1
1732.785641162,1732.785649506,51,1
1732.785737135,1732.785749495,52,1
1732.785827383,1732.785834792,53,1
1732.785893582,1732.785905418,54,1
1732.785962442,1732.785975306,30,1
1732.784966166,1732.785991921,4,2
1732.785905418,1732.785991921,9,1
1732.786131674,1732.786155688,31,1
1732.785991921,1732.786162145,9,2
1732.786162145,1732.786226257,31,1
1732.786155688,1732.786226257,11,1
1732.786712410,1732.786730411,24,1
1732.786848871,1732.786856113,25,1
1732.786928816,1732.786941447,26,1
1732.787008756,1732.787015766,27,1
1732.787092463,1732.787105186,29,1
1732.787160723,1732.787172750,30,1
1732.787235887,1732.787243618,31,1
1732.787711332,1732.787719485,24,1
1732.787793246,1732.787800416,25,1
1732.787853881,1732.787859233,26,1
1732.787943996,1732.787951286,27,1
1732.788022596,1732.788028350,29,1
1732.788089162,1732.788097014,30,1
1732.788145347,1732.788158738,47,1
1732.788691197,1732.788704225,40,1
1732.786226257,1732.788735245,11,2
1732.788704225,1732.788735245,27,1
1732.788802635,1732.788832288,41,1
1732.788735245,1732.788857876,27,2
1732.788097014,1732.789334584,24,1
1732.789334584,1732.789342783,24,2
1732.788158738,1732.789832958,25,1
1732.789832958,1732.789848653,25,2
1732.789921609,1732.789934730,49,1
1732.788619201,1732.789996070,26,1
1732.789996070,1732.790004391,26,2
1732.790082762,1732.790095597,50,1
1732.788857876,1732.790159492,27,1
1732.790159492,1732.790167426,27,2
1732.790241052,1732.790248634,51,1
1732.788832288,1732.790307340,28,1
1732.790307340,1732.790315266,28,2
1732.790788045,1732.790802730,52,1
1732.789020967,1732.790894336,29,1
1732.790894336,1732.790903511,29,2
1732.788857876,1732.790903511,41,1
1732.790903511,1732.790949590,41,2
1732.790903511,1732.790949590,29,1
1732.789342783,1732.790958955,32,1
1732.790958955,1732.790971607,32,2
1732.791031000,1732.791038858,53,1
1732.789106399,1732.791123290,30,1
1732.791123290,1732.791136637,30,2
1732.789254972,1732.791193344,31,1
1732.791193344,1732.791201234,31,2
1732.789342783,1732.791268773,24,1
1732.791268773,1732.791282175,24,2
1732.789848653,1732.791769458,25,1
1732.791769458,1732.791783939,25,2
1732.790004391,1732.791859986,26,1
1732.791859986,1732.791873454,26,2
1732.789848653,1732.791943927,33,1
1732.791943927,1732.791956942,33,2
1732.790167426,1732.792034673,27,1
1732.792034673,1732.792042954,27,2
1732.789934730,1732.792098940,34,1
1732.792098940,1732.792111691,34,2
1732.790315266,1732.792185240,28,1
1732.792185240,1732.792199056,28,2
1732.790004391,1732.792249426,35,1
1732.792249426,1732.792256863,35,2
1732.790949590,1732.792749167,29,2
1732.792749167,1732.792763662,29,3
1732.790095597,1732.792842566,36,1
1732.792842566,1732.792855675,36,2
1732.791136637,1732.792933475,30,1
1732.792933475,1732.792948113,30,2
1732.790167426,1732.793006702,37,1
1732.793006702,1732.793014193,37,2
1732.791201234,1732.793098065,31,1
1732.793098065,1732.793106285,31,2
1732.790248634,1732.793160783,38,1
1732.793160783,1732.793173035,38,2
1732.791282175,1732.793240126,24,1
1732.793240126,1732.793248183,24,2
1732.791783939,1732.793767707,25,1
1732.793767707,1732.793776493,25,2
1732.791873454,1732.793854110,26,1
1732.793854110,1732.793860588,26,2
1732.790315266,1732.793921059,39,1
1732.793921059,1732.793933712,39,2
1732.785834792,1732.794134693,8,1
1732.785749495,1732.794134693,7,1
1732.786162145,1732.794144824,9,1
1732.794134693,1732.794144824,7,2
1732.787105186,1732.794259570,16,1
1732.787015766,1732.794259570,15,1
1732.794144824,1732.796461842,7,3
1732.785991921,1732.796461842,4,1
1732.794259570,1732.796873090,15,2
1732.785975306,1732.796873090,10,1
1732.792763662,1732.796928922,29,2
1732.788735245,1732.796928922,11,1
1732.792042954,1732.797005698,50,1
1732.796873090,1732.797005698,15,1
1732.796461842,1732.798341703,7,2
1732.796873090,1732.823972874,10,2
1732.791873454,1732.823972874,48,1
1732.796461842,1732.879951084,4,2
1732.785505355,1732.879951084,5,1
1732.879951084,1732.886092594,5,2
1732.784870427,1732.886092594,3,1
1732.797005698,1732.899953561,15,2
1732.796928922,1732.907941292,11,2
1732.823972874,1732.907952491,48,2
1732.886092594,1732.999069683,3,2
1732.886092594,1732.999069683,5,1
1732.999069683,1733.11980803,5,2
1732.907952491,1733.11980803,48,1
1733.11980803,1733.94330699,48,2
1733.11980803,1733.94330699,5,1
1733.94330699,1733.322553813,5,2
1732.788028350,1733.322553813,23,1
1733.322553813,1733.447992682,23,2
1732.798341703,1745.760025835,0,1
1732.879951084,1745.760025835,4,1
1733.322553813,1745.872398934,5,1
1745.760025835,1745.884386472,4,2
1732.784347737,1745.935543247,1,1
1745.935543247,1745.956707861,1,2
1732.786856113,1745.956707861,13,1
1745.872398934,1745.980400480,5,2
1745.956707861,1745.980755016,13,2
1732.785649506,1745.980755016,6,1
1745.980755016,1746.79535248,6,2
1745.884386472,1746.79535248,4,1
1745.956707861,1746.81226997,1,1
1746.79535248,1746.151113128,4,2
1732.793860588,1746.151113128,62,1
1746.151113128,1746.152440993,62,2
1732.999069683,1746.152440993,3,1
1746.152440993,1746.188730575,3,2
1746.151113128,1746.188730575,4,1
1746.81226997,1746.193192051,1,2
1745.980400480,1746.193192051,5,1
1746.188730575,1746.299059308,4,2
1732.798341703,1746.299059308,7,1
1746.193192051,1746.299198025,5,2
1746.193192051,1746.299198025,1,1
1746.299059308,1746.365616580,7,2
1746.79535248,1746.365616580,6,1
1746.365616580,1746.384735146,6,2
1732.787243618,1746.384735146,18,1
1746.299198025,1746.401678116,1,2
1746.299059308,1746.401678116,4,1
1746.384735146,1746.415332090,18,2
1746.384735146,1746.415332090,6,1
1746.401678116,1746.467464523,4,2
1746.188730575,1746.467464523,3,1
1746.415332090,1746.506688035,6,2
1746.299198025,1746.506688035,5,1
1746.467464523,1746.507176182,3,2
1732.784548122,1746.507176182,2,1
1746.507176182,1746.570479119,2,2
1746.506688035,1746.570479119,5,2
1746.570479119,1746.607649753,5,3
1746.506688035,1746.607649753,6,1
1746.607649753,1746.608285198,5,2
1746.467464523,1746.608285198,4,1
1746.607649753,1746.708973172,6,2
1746.365616580,1746.708973172,7,1
1746.608285198,1746.711971106,4,2
1746.608285198,1746.711971106,5,1
1746.711971106,1746.805008163,5,2
1746.711971106,1746.805008163,4,1
1746.708973172,1746.806733047,7,2
1746.401678116,1746.806733047,1,1
1746.806733047,1746.865451148,1,2
1746.570479119,1746.865451148,2,1
1746.865451148,1746.865577406,2,2
1746.805008163,1746.865577406,4,2
1746.865577406,1746.876764968,4,3
1732.790971607,1746.876764968,32,1
1746.876764968,1746.888781170,32,2
1732.793248183,1746.888781170,24,1
1746.888781170,1746.916043002,24,2
1746.888781170,1746.916043002,32,1
1746.916043002,1746.969155302,32,2
1746.865451148,1746.969155302,1,1
1746.969155302,1747.6830434,1,2
1732.787172750,1747.6830434,17,1
1746.876764968,1747.9701602,4,2
1746.708973172,1747.9701602,6,1
1747.9701602,1747.103727889,6,2
1747.9701602,1747.103727889,4,1
1747.6830434,1747.111014509,17,2
1732.787719485,1747.111014509,19,1
1747.111014509,1747.164836212,19,2
1732.787800416,1747.164836212,20,1
1747.164836212,1747.164939432,20,2
1747.103727889,1747.201508695,4,2
1747.6830434,1747.201508695,1,1
1747.201508695,1747.210983006,4,1
1747.201508695,1747.267050109,1,2
1746.507176182,1747.267050109,3,1
1747.267050109,1747.268588202,3,2
1747.267050109,1747.276797009,1,1
1747.210983006,1747.300847611,4,2
1747.103727889,1747.300847611,6,1
1747.276797009,1747.302017395,1,2
1747.300847611,1747.363105151,6,2
1747.363105151,1747.363163160,0,1
1747.363105151,1747.363163160,6,1
1746.415332090,1747.380842761,18,1
1747.363163160,1747.389140424,6,2
1732.907941292,1747.389140424,9,1
1747.380842761,1747.390209299,18,2
1732.792763662,1747.390209299,54,1
1747.390209299,1747.486893864,54,2
1747.389140424,1747.489430273,9,2
1747.300847611,1747.489430273,4,1
1746.806733047,1747.548492959,7,1
1747.489430273,1747.548557727,4,2
1747.302017395,1747.564797670,1,1
1747.548492959,1747.572809868,7,2
1746.969155302,1747.572809868,32,1
1747.564797670,1747.573641393,1,2
1747.572809868,1747.578981634,32,2
1732.792256863,1747.578981634,35,1
1747.578981634,1747.645160219,35,2
1732.793860588,1747.645160219,26,1
1747.573641393,1747.660842751,1,1
1747.660842751,1747.665032052,1,2
1747.390209299,1747.665032052,18,1
1747.665032052,1747.673946345,18,2
1747.111014509,1747.673946345,17,1
1747.645160219,1747.675938107,26,2
1747.268588202,1747.675938107,3,1
1747.675938107,1747.734779587,3,2
1747.665032052,1747.772716416,1,1
1747.673946345,1747.785960929,17,2
1747.164836212,1747.785960929,19,1
1747.772716416,1747.822560369,1,2
1732.793173035,1747.822560369,59,1
1747.822560369,1747.824019170,59,2
1747.673946345,1747.824019170,18,1
1747.785960929,1747.824872143,19,2
1732.787859233,1747.824872143,21,1
1747.824019170,1747.864839220,18,2
1747.824872143,1747.876810221,21,2
1747.824872143,1747.876810221,19,1
1747.548557727,1747.941926742,4,1
1747.876810221,1747.942089282,19,2
1747.164939432,1747.942089282,20,1
1747.942089282,1748.9548567,20,2
1732.787951286,1748.9548567,22,1
1747.941926742,1748.38008458,4,2
1748.9548567,1748.39990330,22,2
1747.389140424,1748.39990330,6,1
1746.805008163,1748.118236921,5,1
1748.39990330,1748.123354588,6,2
1747.822560369,1748.123354588,1,1
1748.123354588,1748.185152740,1,2
1746.865577406,1748.185152740,2,1
1748.185152740,1748.207295447,2,2
1748.185152740,1748.207295447,1,1
1748.118236921,1748.284092064,5,2
1748.207295447,1748.284092064,1,2
1748.284092064,1748.300929661,1,3
1747.734779587,1748.300929661,3,1
1748.300929661,1748.306024203,1,2
1745.980755016,1748.306024203,13,1
1748.300929661,1748.306403622,3,2
1733.447992682,1748.306403622,23,1
1748.306024203,1748.376377811,13,2
1732.790971607,1748.376377811,42,1
1748.376377811,1748.377944360,42,2
1747.572809868,1748.377944360,7,1
1748.377944360,1748.405193937,7,2
1748.123354588,1748.405193937,6,1
1748.306403622,1748.409730932,23,2
1747.864839220,1748.409730932,18,1
1748.405193937,1748.481859708,6,2
1748.207295447,1748.481859708,2,1
1748.409730932,1748.482576725,18,2
1747.785960929,1748.482576725,17,1
1748.481859708,1748.542096250,2,2
1748.306403622,1748.542096250,3,1
1748.542096250,1748.542266482,3,2
1748.38008458,1748.542266482,4,1
1748.542266482,1748.564361584,4,2
1748.306024203,1748.564361584,1,1
1748.482576725,1748.572422288,17,2
1748.482576725,1748.572422288,18,1
1748.572422288,1748.622736263,18,2
1748.542266482,1748.622736263,3,1
1748.622736263,1748.645402622,3,2
1748.284092064,1748.645402622,5,1
1748.564361584,1748.648985565,1,2
1748.542096250,1748.648985565,2,1
1748.648985565,1748.705042509,2,2
1748.645402622,1748.705042509,3,1
1748.645402622,1748.726434568,5,2
1748.376377811,1748.726434568,13,1
1748.705042509,1748.726475469,3,2
1748.705042509,1748.726475469,2,1
1748.726434568,1748.792543287,13,2
1748.726475469,1748.792543287,2,2
1748.792543287,1748.792652631,2,3
1748.622736263,1748.792652631,18,1
1748.792652631,1748.876037758,2,2
1746.152440993,1748.876037758,62,1
1748.876037758,1748.877384142,62,2
1748.564361584,1748.877384142,4,1
1748.877384142,1748.880904900,4,2
1732.793933712,1748.880904900,39,1
1748.880904900,1748.903903154,39,2
1748.481859708,1748.903903154,6,1
1748.792652631,1748.917369580,18,2
1747.942089282,1748.917369580,19,1
1748.917369580,1748.951758769,19,2
1732.793106285,1748.951758769,58,1
1748.951758769,1748.952928171,58,2
1748.951758769,1748.952928171,19,1
1748.952928171,1748.960960475,19,2
1732.790802730,1748.960960475,40,1
1748.903903154,1748.981800671,6,2
1748.876037758,1748.981800671,2,1
1748.960960475,1748.993744723,40,2
1748.981800671,1748.993744723,6,1
1748.981800671,1749.42818070,2,2
1748.405193937,1749.42818070,7,1
1748.993744723,1749.43385415,6,2
1748.648985565,1749.43385415,1,1
1749.42818070,1749.103112701,7,2
1749.43385415,1749.108980330,1,2
1748.917369580,1749.108980330,18,1
1749.108980330,1749.124809813,18,2
1732.793248183,1749.124809813,60,1
1749.42818070,1749.128885332,2,1
1749.128885332,1749.173895655,2,2
1749.108980330,1749.173895655,1,1
1749.173895655,1749.198423389,1,2
1749.43385415,1749.198423389,6,1
1749.124809813,1749.200467002,60,2
1748.726475469,1749.200467002,3,1
1749.200467002,1749.246655302,3,2
1749.198423389,1749.246768081,6,2
1732.793776493,1749.246768081,61,1
1749.246768081,1749.248092414,61,2
1749.198423389,1749.248092414,1,1
1749.248092414,1749.256911259,1,2
1732.792199056,1749.256911259,52,1
1749.256911259,1749.268909354,52,2
1732.792256863,1749.268909354,53,1
1748.726434568,1749.271245106,5,1
1749.268909354,1749.271470547,53,2
1749.246768081,1749.271470547,6,1
1749.271470547,1749.318025022,6,2
1749.103112701,1749.318025022,7,1
1749.271245106,1749.337312365,5,2
1749.246655302,1749.337312365,3,1
1749.318025022,1749.340903396,7,2
1749.318025022,1749.340903396,6,1
1749.340903396,1749.412912945,6,2
1749.340903396,1749.412912945,7,1
1749.337312365,1749.417429632,3,2
1748.377944360,1749.417429632,42,1
1749.412912945,1749.419166792,7,2
1749.417429632,1749.419166792,42,2
1749.419166792,1749.477661180,42,3
1748.877384142,1749.477661180,62,1
1749.477661180,1749.478827359,62,2
1749.477661180,1749.478827359,42,2
1749.478827359,1749.488966029,42,3
1749.419166792,1749.489003138,7,1
1749.489003138,1749.495389454,7,2
1748.880904900,1749.495389454,4,1
1749.488966029,1749.495580863,42,2
1732.791038858,1749.495580863,43,1
1749.495580863,1749.498164819,43,2
1749.478827359,1749.498164819,62,1
1749.495389454,1749.577481097,4,2
1749.412912945,1749.577481097,6,1
1749.498164819,1749.592388390,62,2
1749.577481097,1749.592388390,4,1
1749.592388390,1749.646365314,4,2
1749.173895655,1749.646365314,2,1
1749.577481097,1749.647743916,6,2
1749.256911259,1749.647743916,1,1
1749.647743916,1749.688948187,1,2
1749.646365314,1749.688948187,2,2
1749.688948187,1749.704806431,2,3
1749.337312365,1749.704806431,5,1
1749.704806431,1749.704929862,2,2
1732.823972874,1749.704929862,10,1
1749.704929862,1749.709702840,10,2
1749.704929862,1749.709702840,2,1
1749.709702840,1749.754708623,2,2
1749.646365314,1749.754708623,4,1
1749.754708623,1749.754774285,4,2
1749.417429632,1749.754774285,3,1
1749.704806431,1749.760967646,5,2
1748.952928171,1749.760967646,58,1
1749.760967646,1749.772914968,58,2
1749.248092414,1749.772914968,61,1
1749.754774285,1749.776523551,3,2
1749.495389454,1749.776523551,7,1
1749.772914968,1749.776929276,61,2
1732.791136637,1749.776929276,44,1
1749.776929276,1749.782574437,44,2
1749.754774285,1749.782574437,4,1
1749.782574437,1749.836871736,4,2
1749.688948187,1749.836871736,1,1
1749.776523551,1749.837056426,7,2
1749.754708623,1749.837056426,2,1
1749.837056426,1749.878418128,2,2
1749.836871736,1749.878418128,4,1
1749.878418128,1749.878540249,4,2
1749.647743916,1749.878540249,6,1
1749.878540249,1749.902129506,6,2
1749.760967646,1749.902129506,5,1
1749.836871736,1749.902315341,1,2
1749.902129506,1749.939030523,5,2
1749.939030523,1749.939055456,0,1
1746.916043002,1749.939055456,24,1
1749.939055456,1749.940225004,24,2
1749.878540249,1749.940225004,4,1
1749.940225004,1749.959133369,4,2
1749.939030523,1749.959133369,5,1
1749.878418128,1749.959536957,2,1
1749.959536957,1750.78426983,2,2
1749.271470547,1750.78426983,53,1
1750.78426983,1750.81850554,53,2
1733.94330699,1750.81850554,48,1
1749.959133369,1750.99626561,5,2
1749.902315341,1750.99626561,1,1
1750.81850554,1750.99725064,48,2
1750.78426983,1750.99725064,2,1
1750.99725064,1750.139730567,2,2
1749.776523551,1750.139730567,3,1
1750.99626561,1750.139742228,1,2
1750.139730567,1750.139742228,2,1
1750.139730567,1750.141076601,3,2
1749.959133369,1750.141076601,4,1
1750.141076601,1750.162502106,4,2
1750.99626561,1750.162502106,5,1
1750.139742228,1750.163058238,2,2
1750.141076601,1750.163058238,3,1
1750.163058238,1750.197144174,3,2
1750.162502106,1750.197144174,5,2
1750.197144174,1750.197153773,5,3
1750.197153773,1750.198229572,5,2
1749.837056426,1750.198229572,7,1
1750.198229572,1750.216962077,5,1
1750.198229572,1750.217199925,7,2
1749.902129506,1750.217199925,6,1
1750.217199925,1750.258936663,6,2
1750.163058238,1750.258936663,2,1
1750.216962077,1750.277759666,5,2
1750.162502106,1750.277759666,4,1
1750.258936663,1750.278025898,2,2
1750.197144174,1750.278025898,3,1
1750.277759666,1750.316409928,4,2
1750.139742228,1750.316409928,1,1
1750.278025898,1750.316442103,3,2
1747.824019170,1750.316442103,59,1
1750.316409928,1750.330886066,1,2
1750.316409928,1750.330886066,4,1
1750.316442103,1750.330898777,59,2
1750.330886066,1750.330898777,4,2
1750.330898777,1750.350585339,4,3
1750.277759666,1750.350585339,5,1
1750.350585339,1750.375386176,5,2
1750.217199925,1750.375386176,7,1
1750.350585339,1750.393760990,4,2
1750.316442103,1750.393760990,3,1
1750.375386176,1750.394149824,7,2
1750.278025898,1750.394149824,2,1
1750.393760990,1750.443974346,3,2
1750.394149824,1750.443974346,7,1
1750.394149824,1750.444718645,2,2
1748.960960475,1750.444718645,19,1
1750.443974346,1750.505103885,7,2
1750.258936663,1750.505103885,6,1
1750.505103885,1750.552976357,6,2
1748.9548567,1750.552976357,20,1
1750.552976357,1750.560522579,20,2
1750.330898777,1750.560522579,59,1
1750.444718645,1750.574715118,19,2
1749.124809813,1750.574715118,18,1
1750.574715118,1750.592127471,18,2
1750.393760990,1750.592127471,4,1
1750.560522579,1750.593089342,59,2
1732.793776493,1750.593089342,25,1
1750.592127471,1750.613618298,4,2
1750.375386176,1750.613618298,5,1
1750.593089342,1750.618931024,25,2
1748.572422288,1750.618931024,17,1
1750.613618298,1750.641042254,5,2
1750.505103885,1750.641042254,7,1
1750.641042254,1750.654768588,7,2
1750.641042254,1750.654768588,5,1
1750.618931024,1750.655981766,17,2
1732.792199056,1750.655981766,28,1
1750.655981766,1750.704972675,28,2
1732.792042954,1750.704972675,27,1
1750.704972675,1750.712989335,27,2
1749.940225004,1750.712989335,24,1
1750.712989335,1750.715627214,24,2
1747.876810221,1750.715627214,21,1
1750.654768588,1750.721976608,5,2
1750.721976608,1750.741761119,5,1
1750.715627214,1750.748969121,21,2
1733.447992682,1750.748969121,16,1
1750.741761119,1750.761097012,5,2
1750.613618298,1750.761097012,4,1
1750.761097012,1750.787913920,4,2
1750.654768588,1750.787913920,7,1
1750.787913920,1750.788967393,7,2
1750.592127471,1750.789081593,18,1
1750.789081593,1750.814811560,18,2
1750.748969121,1750.814811560,21,1
1750.814811560,1750.840995190,21,2
1750.748969121,1750.840995190,16,2
1750.840995190,1750.844971741,16,3
1750.814811560,1750.844971741,18,1
1750.844971741,1750.847963929,18,2
1750.787913920,1750.847963929,4,1
1750.847963929,1750.887968779,4,2
1748.903903154,1751.30395698,39,1
1751.30395698,1751.77021091,39,2
1747.578981634,1751.77021091,32,1
1751.77021091,1751.121009717,32,2
1732.791956942,1751.121009717,33,1
1751.121009717,1751.138515496,33,2
1750.444718645,1751.138515496,2,1
1751.138515496,1751.141045379,2,2
1750.712989335,1751.141045379,27,1
1751.141045379,1751.149002871,27,2
1750.704972675,1751.149002871,28,1
1751.149002871,1751.152987680,28,2
1732.793106285,1751.152987680,31,1
1751.152987680,1751.153415790,31,2
1732.792948113,1751.153415790,30,1
1751.153415790,1751.162799268,30,2
1751.121009717,1751.162799268,32,1
1751.162799268,1751.196475503,32,2
1751.141045379,1751.196475503,2,1
1751.196475503,1751.236087663,2,2
1750.788967393,1751.236087663,7,1
1751.236087663,1751.269774010,7,2
1732.792111691,1751.269774010,51,1
1751.269774010,1751.305014454,51,2
1732.791956942,1751.305014454,49,1
1751.305014454,1751.307875950,49,2
1750.761097012,1751.307875950,5,1
1751.307875950,1751.477087643,5,2
1751.153415790,1751.477087643,31,1
1751.477087643,1751.490367703,31,2
1751.152987680,1751.490367703,28,1
1751.490367703,1751.529248004,28,2
1750.574715118,1751.529248004,19,1
1751.529248004,1751.561160631,19,2
1750.443974346,1751.561160631,3,1
1751.561160631,1751.588508676,3,2
1751.477087643,1751.588508676,5,1
1751.588508676,1751.621586543,5,2
1751.621586543,1751.650351771,5,1
1751.650351771,1751.714480739,5,2
1751.77021091,1751.714480739,39,1
1751.714480739,1751.837584155,39,2
1750.887968779,1751.837584155,4,1
1751.837584155,1751.887463242,4,2
1751.714480739,1751.940798550,5,1
1751.940798550,1751.964943233,5,2
1751.269774010,1751.964943233,7,1
1751.964943233,1751.988928886,7,2
1751.837584155,1751.988928886,39,1
1751.988928886,1752.36272365,39,2
1732.793173035,1752.36272365,38,1
1752.36272365,1752.94635968,38,2
1751.529248004,1752.110995618,28,1
1752.110995618,1752.125078706,28,2
1750.715627214,1752.125078706,24,1
1752.125078706,1752.130823346,24,2
1751.887463242,1752.130823346,4,1
1752.130823346,1752.148858105,4,2
1747.645160219,1752.148858105,35,1
1752.148858105,1752.169560188,35,2
1751.588508676,1752.169560188,3,1
1752.169560188,1752.188439015,3,2
1752.148858105,1752.188439015,4,1
1752.188439015,1752.204117925,4,2
1751.964943233,1752.226714223,5,1
1752.226714223,1752.241103241,5,2
1748.993744723,1752.241103241,40,1
1752.241103241,1752.244777149,40,2
1752.204117925,1752.259218788,4,1
1752.259218788,1752.273628070,4,2
1747.486893864,1752.273628070,54,1
1752.273628070,1752.289160297,54,2
1751.307875950,1752.289160297,49,1
1752.289160297,1752.291186613,49,2
1752.241103241,1752.291186613,5,1
1752.291186613,1752.304012476,5,2
1752.94635968,1752.304012476,38,1
1752.304012476,1752.318267150,38,2
1752.273628070,1752.318267150,4,1
1752.318267150,1752.318277637,4,2
1752.304012476,1752.318277637,5,1
1752.318277637,1752.324925905,5,2
1750.552976357,1752.324925905,6,1
1752.324925905,1752.325041100,6,2
1752.318267150,1752.325041100,38,1
1752.325041100,1752.371909368,38,2
1750.840995190,1752.371909368,21,1
1752.371909368,1752.381962753,21,2
1752.325041100,1752.381962753,6,1
1752.381962753,1752.393378568,6,2
1732.899953561,1752.413008514,15,1
1752.413008514,1752.424110218,15,2
1749.200467002,1752.424110218,60,1
1752.424110218,1752.435510625,60,2
1751.988928886,1752.435510625,7,1
1752.435510625,1752.445641974,7,2
1752.324925905,1752.480965734,5,1
1752.480965734,1752.495730413,5,2
1752.495730413,1752.502883815,5,1
1752.502883815,1752.529722620,5,2
1732.793014193,1752.529722620,37,1
1752.529722620,1752.556843024,37,2
1752.188439015,1752.556843024,3,1
1752.556843024,1752.588279150,3,2
1752.393378568,1752.588279150,6,1
1752.588279150,1752.588930510,6,2
1752.588279150,1752.588930510,3,1
1752.588930510,1752.602201060,3,2
1752.602201060,1752.606601997,3,1
1752.606601997,1752.616558810,3,2
1752.445641974,1752.616558810,7,1
1752.616558810,1752.618164854,7,2
1752.588930510,1752.625307604,6,1
1752.625307604,1752.627594820,6,2
1732.792948113,1752.627594820,56,1
1750.655981766,1752.664694561,17,1
1732.907952491,1752.664707324,50,1
1752.424110218,1752.664723808,15,1
1750.330886066,1752.664738674,1,1
1732.907941292,1752.664746739,11,1
1749.709702840,1752.664767722,10,1
1752.289160297,1752.664769023,54,1
1752.616558810,1752.664806148,3,1
1747.675938107,1752.664813987,26,1
1732.792855675,1752.664827152,36,1
1748.792543287,1752.664846440,13,1
1749.776929276,1752.664854130,61,1
1732.792855675,1752.664868403,55,1
1752.627594820,1752.664895697,56,2
1732.793014193,1752.664896302,57,1
1750.81850554,1752.664913684,53,1
1749.498164819,1752.664951385,43,1
1751.561160631,1752.664971494,19,1
1732.899953561,1752.665012286,8,1
1751.305014454,1752.665019693,51,1
1750.560522579,1752.665029703,20,1
1752.627594820,1752.665035119,6,1
1732.791282175,1752.665082470,46,1
1752.664895697,1752.665083761,56,1
1749.268909354,1752.665103840,52,1
1748.409730932,1752.665110920,23,1
1752.435510625,1752.665147884,60,1
1732.791201234,1752.665153779,45,1
1749.495580863,1752.665170900,42,1
1752.618164854,1752.665180093,7,1
1751.490367703,1752.665188036,31,1
1750.847963929,1752.665201373,18,1
1752.556843024,1752.665206746,37,1
1751.236087663,1752.665221021,2,1
1752.371909368,1752.665273400,38,1
1752.529722620,1752.665275090,5,1
1751.196475503,1752.665287071,32,1
1751.162799268,1752.665294418,30,1
1752.169560188,1752.665303042,35,1
1732.793933712,1752.665326721,63,1
1749.592388390,1752.665326731,62,1
1732.786941447,1752.665362981,14,1
1750.593089342,1752.665366283,59,1
1752.291186613,1752.665392537,49,1
1752.318277637,1752.665406115,4,1
1732.792111691,1752.665406306,34,1
1752.125078706,1752.665412362,28,1
1732.796928922,1752.665412756,29,1
1751.149002871,1752.665423903,27,1
1747.489430273,1752.665457376,9,1
1752.244777149,1752.665459930,40,1
1750.844971741,1752.665473580,16,2
1751.138515496,1752.665481847,33,1
1750.618931024,1752.665514066,25,1
1750.99725064,1752.665516395,48,1
1748.39990330,1752.665525695,22,1
1752.381962753,1752.665556974,21,1
1749.782574437,1752.665677232,44,1
1749.772914968,1752.665711438,58,1
1732.786730411,1752.665864274,12,1
1752.36272365,1752.665865763,39,1
1752.130823346,1752.665868506,24,1
1732.790949590,1752.672380442,41,1
1752.665473580,1752.0,16,1
1732.791783939,1752.0,47,1
