Start,End,Cpu,Size
1239.177928241,1239.179664631,29,1
1239.180334593,1239.180350979,14,1
1239.180412835,1239.180426141,30,1
1239.180480399,1239.180487668,15,1
1239.180533207,1239.180540735,31,1
1239.180590076,1239.180602050,8,1
1239.180645655,1239.180658708,24,1
1239.180706628,1239.180714029,9,1
1239.180762967,1239.180770490,25,1
1239.180813365,1239.180826377,26,1
1239.180869673,1239.180877797,27,1
1239.180930449,1239.180939002,28,1
1239.180985747,1239.180993849,29,1
1239.181048419,1239.181056383,30,1
1239.181102896,1239.181110670,31,1
1239.181160781,1239.181168204,24,1
1239.181215940,1239.181223644,25,1
1239.181277634,1239.181284681,26,1
1239.181331199,1239.181338424,27,1
1239.181388230,1239.181395931,28,1
1239.181444223,1239.181451311,29,1
1239.181502177,1239.181509128,30,1
1239.181554638,1239.181561729,31,1
1239.181614396,1239.181621396,24,1
1239.181664292,1239.181671229,25,1
1239.180770490,1239.181713607,8,1
1239.181713607,1239.181721190,8,2
1239.180826377,1239.181766170,9,1
1239.181766170,1239.181772464,9,2
1239.180877797,1239.181814878,10,1
1239.181814878,1239.181822454,10,2
1239.180939002,1239.181868723,11,1
1239.181868723,1239.181875527,11,2
1239.180993849,1239.181920724,12,1
1239.181920724,1239.181928360,12,2
1239.181056383,1239.181971633,13,1
1239.181971633,1239.181978396,13,2
1239.181110670,1239.182023163,14,1
1239.182023163,1239.182030770,14,2
1239.181168204,1239.182077951,15,1
1239.182077951,1239.182084597,15,2
1239.182146575,1239.182158759,55,1
1239.182213263,1239.182227095,48,1
1239.182285486,1239.182294373,49,1
1239.182342563,1239.182355211,50,1
1239.182408581,1239.182416371,51,1
1239.182467540,1239.182480682,52,1
1239.182535621,1239.182544022,53,1
1239.182591615,1239.182599038,54,1
1239.182653372,1239.182660096,55,1
1239.182720111,1239.182726449,48,1
1239.182775818,1239.182782819,49,1
1239.182831578,1239.182837540,50,1
1239.182891018,1239.182898396,51,1
1239.182948959,1239.182956099,52,1
1239.183010819,1239.183019975,53,1
1239.183073779,1239.183080247,54,1
1239.183080247,1239.183546645,48,1
1239.183546645,1239.183553971,48,2
1239.181671229,1239.183604354,24,1
1239.183604354,1239.183618118,24,2
1239.181721190,1239.183665268,25,1
1239.183665268,1239.183674806,25,2
1239.181772464,1239.183726840,26,1
1239.183726840,1239.183740056,26,2
1239.181822454,1239.183785983,27,1
1239.183785983,1239.183793797,27,2
1239.181875527,1239.183845472,28,1
1239.183845472,1239.183859715,28,2
1239.181928360,1239.183903763,29,1
1239.183903763,1239.183911337,29,2
1239.181978396,1239.183966766,30,1
1239.183966766,1239.183981236,30,2
1239.182030770,1239.184025902,31,1
1239.184025902,1239.184033233,31,2
1239.179664631,1239.184033233,0,1
1239.184033233,1239.184078715,0,2
1239.184033233,1239.184078715,31,1
1239.180350979,1239.359388977,1,1
1239.181822454,1239.359388977,10,1
1239.180540735,1239.359421731,4,1
1239.181928360,1239.359421731,12,1
1239.359421731,1239.359455160,12,2
1239.181978396,1239.359455160,13,1
1239.359455160,1239.359462132,13,2
1239.182030770,1239.359462132,14,1
1239.359462132,1239.359470775,14,2
1239.182084597,1239.359470775,15,1
1239.359470775,1239.359473961,15,2
1239.181772464,1239.359473961,9,1
1239.359388977,1239.359879025,10,2
1239.359455160,1239.359879025,12,1
1239.359879025,1239.359902111,12,2
1239.359462132,1239.359902111,13,1
1239.359902111,1239.359922151,13,2
1239.359470775,1239.359922151,14,1
1239.359922151,1239.359938167,14,2
1239.181721190,1239.359938167,8,1
1239.359473961,1239.362833920,9,2
1239.359938167,1239.362833920,14,1
1239.362833920,1239.362846699,14,2
1239.359473961,1239.362846699,15,1
1239.362846699,1239.362858818,15,2
1239.359938167,1239.362858818,8,2
1239.362858818,1239.362869840,8,3
1239.362833920,1239.362869840,9,1
1239.362869840,1239.371591713,8,2
1239.184078715,1239.371591713,0,1
1239.362869840,1239.371614279,9,2
1239.182660096,1239.371614279,41,1
1239.371591713,1239.379248134,0,2
1239.371614279,1239.386269657,41,2
1239.359922151,1239.386269657,13,1
1239.386269657,1239.445127270,13,2
1239.362858818,1239.445127270,15,1
1239.445127270,1239.447798451,15,2
1239.371591713,1239.447798451,8,1
1239.447798451,1239.462229519,8,2
1239.371614279,1239.462229519,9,1
1239.462229519,1239.462264314,9,2
1239.359879025,1239.462264314,10,1
1239.462264314,1239.481333725,10,2
1239.181875527,1239.481333725,11,1
1239.481333725,1239.498705292,11,2
1239.462229519,1239.498705292,8,1
1239.498705292,1239.499541592,8,2
1239.462264314,1239.499541592,9,1
1239.499541592,1239.499577439,9,2
1239.481333725,1239.499577439,10,1
1239.499577439,1239.512340531,10,2
1239.498705292,1239.512340531,11,1
1239.512340531,1239.524496987,11,2
1239.183491132,1239.524496987,55,1
1239.524496987,1239.527357547,55,2
1239.183186365,1239.527357547,50,1
1239.527357547,1239.531563024,50,2
1239.183266397,1239.531563024,51,1
1239.531563024,1239.535178204,51,2
1239.183433484,1239.535178204,54,1
1239.386269657,1239.547278665,41,1
1239.183019975,1239.547278665,47,1
1239.535178204,1239.548122645,54,2
1239.180426141,1239.548122645,2,1
1239.547278665,1239.548145653,47,2
1239.531563024,1239.548145653,50,1
1239.548145653,1239.549008219,50,2
1239.183321858,1239.549008219,52,1
1239.549008219,1239.549975108,52,2
1239.183981236,1239.549975108,63,1
1239.549975108,1239.566812379,63,2
1239.183553971,1239.566812379,56,1
1239.548122645,1239.566824663,2,2
1239.180487668,1239.566824663,3,1
1239.566812379,1239.567766688,56,2
1239.183740056,1239.567766688,59,1
1239.567766688,1239.569807607,59,2
1239.183674806,1239.569807607,25,1
1239.566824663,1239.574676520,3,2
1239.379248134,1239.574676520,4,1
1239.569807607,1239.578377502,25,2
1239.183740056,1239.578377502,26,1
1239.574676520,1239.589885718,4,2
1239.180602050,1239.589885718,5,1
1239.578377502,1239.590689777,26,2
1239.183859715,1239.590689777,28,1
1239.589885718,1239.593541196,5,2
1239.180658708,1239.593541196,6,1
1239.590689777,1239.593552371,28,2
1239.183911337,1239.593552371,29,1
1239.593541196,1239.593566854,6,2
1239.593552371,1239.595338884,29,2
1239.593566854,1239.595338884,1,1
1239.595338884,1239.601218003,1,2
1239.182355211,1239.601218003,36,1
1239.601218003,1239.607476883,36,2
1239.182227095,1239.607476883,34,1
1239.607476883,1239.613866771,34,2
1239.182544022,1239.613866771,39,1
1239.613866771,1239.642300800,39,2
1239.182158759,1239.642300800,33,1
1239.642300800,1239.642310113,33,2
1239.613866771,1239.642310113,34,1
1239.642310113,1239.642340978,34,2
1239.182294373,1239.642340978,35,1
1239.642340978,1239.667142574,35,2
1239.607476883,1239.667142574,36,1
1239.667142574,1239.667148130,36,2
1239.182084597,1239.667148130,32,1
1239.667148130,1239.667165682,32,2
1239.667142574,1239.667165682,35,1
1239.667165682,1239.669524782,35,2
1239.642340978,1239.669524782,34,1
1239.669524782,1239.674295077,34,2
1239.667148130,1239.674295077,36,1
1239.674295077,1239.674307115,36,2
1239.182416371,1239.674307115,37,1
1239.674307115,1239.697101347,37,2
1239.642300800,1239.697101347,39,1
1239.697101347,1239.714109606,39,2
1239.674295077,1239.714109606,34,1
1239.714109606,1239.716019469,34,2
1239.674307115,1239.716019469,36,1
1239.716019469,1239.746941343,36,2
1239.566824663,1239.746941343,2,1
1239.746941343,1239.781884431,2,2
1239.589885718,1239.781884431,4,1
1239.781884431,1239.810839061,4,2
1239.593541196,1239.810839061,5,1
1239.810839061,1239.810855286,5,2
1239.593566854,1239.810855286,6,1
1239.810855286,1239.835048195,6,2
1239.180714029,1239.835048195,7,1
1239.835048195,1239.857971201,7,2
1239.379248134,1239.857971201,0,1
1239.857971201,1239.863156021,0,2
1239.601218003,1239.863156021,1,1
1239.863156021,1239.866952732,1,2
1239.781884431,1239.866952732,2,1
1239.866952732,1239.871793620,2,2
1239.574676520,1239.871793620,3,1
1239.871793620,1239.875964670,3,2
1239.810839061,1239.875964670,4,1
1239.875964670,1239.876574079,4,2
1239.810855286,1239.876574079,5,1
1239.876574079,1239.879299787,5,2
1239.835048195,1239.879299787,6,1
1239.879299787,1239.879317177,6,2
1239.857971201,1239.879317177,7,1
1239.879317177,1239.883899840,7,2
1239.866952732,1239.883899840,1,1
1239.883899840,1239.957182514,1,2
1239.362846699,1239.957182514,14,1
1239.957182514,1239.959696023,14,2
1239.447798451,1239.959696023,15,1
1239.959696023,1239.969513918,15,2
1239.959696023,1239.969513918,14,1
1239.969513918,1239.982612717,14,2
1239.969513918,1239.982612717,15,1
1239.982612717,1240.18456393,15,2
1239.499541592,1240.18456393,8,1
1240.18456393,1240.23615197,8,2
1239.499577439,1240.23615197,9,1
1240.23615197,1240.39018613,9,2
1239.512340531,1240.39018613,10,1
1240.39018613,1240.59050845,10,2
1239.524496987,1240.59050845,11,1
1240.59050845,1240.80141623,11,2
1239.359902111,1240.80141623,12,1
1240.80141623,1240.86461527,12,2
1239.445127270,1240.86461527,13,1
1240.86461527,1240.88549560,13,2
1239.982612717,1240.88549560,14,1
1240.88549560,1240.96969622,14,2
1240.23615197,1240.96969622,8,1
1240.96969622,1240.121253563,8,2
1240.39018613,1240.121253563,9,1
1240.121253563,1240.121291050,9,2
1239.549975108,1240.121291050,52,1
1240.121291050,1240.129360223,52,2
1239.527357547,1240.129360223,55,1
1240.129360223,1240.148627915,55,2
1239.182599038,1240.148627915,40,1
1240.148627915,1240.176034573,40,2
1239.548145653,1240.176034573,47,1
1240.176034573,1240.179718246,47,2
1239.182956099,1240.179718246,46,1
1240.179718246,1240.193288275,46,2
1239.182898396,1240.193288275,45,1
1240.193288275,1240.193802514,45,2
1240.176034573,1240.193802514,40,1
1240.193802514,1240.202944387,40,2
1239.183130144,1242.969962915,49,1
1239.184078715,1242.969962915,31,2
1242.969962915,1242.980620855,31,3
1239.590689777,1242.980620855,26,1
1242.980620855,1242.983347243,26,2
1239.593552371,1242.983347243,28,1
1242.983347243,1242.986351418,28,2
1239.595338884,1242.986351418,29,1
1242.986351418,1242.986367130,29,2
1239.183981236,1242.986367130,30,1
1242.986367130,1242.987779458,30,2
1239.183618118,1242.987779458,24,1
1242.987779458,1242.989969860,24,2
1242.980620855,1242.989969860,31,2
1242.989969860,1242.990637748,31,3
1242.986367130,1242.990637748,29,1
1242.990637748,1243.2890078,29,2
1242.987779458,1243.2890078,30,1
1243.2890078,1243.11616621,30,2
1239.578377502,1243.11616621,25,1
1243.11616621,1243.12726030,25,2
1239.183859715,1243.12726030,61,1
1243.12726030,1243.13615699,61,2
1240.179718246,1243.13615699,47,1
1243.13615699,1243.15531699,47,2
1240.202944387,1243.15531699,40,1
1243.15531699,1243.15907208,40,2
1240.202944387,1243.15907208,41,1
1243.15907208,1243.56906883,41,2
1239.182782819,1243.56906883,43,1
1243.56906883,1243.60380017,43,2
1240.193802514,1243.60380017,45,1
1243.60380017,1243.65810493,45,2
1240.96969622,1243.65810493,14,1
1243.65810493,1243.68200961,14,2
1243.15531699,1243.68200961,47,1
1243.68200961,1243.112970654,47,2
1243.56906883,1243.112970654,41,1
1243.112970654,1243.127384230,41,2
1239.569807607,1243.127384230,59,1
1243.127384230,1243.132644799,59,2
1243.11616621,1243.132644799,30,1
1243.132644799,1243.134958906,30,2
1242.990637748,1243.134958906,31,2
1243.134958906,1243.136748022,31,3
1240.18456393,1243.136748022,15,1
1243.136748022,1243.138302243,15,2
1240.121253563,1243.138302243,8,1
1243.138302243,1243.162329175,8,2
1239.957182514,1243.162329175,1,1
1243.162329175,1243.165659763,1,2
1239.548122645,1243.165659763,54,1
1243.165659763,1243.174238278,54,2
1240.148627915,1243.174238278,55,1
1243.174238278,1243.174539202,55,2
1239.183553971,1243.174539202,48,1
1243.174539202,1243.181766736,48,2
1239.549008219,1243.181766736,50,1
1243.181766736,1243.182352879,50,2
1239.183376916,1243.182352879,53,1
1243.182352879,1243.185143017,53,2
1243.174238278,1243.185143017,54,1
1243.185143017,1243.186124702,54,2
1243.174539202,1243.186124702,55,1
1243.186124702,1243.186266384,55,2
1243.182352879,1243.186266384,50,1
1243.186266384,1243.187351990,50,2
1239.871793620,1243.187351990,2,1
1243.187351990,1243.191606976,2,2
1239.876574079,1243.191606976,4,1
1243.191606976,1243.200630253,4,2
1239.879299787,1243.200630253,5,1
1243.200630253,1243.203905206,5,2
1239.746941343,1243.203905206,36,1
1243.203905206,1243.204421420,36,2
1239.182480682,1243.204421420,38,1
1243.204421420,1243.204426906,38,2
1239.714109606,1243.204426906,39,1
1243.204426906,1243.207075710,39,2
1239.183674806,1243.207075710,58,1
1243.207075710,1243.212679271,58,2
1243.132644799,1243.212679271,59,1
1243.212679271,1243.212698795,59,2
1243.13615699,1243.212698795,61,1
1243.212698795,1243.212849686,61,2
1239.183911337,1243.212849686,62,1
1243.212849686,1243.221478506,62,2
1239.566812379,1243.221478506,63,1
1243.221478506,1243.226408699,63,2
1239.567766688,1243.226408699,56,1
1243.226408699,1243.227745090,56,2
1243.165659763,1243.227745090,1,1
1243.227745090,1243.228773237,1,2
1239.875964670,1243.228773237,3,1
1243.228773237,1243.242555482,3,2
1243.200630253,1243.242555482,4,1
1243.242555482,1243.254902832,4,2
1239.879317177,1243.254902832,6,1
1243.254902832,1243.273595348,6,2
1239.883899840,1243.273595348,7,1
1243.273595348,1243.276599384,7,2
1239.863156021,1243.276599384,0,1
1243.276599384,1243.276702981,0,2
1242.986351418,1243.276702981,28,1
1243.276702981,1243.279315634,28,2
1239.181284681,1243.279315634,17,1
1243.279315634,1243.287752595,17,2
1239.181338424,1243.287752595,18,1
1243.287752595,1243.291775053,18,2
1239.181395931,1243.291775053,19,1
1243.291775053,1243.295487350,19,2
1243.136748022,1243.295487350,31,2
1243.295487350,1243.307849453,31,3
1243.12726030,1243.307849453,25,1
1243.307849453,1243.311935149,25,2
1243.68200961,1243.311935149,14,1
1243.311935149,1243.312691090,14,2
1240.88549560,1243.312691090,13,1
1243.312691090,1243.319579383,13,2
1240.59050845,1243.319579383,10,1
1243.319579383,1243.323210508,10,2
1243.312691090,1243.323210508,14,1
1243.323210508,1243.331961450,14,2
1240.129360223,1243.331961450,52,1
1243.331961450,1243.343174441,52,2
1243.181766736,1243.343174441,48,1
1243.343174441,1243.346755970,48,2
1243.112970654,1243.346755970,47,1
1243.346755970,1243.348929496,47,2
1243.15907208,1243.348929496,40,1
1243.348929496,1243.349064821,40,2
1243.323210508,1243.349064821,10,1
1243.349064821,1243.350153701,10,2
1240.80141623,1243.350153701,11,1
1243.350153701,1243.353733109,11,2
1240.193288275,1243.353733109,46,1
1243.353733109,1243.354431022,46,2
1239.181223644,1243.354431022,16,1
1243.354431022,1243.360965595,16,2
1243.221478506,1243.360965595,62,1
1243.360965595,1243.361785589,62,2
1243.226408699,1243.361785589,63,1
1243.361785589,1243.363381773,63,2
1243.227745090,1243.363381773,56,1
1243.363381773,1243.364726300,56,2
1239.183793797,1243.364726300,60,1
1243.364726300,1243.366467395,60,2
1243.212849686,1243.366467395,61,1
1243.366467395,1243.367973732,61,2
1243.361785589,1243.367973732,62,1
1243.367973732,1243.374846993,62,2
1243.363381773,1243.374846993,63,1
1243.374846993,1243.375601607,63,2
1243.346755970,1243.375601607,48,1
1243.375601607,1243.392778933,48,2
1239.182837540,1243.392778933,44,1
1243.392778933,1243.395923538,44,2
1243.348929496,1243.395923538,47,1
1243.395923538,1243.402017434,47,2
1243.127384230,1243.402017434,41,1
1243.402017434,1243.405752758,41,2
1239.182726449,1243.405752758,42,1
1243.405752758,1243.416399658,42,2
1243.60380017,1243.416399658,43,1
1243.416399658,1243.420473737,43,2
1243.395923538,1243.420473737,44,1
1243.420473737,1243.421910490,44,2
1243.353733109,1243.421910490,11,1
1243.421910490,1243.422688973,11,2
1243.392778933,1243.422688973,48,1
1243.422688973,1243.425231366,48,2
1240.86461527,1243.425231366,12,1
1243.425231366,1243.426047173,12,2
1243.402017434,1243.426047173,47,1
1243.426047173,1243.428270196,47,2
1243.187351990,1243.428270196,50,1
1243.428270196,1243.428881020,50,2
1243.374846993,1243.428881020,62,1
1243.428881020,1243.430797819,62,2
1243.364726300,1243.430797819,56,1
1243.430797819,1243.432100549,56,2
1243.186266384,1243.432100549,55,1
1243.432100549,1243.432975985,55,2
1243.276702981,1243.432975985,0,1
1243.432975985,1243.441722314,0,2
1243.185143017,1243.441722314,53,1
1243.441722314,1243.448432442,53,2
1243.311935149,1243.448432442,25,1
1243.448432442,1243.450853400,25,2
1242.983347243,1243.450853400,26,1
1243.450853400,1243.454101049,26,2
1243.291775053,1243.454101049,18,1
1243.454101049,1243.460386042,18,2
1239.181621396,1243.460386042,23,1
1243.460386042,1243.464684278,23,2
1243.360965595,1243.464684278,16,1
1243.464684278,1243.465672936,16,2
1243.287752595,1243.465672936,17,1
1243.367973732,1243.469143720,61,1
1243.421910490,1243.469143720,44,1
1243.465672936,1243.469226753,17,2
1243.460386042,1243.469226753,18,1
1243.469226753,1243.469339792,18,2
1243.295487350,1243.469339792,19,1
1243.469339792,1243.469374183,19,2
1239.181561729,1243.469374183,22,1
1243.469374183,1243.469444887,22,2
1243.464684278,1243.469444887,23,1
1243.469444887,1243.471850314,23,2
1243.273595348,1243.471850314,6,1
1243.469143720,1243.474927401,44,2
1243.65810493,1243.474927401,45,1
1243.474927401,1243.474994650,45,2
1243.428270196,1243.474994650,47,1
1243.471850314,1243.478306901,6,2
1243.422688973,1243.478306901,11,1
1243.474994650,1243.481722150,47,2
1243.405752758,1243.481722150,41,1
1243.478306901,1243.484651329,11,2
1243.426047173,1243.484651329,12,1
1243.484651329,1243.484671952,12,2
1243.138302243,1243.484671952,15,1
1243.481722150,1243.485028838,41,2
1243.349064821,1243.485028838,40,1
1243.485028838,1243.485631507,40,2
1243.279315634,1243.485631507,28,1
1243.484671952,1243.487340245,15,2
1243.162329175,1243.487340245,8,1
1243.487340245,1243.488194422,8,2
1240.121291050,1243.488194422,9,1
1243.488194422,1243.488818531,9,2
1243.474927401,1243.488818531,44,1
1243.485631507,1243.490022704,28,2
1243.2890078,1243.490022704,29,1
1243.488818531,1243.490971344,44,2
1243.228773237,1243.490971344,1,1
1243.490022704,1243.493619315,29,2
1243.350153701,1243.493619315,10,1
1243.493619315,1243.494482165,10,2
1243.254902832,1243.494482165,4,1
1243.490971344,1243.495709520,1,2
1243.469226753,1243.495709520,17,1
1243.495709520,1243.496538994,17,2
1243.469339792,1243.496538994,18,1
1243.494482165,1243.496732985,4,2
1243.191606976,1243.496732985,2,1
1243.496538994,1243.499062908,18,2
1243.469374183,1243.499062908,19,1
1243.499062908,1243.502260430,19,2
1243.276599384,1243.502260430,7,1
1243.496732985,1243.504288234,2,2
1243.441722314,1243.504288234,0,1
1243.504288234,1243.506264177,0,2
1243.495709520,1243.506264177,1,1
1243.506264177,1243.508157241,1,2
1243.504288234,1243.508157241,2,1
1243.502260430,1243.518102995,7,2
1243.496538994,1243.518102995,17,1
1243.518102995,1243.519909566,17,2
1243.502260430,1243.519909566,19,1
1243.508157241,1243.521202272,2,2
1243.242555482,1243.521202272,3,1
1243.521202272,1243.521888903,3,2
1243.496732985,1243.521888903,4,1
1243.521888903,1243.522342153,4,2
1243.203905206,1243.522342153,5,1
1243.519909566,1243.523979966,19,2
1239.181451311,1243.523979966,20,1
1243.523979966,1243.523998884,20,2
1239.181509128,1243.523998884,21,1
1243.522342153,1243.526306970,5,2
1243.518102995,1243.526306970,7,1
1243.526306970,1243.532445143,7,2
1243.522342153,1243.532445143,4,1
1243.532445143,1243.533250513,4,2
1243.204426906,1243.533250513,38,1
1243.533250513,1243.534494084,38,2
1239.667165682,1243.534494084,32,1
1243.534494084,1243.537437154,32,2
1239.642310113,1243.537437154,33,1
1243.537437154,1243.537458114,33,2
1239.716019469,1243.537458114,34,1
1243.537458114,1243.537576836,34,2
1243.204421420,1243.537576836,36,1
1243.537576836,1243.538176337,36,2
1243.506264177,1243.538176337,0,1
1243.538176337,1243.542755948,0,2
1243.526306970,1243.542755948,5,1
1243.523998884,1243.545989625,21,2
1243.448432442,1243.545989625,53,1
1243.545989625,1243.547332665,53,2
1243.425231366,1243.547332665,48,1
1243.547332665,1243.553337364,48,2
1243.542755948,1243.565507266,5,2
1243.521202272,1243.565507266,2,1
1243.565507266,1243.587602335,2,2
1243.533250513,1243.587602335,4,1
1243.587602335,1243.588753239,4,2
1243.565507266,1243.588753239,5,1
1243.588753239,1243.600174787,5,2
1243.478306901,1243.600174787,6,1
1243.600174787,1243.601000411,6,2
1243.319579383,1243.601000411,13,1
1243.601000411,1243.603622267,13,2
1243.454101049,1243.603622267,26,1
1243.603622267,1243.606690616,26,2
1239.183793797,1243.606690616,27,1
1243.606690616,1243.624858654,27,2
1243.490022704,1243.624858654,28,1
1243.624858654,1243.629567791,28,2
1243.493619315,1243.629567791,29,1
1243.629567791,1243.638564273,29,2
1243.134958906,1243.638564273,30,1
1243.638564273,1243.639093208,30,2
1243.307849453,1243.639093208,31,2
1243.639093208,1243.640559443,31,3
1242.989969860,1243.640559443,24,1
1243.640559443,1243.641461816,24,2
1243.450853400,1243.641461816,25,1
1243.641461816,1243.641495807,25,2
1243.606690616,1243.641495807,26,1
1243.641495807,1243.645858207,26,2
1243.469444887,1243.645858207,22,1
1243.645858207,1243.652209404,22,2
1243.641461816,1243.652209404,24,1
1243.652209404,1243.652987261,24,2
1243.641495807,1243.652987261,25,1
1243.652987261,1243.655775573,25,2
1243.545989625,1243.655775573,21,1
1243.655775573,1243.669866538,21,2
1243.652987261,1243.669866538,24,1
1243.669866538,1243.670636003,24,2
1243.655775573,1243.670636003,25,1
1243.670636003,1243.671259109,25,2
1243.629567791,1243.671259109,28,1
1243.671259109,1243.676222863,28,2
1243.638564273,1243.676222863,29,1
1243.676222863,1243.677406770,29,2
1243.640559443,1243.677406770,31,2
1243.677406770,1243.678618959,31,3
1243.484651329,1243.678618959,11,1
1243.678618959,1243.686061257,11,2
1243.484671952,1243.686061257,12,1
1243.686061257,1243.688493308,12,2
1243.603622267,1243.688493308,13,1
1243.688493308,1243.691238891,13,2
1243.487340245,1243.691238891,15,1
1243.691238891,1243.691248772,15,2
1243.488194422,1243.691248772,8,1
1243.691248772,1243.698118844,8,2
1243.488818531,1243.698118844,9,1
1243.698118844,1243.715465601,9,2
1239.535178204,1243.715465601,51,1
1243.715465601,1243.716098547,51,2
1243.481722150,1243.716098547,47,1
1243.716098547,1243.719445578,47,2
1243.485028838,1243.719445578,41,1
1243.719445578,1243.722033870,41,2
1243.416399658,1243.722033870,42,1
1243.722033870,1243.730090455,42,2
1243.420473737,1243.730090455,43,1
1243.730090455,1243.734013828,43,2
1243.494482165,1243.734013828,10,1
1243.734013828,1243.735452686,10,2
1243.691248772,1243.735452686,15,1
1243.735452686,1243.737230072,15,2
1243.331961450,1243.737230072,14,1
1243.737230072,1243.749463303,14,2
1243.715465601,1243.749463303,9,1
1243.749463303,1243.754213295,9,2
1243.553337364,1243.754213295,49,1
1243.754213295,1243.755646873,49,2
1243.537576836,1243.755646873,34,1
1243.755646873,1243.757672533,34,2
1239.669524782,1243.757672533,35,1
1243.757672533,1243.760694356,35,2
1243.676222863,1243.760694356,28,1
1243.760694356,1243.761336762,28,2
1243.670636003,1243.761336762,24,1
1243.761336762,1243.762841051,24,2
1243.671259109,1243.762841051,25,1
1243.762841051,1243.764776829,25,2
1243.645858207,1243.764776829,26,1
1243.764776829,1243.766575115,26,2
1243.624858654,1243.766575115,27,1
1243.766575115,1243.768737870,27,2
1243.761336762,1243.768737870,28,1
1243.768737870,1243.769529943,28,2
1243.677406770,1243.769529943,29,1
1243.769529943,1243.770754719,29,2
1243.691238891,1243.770754719,13,1
1243.770754719,1243.772479231,13,2
1243.749463303,1243.772479231,14,1
1243.772479231,1243.779230260,14,2
1243.485631507,1243.779230260,40,1
1243.779230260,1243.779859670,40,2
1243.212698795,1243.779859670,59,1
1243.779859670,1243.780812844,59,2
1243.366467395,1243.780812844,60,1
1243.780812844,1243.780977762,60,2
1243.779859670,1243.780977762,40,1
1243.780977762,1243.783031784,40,2
1243.669866538,1243.783031784,21,1
1243.783031784,1243.787724674,21,2
1243.587602335,1243.787724674,2,1
1243.787724674,1243.790358793,2,2
1243.521888903,1243.790358793,3,1
1243.790358793,1243.791883789,3,2
1243.523998884,1243.791883789,20,1
1243.791883789,1243.792710060,20,2
1243.519909566,1243.792710060,17,1
1243.792710060,1243.796600056,17,2
1243.523979966,1243.796600056,19,1
1243.796600056,1243.796621178,19,2
1243.792710060,1243.796621178,20,1
1243.796621178,1243.797332463,20,2
1243.588753239,1243.797332463,4,1
1243.797332463,1243.813239579,4,2
1243.600174787,1243.813239579,5,1
1243.813239579,1243.818823300,5,2
1243.601000411,1243.818823300,6,1
1243.818823300,1243.819819105,6,2
1243.532445143,1243.819819105,7,1
1243.819819105,1243.824010048,7,2
1243.542755948,1243.824010048,0,1
1243.824010048,1243.824025476,0,2
1243.508157241,1243.824025476,1,1
1243.824025476,1243.824611446,1,2
1243.790358793,1243.824611446,2,1
1243.824611446,1243.826091885,2,2
1243.791883789,1243.826091885,3,1
1243.826091885,1243.846938183,3,2
1243.813239579,1243.846938183,4,1
1243.846938183,1243.847740913,4,2
1243.490971344,1243.847740913,44,1
1243.847740913,1243.853638299,44,2
1243.730090455,1243.853638299,42,1
1243.853638299,1243.863378849,42,2
1243.734013828,1243.863378849,43,1
1243.863378849,1243.864835812,43,2
1243.783031784,1243.864835812,40,1
1243.864835812,1243.873142386,40,2
1243.853638299,1243.873142386,44,1
1243.873142386,1243.879592721,44,2
1243.698118844,1243.879592721,8,1
1243.879592721,1243.914891244,8,2
1243.754213295,1243.914891244,9,1
1243.914891244,1243.917448485,9,2
1243.735452686,1243.917448485,10,1
1243.917448485,1243.927044985,10,2
1243.762841051,1243.927044985,24,1
1243.927044985,1243.928648234,24,2
1243.770754719,1243.928648234,29,1
1243.928648234,1243.930751656,29,2
1243.779230260,1243.930751656,14,1
1243.930751656,1243.932624487,14,2
1243.737230072,1243.932624487,15,1
1243.932624487,1243.941431155,15,2
1243.686061257,1243.941431155,11,1
1243.941431155,1243.944364097,11,2
1243.772479231,1243.944364097,13,1
1243.944364097,1243.948112362,13,2
1243.818823300,1243.948112362,5,1
1243.948112362,1243.953624906,5,2
1243.819819105,1243.953624906,6,1
1243.953624906,1243.958330761,6,2
1243.787724674,1243.958330761,21,1
1243.958330761,1243.971531436,21,2
1243.499062908,1243.971531436,18,1
1243.971531436,1243.972719004,18,2
1243.796621178,1243.972719004,19,1
1243.972719004,1243.974462734,19,2
1243.797332463,1243.974462734,20,1
1243.974462734,1243.978800079,20,2
1243.971531436,1243.978800079,21,1
1243.978800079,1243.983918702,21,2
1243.547332665,1243.983918702,53,1
1243.983918702,1243.989719937,53,2
1243.186124702,1243.989719937,54,1
1243.989719937,1243.989743342,54,2
1243.432975985,1243.989743342,55,1
1243.989743342,1243.993523067,55,2
1243.847740913,1243.993523067,4,1
1243.993523067,1244.1482892,4,2
1243.953624906,1244.1482892,5,1
1244.1482892,1244.3691367,5,2
1243.989743342,1244.3691367,54,1
1244.3691367,1244.5180298,54,2
1243.755646873,1244.5180298,49,1
1244.5180298,1244.13581063,49,2
1243.757672533,1244.13581063,34,1
1244.13581063,1244.21177306,34,2
1243.760694356,1244.21177306,35,1
1244.21177306,1244.25849587,35,2
1243.863378849,1244.25849587,42,1
1244.25849587,1244.28183610,42,2
1243.864835812,1244.28183610,43,1
1244.28183610,1244.28205688,43,2
1243.879592721,1244.28205688,44,1
1244.28205688,1244.41182776,44,2
1243.944364097,1244.41182776,11,1
1244.41182776,1244.42309874,11,2
1243.824025476,1244.42309874,0,1
1244.42309874,1244.44321152,0,2
1243.824611446,1244.44321152,1,1
1244.44321152,1244.53437912,1,2
1243.428881020,1244.53437912,50,1
1244.53437912,1244.54128489,50,2
1243.716098547,1244.54128489,51,1
1244.54128489,1244.56278572,51,2
1244.13581063,1244.56278572,49,1
1244.56278572,1244.57083545,49,2
1243.824010048,1244.57083545,7,1
1244.57083545,1244.61424152,7,2
1244.44321152,1244.61424152,0,1
1244.61424152,1244.67828052,0,2
1244.1482892,1244.67828052,4,1
1244.67828052,1244.70013898,4,2
1244.3691367,1244.70013898,5,1
1244.70013898,1244.75358942,5,2
1243.465672936,1244.75358942,16,1
1244.75358942,1244.76431294,16,2
1243.796600056,1244.76431294,17,1
1244.76431294,1244.83072396,17,2
1243.972719004,1244.83072396,18,1
1244.83072396,1244.90723943,18,2
1243.974462734,1244.90723943,19,1
1244.90723943,1244.107387333,19,2
1243.764776829,1244.107387333,25,1
1244.107387333,1244.108013783,25,2
1243.930751656,1244.108013783,29,1
1244.108013783,1244.108583808,29,2
1243.766575115,1244.108583808,26,1
1244.108583808,1244.112201884,26,2
1244.108583808,1244.112201884,29,1
1244.112201884,1244.117001696,29,2
1244.107387333,1244.117001696,19,1
1244.117001696,1244.120539353,19,2
1243.639093208,1244.120539353,30,1
1244.120539353,1244.129504076,30,2
1243.678618959,1244.129504076,31,2
1244.129504076,1244.130365301,31,3
1243.928648234,1244.130365301,24,1
1244.130365301,1244.136263044,24,2
1244.117001696,1244.136263044,29,1
1244.136263044,1244.138921975,29,2
1244.129504076,1244.138921975,30,1
1244.138921975,1244.139008970,30,2
1244.136263044,1244.139008970,24,1
1244.139008970,1244.146690621,24,2
1243.430797819,1244.146690621,62,1
1244.146690621,1244.152173114,62,2
1244.138921975,1244.152173114,29,1
1244.152173114,1244.158370351,29,2
1244.61424152,1244.158370351,7,1
1244.158370351,1244.159140063,7,2
1244.70013898,1244.159140063,4,1
1244.159140063,1244.163086920,4,2
1243.537437154,1244.163086920,32,1
1244.163086920,1244.164164586,32,2
1243.212679271,1244.164164586,58,1
1244.164164586,1244.179342635,58,2
1243.780812844,1244.179342635,59,1
1244.179342635,1244.182640723,59,2
1243.780977762,1244.182640723,60,1
1244.182640723,1244.182804258,60,2
1243.932624487,1244.759572762,14,1
1243.941431155,1244.759572762,15,1
1244.759572762,1244.775588788,15,2
1243.826091885,1244.775588788,2,1
1244.775588788,1244.777448316,2,2
1243.432100549,1244.777448316,56,1
1244.777448316,1244.783807273,56,2
1239.183618118,1244.783807273,57,1
1244.783807273,1244.787932172,57,2
1244.152173114,1244.787932172,62,1
1244.787932172,1244.792928797,62,2
1244.182640723,1244.792928797,59,1
1244.792928797,1244.794588742,59,2
1244.182804258,1244.794588742,61,1
1244.794588742,1244.797073933,61,2
1244.792928797,1244.797073933,62,1
1244.797073933,1244.805551502,62,2
1243.375601607,1244.805551502,63,1
1244.805551502,1244.824548744,63,2
1244.783807273,1244.824548744,56,1
1244.824548744,1244.833789956,56,2
1244.787932172,1244.833789956,57,1
1244.833789956,1244.848575121,57,2
1244.179342635,1244.848575121,58,1
1244.848575121,1244.849598987,58,2
1244.797073933,1244.849598987,61,1
1244.849598987,1244.850808604,61,2
1244.805551502,1244.850808604,62,1
1244.850808604,1244.854389549,62,2
1244.824548744,1244.854389549,63,1
1244.854389549,1244.861101482,63,2
1244.833789956,1244.861101482,56,1
1244.861101482,1244.862853294,56,2
1244.163086920,1244.862853294,4,1
1244.862853294,1244.864936841,4,2
1244.75358942,1244.864936841,5,1
1244.864936841,1244.885753033,5,2
1244.53437912,1244.885753033,1,1
1244.885753033,1244.894508806,1,2
1244.777448316,1244.894508806,2,1
1244.894508806,1244.901447441,2,2
1244.864936841,1244.901447441,4,1
1244.901447441,1244.903775535,4,2
1243.688493308,1244.903775535,12,1
1244.903775535,1244.909924947,12,2
1244.42309874,1244.909924947,11,1
1244.909924947,1244.915415947,11,2
1244.909924947,1244.915415947,12,1
1244.915415947,1244.915630477,12,2
1243.948112362,1244.915630477,13,1
1244.915630477,1244.917056966,13,2
1244.885753033,1251.731979297,5,1
1243.958330761,1251.731979297,6,1
1251.731979297,1251.737408065,6,2
1244.159140063,1251.737408065,7,1
1251.737408065,1251.737417621,7,2
1244.67828052,1251.737417621,0,1
1251.737417621,1251.738896649,0,2
1251.737417621,1251.738896649,7,1
1251.738896649,1251.739496147,7,2
1251.738896649,1251.739496147,0,1
1251.739496147,1251.739510855,0,2
1244.901447441,1251.739510855,2,1
1251.739510855,1251.739718206,2,2
1243.983918702,1251.739718206,21,1
1251.739718206,1251.750591215,21,2
1243.652209404,1251.750591215,22,1
1251.750591215,1251.764643557,22,2
1243.471850314,1251.764643557,23,1
1251.764643557,1251.771571272,23,2
1244.76431294,1251.771571272,16,1
1251.771571272,1251.773865941,16,2
1244.83072396,1251.773865941,17,1
1251.773865941,1251.774510253,17,2
1244.90723943,1251.774510253,18,1
1251.774510253,1251.774794772,18,2
1251.764643557,1251.774794772,22,1
1251.774794772,1251.775842858,22,2
1243.537458114,1251.775842858,33,1
1251.775842858,1251.780291403,33,2
1244.164164586,1251.780291403,32,1
1251.780291403,1251.788737925,32,2
1244.5180298,1251.788737925,54,1
1251.788737925,1251.791659247,54,2
1243.993523067,1251.791659247,55,1
1251.791659247,1251.793388120,55,2
1243.553337364,1251.793388120,48,1
1251.793388120,1251.794357574,48,2
1244.57083545,1251.794357574,49,1
1243.769529943,1251.800432842,28,1
1244.158370351,1251.800432842,29,1
1251.800432842,1251.804127972,29,2
1244.139008970,1251.804127972,30,1
1251.794357574,1251.804476693,49,2
1244.56278572,1251.804476693,51,1
1251.804127972,1251.804630883,30,2
1244.108013783,1251.804630883,25,1
1251.804630883,1251.807961603,25,2
1244.112201884,1251.807961603,26,1
1251.807961603,1251.808150778,26,2
1251.804476693,1251.808200379,51,2
1243.343174441,1251.808200379,52,1
1251.808200379,1251.812096610,52,2
1244.54128489,1251.812096610,50,1
1251.812096610,1251.816488542,50,2
1243.917448485,1251.816488542,9,1
1251.816488542,1251.819198781,9,2
1244.130365301,1251.819198781,31,2
1251.819198781,1251.820466236,31,3
1244.146690621,1251.820466236,24,1
1251.820466236,1251.823746224,24,2
1251.808150778,1251.823746224,26,1
1251.823746224,1251.825569920,26,2
1251.780291403,1251.825569920,33,1
1251.825569920,1251.826944617,33,2
1243.538176337,1251.826944617,36,1
1251.826944617,1251.832544468,36,2
1251.825569920,1251.832544468,26,1
1251.832544468,1251.835977135,26,2
1243.873142386,1251.835977135,40,1
1251.835977135,1251.836631211,40,2
1244.28183610,1251.836631211,42,1
1251.836631211,1251.842119391,42,2
1251.791659247,1251.842119391,54,1
1251.842119391,1251.843223670,54,2
1244.28205688,1251.843223670,43,1
1251.843223670,1251.843853897,43,2
1244.917056966,1251.843853897,14,1
1251.843853897,1251.849951145,14,2
1251.804127972,1251.849951145,29,1
1251.849951145,1251.853594409,29,2
1251.804630883,1251.853594409,30,1
1251.853594409,1251.854037654,30,2
1251.774510253,1251.854037654,17,1
1251.854037654,1251.855544509,17,2
1251.775842858,1251.855544509,22,1
1251.855544509,1251.856895596,22,2
1251.771571272,1251.856895596,23,1
1251.856895596,1251.857003819,23,2
1251.773865941,1251.857003819,16,1
1251.857003819,1251.860885642,16,2
1251.857003819,1251.860885642,23,1
1251.860885642,1251.869170326,23,2
1251.860885642,1251.869170326,16,1
1251.869170326,1251.876198689,16,2
1251.750591215,1251.876198689,21,1
1251.876198689,1251.876887411,21,2
1244.903775535,1251.876887411,4,1
1251.876887411,1251.881663209,4,2
1243.722033870,1252.295983921,41,1
1251.842119391,1252.295983921,42,1
1252.295983921,1252.304239263,42,2
1243.354431022,1252.304239263,46,1
1252.304239263,1252.306546952,46,2
1251.836631211,1252.306546952,40,1
1252.306546952,1252.310138633,40,2
1251.853594409,1254.768230059,29,1
1251.854037654,1254.768230059,30,1
1254.768230059,1254.788656977,30,2
1251.774794772,1254.788656977,18,1
1254.788656977,1254.791648225,18,2
1244.120539353,1254.791648225,19,1
1254.791648225,1254.797935947,19,2
1251.869170326,1254.797935947,23,1
1254.797935947,1254.808723592,23,2
1254.791648225,1254.808723592,18,1
1254.808723592,1254.814223371,18,2
1251.856895596,1254.814223371,22,1
1254.814223371,1254.814255738,22,2
1254.797935947,1254.814255738,19,1
1254.814255738,1254.814272750,19,2
1251.876887411,1254.814272750,21,1
1254.814272750,1254.814295393,21,2
1251.876198689,1254.814295393,16,1
1254.814295393,1254.814950469,16,2
1251.855544509,1254.814950469,17,1
1254.814950469,1254.816780445,17,2
1254.814223371,1254.816780445,18,1
1254.816780445,1254.817227365,18,2
1251.808150778,1254.817227365,28,1
1254.817227365,1254.826456917,28,2
1251.819198781,1254.826456917,9,1
1254.826456917,1254.836121480,9,2
1252.310138633,1254.836121480,40,1
1254.836121480,1254.836902927,40,2
1252.310138633,1254.836902927,41,1
1254.836902927,1254.836948940,41,2
1254.836902927,1254.836948940,40,1
1254.836948940,1255.194025554,40,2
1244.854389549,1255.194025554,62,1
1255.194025554,1255.194048829,62,2
1244.850808604,1255.194048829,61,1
1255.194048829,1255.194403484,61,2
1251.826944617,1255.194403484,33,1
1255.194403484,1255.194599224,33,2
1251.843853897,1255.194599224,43,1
1255.194599224,1255.194910536,43,2
1244.25849587,1255.194910536,35,1
1255.194910536,1255.195024551,35,2
1252.306546952,1255.195024551,46,1
1254.814255738,1255.314006402,22,1
1243.534494084,1255.314016542,38,1
1251.849951145,1255.314019282,14,1
1251.739718206,1255.314021122,2,1
1255.195024551,1255.314306541,46,2
1244.41182776,1255.314306541,44,1
1251.820466236,1255.314328393,31,2
1243.978800079,1255.314328393,20,1
1243.846938183,1255.319771598,3,1
1244.848575121,1255.319829774,57,1
1251.788737925,1255.596302045,32,1
1251.739496147,1255.596302045,7,1
1251.737408065,1255.596308330,6,1
1255.596302045,1255.596373107,7,2
1244.775588788,1255.596411265,15,1
1254.814295393,1255.596411265,21,1
1255.596411265,1255.596422282,21,2
1255.596422282,1255.596498054,21,1
1255.596373107,1255.596871709,7,1
1251.812096610,1255.596879219,52,1
1244.794588742,1255.596882572,59,1
1251.816488542,1255.596883171,50,1
1254.816780445,1255.596886078,17,1
1254.808723592,1255.596886401,23,1
1243.474994650,1255.596888001,45,1
1251.739510855,1255.596892960,0,1
1251.804476693,1255.596894258,49,1
1251.881663209,1255.596894270,4,1
1254.814950469,1255.596900263,16,1
1244.182804258,1255.596902786,60,1
1255.314328393,1255.596909071,31,1
1255.194910536,1255.596910004,43,1
1252.304239263,1255.596910037,42,1
1254.836121480,1255.596910954,9,1
1244.21177306,1255.596913230,34,1
1255.195024551,1255.596913813,35,1
1251.807961603,1255.596923425,25,1
1255.194599224,1255.596924476,33,1
1251.881663209,1255.596924978,5,1
1251.843223670,1255.596926573,54,1
1254.817227365,1255.596927238,18,1
1243.207075710,1255.596927685,39,1
1254.814272750,1255.596928342,19,1
1255.194403484,1255.596930327,61,1
1244.915415947,1255.596930539,11,1
1244.917056966,1255.596930972,13,1
1243.914891244,1255.596932108,8,1
1255.194025554,1255.596932648,40,1
1239.697101347,1255.596934789,37,1
1251.832544468,1255.596935234,36,1
1251.793388120,1255.596935369,55,1
1243.768737870,1255.596936818,27,1
1255.314306541,1255.596942414,44,2
1244.894508806,1255.596945583,1,1
1251.794357574,1255.596949093,48,1
1244.915630477,1255.596949253,12,1
1251.808200379,1255.596949838,51,1
1243.719445578,1255.596953196,47,1
1255.314306541,1255.596953221,46,1
1243.989719937,1255.596953441,53,1
1244.849598987,1255.596953574,58,1
1254.836948940,1255.596954013,41,1
1255.314328393,1255.596955113,20,2
1244.862853294,1255.596957538,56,1
1243.927044985,1255.596957544,10,1
1251.823746224,1255.596958243,24,1
1255.194048829,1255.596958911,62,1
1244.861101482,1255.596958977,63,1
1254.788656977,1255.596959269,30,1
1251.835977135,1255.596959303,26,1
1254.826456917,1255.597079163,28,1
1255.596942414,1255.597207993,44,1
1255.596955113,1255.610977137,20,1
