Time,Comm,Pid,Orig,Dest,Trigger
1316.528960467,perf,8611,49,57,ELB
1316.529981169,time,8612,57,11,FLB
1316.530122903,time,8612,11,25,ELB
1316.531805933,word_count-pthr,8612,25,44,ELB
1316.531805933,word_count-pthr,8612,25,44,ELB
1316.533519501,word_count-pthr,8612,44,0,CA
1316.533519501,word_count-pthr,8612,44,0,CA
1316.533842539,word_count-pthr,8613,0,58,FLB
1316.533842539,word_count-pthr,8613,0,58,FLB
1316.533881653,word_count-pthr,8613,58,1,CA
1316.533881653,word_count-pthr,8613,58,1,CA
1316.533890131,word_count-pthr,8612,0,59,WAFF
1316.533890131,word_count-pthr,8612,0,59,WAFF
1316.534033756,word_count-pthr,8614,59,12,FLB
1316.534033756,word_count-pthr,8614,59,12,FLB
1316.534051931,word_count-pthr,8614,12,2,CA
1316.534051931,word_count-pthr,8614,12,2,CA
1316.534151205,word_count-pthr,8615,59,26,FLB
1316.534151205,word_count-pthr,8615,59,26,FLB
1316.534165034,word_count-pthr,8615,26,3,CA
1316.534165034,word_count-pthr,8615,26,3,CA
1316.534270993,word_count-pthr,8616,59,27,FLB
1316.534270993,word_count-pthr,8616,59,27,FLB
1316.534280524,word_count-pthr,8616,27,4,CA
1316.534280524,word_count-pthr,8616,27,4,CA
1316.534378940,word_count-pthr,8617,59,28,FLB
1316.534378940,word_count-pthr,8617,59,28,FLB
1316.534393674,word_count-pthr,8617,28,5,CA
1316.534393674,word_count-pthr,8617,28,5,CA
1316.534476580,word_count-pthr,8618,59,29,FLB
1316.534476580,word_count-pthr,8618,59,29,FLB
1316.534503883,word_count-pthr,8618,29,6,CA
1316.534503883,word_count-pthr,8618,29,6,CA
1316.534516527,word_count-pthr,8612,59,29,WAFF
1316.534516527,word_count-pthr,8612,59,29,WAFF
1316.534717535,word_count-pthr,8619,29,45,FLB
1316.534717535,word_count-pthr,8619,29,45,FLB
1316.534733920,word_count-pthr,8619,45,7,CA
1316.534733920,word_count-pthr,8619,45,7,CA
1316.534840539,word_count-pthr,8620,29,50,FLB
1316.534840539,word_count-pthr,8620,29,50,FLB
1316.534857483,word_count-pthr,8620,50,8,CA
1316.534857483,word_count-pthr,8620,50,8,CA
1316.534974683,word_count-pthr,8621,29,46,FLB
1316.534974683,word_count-pthr,8621,29,46,FLB
1316.534989062,word_count-pthr,8621,46,9,CA
1316.534989062,word_count-pthr,8621,46,9,CA
1316.535116711,word_count-pthr,8622,29,51,FLB
1316.535116711,word_count-pthr,8622,29,51,FLB
1316.535124743,word_count-pthr,8622,51,10,CA
1316.535124743,word_count-pthr,8622,51,10,CA
1316.535229570,word_count-pthr,8623,29,47,FLB
1316.535229570,word_count-pthr,8623,29,47,FLB
1316.535238001,word_count-pthr,8623,47,11,CA
1316.535238001,word_count-pthr,8623,47,11,CA
1316.535341938,word_count-pthr,8624,29,52,FLB
1316.535341938,word_count-pthr,8624,29,52,FLB
1316.535355404,word_count-pthr,8624,52,12,CA
1316.535355404,word_count-pthr,8624,52,12,CA
1316.535465421,word_count-pthr,8625,29,40,FLB
1316.535465421,word_count-pthr,8625,29,40,FLB
1316.535480904,word_count-pthr,8625,40,13,CA
1316.535480904,word_count-pthr,8625,40,13,CA
1316.535586931,word_count-pthr,8626,29,53,FLB
1316.535586931,word_count-pthr,8626,29,53,FLB
1316.535595211,word_count-pthr,8626,53,14,CA
1316.535595211,word_count-pthr,8626,53,14,CA
1316.535696616,word_count-pthr,8627,29,41,FLB
1316.535696616,word_count-pthr,8627,29,41,FLB
1316.535719557,rcu_sched,8,24,25,WAFF
1316.535737066,word_count-pthr,8627,41,15,CA
1316.535737066,word_count-pthr,8627,41,15,CA
1316.535744559,word_count-pthr,8612,29,41,WAFF
1316.535744559,word_count-pthr,8612,29,41,WAFF
1316.535870028,word_count-pthr,8628,41,54,FLB
1316.535870028,word_count-pthr,8628,41,54,FLB
1316.535888110,word_count-pthr,8628,54,16,CA
1316.535888110,word_count-pthr,8628,54,16,CA
1316.536010849,word_count-pthr,8629,41,55,FLB
1316.536010849,word_count-pthr,8629,41,55,FLB
1316.536038059,word_count-pthr,8629,55,17,CA
1316.536038059,word_count-pthr,8629,55,17,CA
1316.536045715,word_count-pthr,8612,41,48,WAFF
1316.536045715,word_count-pthr,8612,41,48,WAFF
1316.536234006,word_count-pthr,8630,48,26,FLB
1316.536234006,word_count-pthr,8630,48,26,FLB
1316.536269922,word_count-pthr,8630,26,18,CA
1316.536269922,word_count-pthr,8630,26,18,CA
1316.536283674,word_count-pthr,8612,48,26,WAFF
1316.536283674,word_count-pthr,8612,48,26,WAFF
1316.536491383,word_count-pthr,8631,26,32,FLB
1316.536491383,word_count-pthr,8631,26,32,FLB
1316.536507890,word_count-pthr,8631,32,19,CA
1316.536507890,word_count-pthr,8631,32,19,CA
1316.536603436,word_count-pthr,8632,26,50,FLB
1316.536603436,word_count-pthr,8632,26,50,FLB
1316.536617280,word_count-pthr,8632,50,20,CA
1316.536617280,word_count-pthr,8632,50,20,CA
1316.536782705,word_count-pthr,8633,26,33,FLB
1316.536782705,word_count-pthr,8633,26,33,FLB
1316.536813105,word_count-pthr,8633,33,21,CA
1316.536813105,word_count-pthr,8633,33,21,CA
1316.536823485,word_count-pthr,8612,26,34,WAFF
1316.536823485,word_count-pthr,8612,26,34,WAFF
1316.537041899,word_count-pthr,8634,34,51,FLB
1316.537041899,word_count-pthr,8634,34,51,FLB
1316.537054032,word_count-pthr,8634,51,22,CA
1316.537054032,word_count-pthr,8634,51,22,CA
1316.537214636,word_count-pthr,8635,34,52,FLB
1316.537214636,word_count-pthr,8635,34,52,FLB
1316.537230030,word_count-pthr,8635,52,23,CA
1316.537230030,word_count-pthr,8635,52,23,CA
1316.537386131,word_count-pthr,8636,34,53,FLB
1316.537386131,word_count-pthr,8636,34,53,FLB
1316.537415563,word_count-pthr,8636,53,24,CA
1316.537415563,word_count-pthr,8636,53,24,CA
1316.537431215,word_count-pthr,8612,34,54,WAFF
1316.537431215,word_count-pthr,8612,34,54,WAFF
1316.537576671,word_count-pthr,8637,54,35,FLB
1316.537576671,word_count-pthr,8637,54,35,FLB
1316.537587467,word_count-pthr,8637,35,25,CA
1316.537587467,word_count-pthr,8637,35,25,CA
1316.537728421,word_count-pthr,8638,54,36,FLB
1316.537728421,word_count-pthr,8638,54,36,FLB
1316.537741981,word_count-pthr,8638,36,26,CA
1316.537741981,word_count-pthr,8638,36,26,CA
1316.537894391,word_count-pthr,8639,54,37,FLB
1316.537894391,word_count-pthr,8639,54,37,FLB
1316.537923887,word_count-pthr,8639,37,27,CA
1316.537923887,word_count-pthr,8639,37,27,CA
1316.537933581,word_count-pthr,8612,54,38,WAFF
1316.537933581,word_count-pthr,8612,54,38,WAFF
1316.538141665,word_count-pthr,8640,38,55,FLB
1316.538141665,word_count-pthr,8640,38,55,FLB
1316.538165421,word_count-pthr,8640,55,28,CA
1316.538165421,word_count-pthr,8640,55,28,CA
1316.538375190,word_count-pthr,8641,38,60,FLB
1316.538375190,word_count-pthr,8641,38,60,FLB
1316.538389800,word_count-pthr,8641,60,29,CA
1316.538389800,word_count-pthr,8641,60,29,CA
1316.538501371,word_count-pthr,8642,38,61,FLB
1316.538501371,word_count-pthr,8642,38,61,FLB
1316.538509348,word_count-pthr,8642,61,30,CA
1316.538509348,word_count-pthr,8642,61,30,CA
1316.538677391,word_count-pthr,8643,38,62,FLB
1316.538677391,word_count-pthr,8643,38,62,FLB
1316.538694054,word_count-pthr,8643,62,31,CA
1316.538694054,word_count-pthr,8643,62,31,CA
1316.538826481,word_count-pthr,8644,38,63,FLB
1316.538826481,word_count-pthr,8644,38,63,FLB
1316.538834905,word_count-pthr,8644,63,32,CA
1316.538834905,word_count-pthr,8644,63,32,CA
1316.539011701,word_count-pthr,8645,38,56,FLB
1316.539011701,word_count-pthr,8645,38,56,FLB
1316.539027965,word_count-pthr,8645,56,33,CA
1316.539027965,word_count-pthr,8645,56,33,CA
1316.539175877,word_count-pthr,8646,38,57,FLB
1316.539175877,word_count-pthr,8646,38,57,FLB
1316.539200862,word_count-pthr,8646,57,34,CA
1316.539200862,word_count-pthr,8646,57,34,CA
1316.539213645,word_count-pthr,8612,38,58,WAFF
1316.539213645,word_count-pthr,8612,38,58,WAFF
1316.539405754,word_count-pthr,8647,58,42,FLB
1316.539405754,word_count-pthr,8647,58,42,FLB
1316.539438985,word_count-pthr,8647,42,35,CA
1316.539438985,word_count-pthr,8647,42,35,CA
1316.539446703,word_count-pthr,8612,58,43,WAFF
1316.539446703,word_count-pthr,8612,58,43,WAFF
1316.539636434,word_count-pthr,8648,43,60,FLB
1316.539636434,word_count-pthr,8648,43,60,FLB
1316.539673891,word_count-pthr,8648,60,36,CA
1316.539673891,word_count-pthr,8648,60,36,CA
1316.539688547,word_count-pthr,8612,43,61,WAFF
1316.539688547,word_count-pthr,8612,43,61,WAFF
1316.539963653,word_count-pthr,8649,61,44,FLB
1316.539963653,word_count-pthr,8649,61,44,FLB
1316.539988358,word_count-pthr,8649,44,37,CA
1316.539988358,word_count-pthr,8649,44,37,CA
1316.539994561,word_count-pthr,8612,61,45,WAFF
1316.539994561,word_count-pthr,8612,61,45,WAFF
1316.540198759,word_count-pthr,8650,45,62,FLB
1316.540198759,word_count-pthr,8650,45,62,FLB
1316.540235423,word_count-pthr,8650,62,38,CA
1316.540235423,word_count-pthr,8650,62,38,CA
1316.540247323,word_count-pthr,8612,45,62,WAFF
1316.540247323,word_count-pthr,8612,45,62,WAFF
1316.540521934,word_count-pthr,8651,62,46,FLB
1316.540521934,word_count-pthr,8651,62,46,FLB
1316.540555424,word_count-pthr,8651,46,39,CA
1316.540555424,word_count-pthr,8651,46,39,CA
1316.540562648,word_count-pthr,8612,62,47,WAFF
1316.540562648,word_count-pthr,8612,62,47,WAFF
1316.540673107,word_count-pthr,8652,47,63,FLB
1316.540673107,word_count-pthr,8652,47,63,FLB
1316.540697040,word_count-pthr,8652,63,40,CA
1316.540697040,word_count-pthr,8652,63,40,CA
1316.540708084,word_count-pthr,8612,47,56,WAFF
1316.540708084,word_count-pthr,8612,47,56,WAFF
1316.540913830,word_count-pthr,8653,56,48,FLB
1316.540913830,word_count-pthr,8653,56,48,FLB
1316.540946000,word_count-pthr,8653,48,41,CA
1316.540946000,word_count-pthr,8653,48,41,CA
1316.540952072,word_count-pthr,8612,56,48,WAFF
1316.540952072,word_count-pthr,8612,56,48,WAFF
1316.541193258,word_count-pthr,8654,48,57,FLB
1316.541193258,word_count-pthr,8654,48,57,FLB
1316.541214097,word_count-pthr,8654,57,42,CA
1316.541214097,word_count-pthr,8654,57,42,CA
1316.541224004,word_count-pthr,8612,48,58,WAFF
1316.541224004,word_count-pthr,8612,48,58,WAFF
1316.541424221,word_count-pthr,8655,58,50,FLB
1316.541424221,word_count-pthr,8655,58,50,FLB
1316.541461249,word_count-pthr,8655,50,43,CA
1316.541461249,word_count-pthr,8655,50,43,CA
1316.541469087,word_count-pthr,8612,58,50,WAFF
1316.541469087,word_count-pthr,8612,58,50,WAFF
1316.541761770,word_count-pthr,8656,50,60,FLB
1316.541761770,word_count-pthr,8656,50,60,FLB
1316.541798828,word_count-pthr,8656,60,44,CA
1316.541798828,word_count-pthr,8656,60,44,CA
1316.541810328,word_count-pthr,8612,50,61,WAFF
1316.541810328,word_count-pthr,8612,50,61,WAFF
1316.541942816,word_count-pthr,8657,61,51,FLB
1316.541942816,word_count-pthr,8657,61,51,FLB
1316.541968557,word_count-pthr,8657,51,45,CA
1316.541968557,word_count-pthr,8657,51,45,CA
1316.541974781,word_count-pthr,8612,61,52,WAFF
1316.541974781,word_count-pthr,8612,61,52,WAFF
1316.542183415,word_count-pthr,8658,52,62,FLB
1316.542183415,word_count-pthr,8658,52,62,FLB
1316.542216878,word_count-pthr,8658,62,46,CA
1316.542216878,word_count-pthr,8658,62,46,CA
1316.542228096,word_count-pthr,8612,52,62,WAFF
1316.542228096,word_count-pthr,8612,52,62,WAFF
1316.542379517,word_count-pthr,8659,62,53,FLB
1316.542379517,word_count-pthr,8659,62,53,FLB
1316.542404529,word_count-pthr,8659,53,47,CA
1316.542404529,word_count-pthr,8659,53,47,CA
1316.542410612,word_count-pthr,8612,62,54,WAFF
1316.542410612,word_count-pthr,8612,62,54,WAFF
1316.542616213,word_count-pthr,8660,54,63,FLB
1316.542616213,word_count-pthr,8660,54,63,FLB
1316.542638827,word_count-pthr,8660,63,48,CA
1316.542638827,word_count-pthr,8660,63,48,CA
1316.542649084,word_count-pthr,8612,54,56,WAFF
1316.542649084,word_count-pthr,8612,54,56,WAFF
1316.542872568,word_count-pthr,8661,56,57,FLB
1316.542872568,word_count-pthr,8661,56,57,FLB
1316.542895476,word_count-pthr,8661,57,49,CA
1316.542895476,word_count-pthr,8661,57,49,CA
1316.543163534,word_count-pthr,8662,56,57,FLB
1316.543163534,word_count-pthr,8662,56,57,FLB
1316.543228659,word_count-pthr,8662,57,50,CA
1316.543228659,word_count-pthr,8662,57,50,CA
1316.543443120,word_count-pthr,8663,56,57,FLB
1316.543443120,word_count-pthr,8663,56,57,FLB
1316.543501927,word_count-pthr,8663,57,51,CA
1316.543501927,word_count-pthr,8663,57,51,CA
1316.543762035,word_count-pthr,8664,56,57,FLB
1316.543762035,word_count-pthr,8664,56,57,FLB
1316.543782984,word_count-pthr,8664,57,52,CA
1316.543782984,word_count-pthr,8664,57,52,CA
1316.543982077,word_count-pthr,8665,56,57,FLB
1316.543982077,word_count-pthr,8665,56,57,FLB
1316.544045064,word_count-pthr,8665,57,53,CA
1316.544045064,word_count-pthr,8665,57,53,CA
1316.544369199,word_count-pthr,8666,56,57,FLB
1316.544369199,word_count-pthr,8666,56,57,FLB
1316.544388428,word_count-pthr,8666,57,54,CA
1316.544388428,word_count-pthr,8666,57,54,CA
1316.544613226,word_count-pthr,8667,56,57,FLB
1316.544613226,word_count-pthr,8667,56,57,FLB
1316.544679609,word_count-pthr,8667,57,55,CA
1316.544679609,word_count-pthr,8667,57,55,CA
1316.544900840,word_count-pthr,8668,56,57,FLB
1316.544900840,word_count-pthr,8668,56,57,FLB
1316.544964587,word_count-pthr,8668,57,56,CA
1316.544964587,word_count-pthr,8668,57,56,CA
1316.544969317,word_count-pthr,8612,56,58,WAFF
1316.544969317,word_count-pthr,8612,56,58,WAFF
1316.545302874,word_count-pthr,8669,58,60,FLB
1316.545302874,word_count-pthr,8669,58,60,FLB
1316.545320111,word_count-pthr,8669,60,57,CA
1316.545320111,word_count-pthr,8669,60,57,CA
1316.545565032,word_count-pthr,8670,58,60,FLB
1316.545565032,word_count-pthr,8670,58,60,FLB
1316.545573160,word_count-pthr,8670,60,58,CA
1316.545573160,word_count-pthr,8670,60,58,CA
1316.545794805,word_count-pthr,8612,58,59,WAFF
1316.545794805,word_count-pthr,8612,58,59,WAFF
1316.545863497,word_count-pthr,8671,59,60,FLB
1316.545863497,word_count-pthr,8671,59,60,FLB
1316.545944375,word_count-pthr,8671,60,59,CA
1316.545944375,word_count-pthr,8671,60,59,CA
1316.545949448,word_count-pthr,8612,59,61,WAFF
1316.545949448,word_count-pthr,8612,59,61,WAFF
1316.546206897,word_count-pthr,8672,61,62,FLB
1316.546206897,word_count-pthr,8672,61,62,FLB
1316.546240042,word_count-pthr,8672,62,60,CA
1316.546240042,word_count-pthr,8672,62,60,CA
1316.546530637,word_count-pthr,8673,61,0,FLB
1316.546530637,word_count-pthr,8673,61,0,FLB
1316.546558511,word_count-pthr,8673,0,61,CA
1316.546558511,word_count-pthr,8673,0,61,CA
1316.546584444,word_count-pthr,8612,61,0,WAFF
1316.546584444,word_count-pthr,8612,61,0,WAFF
1316.546913236,word_count-pthr,8674,0,0,FLB
1316.546913236,word_count-pthr,8674,0,0,FLB
1316.546925157,word_count-pthr,8674,0,62,CA
1316.546925157,word_count-pthr,8674,0,62,CA
1316.547195385,word_count-pthr,8675,0,0,FLB
1316.547195385,word_count-pthr,8675,0,0,FLB
1316.547204201,word_count-pthr,8675,0,63,CA
1316.547204201,word_count-pthr,8675,0,63,CA
1316.547465808,word_count-pthr,8676,0,0,FLB
1316.547465808,word_count-pthr,8676,0,0,FLB
1316.655720587,rcu_sched,8,25,44,WAFF
1316.735728387,rcu_sched,8,44,25,WAFF
1316.791733942,rcu_sched,8,25,49,WAFF
1322.848087760,rcu_sched,8,49,48,WAFF
1323.124108122,rcu_sched,8,48,5,WAFF
1323.240115485,rcu_sched,8,5,14,WAFF
1323.412124092,rcu_sched,8,14,53,WAFF
1323.468130062,rcu_sched,8,53,60,WAFF
1323.512130535,rcu_sched,8,60,31,WAFF
1323.520138743,rcu_sched,8,31,24,NLB
1324.340852915,word_count-pthr,8612,0,14,WAFF
1324.340852915,word_count-pthr,8612,0,14,WAFF
1324.432179927,rcu_sched,8,24,57,WAFF
1324.588035999,word_count-pthr,8677,14,25,FLB
1324.588035999,word_count-pthr,8677,14,25,FLB
1324.588080519,word_count-pthr,8677,25,1,CA
1324.588080519,word_count-pthr,8677,25,1,CA
1324.588094603,word_count-pthr,8612,14,25,WAFF
1324.588094603,word_count-pthr,8612,14,25,WAFF
1324.588195640,word_count-pthr,8678,25,45,FLB
1324.588195640,word_count-pthr,8678,25,45,FLB
1324.588243944,word_count-pthr,8678,45,2,CA
1324.588243944,word_count-pthr,8678,45,2,CA
1324.588257036,word_count-pthr,8612,25,46,WAFF
1324.588257036,word_count-pthr,8612,25,46,WAFF
1324.588399766,word_count-pthr,8679,46,26,FLB
1324.588399766,word_count-pthr,8679,46,26,FLB
1324.588417224,word_count-pthr,8679,26,3,CA
1324.588417224,word_count-pthr,8679,26,3,CA
1324.588466339,word_count-pthr,8680,46,33,FLB
1324.588466339,word_count-pthr,8680,46,33,FLB
1324.588478435,word_count-pthr,8680,33,4,CA
1324.588478435,word_count-pthr,8680,33,4,CA
1324.588558825,word_count-pthr,8681,46,28,FLB
1324.588558825,word_count-pthr,8681,46,28,FLB
1324.588572149,word_count-pthr,8681,28,5,CA
1324.588572149,word_count-pthr,8681,28,5,CA
1324.588633732,word_count-pthr,8682,46,34,FLB
1324.588633732,word_count-pthr,8682,46,34,FLB
1324.588645926,word_count-pthr,8682,34,6,CA
1324.588645926,word_count-pthr,8682,34,6,CA
1324.588709910,word_count-pthr,8683,46,29,FLB
1324.588709910,word_count-pthr,8683,46,29,FLB
1324.588717965,word_count-pthr,8683,29,7,CA
1324.588717965,word_count-pthr,8683,29,7,CA
1324.588777264,word_count-pthr,8684,46,35,FLB
1324.588777264,word_count-pthr,8684,46,35,FLB
1324.588783778,word_count-pthr,8684,35,8,CA
1324.588783778,word_count-pthr,8684,35,8,CA
1324.588852047,word_count-pthr,8685,46,30,FLB
1324.588852047,word_count-pthr,8685,46,30,FLB
1324.588864371,word_count-pthr,8685,30,9,CA
1324.588864371,word_count-pthr,8685,30,9,CA
1324.588952262,word_count-pthr,8686,46,36,FLB
1324.588952262,word_count-pthr,8686,46,36,FLB
1324.588964913,word_count-pthr,8686,36,10,CA
1324.588964913,word_count-pthr,8686,36,10,CA
1324.589023826,word_count-pthr,8687,46,58,FLB
1324.589023826,word_count-pthr,8687,46,58,FLB
1324.589036967,word_count-pthr,8687,58,11,CA
1324.589036967,word_count-pthr,8687,58,11,CA
1324.589089992,word_count-pthr,8688,46,31,FLB
1324.589089992,word_count-pthr,8688,46,31,FLB
1324.589098268,word_count-pthr,8688,31,12,CA
1324.589098268,word_count-pthr,8688,31,12,CA
1324.589158650,word_count-pthr,8689,46,37,FLB
1324.589158650,word_count-pthr,8689,46,37,FLB
1324.589165869,word_count-pthr,8689,37,13,CA
1324.589165869,word_count-pthr,8689,37,13,CA
1324.589278500,word_count-pthr,8690,46,24,FLB
1324.589278500,word_count-pthr,8690,46,24,FLB
1324.589292280,word_count-pthr,8690,24,14,CA
1324.589292280,word_count-pthr,8690,24,14,CA
1324.589408324,word_count-pthr,8691,46,38,FLB
1324.589408324,word_count-pthr,8691,46,38,FLB
1324.589420646,word_count-pthr,8691,38,15,CA
1324.589420646,word_count-pthr,8691,38,15,CA
1324.589477131,word_count-pthr,8692,46,25,FLB
1324.589477131,word_count-pthr,8692,46,25,FLB
1324.589484704,word_count-pthr,8692,25,16,CA
1324.589484704,word_count-pthr,8692,25,16,CA
1324.589620413,word_count-pthr,8693,46,59,FLB
1324.589620413,word_count-pthr,8693,46,59,FLB
1324.589634535,word_count-pthr,8693,59,17,CA
1324.589634535,word_count-pthr,8693,59,17,CA
1324.589723987,word_count-pthr,8694,46,60,FLB
1324.589723987,word_count-pthr,8694,46,60,FLB
1324.589736062,word_count-pthr,8694,60,18,CA
1324.589736062,word_count-pthr,8694,60,18,CA
1324.589848028,word_count-pthr,8695,46,62,FLB
1324.589848028,word_count-pthr,8695,46,62,FLB
1324.589860715,word_count-pthr,8695,62,19,CA
1324.589860715,word_count-pthr,8695,62,19,CA
1324.589986666,word_count-pthr,8696,46,63,FLB
1324.589986666,word_count-pthr,8696,46,63,FLB
1324.589994574,word_count-pthr,8696,63,20,CA
1324.589994574,word_count-pthr,8696,63,20,CA
1324.590093009,word_count-pthr,8697,46,56,FLB
1324.590093009,word_count-pthr,8697,46,56,FLB
1324.590103302,word_count-pthr,8697,56,21,CA
1324.590103302,word_count-pthr,8697,56,21,CA
1324.590215128,word_count-pthr,8698,46,57,FLB
1324.590215128,word_count-pthr,8698,46,57,FLB
1324.590221992,word_count-pthr,8698,57,22,CA
1324.590221992,word_count-pthr,8698,57,22,CA
1324.590362245,word_count-pthr,8699,46,58,FLB
1324.590362245,word_count-pthr,8699,46,58,FLB
1324.590367852,word_count-pthr,8699,58,23,CA
1324.590367852,word_count-pthr,8699,58,23,CA
1324.590511469,word_count-pthr,8700,46,59,FLB
1324.590511469,word_count-pthr,8700,46,59,FLB
1324.590519038,word_count-pthr,8700,59,24,CA
1324.590519038,word_count-pthr,8700,59,24,CA
1324.590643764,word_count-pthr,8701,46,60,FLB
1324.590643764,word_count-pthr,8701,46,60,FLB
1324.590649640,word_count-pthr,8701,60,25,CA
1324.590649640,word_count-pthr,8701,60,25,CA
1324.590788867,word_count-pthr,8702,46,62,FLB
1324.590788867,word_count-pthr,8702,46,62,FLB
1324.590796738,word_count-pthr,8702,62,26,CA
1324.590796738,word_count-pthr,8702,62,26,CA
1324.590924731,word_count-pthr,8703,46,63,FLB
1324.590924731,word_count-pthr,8703,46,63,FLB
1324.590931789,word_count-pthr,8703,63,27,CA
1324.590931789,word_count-pthr,8703,63,27,CA
1324.591110829,word_count-pthr,8704,46,56,FLB
1324.591110829,word_count-pthr,8704,46,56,FLB
1324.591118769,word_count-pthr,8704,56,28,CA
1324.591118769,word_count-pthr,8704,56,28,CA
1324.591310872,word_count-pthr,8705,46,57,FLB
1324.591310872,word_count-pthr,8705,46,57,FLB
1324.591318251,word_count-pthr,8705,57,29,CA
1324.591318251,word_count-pthr,8705,57,29,CA
1324.591491813,word_count-pthr,8706,46,58,FLB
1324.591491813,word_count-pthr,8706,46,58,FLB
1324.591497712,word_count-pthr,8706,58,30,CA
1324.591497712,word_count-pthr,8706,58,30,CA
1324.591688958,word_count-pthr,8707,46,59,FLB
1324.591688958,word_count-pthr,8707,46,59,FLB
1324.591695720,word_count-pthr,8707,59,31,CA
1324.591695720,word_count-pthr,8707,59,31,CA
1324.591823502,word_count-pthr,8708,46,60,FLB
1324.591823502,word_count-pthr,8708,46,60,FLB
1324.591831476,word_count-pthr,8708,60,32,CA
1324.591831476,word_count-pthr,8708,60,32,CA
1324.623880696,word_count-pthr,8709,46,51,FLB
1324.623880696,word_count-pthr,8709,46,51,FLB
1324.623896089,word_count-pthr,8709,51,33,CA
1324.623896089,word_count-pthr,8709,51,33,CA
1324.623942751,word_count-pthr,8710,46,52,FLB
1324.623942751,word_count-pthr,8710,46,52,FLB
1324.623955451,word_count-pthr,8710,52,34,CA
1324.623955451,word_count-pthr,8710,52,34,CA
1324.623998458,word_count-pthr,8711,46,53,FLB
1324.623998458,word_count-pthr,8711,46,53,FLB
1324.624006001,word_count-pthr,8711,53,35,CA
1324.624006001,word_count-pthr,8711,53,35,CA
1324.624060631,word_count-pthr,8712,46,54,FLB
1324.624060631,word_count-pthr,8712,46,54,FLB
1324.624073529,word_count-pthr,8712,54,36,CA
1324.624073529,word_count-pthr,8712,54,36,CA
1324.624165584,word_count-pthr,8713,46,55,FLB
1324.624165584,word_count-pthr,8713,46,55,FLB
1324.624224832,word_count-pthr,8713,55,37,CA
1324.624224832,word_count-pthr,8713,55,37,CA
1324.624233179,word_count-pthr,8612,46,48,WAFF
1324.624233179,word_count-pthr,8612,46,48,WAFF
1324.624387174,word_count-pthr,8714,48,47,FLB
1324.624387174,word_count-pthr,8714,48,47,FLB
1324.624399012,word_count-pthr,8714,47,38,CA
1324.624399012,word_count-pthr,8714,47,38,CA
1324.624491549,word_count-pthr,8715,48,40,FLB
1324.624491549,word_count-pthr,8715,48,40,FLB
1324.624504262,word_count-pthr,8715,40,39,CA
1324.624504262,word_count-pthr,8715,40,39,CA
1324.624583380,word_count-pthr,8716,48,41,FLB
1324.624583380,word_count-pthr,8716,48,41,FLB
1324.624591180,word_count-pthr,8716,41,40,CA
1324.624591180,word_count-pthr,8716,41,40,CA
1324.624677705,word_count-pthr,8717,48,58,FLB
1324.624677705,word_count-pthr,8717,48,58,FLB
1324.624686039,word_count-pthr,8717,58,41,CA
1324.624686039,word_count-pthr,8717,58,41,CA
1324.624799790,word_count-pthr,8718,48,59,FLB
1324.624799790,word_count-pthr,8718,48,59,FLB
1324.624806997,word_count-pthr,8718,59,42,CA
1324.624806997,word_count-pthr,8718,59,42,CA
1324.624868268,word_count-pthr,8719,48,60,FLB
1324.624868268,word_count-pthr,8719,48,60,FLB
1324.624876369,word_count-pthr,8719,60,43,CA
1324.624876369,word_count-pthr,8719,60,43,CA
1324.624946326,word_count-pthr,8720,48,61,FLB
1324.624946326,word_count-pthr,8720,48,61,FLB
1324.624953355,word_count-pthr,8720,61,44,CA
1324.624953355,word_count-pthr,8720,61,44,CA
1324.625058012,word_count-pthr,8721,48,62,FLB
1324.625058012,word_count-pthr,8721,48,62,FLB
1324.625065836,word_count-pthr,8721,62,45,CA
1324.625065836,word_count-pthr,8721,62,45,CA
1324.625124552,word_count-pthr,8722,48,63,FLB
1324.625124552,word_count-pthr,8722,48,63,FLB
1324.625131713,word_count-pthr,8722,63,46,CA
1324.625131713,word_count-pthr,8722,63,46,CA
1324.625219143,word_count-pthr,8723,48,56,FLB
1324.625219143,word_count-pthr,8723,48,56,FLB
1324.625227266,word_count-pthr,8723,56,47,CA
1324.625227266,word_count-pthr,8723,56,47,CA
1324.625285242,word_count-pthr,8724,48,57,FLB
1324.625285242,word_count-pthr,8724,48,57,FLB
1324.625292307,word_count-pthr,8724,57,48,CA
1324.625292307,word_count-pthr,8724,57,48,CA
1324.662131875,word_count-pthr,8725,48,58,FLB
1324.662131875,word_count-pthr,8725,48,58,FLB
1324.662144373,word_count-pthr,8725,58,49,CA
1324.662144373,word_count-pthr,8725,58,49,CA
1324.662203496,word_count-pthr,8726,48,59,FLB
1324.662203496,word_count-pthr,8726,48,59,FLB
1324.662212803,word_count-pthr,8726,59,50,CA
1324.662212803,word_count-pthr,8726,59,50,CA
1324.662266080,word_count-pthr,8727,48,60,FLB
1324.662266080,word_count-pthr,8727,48,60,FLB
1324.662274763,word_count-pthr,8727,60,51,CA
1324.662274763,word_count-pthr,8727,60,51,CA
1324.662323523,word_count-pthr,8728,48,61,FLB
1324.662323523,word_count-pthr,8728,48,61,FLB
1324.662332502,word_count-pthr,8728,61,52,CA
1324.662332502,word_count-pthr,8728,61,52,CA
1324.662397809,word_count-pthr,8729,48,62,FLB
1324.662397809,word_count-pthr,8729,48,62,FLB
1324.662404908,word_count-pthr,8729,62,53,CA
1324.662404908,word_count-pthr,8729,62,53,CA
1324.662501898,word_count-pthr,8730,48,63,FLB
1324.662501898,word_count-pthr,8730,48,63,FLB
1324.662531734,word_count-pthr,8730,63,54,CA
1324.662531734,word_count-pthr,8730,63,54,CA
1324.662544973,word_count-pthr,8612,48,56,WAFF
1324.662544973,word_count-pthr,8612,48,56,WAFF
1324.662680016,word_count-pthr,8731,56,39,FLB
1324.662680016,word_count-pthr,8731,56,39,FLB
1324.662690888,word_count-pthr,8731,39,55,CA
1324.662690888,word_count-pthr,8731,39,55,CA
1324.662755652,word_count-pthr,8732,56,33,FLB
1324.662755652,word_count-pthr,8732,56,33,FLB
1324.662768890,word_count-pthr,8732,33,56,CA
1324.662768890,word_count-pthr,8732,33,56,CA
1324.708466022,word_count-pthr,8733,56,0,FLB
1324.708466022,word_count-pthr,8733,56,0,FLB
1324.708508650,word_count-pthr,8733,0,57,CA
1324.708508650,word_count-pthr,8733,0,57,CA
1324.708591448,word_count-pthr,8734,56,14,FLB
1324.708591448,word_count-pthr,8734,56,14,FLB
1324.708601121,word_count-pthr,8734,14,58,CA
1324.708601121,word_count-pthr,8734,14,58,CA
1324.708657063,word_count-pthr,8735,56,15,FLB
1324.708657063,word_count-pthr,8735,56,15,FLB
1324.708675344,word_count-pthr,8735,15,59,CA
1324.708675344,word_count-pthr,8735,15,59,CA
1324.708733961,word_count-pthr,8736,56,14,FLB
1324.708733961,word_count-pthr,8736,56,14,FLB
1324.708744390,word_count-pthr,8736,14,60,CA
1324.708744390,word_count-pthr,8736,14,60,CA
1324.712216057,rcu_sched,8,57,61,WAFF
1324.720246647,rcu_sched,8,61,46,ILB
1324.753856062,word_count-pthr,8737,56,34,FLB
1324.753856062,word_count-pthr,8737,56,34,FLB
1324.753898055,word_count-pthr,8737,34,61,CA
1324.753898055,word_count-pthr,8737,34,61,CA
1324.753976502,word_count-pthr,8738,56,21,FLB
1324.753976502,word_count-pthr,8738,56,21,FLB
1324.753985728,word_count-pthr,8738,21,62,CA
1324.753985728,word_count-pthr,8738,21,62,CA
1324.756209653,rcu_sched,8,46,58,WAFF
1324.791492666,word_count-pthr,8739,56,15,FLB
1324.791492666,word_count-pthr,8739,56,15,FLB
1324.791535382,word_count-pthr,8739,15,63,CA
1324.791535382,word_count-pthr,8739,15,63,CA
1324.791544748,word_count-pthr,8612,56,8,WAFF
1324.791544748,word_count-pthr,8612,56,8,WAFF
1324.826083895,word_count-pthr,8740,8,31,FLB
1324.826083895,word_count-pthr,8740,8,31,FLB
1324.826100971,word_count-pthr,8740,31,0,CA
1324.826100971,word_count-pthr,8740,31,0,CA
1324.826136713,word_count-pthr,8741,8,24,FLB
1324.826136713,word_count-pthr,8741,8,24,FLB
1324.826149357,word_count-pthr,8741,24,1,CA
1324.826149357,word_count-pthr,8741,24,1,CA
1324.826193272,word_count-pthr,8742,8,9,FLB
1324.826193272,word_count-pthr,8742,8,9,FLB
1324.826201365,word_count-pthr,8742,9,2,CA
1324.826201365,word_count-pthr,8742,9,2,CA
1324.826237321,word_count-pthr,8743,8,9,FLB
1324.826237321,word_count-pthr,8743,8,9,FLB
1324.826255893,word_count-pthr,8743,9,3,CA
1324.826255893,word_count-pthr,8743,9,3,CA
1324.826365381,word_count-pthr,8744,8,9,FLB
1324.826365381,word_count-pthr,8744,8,9,FLB
1324.826373478,word_count-pthr,8744,9,4,CA
1324.826373478,word_count-pthr,8744,9,4,CA
1324.826466179,word_count-pthr,8745,8,9,FLB
1324.826466179,word_count-pthr,8745,8,9,FLB
1324.826483830,word_count-pthr,8745,9,5,CA
1324.826483830,word_count-pthr,8745,9,5,CA
1324.826642219,word_count-pthr,8746,8,9,FLB
1324.826642219,word_count-pthr,8746,8,9,FLB
1324.826650750,word_count-pthr,8746,9,6,CA
1324.826650750,word_count-pthr,8746,9,6,CA
1324.826701345,word_count-pthr,8747,8,9,FLB
1324.826701345,word_count-pthr,8747,8,9,FLB
1324.826718364,word_count-pthr,8747,9,7,CA
1324.826718364,word_count-pthr,8747,9,7,CA
1324.826835322,word_count-pthr,8748,8,9,FLB
1324.826835322,word_count-pthr,8748,8,9,FLB
1324.826843879,word_count-pthr,8748,9,8,CA
1324.826843879,word_count-pthr,8748,9,8,CA
1324.826874404,word_count-pthr,8612,8,2,WAFF
1324.826874404,word_count-pthr,8612,8,2,WAFF
1324.826950827,word_count-pthr,8749,2,26,FLB
1324.826950827,word_count-pthr,8749,2,26,FLB
1324.826989966,word_count-pthr,8749,26,9,CA
1324.826989966,word_count-pthr,8749,26,9,CA
1324.826998436,word_count-pthr,8612,2,27,WAFF
1324.826998436,word_count-pthr,8612,2,27,WAFF
1324.827132683,word_count-pthr,8750,27,56,FLB
1324.827132683,word_count-pthr,8750,27,56,FLB
1324.827150690,word_count-pthr,8750,56,10,CA
1324.827150690,word_count-pthr,8750,56,10,CA
1324.827204099,word_count-pthr,8751,27,57,FLB
1324.827204099,word_count-pthr,8751,27,57,FLB
1324.827212300,word_count-pthr,8751,57,11,CA
1324.827212300,word_count-pthr,8751,57,11,CA
1324.827266082,word_count-pthr,8752,27,58,FLB
1324.827266082,word_count-pthr,8752,27,58,FLB
1324.827278320,word_count-pthr,8752,58,12,CA
1324.827278320,word_count-pthr,8752,58,12,CA
1324.827326433,word_count-pthr,8753,27,59,FLB
1324.827326433,word_count-pthr,8753,27,59,FLB
1324.827334051,word_count-pthr,8753,59,13,CA
1324.827334051,word_count-pthr,8753,59,13,CA
1324.827835572,word_count-pthr,8754,27,60,FLB
1324.827835572,word_count-pthr,8754,27,60,FLB
1324.827850568,word_count-pthr,8754,60,14,CA
1324.827850568,word_count-pthr,8754,60,14,CA
1324.827908139,word_count-pthr,8755,27,22,FLB
1324.827908139,word_count-pthr,8755,27,22,FLB
1324.827921339,word_count-pthr,8755,22,15,CA
1324.827921339,word_count-pthr,8755,22,15,CA
1324.827966292,word_count-pthr,8756,27,23,FLB
1324.827966292,word_count-pthr,8756,27,23,FLB
1324.827973047,word_count-pthr,8756,23,16,CA
1324.827973047,word_count-pthr,8756,23,16,CA
1324.828036215,word_count-pthr,8757,27,36,FLB
1324.828036215,word_count-pthr,8757,27,36,FLB
1324.828048578,word_count-pthr,8757,36,17,CA
1324.828048578,word_count-pthr,8757,36,17,CA
1324.828095731,word_count-pthr,8758,27,39,FLB
1324.828095731,word_count-pthr,8758,27,39,FLB
1324.828108203,word_count-pthr,8758,39,18,CA
1324.828108203,word_count-pthr,8758,39,18,CA
1324.828163504,word_count-pthr,8759,27,32,FLB
1324.828163504,word_count-pthr,8759,27,32,FLB
1324.828175521,word_count-pthr,8759,32,19,CA
1324.828175521,word_count-pthr,8759,32,19,CA
1324.828221097,rcu_sched,8,58,2,WAFF
1324.828271041,word_count-pthr,8760,27,33,FLB
1324.828271041,word_count-pthr,8760,27,33,FLB
1324.828279206,word_count-pthr,8760,33,20,CA
1324.828279206,word_count-pthr,8760,33,20,CA
1324.828773162,word_count-pthr,8761,27,41,FLB
1324.828773162,word_count-pthr,8761,27,41,FLB
1324.828782610,word_count-pthr,8761,41,21,CA
1324.828782610,word_count-pthr,8761,41,21,CA
1324.828841671,word_count-pthr,8762,27,48,FLB
1324.828841671,word_count-pthr,8762,27,48,FLB
1324.828850494,word_count-pthr,8762,48,22,CA
1324.828850494,word_count-pthr,8762,48,22,CA
1324.828908797,word_count-pthr,8763,27,35,FLB
1324.828908797,word_count-pthr,8763,27,35,FLB
1324.828918539,word_count-pthr,8763,35,23,CA
1324.828918539,word_count-pthr,8763,35,23,CA
1324.828972438,word_count-pthr,8764,27,50,FLB
1324.828972438,word_count-pthr,8764,27,50,FLB
1324.828981180,word_count-pthr,8764,50,24,CA
1324.828981180,word_count-pthr,8764,50,24,CA
1324.829031015,word_count-pthr,8765,27,36,FLB
1324.829031015,word_count-pthr,8765,27,36,FLB
1324.829038818,word_count-pthr,8765,36,25,CA
1324.829038818,word_count-pthr,8765,36,25,CA
1324.829092238,word_count-pthr,8766,27,51,FLB
1324.829092238,word_count-pthr,8766,27,51,FLB
1324.829100058,word_count-pthr,8766,51,26,CA
1324.829100058,word_count-pthr,8766,51,26,CA
1324.829155202,word_count-pthr,8767,27,37,FLB
1324.829155202,word_count-pthr,8767,27,37,FLB
1324.829163134,word_count-pthr,8767,37,27,CA
1324.829163134,word_count-pthr,8767,37,27,CA
1324.829191237,word_count-pthr,8767,27,37,ILB
1324.829191237,word_count-pthr,8767,27,37,ILB
1324.829223195,word_count-pthr,8768,27,53,FLB
1324.829223195,word_count-pthr,8768,27,53,FLB
1324.829236940,word_count-pthr,8768,53,28,CA
1324.829236940,word_count-pthr,8768,53,28,CA
1324.829445771,word_count-pthr,8769,27,54,FLB
1324.829445771,word_count-pthr,8769,27,54,FLB
1324.829454957,word_count-pthr,8769,54,29,CA
1324.829454957,word_count-pthr,8769,54,29,CA
1324.829512543,word_count-pthr,8770,27,48,FLB
1324.829512543,word_count-pthr,8770,27,48,FLB
1324.829521492,word_count-pthr,8770,48,30,CA
1324.829521492,word_count-pthr,8770,48,30,CA
1324.829594533,word_count-pthr,8771,27,50,FLB
1324.829594533,word_count-pthr,8771,27,50,FLB
1324.829607750,word_count-pthr,8771,50,31,CA
1324.829607750,word_count-pthr,8771,50,31,CA
1324.829672822,word_count-pthr,8772,27,51,FLB
1324.829672822,word_count-pthr,8772,27,51,FLB
1324.829680372,word_count-pthr,8772,51,32,CA
1324.829680372,word_count-pthr,8772,51,32,CA
1324.829742211,word_count-pthr,8773,27,53,FLB
1324.829742211,word_count-pthr,8773,27,53,FLB
1324.829748398,word_count-pthr,8773,53,33,CA
1324.829748398,word_count-pthr,8773,53,33,CA
1324.829803166,word_count-pthr,8774,27,54,FLB
1324.829803166,word_count-pthr,8774,27,54,FLB
1324.829811537,word_count-pthr,8774,54,34,CA
1324.829811537,word_count-pthr,8774,54,34,CA
1324.829864933,word_count-pthr,8775,27,48,FLB
1324.829864933,word_count-pthr,8775,27,48,FLB
1324.829872701,word_count-pthr,8775,48,35,CA
1324.829872701,word_count-pthr,8775,48,35,CA
1324.829924295,word_count-pthr,8776,27,50,FLB
1324.829924295,word_count-pthr,8776,27,50,FLB
1324.829931963,word_count-pthr,8776,50,36,CA
1324.829931963,word_count-pthr,8776,50,36,CA
1324.829991866,word_count-pthr,8777,27,51,FLB
1324.829991866,word_count-pthr,8777,27,51,FLB
1324.829999196,word_count-pthr,8777,51,37,CA
1324.829999196,word_count-pthr,8777,51,37,CA
1324.830071812,word_count-pthr,8778,27,53,FLB
1324.830071812,word_count-pthr,8778,27,53,FLB
1324.830079022,word_count-pthr,8778,53,38,CA
1324.830079022,word_count-pthr,8778,53,38,CA
1324.830131936,word_count-pthr,8779,27,61,FLB
1324.830131936,word_count-pthr,8779,27,61,FLB
1324.830144566,word_count-pthr,8779,61,39,CA
1324.830144566,word_count-pthr,8779,61,39,CA
1324.830187168,word_count-pthr,8780,27,63,FLB
1324.830187168,word_count-pthr,8780,27,63,FLB
1324.830199928,word_count-pthr,8780,63,40,CA
1324.830199928,word_count-pthr,8780,63,40,CA
1324.830252100,word_count-pthr,8781,27,56,FLB
1324.830252100,word_count-pthr,8781,27,56,FLB
1324.830265003,word_count-pthr,8781,56,41,CA
1324.830265003,word_count-pthr,8781,56,41,CA
1324.830315177,word_count-pthr,8782,27,57,FLB
1324.830315177,word_count-pthr,8782,27,57,FLB
1324.830322901,word_count-pthr,8782,57,42,CA
1324.830322901,word_count-pthr,8782,57,42,CA
1324.830374818,word_count-pthr,8783,27,58,FLB
1324.830374818,word_count-pthr,8783,27,58,FLB
1324.830387192,word_count-pthr,8783,58,43,CA
1324.830387192,word_count-pthr,8783,58,43,CA
1324.830436633,word_count-pthr,8784,27,59,FLB
1324.830436633,word_count-pthr,8784,27,59,FLB
1324.830444023,word_count-pthr,8784,59,44,CA
1324.830444023,word_count-pthr,8784,59,44,CA
1324.830493837,word_count-pthr,8785,27,61,FLB
1324.830493837,word_count-pthr,8785,27,61,FLB
1324.830501523,word_count-pthr,8785,61,45,CA
1324.830501523,word_count-pthr,8785,61,45,CA
1324.830556048,word_count-pthr,8786,27,63,FLB
1324.830556048,word_count-pthr,8786,27,63,FLB
1324.830562749,word_count-pthr,8786,63,46,CA
1324.830562749,word_count-pthr,8786,63,46,CA
1324.830642882,word_count-pthr,8787,27,54,FLB
1324.830642882,word_count-pthr,8787,27,54,FLB
1324.830648930,word_count-pthr,8787,54,47,CA
1324.830648930,word_count-pthr,8787,54,47,CA
1324.830707046,word_count-pthr,8788,27,48,FLB
1324.830707046,word_count-pthr,8788,27,48,FLB
1324.830759161,word_count-pthr,8789,27,56,FLB
1324.830759161,word_count-pthr,8789,27,56,FLB
1324.830765670,word_count-pthr,8789,56,49,CA
1324.830765670,word_count-pthr,8789,56,49,CA
1324.830815169,word_count-pthr,8790,27,57,FLB
1324.830815169,word_count-pthr,8790,27,57,FLB
1324.830821853,word_count-pthr,8790,57,50,CA
1324.830821853,word_count-pthr,8790,57,50,CA
1324.830889223,word_count-pthr,8791,27,58,FLB
1324.830889223,word_count-pthr,8791,27,58,FLB
1324.830895248,word_count-pthr,8791,58,51,CA
1324.830895248,word_count-pthr,8791,58,51,CA
1324.830950058,word_count-pthr,8792,27,59,FLB
1324.830950058,word_count-pthr,8792,27,59,FLB
1324.830958666,word_count-pthr,8792,59,52,CA
1324.830958666,word_count-pthr,8792,59,52,CA
1324.831006902,word_count-pthr,8793,27,61,FLB
1324.831006902,word_count-pthr,8793,27,61,FLB
1324.831012510,word_count-pthr,8793,61,53,CA
1324.831012510,word_count-pthr,8793,61,53,CA
1324.831063505,word_count-pthr,8794,27,63,FLB
1324.831063505,word_count-pthr,8794,27,63,FLB
1324.831071136,word_count-pthr,8794,63,54,CA
1324.831071136,word_count-pthr,8794,63,54,CA
1324.831121127,word_count-pthr,8795,27,56,FLB
1324.831121127,word_count-pthr,8795,27,56,FLB
1324.831127548,word_count-pthr,8795,56,55,CA
1324.831127548,word_count-pthr,8795,56,55,CA
1324.831194435,word_count-pthr,8796,27,57,FLB
1324.831194435,word_count-pthr,8796,27,57,FLB
1324.831201546,word_count-pthr,8796,57,56,CA
1324.831201546,word_count-pthr,8796,57,56,CA
1324.831284261,word_count-pthr,8797,27,15,FLB
1324.831284261,word_count-pthr,8797,27,15,FLB
1324.831298243,word_count-pthr,8797,15,57,CA
1324.831298243,word_count-pthr,8797,15,57,CA
1324.831350991,word_count-pthr,8798,27,8,FLB
1324.831350991,word_count-pthr,8798,27,8,FLB
1324.831364412,word_count-pthr,8798,8,58,CA
1324.831364412,word_count-pthr,8798,8,58,CA
1324.831415355,word_count-pthr,8799,27,9,FLB
1324.831415355,word_count-pthr,8799,27,9,FLB
1324.831423414,word_count-pthr,8799,9,59,CA
1324.831423414,word_count-pthr,8799,9,59,CA
1324.831478068,word_count-pthr,8800,27,10,FLB
1324.831478068,word_count-pthr,8800,27,10,FLB
1324.831491143,word_count-pthr,8800,10,60,CA
1324.831491143,word_count-pthr,8800,10,60,CA
1324.831580155,word_count-pthr,8801,27,3,FLB
1324.831580155,word_count-pthr,8801,27,3,FLB
1324.831594004,word_count-pthr,8801,3,61,CA
1324.831594004,word_count-pthr,8801,3,61,CA
1324.831655670,word_count-pthr,8802,27,4,FLB
1324.831655670,word_count-pthr,8802,27,4,FLB
1324.831670837,word_count-pthr,8802,4,62,CA
1324.831670837,word_count-pthr,8802,4,62,CA
1324.831747855,word_count-pthr,8803,27,5,FLB
1324.831747855,word_count-pthr,8803,27,5,FLB
1324.831758274,word_count-pthr,8803,5,63,CA
1324.831758274,word_count-pthr,8803,5,63,CA
1324.832838425,word_count-pthr,8804,27,16,FLB
1324.832838425,word_count-pthr,8804,27,16,FLB
1324.832844687,word_count-pthr,8804,16,0,CA
1324.832844687,word_count-pthr,8804,16,0,CA
1324.832885711,word_count-pthr,8805,27,49,FLB
1324.832885711,word_count-pthr,8805,27,49,FLB
1324.832897882,word_count-pthr,8805,49,1,CA
1324.832897882,word_count-pthr,8805,49,1,CA
1324.832941252,word_count-pthr,8806,27,17,FLB
1324.832941252,word_count-pthr,8806,27,17,FLB
1324.832949813,word_count-pthr,8806,17,2,CA
1324.832949813,word_count-pthr,8806,17,2,CA
1324.832993727,word_count-pthr,8807,27,18,FLB
1324.832993727,word_count-pthr,8807,27,18,FLB
1324.833005824,word_count-pthr,8807,18,3,CA
1324.833005824,word_count-pthr,8807,18,3,CA
1324.833070331,word_count-pthr,8808,27,20,FLB
1324.833070331,word_count-pthr,8808,27,20,FLB
1324.833082900,word_count-pthr,8808,20,4,CA
1324.833082900,word_count-pthr,8808,20,4,CA
1324.833137236,word_count-pthr,8809,27,21,FLB
1324.833137236,word_count-pthr,8809,27,21,FLB
1324.833144558,word_count-pthr,8809,21,5,CA
1324.833144558,word_count-pthr,8809,21,5,CA
1324.833208820,word_count-pthr,8810,27,22,FLB
1324.833208820,word_count-pthr,8810,27,22,FLB
1324.833220803,word_count-pthr,8810,22,6,CA
1324.833220803,word_count-pthr,8810,22,6,CA
1324.833276871,word_count-pthr,8811,27,23,FLB
1324.833276871,word_count-pthr,8811,27,23,FLB
1324.833283794,word_count-pthr,8811,23,7,CA
1324.833283794,word_count-pthr,8811,23,7,CA
1324.833345884,word_count-pthr,8812,27,16,FLB
1324.833345884,word_count-pthr,8812,27,16,FLB
1324.833352964,word_count-pthr,8812,16,8,CA
1324.833352964,word_count-pthr,8812,16,8,CA
1324.833416422,word_count-pthr,8813,27,17,FLB
1324.833416422,word_count-pthr,8813,27,17,FLB
1324.833422610,word_count-pthr,8813,17,9,CA
1324.833422610,word_count-pthr,8813,17,9,CA
1324.833498516,word_count-pthr,8814,27,18,FLB
1324.833498516,word_count-pthr,8814,27,18,FLB
1324.833503804,word_count-pthr,8814,18,10,CA
1324.833503804,word_count-pthr,8814,18,10,CA
1324.833651891,word_count-pthr,8815,27,20,FLB
1324.833651891,word_count-pthr,8815,27,20,FLB
1324.833657369,word_count-pthr,8815,20,11,CA
1324.833657369,word_count-pthr,8815,20,11,CA
1324.833753729,word_count-pthr,8816,27,21,FLB
1324.833753729,word_count-pthr,8816,27,21,FLB
1324.833760247,word_count-pthr,8816,21,12,CA
1324.833760247,word_count-pthr,8816,21,12,CA
1324.833857873,word_count-pthr,8817,27,22,FLB
1324.833857873,word_count-pthr,8817,27,22,FLB
1324.833863182,word_count-pthr,8817,22,13,CA
1324.833863182,word_count-pthr,8817,22,13,CA
1324.833930922,word_count-pthr,8818,27,23,FLB
1324.833930922,word_count-pthr,8818,27,23,FLB
1324.833937258,word_count-pthr,8818,23,14,CA
1324.833937258,word_count-pthr,8818,23,14,CA
1324.833997385,word_count-pthr,8819,27,16,FLB
1324.833997385,word_count-pthr,8819,27,16,FLB
1324.834002446,word_count-pthr,8819,16,15,CA
1324.834002446,word_count-pthr,8819,16,15,CA
1324.834048117,word_count-pthr,8820,27,17,FLB
1324.834048117,word_count-pthr,8820,27,17,FLB
1324.834054312,word_count-pthr,8820,17,16,CA
1324.834054312,word_count-pthr,8820,17,16,CA
1324.834106319,word_count-pthr,8821,27,50,FLB
1324.834106319,word_count-pthr,8821,27,50,FLB
1324.834119687,word_count-pthr,8821,50,17,CA
1324.834119687,word_count-pthr,8821,50,17,CA
1324.834168375,word_count-pthr,8822,27,51,FLB
1324.834168375,word_count-pthr,8822,27,51,FLB
1324.834176820,word_count-pthr,8822,51,18,CA
1324.834176820,word_count-pthr,8822,51,18,CA
1324.834613958,word_count-pthr,8823,27,53,FLB
1324.834613958,word_count-pthr,8823,27,53,FLB
1324.834629399,word_count-pthr,8823,53,19,CA
1324.834629399,word_count-pthr,8823,53,19,CA
1324.834681590,word_count-pthr,8824,27,54,FLB
1324.834681590,word_count-pthr,8824,27,54,FLB
1324.834694868,word_count-pthr,8824,54,20,CA
1324.834694868,word_count-pthr,8824,54,20,CA
1324.834749508,word_count-pthr,8825,27,48,FLB
1324.834749508,word_count-pthr,8825,27,48,FLB
1324.834760636,word_count-pthr,8825,48,21,CA
1324.834760636,word_count-pthr,8825,48,21,CA
1324.834810186,word_count-pthr,8826,27,49,FLB
1324.834810186,word_count-pthr,8826,27,49,FLB
1324.834817442,word_count-pthr,8826,49,22,CA
1324.834817442,word_count-pthr,8826,49,22,CA
1324.834862795,word_count-pthr,8827,27,50,FLB
1324.834862795,word_count-pthr,8827,27,50,FLB
1324.834868030,word_count-pthr,8827,50,23,CA
1324.834868030,word_count-pthr,8827,50,23,CA
1324.834914159,word_count-pthr,8828,27,51,FLB
1324.834914159,word_count-pthr,8828,27,51,FLB
1324.834921432,word_count-pthr,8828,51,24,CA
1324.834921432,word_count-pthr,8828,51,24,CA
1324.834971313,word_count-pthr,8829,27,53,FLB
1324.834971313,word_count-pthr,8829,27,53,FLB
1324.834978794,word_count-pthr,8829,53,25,CA
1324.834978794,word_count-pthr,8829,53,25,CA
1324.835024482,word_count-pthr,8830,27,54,FLB
1324.835024482,word_count-pthr,8830,27,54,FLB
1324.835031249,word_count-pthr,8830,54,26,CA
1324.835031249,word_count-pthr,8830,54,26,CA
1324.835081821,word_count-pthr,8831,27,48,FLB
1324.835081821,word_count-pthr,8831,27,48,FLB
1324.835090047,word_count-pthr,8831,48,27,CA
1324.835090047,word_count-pthr,8831,48,27,CA
1324.835135414,word_count-pthr,8832,27,49,FLB
1324.835135414,word_count-pthr,8832,27,49,FLB
1324.835142830,word_count-pthr,8832,49,28,CA
1324.835142830,word_count-pthr,8832,49,28,CA
1324.835197875,word_count-pthr,8831,27,49,ILB
1324.835197875,word_count-pthr,8831,27,49,ILB
1324.835200208,word_count-pthr,8833,27,50,FLB
1324.835200208,word_count-pthr,8833,27,50,FLB
1324.835208440,word_count-pthr,8833,50,29,CA
1324.835208440,word_count-pthr,8833,50,29,CA
1324.835441376,word_count-pthr,8834,27,1,FLB
1324.835441376,word_count-pthr,8834,27,1,FLB
1324.835450624,word_count-pthr,8834,1,30,CA
1324.835450624,word_count-pthr,8834,1,30,CA
1324.835531491,word_count-pthr,8835,27,3,FLB
1324.835531491,word_count-pthr,8835,27,3,FLB
1324.835539991,word_count-pthr,8835,3,31,CA
1324.835539991,word_count-pthr,8835,3,31,CA
1324.836349511,word_count-pthr,8836,27,50,FLB
1324.836349511,word_count-pthr,8836,27,50,FLB
1324.836357405,word_count-pthr,8836,50,32,CA
1324.836357405,word_count-pthr,8836,50,32,CA
1324.836391247,word_count-pthr,8837,27,51,FLB
1324.836391247,word_count-pthr,8837,27,51,FLB
1324.836398509,word_count-pthr,8837,51,33,CA
1324.836398509,word_count-pthr,8837,51,33,CA
1324.836431160,word_count-pthr,8838,27,53,FLB
1324.836431160,word_count-pthr,8838,27,53,FLB
1324.836439086,word_count-pthr,8838,53,34,CA
1324.836439086,word_count-pthr,8838,53,34,CA
1324.836471970,word_count-pthr,8839,27,16,FLB
1324.836471970,word_count-pthr,8839,27,16,FLB
1324.836479605,word_count-pthr,8839,16,35,CA
1324.836479605,word_count-pthr,8839,16,35,CA
1324.836524442,word_count-pthr,8840,27,17,FLB
1324.836524442,word_count-pthr,8840,27,17,FLB
1324.836532014,word_count-pthr,8840,17,36,CA
1324.836532014,word_count-pthr,8840,17,36,CA
1324.836582634,word_count-pthr,8841,27,18,FLB
1324.836582634,word_count-pthr,8841,27,18,FLB
1324.836589949,word_count-pthr,8841,18,37,CA
1324.836589949,word_count-pthr,8841,18,37,CA
1324.836644758,word_count-pthr,8842,27,20,FLB
1324.836644758,word_count-pthr,8842,27,20,FLB
1324.836650468,word_count-pthr,8842,20,38,CA
1324.836650468,word_count-pthr,8842,20,38,CA
1324.836693427,word_count-pthr,8843,27,23,FLB
1324.836693427,word_count-pthr,8843,27,23,FLB
1324.836701158,word_count-pthr,8843,23,39,CA
1324.836701158,word_count-pthr,8843,23,39,CA
1324.836763574,word_count-pthr,8844,27,16,FLB
1324.836763574,word_count-pthr,8844,27,16,FLB
1324.836770593,word_count-pthr,8844,16,40,CA
1324.836770593,word_count-pthr,8844,16,40,CA
1324.836817069,word_count-pthr,8845,27,17,FLB
1324.836817069,word_count-pthr,8845,27,17,FLB
1324.836824519,word_count-pthr,8845,17,41,CA
1324.836824519,word_count-pthr,8845,17,41,CA
1324.836880567,word_count-pthr,8846,27,18,FLB
1324.836880567,word_count-pthr,8846,27,18,FLB
1324.836887430,word_count-pthr,8846,18,42,CA
1324.836887430,word_count-pthr,8846,18,42,CA
1324.836937340,word_count-pthr,8847,27,20,FLB
1324.836937340,word_count-pthr,8847,27,20,FLB
1324.836944534,word_count-pthr,8847,20,43,CA
1324.836944534,word_count-pthr,8847,20,43,CA
1324.837014279,word_count-pthr,8848,27,23,FLB
1324.837014279,word_count-pthr,8848,27,23,FLB
1324.837021749,word_count-pthr,8848,23,44,CA
1324.837021749,word_count-pthr,8848,23,44,CA
1324.837067021,word_count-pthr,8849,27,16,FLB
1324.837067021,word_count-pthr,8849,27,16,FLB
1324.837073670,word_count-pthr,8849,16,45,CA
1324.837073670,word_count-pthr,8849,16,45,CA
1324.837168297,word_count-pthr,8850,27,17,FLB
1324.837168297,word_count-pthr,8850,27,17,FLB
1324.837174891,word_count-pthr,8850,17,46,CA
1324.837174891,word_count-pthr,8850,17,46,CA
1324.837249523,word_count-pthr,8851,27,18,FLB
1324.837249523,word_count-pthr,8851,27,18,FLB
1324.837256295,word_count-pthr,8851,18,47,CA
1324.837256295,word_count-pthr,8851,18,47,CA
1324.838840637,word_count-pthr,8852,27,54,FLB
1324.838840637,word_count-pthr,8852,27,54,FLB
1324.838854951,word_count-pthr,8852,54,48,CA
1324.838854951,word_count-pthr,8852,54,48,CA
1324.838888427,word_count-pthr,8853,27,20,FLB
1324.838888427,word_count-pthr,8853,27,20,FLB
1324.838893756,word_count-pthr,8853,20,49,CA
1324.838893756,word_count-pthr,8853,20,49,CA
1324.838922532,word_count-pthr,8854,27,23,FLB
1324.838922532,word_count-pthr,8854,27,23,FLB
1324.838930030,word_count-pthr,8854,23,50,CA
1324.838930030,word_count-pthr,8854,23,50,CA
1324.838962753,word_count-pthr,8855,27,16,FLB
1324.838962753,word_count-pthr,8855,27,16,FLB
1324.838968040,word_count-pthr,8855,16,51,CA
1324.838968040,word_count-pthr,8855,16,51,CA
1324.839024142,word_count-pthr,8856,27,17,FLB
1324.839024142,word_count-pthr,8856,27,17,FLB
1324.839030778,word_count-pthr,8856,17,52,CA
1324.839030778,word_count-pthr,8856,17,52,CA
1324.839080206,word_count-pthr,8857,27,18,FLB
1324.839080206,word_count-pthr,8857,27,18,FLB
1324.839085782,word_count-pthr,8857,18,53,CA
1324.839085782,word_count-pthr,8857,18,53,CA
1324.839142940,word_count-pthr,8858,27,20,FLB
1324.839142940,word_count-pthr,8858,27,20,FLB
1324.839149849,word_count-pthr,8858,20,54,CA
1324.839149849,word_count-pthr,8858,20,54,CA
1324.839210169,word_count-pthr,8859,27,23,FLB
1324.839210169,word_count-pthr,8859,27,23,FLB
1324.839217358,word_count-pthr,8859,23,55,CA
1324.839217358,word_count-pthr,8859,23,55,CA
1324.842835052,word_count-pthr,8860,27,2,FLB
1324.842835052,word_count-pthr,8860,27,2,FLB
1324.842850642,word_count-pthr,8860,2,56,CA
1324.842850642,word_count-pthr,8860,2,56,CA
1324.842890766,word_count-pthr,8861,27,3,FLB
1324.842890766,word_count-pthr,8861,27,3,FLB
1324.842899385,word_count-pthr,8861,3,57,CA
1324.842899385,word_count-pthr,8861,3,57,CA
1324.842931870,word_count-pthr,8862,27,6,FLB
1324.842931870,word_count-pthr,8862,27,6,FLB
1324.842945350,word_count-pthr,8862,6,58,CA
1324.842945350,word_count-pthr,8862,6,58,CA
1324.842980050,word_count-pthr,8863,27,7,FLB
1324.842980050,word_count-pthr,8863,27,7,FLB
1324.842988758,word_count-pthr,8863,7,59,CA
1324.842988758,word_count-pthr,8863,7,59,CA
1324.849975398,word_count-pthr,8864,27,3,FLB
1324.849975398,word_count-pthr,8864,27,3,FLB
1324.849983331,word_count-pthr,8864,3,60,CA
1324.849983331,word_count-pthr,8864,3,60,CA
1324.850023021,word_count-pthr,8865,27,6,FLB
1324.850023021,word_count-pthr,8865,27,6,FLB
1324.850036906,word_count-pthr,8865,6,61,CA
1324.850036906,word_count-pthr,8865,6,61,CA
1324.862609097,word_count-pthr,8866,27,32,FLB
1324.862609097,word_count-pthr,8866,27,32,FLB
1324.862617176,word_count-pthr,8866,32,62,CA
1324.862617176,word_count-pthr,8866,32,62,CA
1325.8218992,rcu_sched,8,2,3,WAFF
1325.145154815,perf,8610,49,58,WAFF
